{
"document" : {
"data" : {
"NAME" : "FE_MIDDLEWARE_INTERFACE_TABLE",
"COMMENT" : "No comment.",
"AUTHOR" : "admin",
"CREATION_TIME" : 1563812819,
"COL_TYPES" : {
"INTERFACE_ID" : "VARCHAR2",
"FIRMWARE_VERSION" : "NUMBER",
"INTERFACE_IP_ADDRESS" : "VARCHAR2",
"INTERFACE_PORT" : "NUMBER",
"HOST_IP_ADDRESS" : "VARCHAR2",
"HOST_PORT" : "NUMBER",
"STREAM_TO_IP_ADDRESS" : "VARCHAR2",
"STREAM_TO_PORT" : "NUMBER",
"COMMENT_DESCRIPTION" : "VARCHAR2",
"AUTHOR" : "VARCHAR2",
"RECORD_INSERTION_TIME" : "TIMESTAMP WITH TIMEZONE"
},
"DATA_SET" : [
{
"INTERFACE_ID" : "OuterTrackerFEInterface0",
"FIRMWARE_VERSION" : "0",
"INTERFACE_IP_ADDRESS" : "127.0.0.1",
"INTERFACE_PORT" : "5000",
"HOST_IP_ADDRESS" : "127.0.0.1",
"HOST_PORT" : "11000",
"STREAM_TO_IP_ADDRESS" : "127.0.0.1",
"STREAM_TO_PORT" : "30002",
"COMMENT_DESCRIPTION" : "No Comment",
"AUTHOR" : "admin",
"RECORD_INSERTION_TIME" : "1563812819"
}
]
},
"metadata" : {

},
"search" : [

]
},
"comments" : [

],
"origin" : {
"source" : "template",
"name" : "notprovided",
"format" : "json",
"created" : "2019-07-22T11:26:59.860-0500",
"rawdata" : [

]
},
"version" : "2",
"entities" : [
{
"name" : "OTSROOT",
"assigned" : "2019-07-22T11:26:59.860-0500"
}
],
"configurations" : [
{
"name" : "notprovided",
"assigned" : "2019-07-22T11:26:59.860-0500"
},
{
"name" : "DefaultConfig_v2",
"assigned" : "2019-07-22T11:27:30.321-0500"
},
{
"name" : "DefaultConfig_v3",
"assigned" : "2019-07-22T14:43:10.190-0500"
},
{
"name" : "DefaultConfig_v4",
"assigned" : "2019-07-22T14:47:01.363-0500"
},
{
"name" : "DefaultConfig_v5",
"assigned" : "2019-07-22T15:05:41.426-0500"
},
{
"name" : "DefaultConfig_v6",
"assigned" : "2019-07-23T09:00:31.900-0500"
},
{
"name" : "DefaultConfig_v7",
"assigned" : "2019-07-23T09:04:43.621-0500"
},
{
"name" : "DefaultConfig_v8",
"assigned" : "2019-07-23T09:48:11.724-0500"
},
{
"name" : "DefaultConfig_v9",
"assigned" : "2019-08-07T11:00:29.325-0500"
},
{
"name" : "DefaultConfig_v10",
"assigned" : "2019-11-20T15:25:38.511-0600"
},
{
"name" : "DefaultConfig_v11",
"assigned" : "2019-11-20T15:28:12.537-0600"
},
{
"name" : "DefaultConfig_v12",
"assigned" : "2019-11-20T15:58:29.833-0600"
},
{
"name" : "DefaultConfig_v13",
"assigned" : "2019-11-20T16:23:03.536-0600"
},
{
"name" : "DefaultConfig_v14",
"assigned" : "2019-11-20T16:24:45.660-0600"
},
{
"name" : "DefaultConfig_v15",
"assigned" : "2019-11-20T16:27:46.495-0600"
},
{
"name" : "DefaultConfig_v16",
"assigned" : "2019-11-20T16:42:11.042-0600"
},
{
"name" : "DefaultConfig_v17",
"assigned" : "2019-12-09T19:33:37.620-0600"
},
{
"name" : "DefaultConfig_v18",
"assigned" : "2019-12-10T14:21:51.414-0600"
}
],
"changelog" : "notprovided",
"bookkeeping" : {
"isdeleted" : false,
"isreadonly" : false,
"updates" : [
{
"event" : "addConfiguration",
"timestamp" : "2019-07-22T11:26:59.860-0500",
"value" : {
"name" : "notprovided",
"assigned" : "2019-07-22T11:26:59.860-0500"
}
},
{
"event" : "setVersion",
"timestamp" : "2019-07-22T11:26:59.860-0500",
"value" : {
"name" : "2",
"assigned" : "2019-07-22T11:26:59.860-0500"
}
},
{
"event" : "setCollection",
"timestamp" : "2019-07-22T11:26:59.860-0500",
"value" : {
"name" : "FEMiddlewareInterfaceTable",
"assigned" : "2019-07-22T11:26:59.860-0500"
}
},
{
"event" : "addEntity",
"timestamp" : "2019-07-22T11:26:59.860-0500",
"value" : {
"name" : "OTSROOT",
"assigned" : "2019-07-22T11:26:59.860-0500"
}
},
{
"event" : "addConfiguration",
"timestamp" : "2019-07-22T11:27:30.321-0500",
"value" : {
"name" : "DefaultConfig_v2",
"assigned" : "2019-07-22T11:27:30.321-0500"
}
},
{
"event" : "addConfiguration",
"timestamp" : "2019-07-22T14:43:10.190-0500",
"value" : {
"name" : "DefaultConfig_v3",
"assigned" : "2019-07-22T14:43:10.190-0500"
}
},
{
"event" : "addConfiguration",
"timestamp" : "2019-07-22T14:47:01.363-0500",
"value" : {
"name" : "DefaultConfig_v4",
"assigned" : "2019-07-22T14:47:01.363-0500"
}
},
{
"event" : "addConfiguration",
"timestamp" : "2019-07-22T15:05:41.426-0500",
"value" : {
"name" : "DefaultConfig_v5",
"assigned" : "2019-07-22T15:05:41.426-0500"
}
},
{
"event" : "addConfiguration",
"timestamp" : "2019-07-23T09:00:31.900-0500",
"value" : {
"name" : "DefaultConfig_v6",
"assigned" : "2019-07-23T09:00:31.900-0500"
}
},
{
"event" : "addConfiguration",
"timestamp" : "2019-07-23T09:04:43.621-0500",
"value" : {
"name" : "DefaultConfig_v7",
"assigned" : "2019-07-23T09:04:43.621-0500"
}
},
{
"event" : "addConfiguration",
"timestamp" : "2019-07-23T09:48:11.724-0500",
"value" : {
"name" : "DefaultConfig_v8",
"assigned" : "2019-07-23T09:48:11.724-0500"
}
},
{
"event" : "addConfiguration",
"timestamp" : "2019-08-07T11:00:29.325-0500",
"value" : {
"name" : "DefaultConfig_v9",
"assigned" : "2019-08-07T11:00:29.325-0500"
}
},
{
"event" : "addConfiguration",
"timestamp" : "2019-11-20T15:25:38.511-0600",
"value" : {
"name" : "DefaultConfig_v10",
"assigned" : "2019-11-20T15:25:38.511-0600"
}
},
{
"event" : "addConfiguration",
"timestamp" : "2019-11-20T15:28:12.537-0600",
"value" : {
"name" : "DefaultConfig_v11",
"assigned" : "2019-11-20T15:28:12.537-0600"
}
},
{
"event" : "addConfiguration",
"timestamp" : "2019-11-20T15:58:29.833-0600",
"value" : {
"name" : "DefaultConfig_v12",
"assigned" : "2019-11-20T15:58:29.833-0600"
}
},
{
"event" : "addConfiguration",
"timestamp" : "2019-11-20T16:23:03.536-0600",
"value" : {
"name" : "DefaultConfig_v13",
"assigned" : "2019-11-20T16:23:03.536-0600"
}
},
{
"event" : "addConfiguration",
"timestamp" : "2019-11-20T16:24:45.660-0600",
"value" : {
"name" : "DefaultConfig_v14",
"assigned" : "2019-11-20T16:24:45.660-0600"
}
},
{
"event" : "addConfiguration",
"timestamp" : "2019-11-20T16:27:46.495-0600",
"value" : {
"name" : "DefaultConfig_v15",
"assigned" : "2019-11-20T16:27:46.495-0600"
}
},
{
"event" : "addConfiguration",
"timestamp" : "2019-11-20T16:42:11.043-0600",
"value" : {
"name" : "DefaultConfig_v16",
"assigned" : "2019-11-20T16:42:11.042-0600"
}
},
{
"event" : "addConfiguration",
"timestamp" : "2019-12-09T19:33:37.620-0600",
"value" : {
"name" : "DefaultConfig_v17",
"assigned" : "2019-12-09T19:33:37.620-0600"
}
},
{
"event" : "addConfiguration",
"timestamp" : "2019-12-10T14:21:51.414-0600",
"value" : {
"name" : "DefaultConfig_v18",
"assigned" : "2019-12-10T14:21:51.414-0600"
}
}
],
"created" : "2019-07-22T11:26:59.860-0500"
},
"_id" : {
"$oid" : "ad9e1f56c970480e8b13ee2a"
},
"collection" : "FEMiddlewareInterfaceTable",
"aliases" : {
"active" : [

],
"history" : [

]
},
"runs" : [

],
"attachments" : [

],
"configtype" : "notprovided"
}