{
"ouid" : [
"02b70a3fc4c447c78894acf2",
"07247470815c4eccb167e6d9",
"353dfaf8da214c1d9c897742",
"ce30aa8f0a7148fb82402b9f",
"d100246dba23496f9cce6e02",
"e5082f4d3a6a4be9b47fb966",
"f3ddcd53df0b448c84c74c02"
],
"version" : {
"0" : [
"d100246dba23496f9cce6e02"
],
"1" : [
"e5082f4d3a6a4be9b47fb966"
],
"2" : [
"353dfaf8da214c1d9c897742"
],
"3" : [
"02b70a3fc4c447c78894acf2"
],
"4" : [
"07247470815c4eccb167e6d9"
],
"5" : [
"f3ddcd53df0b448c84c74c02"
],
"6" : [
"ce30aa8f0a7148fb82402b9f"
]
},
"configurations.name" : {
"notprovided" : [
"02b70a3fc4c447c78894acf2",
"07247470815c4eccb167e6d9",
"353dfaf8da214c1d9c897742",
"ce30aa8f0a7148fb82402b9f",
"d100246dba23496f9cce6e02",
"e5082f4d3a6a4be9b47fb966",
"f3ddcd53df0b448c84c74c02"
],
"iterateDefaultGroup_v0" : [
"d100246dba23496f9cce6e02"
],
"iterateDefaultGroup_v1" : [
"e5082f4d3a6a4be9b47fb966"
],
"iterateDefaultGroup_v2" : [
"d100246dba23496f9cce6e02"
],
"iterateDefaultGroup_v3" : [
"353dfaf8da214c1d9c897742"
],
"iterateDefaultGroup_v4" : [
"353dfaf8da214c1d9c897742"
],
"iterateDefaultGroup_v5" : [
"353dfaf8da214c1d9c897742"
],
"iterateDefaultGroup_v6" : [
"353dfaf8da214c1d9c897742"
],
"iterateDefaultGroup_v7" : [
"353dfaf8da214c1d9c897742"
],
"iterateDefaultGroup_v8" : [
"353dfaf8da214c1d9c897742"
],
"iterateDefaultGroup_v9" : [
"353dfaf8da214c1d9c897742"
],
"iterateDefaultGroup_v10" : [
"353dfaf8da214c1d9c897742"
],
"iterateDefaultGroup_v11" : [
"353dfaf8da214c1d9c897742"
],
"iterateDefaultGroup_v12" : [
"353dfaf8da214c1d9c897742"
],
"iterateDefaultGroup_v13" : [
"02b70a3fc4c447c78894acf2"
],
"iterateDefaultGroup_v14" : [
"02b70a3fc4c447c78894acf2"
],
"iterateDefaultGroup_v15" : [
"07247470815c4eccb167e6d9"
],
"iterateDefaultGroup_v16" : [
"07247470815c4eccb167e6d9"
],
"iterateDefaultGroup_v17" : [
"07247470815c4eccb167e6d9"
],
"iterateDefaultGroup_v18" : [
"07247470815c4eccb167e6d9"
],
"iterateDefaultGroup_v19" : [
"07247470815c4eccb167e6d9"
],
"iterateDefaultGroup_v20" : [
"07247470815c4eccb167e6d9"
],
"iterateDefaultGroup_v21" : [
"07247470815c4eccb167e6d9"
],
"iterateDefaultGroup_v22" : [
"07247470815c4eccb167e6d9"
],
"iterateDefaultGroup_v23" : [
"07247470815c4eccb167e6d9"
],
"iterateDefaultGroup_v24" : [
"07247470815c4eccb167e6d9"
],
"iterateDefaultGroup_v25" : [
"07247470815c4eccb167e6d9"
],
"iterateDefaultGroup_v26" : [
"07247470815c4eccb167e6d9"
],
"iterateDefaultGroup_v27" : [
"07247470815c4eccb167e6d9"
],
"iterateDefaultGroup_v28" : [
"07247470815c4eccb167e6d9"
],
"iterateDefaultGroup_v29" : [
"07247470815c4eccb167e6d9"
],
"iterateDefaultGroup_v30" : [
"07247470815c4eccb167e6d9"
],
"iterateDefaultGroup_v31" : [
"07247470815c4eccb167e6d9"
],
"iterateDefaultGroup_v32" : [
"07247470815c4eccb167e6d9"
],
"iterateDefaultGroup_v33" : [
"07247470815c4eccb167e6d9"
],
"iterateDefaultGroup_v34" : [
"07247470815c4eccb167e6d9"
],
"iterateDefaultGroup_v35" : [
"07247470815c4eccb167e6d9"
],
"iterateDefaultGroup_v36" : [
"07247470815c4eccb167e6d9"
],
"iterateDefaultGroup_v37" : [
"07247470815c4eccb167e6d9"
],
"iterateDefaultGroup_v38" : [
"07247470815c4eccb167e6d9"
],
"iterateDefaultGroup_v39" : [
"07247470815c4eccb167e6d9"
],
"iterateDefaultGroup_v40" : [
"07247470815c4eccb167e6d9"
],
"iterateDefaultGroup_v41" : [
"07247470815c4eccb167e6d9"
],
"iterateDefaultGroup_v42" : [
"07247470815c4eccb167e6d9"
],
"iterateDefaultGroup_v43" : [
"07247470815c4eccb167e6d9"
],
"iterateDefaultGroup_v44" : [
"07247470815c4eccb167e6d9"
],
"iterateDefaultGroup_v45" : [
"07247470815c4eccb167e6d9"
],
"iterateDefaultGroup_v46" : [
"07247470815c4eccb167e6d9"
],
"iterateDefaultGroup_v47" : [
"07247470815c4eccb167e6d9"
],
"iterateDefaultGroup_v48" : [
"07247470815c4eccb167e6d9"
],
"iterateDefaultGroup_v49" : [
"07247470815c4eccb167e6d9"
],
"iterateDefaultGroup_v50" : [
"07247470815c4eccb167e6d9"
],
"iterateDefaultGroup_v51" : [
"07247470815c4eccb167e6d9"
],
"iterateDefaultGroup_v52" : [
"07247470815c4eccb167e6d9"
],
"iterateDefaultGroup_v53" : [
"07247470815c4eccb167e6d9"
],
"iterateDefaultGroup_v54" : [
"f3ddcd53df0b448c84c74c02"
],
"iterateDefaultGroup_v55" : [
"f3ddcd53df0b448c84c74c02"
],
"iterateDefaultGroup_v56" : [
"f3ddcd53df0b448c84c74c02"
],
"iterateDefaultGroup_v57" : [
"ce30aa8f0a7148fb82402b9f"
],
"iterateDefaultGroup_v58" : [
"ce30aa8f0a7148fb82402b9f"
],
"iterateDefaultGroup_v59" : [
"ce30aa8f0a7148fb82402b9f"
],
"iterateDefaultGroup_v60" : [
"ce30aa8f0a7148fb82402b9f"
],
"iterateDefaultGroup_v61" : [
"ce30aa8f0a7148fb82402b9f"
],
"iterateDefaultGroup_v62" : [
"ce30aa8f0a7148fb82402b9f"
],
"iterateDefaultGroup_v63" : [
"ce30aa8f0a7148fb82402b9f"
],
"iterateDefaultGroup_v64" : [
"ce30aa8f0a7148fb82402b9f"
],
"iterateDefaultGroup_v65" : [
"ce30aa8f0a7148fb82402b9f"
],
"iterateDefaultGroup_v66" : [
"ce30aa8f0a7148fb82402b9f"
],
"iterateDefaultGroup_v67" : [
"ce30aa8f0a7148fb82402b9f"
],
"iterateDefaultGroup_v68" : [
"ce30aa8f0a7148fb82402b9f"
],
"iterateDefaultGroup_v69" : [
"ce30aa8f0a7148fb82402b9f"
],
"iterateDefaultGroup_v70" : [
"ce30aa8f0a7148fb82402b9f"
],
"iterateDefaultGroup_v71" : [
"ce30aa8f0a7148fb82402b9f"
],
"iterateDefaultGroup_v72" : [
"ce30aa8f0a7148fb82402b9f"
],
"iterateDefaultGroup_v73" : [
"ce30aa8f0a7148fb82402b9f"
],
"iterateDefaultGroup_v74" : [
"ce30aa8f0a7148fb82402b9f"
],
"iterateDefaultGroup_v75" : [
"ce30aa8f0a7148fb82402b9f"
],
"iterateDefaultGroup_v76" : [
"ce30aa8f0a7148fb82402b9f"
],
"iterateDefaultGroup_v77" : [
"ce30aa8f0a7148fb82402b9f"
],
"iterateDefaultGroup_v78" : [
"ce30aa8f0a7148fb82402b9f"
],
"iterateDefaultGroup_v79" : [
"ce30aa8f0a7148fb82402b9f"
],
"iterateDefaultGroup_v80" : [
"ce30aa8f0a7148fb82402b9f"
],
"iterateDefaultGroup_v81" : [
"ce30aa8f0a7148fb82402b9f"
]
},
"entities.name" : {
"OTSROOT" : [
"02b70a3fc4c447c78894acf2",
"07247470815c4eccb167e6d9",
"353dfaf8da214c1d9c897742",
"ce30aa8f0a7148fb82402b9f",
"d100246dba23496f9cce6e02",
"e5082f4d3a6a4be9b47fb966",
"f3ddcd53df0b448c84c74c02"
]
},
"aliases.active.name" : {

},
"runs.name" : {

},
"configurations.assigned" : {
"notprovided" : [
"2018-09-10T09:26:39.098-0500",
"2018-09-10T09:27:19.729-0500",
"2020-07-29T13:52:19.352-0500",
"2020-10-26T10:34:08.266-0500",
"2020-10-26T13:20:57.472-0500",
"2021-09-02T13:40:31.034-0500",
"2021-10-12T11:12:22.267-0500"
],
"iterateDefaultGroup_v0" : [
"2018-09-10T09:26:39.599-0500"
],
"iterateDefaultGroup_v1" : [
"2018-09-10T09:27:20.461-0500"
],
"iterateDefaultGroup_v2" : [
"2020-07-28T16:25:06.035-0500"
],
"iterateDefaultGroup_v3" : [
"2020-07-29T13:52:20.330-0500"
],
"iterateDefaultGroup_v4" : [
"2020-07-29T13:56:47.454-0500"
],
"iterateDefaultGroup_v5" : [
"2020-07-29T15:14:11.706-0500"
],
"iterateDefaultGroup_v6" : [
"2020-10-09T16:10:09.907-0500"
],
"iterateDefaultGroup_v7" : [
"2020-10-09T16:31:31.829-0500"
],
"iterateDefaultGroup_v8" : [
"2020-10-09T16:46:00.518-0500"
],
"iterateDefaultGroup_v9" : [
"2020-10-12T10:30:01.637-0500"
],
"iterateDefaultGroup_v10" : [
"2020-10-12T13:54:18.054-0500"
],
"iterateDefaultGroup_v11" : [
"2020-10-12T15:28:45.630-0500"
],
"iterateDefaultGroup_v12" : [
"2020-10-12T15:33:41.001-0500"
],
"iterateDefaultGroup_v13" : [
"2020-10-26T10:34:09.436-0500"
],
"iterateDefaultGroup_v14" : [
"2020-10-26T11:12:08.487-0500"
],
"iterateDefaultGroup_v15" : [
"2020-10-26T13:20:58.659-0500"
],
"iterateDefaultGroup_v16" : [
"2020-10-26T13:46:31.573-0500"
],
"iterateDefaultGroup_v17" : [
"2020-10-27T17:08:44.190-0500"
],
"iterateDefaultGroup_v18" : [
"2021-06-30T15:46:03.898-0500"
],
"iterateDefaultGroup_v19" : [
"2021-07-12T11:48:21.496-0500"
],
"iterateDefaultGroup_v20" : [
"2021-07-12T13:38:44.630-0500"
],
"iterateDefaultGroup_v21" : [
"2021-07-12T13:40:39.590-0500"
],
"iterateDefaultGroup_v22" : [
"2021-07-14T16:20:56.447-0500"
],
"iterateDefaultGroup_v23" : [
"2021-07-20T15:29:51.079-0500"
],
"iterateDefaultGroup_v24" : [
"2021-07-22T18:34:18.832-0500"
],
"iterateDefaultGroup_v25" : [
"2021-07-23T12:39:38.148-0500"
],
"iterateDefaultGroup_v26" : [
"2021-07-23T12:45:35.594-0500"
],
"iterateDefaultGroup_v27" : [
"2021-07-23T13:08:43.285-0500"
],
"iterateDefaultGroup_v28" : [
"2021-07-23T13:16:29.863-0500"
],
"iterateDefaultGroup_v29" : [
"2021-07-23T14:16:53.602-0500"
],
"iterateDefaultGroup_v30" : [
"2021-07-28T08:44:04.568-0500"
],
"iterateDefaultGroup_v31" : [
"2021-07-28T09:04:35.366-0500"
],
"iterateDefaultGroup_v32" : [
"2021-07-28T09:08:06.146-0500"
],
"iterateDefaultGroup_v33" : [
"2021-07-28T09:09:00.164-0500"
],
"iterateDefaultGroup_v34" : [
"2021-07-28T09:11:42.218-0500"
],
"iterateDefaultGroup_v35" : [
"2021-07-28T10:45:28.247-0500"
],
"iterateDefaultGroup_v36" : [
"2021-07-28T11:09:41.422-0500"
],
"iterateDefaultGroup_v37" : [
"2021-07-28T11:56:31.819-0500"
],
"iterateDefaultGroup_v38" : [
"2021-07-28T13:37:16.289-0500"
],
"iterateDefaultGroup_v39" : [
"2021-07-28T14:34:06.531-0500"
],
"iterateDefaultGroup_v40" : [
"2021-07-28T14:42:29.826-0500"
],
"iterateDefaultGroup_v41" : [
"2021-07-28T14:47:06.800-0500"
],
"iterateDefaultGroup_v42" : [
"2021-07-28T14:48:23.183-0500"
],
"iterateDefaultGroup_v43" : [
"2021-07-28T14:48:51.097-0500"
],
"iterateDefaultGroup_v44" : [
"2021-07-28T14:51:22.575-0500"
],
"iterateDefaultGroup_v45" : [
"2021-07-28T15:03:29.484-0500"
],
"iterateDefaultGroup_v46" : [
"2021-07-28T15:11:18.359-0500"
],
"iterateDefaultGroup_v47" : [
"2021-07-28T15:13:39.808-0500"
],
"iterateDefaultGroup_v48" : [
"2021-07-28T15:30:20.951-0500"
],
"iterateDefaultGroup_v49" : [
"2021-07-28T15:42:30.198-0500"
],
"iterateDefaultGroup_v50" : [
"2021-07-28T15:54:18.129-0500"
],
"iterateDefaultGroup_v51" : [
"2021-07-28T16:06:50.927-0500"
],
"iterateDefaultGroup_v52" : [
"2021-07-28T16:13:46.979-0500"
],
"iterateDefaultGroup_v53" : [
"2021-07-28T16:15:01.110-0500"
],
"iterateDefaultGroup_v54" : [
"2021-09-02T13:40:33.357-0500"
],
"iterateDefaultGroup_v55" : [
"2021-09-02T14:33:16.332-0500"
],
"iterateDefaultGroup_v56" : [
"2021-09-02T14:42:08.824-0500"
],
"iterateDefaultGroup_v57" : [
"2021-10-12T11:12:24.625-0500"
],
"iterateDefaultGroup_v58" : [
"2021-10-12T16:34:03.340-0500"
],
"iterateDefaultGroup_v59" : [
"2021-10-13T18:15:37.030-0500"
],
"iterateDefaultGroup_v60" : [
"2021-10-15T15:39:58.594-0500"
],
"iterateDefaultGroup_v61" : [
"2023-03-10T15:26:53.394-0600"
],
"iterateDefaultGroup_v62" : [
"2023-03-15T09:42:48.844-0500"
],
"iterateDefaultGroup_v63" : [
"2023-03-16T13:47:43.917-0500"
],
"iterateDefaultGroup_v64" : [
"2023-03-16T14:10:02.704-0500"
],
"iterateDefaultGroup_v65" : [
"2023-04-04T11:27:07.162-0500"
],
"iterateDefaultGroup_v66" : [
"2023-04-07T12:13:38.853-0500"
],
"iterateDefaultGroup_v67" : [
"2023-04-07T13:50:52.229-0500"
],
"iterateDefaultGroup_v68" : [
"2023-04-07T13:53:26.898-0500"
],
"iterateDefaultGroup_v69" : [
"2023-04-07T13:58:49.010-0500"
],
"iterateDefaultGroup_v70" : [
"2023-04-07T14:10:01.447-0500"
],
"iterateDefaultGroup_v71" : [
"2023-04-07T14:33:16.526-0500"
],
"iterateDefaultGroup_v72" : [
"2023-04-07T14:47:40.954-0500"
],
"iterateDefaultGroup_v73" : [
"2023-04-07T15:12:10.236-0500"
],
"iterateDefaultGroup_v74" : [
"2023-04-07T15:32:05.059-0500"
],
"iterateDefaultGroup_v75" : [
"2023-04-07T16:23:30.145-0500"
],
"iterateDefaultGroup_v76" : [
"2023-04-10T13:12:20.871-0500"
],
"iterateDefaultGroup_v77" : [
"2023-04-10T14:03:47.117-0500"
],
"iterateDefaultGroup_v78" : [
"2023-04-13T17:40:21.702-0500"
],
"iterateDefaultGroup_v79" : [
"2023-04-13T17:42:56.760-0500"
],
"iterateDefaultGroup_v80" : [
"2023-04-14T09:32:22.187-0500"
],
"iterateDefaultGroup_v81" : [
"2023-04-14T16:25:20.762-0500"
]
}
}