{
"ouid" : [
"5bd34c2130b042c9800d77f8",
"775c6dfc77fd4071b264e2a0",
"9890147c7fae4b9680a6ff34"
],
"version" : {
"0" : [
"9890147c7fae4b9680a6ff34"
],
"1" : [
"775c6dfc77fd4071b264e2a0"
],
"2" : [
"5bd34c2130b042c9800d77f8"
]
},
"configurations.name" : {
"notprovided" : [
"5bd34c2130b042c9800d77f8",
"775c6dfc77fd4071b264e2a0",
"9890147c7fae4b9680a6ff34"
],
"DefaultConfig_v0" : [
"9890147c7fae4b9680a6ff34"
],
"DefaultConfig_v1" : [
"9890147c7fae4b9680a6ff34"
],
"DefaultConfig_v2" : [
"775c6dfc77fd4071b264e2a0"
],
"DefaultConfig_v3" : [
"5bd34c2130b042c9800d77f8"
]
},
"entities.name" : {
"OTSROOT" : [
"5bd34c2130b042c9800d77f8",
"775c6dfc77fd4071b264e2a0",
"9890147c7fae4b9680a6ff34"
]
},
"aliases.active.name" : {

},
"runs.name" : {

},
"configurations.assigned" : {
"notprovided" : [
"2020-09-08T15:08:30.243-0500",
"2020-09-08T17:51:44.311-0500",
"2020-09-08T17:53:11.267-0500"
],
"DefaultConfig_v0" : [
"2020-09-08T15:08:30.758-0500"
],
"DefaultConfig_v1" : [
"2020-09-08T15:38:44.789-0500"
],
"DefaultConfig_v2" : [
"2020-09-08T17:51:44.969-0500"
],
"DefaultConfig_v3" : [
"2020-09-08T17:53:11.885-0500"
]
}
}