{
"ouid" : [
"75be48bf88d844969c24b7e1"
],
"version" : {
"2" : [
"75be48bf88d844969c24b7e1"
]
},
"configurations.name" : {
"notprovided" : [
"75be48bf88d844969c24b7e1"
],
"OTMiniModuleConfiguration_v2" : [
"75be48bf88d844969c24b7e1"
]
},
"entities.name" : {
"OTSROOT" : [
"75be48bf88d844969c24b7e1"
]
},
"aliases.active.name" : {

},
"runs.name" : {

}
}