{
"ouid" : [
"0b6ff9142cc84692b14a0b23",
"5a0d21ca89d440e692aa7826",
"5e42e791ce564072a1ea0dc8",
"7129f8191a7f44079bb9b939",
"72da2e7b081644f59e77a0d8",
"7f36552913ce4f1bbf4428ca",
"97efea9cdef2476ca05b27bb",
"a5179572d7304e76aa3fd6e5",
"ad65103ae1e24deab4155d89",
"beb6ed70c286425c8caa0cc0",
"ecb9ab751a474cf5882cba5e"
],
"version" : {
"2" : [
"0b6ff9142cc84692b14a0b23"
],
"3" : [
"72da2e7b081644f59e77a0d8"
],
"4" : [
"7129f8191a7f44079bb9b939"
],
"5" : [
"ad65103ae1e24deab4155d89"
],
"6" : [
"5a0d21ca89d440e692aa7826"
],
"7" : [
"ecb9ab751a474cf5882cba5e"
],
"8" : [
"5e42e791ce564072a1ea0dc8"
],
"9" : [
"7f36552913ce4f1bbf4428ca"
],
"10" : [
"a5179572d7304e76aa3fd6e5"
],
"11" : [
"beb6ed70c286425c8caa0cc0"
],
"12" : [
"97efea9cdef2476ca05b27bb"
]
},
"configurations.name" : {
"notprovided" : [
"0b6ff9142cc84692b14a0b23",
"5a0d21ca89d440e692aa7826",
"5e42e791ce564072a1ea0dc8",
"7129f8191a7f44079bb9b939",
"72da2e7b081644f59e77a0d8",
"7f36552913ce4f1bbf4428ca",
"97efea9cdef2476ca05b27bb",
"a5179572d7304e76aa3fd6e5",
"ad65103ae1e24deab4155d89",
"beb6ed70c286425c8caa0cc0",
"ecb9ab751a474cf5882cba5e"
],
"DefaultContext_v2" : [
"0b6ff9142cc84692b14a0b23"
],
"DefaultContext_v3" : [
"0b6ff9142cc84692b14a0b23"
],
"DefaultContext_v4" : [
"0b6ff9142cc84692b14a0b23"
],
"DefaultContext_v5" : [
"0b6ff9142cc84692b14a0b23"
],
"DefaultContext_v6" : [
"0b6ff9142cc84692b14a0b23"
],
"DefaultContext_v7" : [
"0b6ff9142cc84692b14a0b23"
],
"DefaultContext_v8" : [
"72da2e7b081644f59e77a0d8"
],
"DefaultContext_v9" : [
"72da2e7b081644f59e77a0d8"
],
"DefaultContext_v10" : [
"0b6ff9142cc84692b14a0b23"
],
"DefaultContext_v11" : [
"0b6ff9142cc84692b14a0b23"
],
"DefaultContext_v12" : [
"ad65103ae1e24deab4155d89"
],
"DefaultContext_v13" : [
"ad65103ae1e24deab4155d89"
],
"DefaultContext_v14" : [
"ad65103ae1e24deab4155d89"
],
"DefaultContext_v15" : [
"ad65103ae1e24deab4155d89"
],
"DefaultContext_v16" : [
"ad65103ae1e24deab4155d89"
],
"DefaultContext_v17" : [
"ad65103ae1e24deab4155d89"
],
"DefaultContext_v18" : [
"5a0d21ca89d440e692aa7826"
],
"DefaultContext_v19" : [
"ecb9ab751a474cf5882cba5e"
],
"DefaultContext_v20" : [
"5e42e791ce564072a1ea0dc8"
],
"DefaultContext_v21" : [
"5e42e791ce564072a1ea0dc8"
],
"DefaultContext_v22" : [
"5a0d21ca89d440e692aa7826"
],
"DefaultContext_v23" : [
"7f36552913ce4f1bbf4428ca"
],
"DefaultContext_v24" : [
"7f36552913ce4f1bbf4428ca"
],
"DefaultContext_v25" : [
"a5179572d7304e76aa3fd6e5"
],
"DefaultContext_v26" : [
"a5179572d7304e76aa3fd6e5"
],
"DefaultContext_v27" : [
"beb6ed70c286425c8caa0cc0"
],
"DefaultContext_v28" : [
"beb6ed70c286425c8caa0cc0"
],
"DefaultContext_v29" : [
"beb6ed70c286425c8caa0cc0"
],
"DefaultContext_v30" : [
"ad65103ae1e24deab4155d89"
],
"DefaultContext_v31" : [
"97efea9cdef2476ca05b27bb"
]
},
"entities.name" : {
"OTSROOT" : [
"0b6ff9142cc84692b14a0b23",
"5a0d21ca89d440e692aa7826",
"5e42e791ce564072a1ea0dc8",
"7129f8191a7f44079bb9b939",
"72da2e7b081644f59e77a0d8",
"7f36552913ce4f1bbf4428ca",
"97efea9cdef2476ca05b27bb",
"a5179572d7304e76aa3fd6e5",
"ad65103ae1e24deab4155d89",
"beb6ed70c286425c8caa0cc0",
"ecb9ab751a474cf5882cba5e"
]
},
"aliases.active.name" : {

},
"runs.name" : {

},
"configurations.assigned" : {
"notprovided" : [
"2020-07-21T14:27:47.488-0500",
"2020-07-21T15:50:00.658-0500",
"2020-08-26T10:02:04.030-0500",
"2020-08-26T10:11:56.638-0500",
"2020-11-10T13:28:14.660-0600",
"2020-11-10T13:40:59.595-0600",
"2020-11-10T15:28:12.848-0600",
"2020-11-11T11:52:48.133-0600",
"2020-11-11T15:51:19.960-0600",
"2020-11-13T11:04:49.633-0600",
"2020-12-21T11:05:55.935-0600"
],
"DefaultContext_v2" : [
"2020-07-21T14:27:47.857-0500"
],
"DefaultContext_v3" : [
"2020-07-21T14:42:50.668-0500"
],
"DefaultContext_v4" : [
"2020-07-21T14:46:44.538-0500"
],
"DefaultContext_v5" : [
"2020-07-21T14:51:16.806-0500"
],
"DefaultContext_v6" : [
"2020-07-21T14:55:17.149-0500"
],
"DefaultContext_v7" : [
"2020-07-21T14:55:57.154-0500"
],
"DefaultContext_v8" : [
"2020-07-21T15:50:01.532-0500"
],
"DefaultContext_v9" : [
"2020-08-20T13:46:48.798-0500"
],
"DefaultContext_v10" : [
"2020-08-20T13:52:00.951-0500"
],
"DefaultContext_v11" : [
"2020-08-20T14:43:55.236-0500"
],
"DefaultContext_v12" : [
"2020-08-26T10:29:24.822-0500"
],
"DefaultContext_v13" : [
"2020-08-26T11:10:54.426-0500"
],
"DefaultContext_v14" : [
"2020-08-26T16:17:12.932-0500"
],
"DefaultContext_v15" : [
"2020-11-10T13:18:46.316-0600"
],
"DefaultContext_v16" : [
"2020-11-10T13:35:42.034-0600"
],
"DefaultContext_v17" : [
"2020-11-10T13:38:42.001-0600"
],
"DefaultContext_v18" : [
"2020-11-10T13:39:23.832-0600"
],
"DefaultContext_v19" : [
"2020-11-10T13:41:30.739-0600"
],
"DefaultContext_v20" : [
"2020-11-10T15:30:52.935-0600"
],
"DefaultContext_v21" : [
"2020-11-10T15:36:57.192-0600"
],
"DefaultContext_v22" : [
"2020-11-11T11:00:27.340-0600"
],
"DefaultContext_v23" : [
"2020-11-11T11:54:28.700-0600"
],
"DefaultContext_v24" : [
"2020-11-11T11:57:37.648-0600"
],
"DefaultContext_v25" : [
"2020-11-11T15:51:21.269-0600"
],
"DefaultContext_v26" : [
"2020-11-11T15:51:48.273-0600"
],
"DefaultContext_v27" : [
"2020-11-13T11:04:50.995-0600"
],
"DefaultContext_v28" : [
"2020-11-13T11:24:26.928-0600"
],
"DefaultContext_v29" : [
"2020-11-13T14:27:41.925-0600"
],
"DefaultContext_v30" : [
"2020-11-23T16:30:54.447-0600"
],
"DefaultContext_v31" : [
"2020-12-21T11:05:57.314-0600"
]
}
}