{
"document" : {
"data" : {
"NAME" : "UDP_DATA_STREAMER_CONSUMER_TABLE",
"COMMENT" : "No comment.",
"AUTHOR" : "admin",
"CREATION_TIME" : 1528211390,
"COL_TYPES" : {
"PROCESSOR_UID" : "VARCHAR2",
"HOST_IP_ADDRESS" : "VARCHAR2",
"HOST_PORT" : "NUMBER",
"STREAM_TO_IP_ADDRESS" : "VARCHAR2",
"STREAM_TO_PORT" : "NUMBER",
"COMMENT_DESCRIPTION" : "VARCHAR2",
"AUTHOR" : "VARCHAR2",
"RECORD_INSERTION_TIME" : "TIMESTAMP WITH TIMEZONE"
},
"DATA_SET" : [
{
"PROCESSOR_UID" : "UDPStreamer0",
"HOST_IP_ADDRESS" : "127.0.0.1",
"HOST_PORT" : "4100",
"STREAM_TO_IP_ADDRESS" : "127.0.0.1",
"STREAM_TO_PORT" : "4101",
"COMMENT_DESCRIPTION" : "No Comment",
"AUTHOR" : "uplegger",
"RECORD_INSERTION_TIME" : "1510768494"
},
{
"PROCESSOR_UID" : "UDPStreamer1",
"HOST_IP_ADDRESS" : "127.0.0.1",
"HOST_PORT" : "3000",
"STREAM_TO_IP_ADDRESS" : "127.0.0.1",
"STREAM_TO_PORT" : "3001",
"COMMENT_DESCRIPTION" : "No Comment",
"AUTHOR" : "DEFAULT",
"RECORD_INSERTION_TIME" : "0"
},
{
"PROCESSOR_UID" : "FSSR0_DB0_DataStreamer0",
"HOST_IP_ADDRESS" : "192.168.133.46",
"HOST_PORT" : "48000",
"STREAM_TO_IP_ADDRESS" : "192.168.133.46",
"STREAM_TO_PORT" : "50000",
"COMMENT_DESCRIPTION" : "Streaming to Visualizer",
"AUTHOR" : "admin",
"RECORD_INSERTION_TIME" : "1528211275"
},
{
"PROCESSOR_UID" : "FSSR1_DB0_DataStreamer0",
"HOST_IP_ADDRESS" : "192.168.133.46",
"HOST_PORT" : "48001",
"STREAM_TO_IP_ADDRESS" : "192.168.133.46",
"STREAM_TO_PORT" : "50000",
"COMMENT_DESCRIPTION" : "Streaming to Visualizer",
"AUTHOR" : "admin",
"RECORD_INSERTION_TIME" : "1528211313"
},
{
"PROCESSOR_UID" : "FSSR2_DB0_DataStreamer0",
"HOST_IP_ADDRESS" : "192.168.133.46",
"HOST_PORT" : "48002",
"STREAM_TO_IP_ADDRESS" : "192.168.133.46",
"STREAM_TO_PORT" : "50000",
"COMMENT_DESCRIPTION" : "Streaming to Visualizer",
"AUTHOR" : "admin",
"RECORD_INSERTION_TIME" : "1528211353"
},
{
"PROCESSOR_UID" : "FSSR3_DB0_DataStreamer0",
"HOST_IP_ADDRESS" : "192.168.133.1",
"HOST_PORT" : "48003",
"STREAM_TO_IP_ADDRESS" : "192.168.133.1",
"STREAM_TO_PORT" : "50000",
"COMMENT_DESCRIPTION" : "Streaming to Visualizer",
"AUTHOR" : "admin",
"RECORD_INSERTION_TIME" : "1509723650"
},
{
"PROCESSOR_UID" : "FSSR2_DB0_DataStreamer1",
"HOST_IP_ADDRESS" : "192.168.133.46",
"HOST_PORT" : "48012",
"STREAM_TO_IP_ADDRESS" : "192.168.133.46",
"STREAM_TO_PORT" : "49002",
"COMMENT_DESCRIPTION" : "Streaming to Artdaq",
"AUTHOR" : "admin",
"RECORD_INSERTION_TIME" : "1528211378"
}
]
},
"metadata" : {

},
"search" : [

]
},
"comments" : [

],
"origin" : {
"source" : "template",
"name" : "notprovided",
"format" : "json",
"created" : "2018-09-06T17:34:14.293-0500",
"rawdata" : [

]
},
"version" : "0",
"entities" : [
{
"name" : "OTSROOT",
"assigned" : "2018-09-06T17:34:14.297-0500"
}
],
"tables" : [
{
"name" : "notprovided",
"assigned" : "2018-09-06T17:34:14.295-0500"
},
{
"name" : "BurninBoxConfig_v0",
"assigned" : "2018-09-06T17:34:14.774-0500"
},
{
"name" : "BurninBoxConfig_v1",
"assigned" : "2018-09-10T10:45:51.352-0500"
},
{
"name" : "BurninBoxConfig_v2",
"assigned" : "2018-09-10T11:24:18.765-0500"
},
{
"name" : "BurninBoxConfig_v3",
"assigned" : "2018-09-11T09:59:56.386-0500"
},
{
"name" : "BurninBoxConfig_v4",
"assigned" : "2018-09-11T10:01:19.464-0500"
},
{
"name" : "BurninBoxConfig_v5",
"assigned" : "2018-09-11T10:11:16.087-0500"
},
{
"name" : "BurninBoxConfig_v6",
"assigned" : "2018-09-12T12:16:43.833-0500"
},
{
"name" : "BurninBoxConfig_v7",
"assigned" : "2018-09-17T11:12:09.501-0500"
},
{
"name" : "BurninBoxConfig_v8",
"assigned" : "2018-09-17T13:53:33.527-0500"
},
{
"name" : "BurninBoxConfig_v9",
"assigned" : "2018-09-17T14:03:58.179-0500"
},
{
"name" : "BurninBoxConfig_v10",
"assigned" : "2018-09-18T15:31:02.532-0500"
},
{
"name" : "BurninBoxConfig_v11",
"assigned" : "2018-09-19T09:27:02.261-0500"
},
{
"name" : "BurninBoxConfig_v12",
"assigned" : "2018-09-19T10:08:02.175-0500"
},
{
"name" : "BurninBoxConfig_v13",
"assigned" : "2018-09-19T10:23:22.100-0500"
},
{
"name" : "BurninBoxConfig_v14",
"assigned" : "2018-09-19T11:22:21.497-0500"
},
{
"name" : "BurninBoxConfig_v15",
"assigned" : "2018-09-19T12:26:55.345-0500"
},
{
"name" : "BurninBoxConfig_v16",
"assigned" : "2018-09-20T14:22:27.378-0500"
},
{
"name" : "BurninBoxConfig_v17",
"assigned" : "2018-09-20T15:42:03.197-0500"
},
{
"name" : "BurninBoxConfig_v18",
"assigned" : "2018-09-21T11:16:29.279-0500"
},
{
"name" : "BurninBoxConfig_v19",
"assigned" : "2018-09-21T13:39:25.424-0500"
},
{
"name" : "BurninBoxConfig_v20",
"assigned" : "2018-09-21T13:39:49.358-0500"
},
{
"name" : "BurninBoxConfig_v21",
"assigned" : "2019-02-28T12:04:25.821-0600"
},
{
"name" : "BurninBoxConfig_v22",
"assigned" : "2019-02-28T12:05:08.259-0600"
},
{
"name" : "BurninBoxConfig_v23",
"assigned" : "2019-02-28T13:57:09.860-0600"
}
],
"changelog" : "notprovided",
"bookkeeping" : {
"isdeleted" : false,
"isreadonly" : false,
"updates" : [
{
"event" : "addTable",
"timestamp" : "2018-09-06T17:34:14.295-0500",
"value" : {
"name" : "notprovided",
"assigned" : "2018-09-06T17:34:14.295-0500"
}
},
{
"event" : "setVersion",
"timestamp" : "2018-09-06T17:34:14.296-0500",
"value" : {
"name" : "0",
"assigned" : "2018-09-06T17:34:14.296-0500"
}
},
{
"event" : "setCollection",
"timestamp" : "2018-09-06T17:34:14.296-0500",
"value" : {
"name" : "UDPDataStreamerConsumerTable",
"assigned" : "2018-09-06T17:34:14.296-0500"
}
},
{
"event" : "addEntity",
"timestamp" : "2018-09-06T17:34:14.297-0500",
"value" : {
"name" : "OTSROOT",
"assigned" : "2018-09-06T17:34:14.297-0500"
}
},
{
"event" : "addTable",
"timestamp" : "2018-09-06T17:34:14.774-0500",
"value" : {
"name" : "BurninBoxConfig_v0",
"assigned" : "2018-09-06T17:34:14.774-0500"
}
},
{
"event" : "addTable",
"timestamp" : "2018-09-10T10:45:51.352-0500",
"value" : {
"name" : "BurninBoxConfig_v1",
"assigned" : "2018-09-10T10:45:51.352-0500"
}
},
{
"event" : "addTable",
"timestamp" : "2018-09-10T11:24:18.765-0500",
"value" : {
"name" : "BurninBoxConfig_v2",
"assigned" : "2018-09-10T11:24:18.765-0500"
}
},
{
"event" : "addTable",
"timestamp" : "2018-09-11T09:59:56.386-0500",
"value" : {
"name" : "BurninBoxConfig_v3",
"assigned" : "2018-09-11T09:59:56.386-0500"
}
},
{
"event" : "addTable",
"timestamp" : "2018-09-11T10:01:19.464-0500",
"value" : {
"name" : "BurninBoxConfig_v4",
"assigned" : "2018-09-11T10:01:19.464-0500"
}
},
{
"event" : "addTable",
"timestamp" : "2018-09-11T10:11:16.087-0500",
"value" : {
"name" : "BurninBoxConfig_v5",
"assigned" : "2018-09-11T10:11:16.087-0500"
}
},
{
"event" : "addTable",
"timestamp" : "2018-09-12T12:16:43.834-0500",
"value" : {
"name" : "BurninBoxConfig_v6",
"assigned" : "2018-09-12T12:16:43.833-0500"
}
},
{
"event" : "addTable",
"timestamp" : "2018-09-17T11:12:09.501-0500",
"value" : {
"name" : "BurninBoxConfig_v7",
"assigned" : "2018-09-17T11:12:09.501-0500"
}
},
{
"event" : "addTable",
"timestamp" : "2018-09-17T13:53:33.527-0500",
"value" : {
"name" : "BurninBoxConfig_v8",
"assigned" : "2018-09-17T13:53:33.527-0500"
}
},
{
"event" : "addTable",
"timestamp" : "2018-09-17T14:03:58.179-0500",
"value" : {
"name" : "BurninBoxConfig_v9",
"assigned" : "2018-09-17T14:03:58.179-0500"
}
},
{
"event" : "addTable",
"timestamp" : "2018-09-18T15:31:02.532-0500",
"value" : {
"name" : "BurninBoxConfig_v10",
"assigned" : "2018-09-18T15:31:02.532-0500"
}
},
{
"event" : "addTable",
"timestamp" : "2018-09-19T09:27:02.261-0500",
"value" : {
"name" : "BurninBoxConfig_v11",
"assigned" : "2018-09-19T09:27:02.261-0500"
}
},
{
"event" : "addTable",
"timestamp" : "2018-09-19T10:08:02.175-0500",
"value" : {
"name" : "BurninBoxConfig_v12",
"assigned" : "2018-09-19T10:08:02.175-0500"
}
},
{
"event" : "addTable",
"timestamp" : "2018-09-19T10:23:22.100-0500",
"value" : {
"name" : "BurninBoxConfig_v13",
"assigned" : "2018-09-19T10:23:22.100-0500"
}
},
{
"event" : "addTable",
"timestamp" : "2018-09-19T11:22:21.497-0500",
"value" : {
"name" : "BurninBoxConfig_v14",
"assigned" : "2018-09-19T11:22:21.497-0500"
}
},
{
"event" : "addTable",
"timestamp" : "2018-09-19T12:26:55.345-0500",
"value" : {
"name" : "BurninBoxConfig_v15",
"assigned" : "2018-09-19T12:26:55.345-0500"
}
},
{
"event" : "addTable",
"timestamp" : "2018-09-20T14:22:27.378-0500",
"value" : {
"name" : "BurninBoxConfig_v16",
"assigned" : "2018-09-20T14:22:27.378-0500"
}
},
{
"event" : "addTable",
"timestamp" : "2018-09-20T15:42:03.197-0500",
"value" : {
"name" : "BurninBoxConfig_v17",
"assigned" : "2018-09-20T15:42:03.197-0500"
}
},
{
"event" : "addTable",
"timestamp" : "2018-09-21T11:16:29.279-0500",
"value" : {
"name" : "BurninBoxConfig_v18",
"assigned" : "2018-09-21T11:16:29.279-0500"
}
},
{
"event" : "addTable",
"timestamp" : "2018-09-21T13:39:25.424-0500",
"value" : {
"name" : "BurninBoxConfig_v19",
"assigned" : "2018-09-21T13:39:25.424-0500"
}
},
{
"event" : "addTable",
"timestamp" : "2018-09-21T13:39:49.358-0500",
"value" : {
"name" : "BurninBoxConfig_v20",
"assigned" : "2018-09-21T13:39:49.358-0500"
}
},
{
"event" : "addTable",
"timestamp" : "2019-02-28T12:04:25.821-0600",
"value" : {
"name" : "BurninBoxConfig_v21",
"assigned" : "2019-02-28T12:04:25.821-0600"
}
},
{
"event" : "addTable",
"timestamp" : "2019-02-28T12:05:08.259-0600",
"value" : {
"name" : "BurninBoxConfig_v22",
"assigned" : "2019-02-28T12:05:08.259-0600"
}
},
{
"event" : "addTable",
"timestamp" : "2019-02-28T13:57:09.860-0600",
"value" : {
"name" : "BurninBoxConfig_v23",
"assigned" : "2019-02-28T13:57:09.860-0600"
}
},
{
"event" : "addConfiguration",
"timestamp" : "2019-07-19T15:24:16.080-0500",
"value" : {
"name" : "BurninBoxConfig_v24",
"assigned" : "2019-07-19T15:24:16.080-0500"
}
},
{
"event" : "addConfiguration",
"timestamp" : "2019-07-19T15:25:11.072-0500",
"value" : {
"name" : "BurninBoxConfig_v25",
"assigned" : "2019-07-19T15:25:11.072-0500"
}
},
{
"event" : "addConfiguration",
"timestamp" : "2019-07-24T14:34:10.599-0500",
"value" : {
"name" : "BurninBoxConfig_v26",
"assigned" : "2019-07-24T14:34:10.599-0500"
}
},
{
"event" : "addConfiguration",
"timestamp" : "2019-07-24T14:47:23.818-0500",
"value" : {
"name" : "BurninBoxConfig_v27",
"assigned" : "2019-07-24T14:47:23.818-0500"
}
},
{
"event" : "addConfiguration",
"timestamp" : "2019-07-24T14:48:41.302-0500",
"value" : {
"name" : "BurninBoxConfig_v28",
"assigned" : "2019-07-24T14:48:41.302-0500"
}
},
{
"event" : "addConfiguration",
"timestamp" : "2020-06-29T10:55:10.830-0500",
"value" : {
"name" : "BurninBoxConfig_v29",
"assigned" : "2020-06-29T10:55:10.830-0500"
}
},
{
"event" : "addConfiguration",
"timestamp" : "2020-06-29T11:05:40.097-0500",
"value" : {
"name" : "BurninBoxConfig_v30",
"assigned" : "2020-06-29T11:05:40.097-0500"
}
},
{
"event" : "addConfiguration",
"timestamp" : "2020-06-29T11:28:21.787-0500",
"value" : {
"name" : "BurninBoxConfig_v31",
"assigned" : "2020-06-29T11:28:21.787-0500"
}
},
{
"event" : "addConfiguration",
"timestamp" : "2020-07-24T10:58:18.032-0500",
"value" : {
"name" : "BurninBoxConfig_v32",
"assigned" : "2020-07-24T10:58:18.032-0500"
}
},
{
"event" : "addConfiguration",
"timestamp" : "2020-07-24T11:00:07.676-0500",
"value" : {
"name" : "BurninBoxConfig_v33",
"assigned" : "2020-07-24T11:00:07.676-0500"
}
},
{
"event" : "addConfiguration",
"timestamp" : "2020-07-24T11:56:06.389-0500",
"value" : {
"name" : "BurninBoxConfig_v34",
"assigned" : "2020-07-24T11:56:06.389-0500"
}
},
{
"event" : "addConfiguration",
"timestamp" : "2020-07-24T12:12:09.404-0500",
"value" : {
"name" : "BurninBoxConfig_v35",
"assigned" : "2020-07-24T12:12:09.404-0500"
}
},
{
"event" : "addConfiguration",
"timestamp" : "2020-07-24T12:16:35.907-0500",
"value" : {
"name" : "BurninBoxConfig_v36",
"assigned" : "2020-07-24T12:16:35.907-0500"
}
},
{
"event" : "addConfiguration",
"timestamp" : "2020-07-29T15:59:40.948-0500",
"value" : {
"name" : "BurninBoxConfiguration_v0",
"assigned" : "2020-07-29T15:59:40.948-0500"
}
},
{
"event" : "addConfiguration",
"timestamp" : "2020-07-30T11:42:27.583-0500",
"value" : {
"name" : "BurninBoxConfiguration_v1",
"assigned" : "2020-07-30T11:42:27.583-0500"
}
},
{
"event" : "addConfiguration",
"timestamp" : "2020-07-30T12:05:12.974-0500",
"value" : {
"name" : "BurninBoxConfiguration_v2",
"assigned" : "2020-07-30T12:05:12.974-0500"
}
}
],
"created" : "2018-09-06T17:34:14.293-0500"
},
"_id" : {
"$oid" : "0218e3094f2c4d8682f13891"
},
"collection" : "UDPDataStreamerConsumerTable",
"aliases" : {
"active" : [

],
"history" : [

]
},
"runs" : [

],
"attachments" : [

],
"configtype" : "notprovided",
"configurations" : [
{
"name" : "BurninBoxConfig_v24",
"assigned" : "2019-07-19T15:24:16.080-0500"
},
{
"name" : "BurninBoxConfig_v25",
"assigned" : "2019-07-19T15:25:11.072-0500"
},
{
"name" : "BurninBoxConfig_v26",
"assigned" : "2019-07-24T14:34:10.599-0500"
},
{
"name" : "BurninBoxConfig_v27",
"assigned" : "2019-07-24T14:47:23.818-0500"
},
{
"name" : "BurninBoxConfig_v28",
"assigned" : "2019-07-24T14:48:41.302-0500"
},
{
"name" : "BurninBoxConfig_v29",
"assigned" : "2020-06-29T10:55:10.830-0500"
},
{
"name" : "BurninBoxConfig_v30",
"assigned" : "2020-06-29T11:05:40.097-0500"
},
{
"name" : "BurninBoxConfig_v31",
"assigned" : "2020-06-29T11:28:21.787-0500"
},
{
"name" : "BurninBoxConfig_v32",
"assigned" : "2020-07-24T10:58:18.032-0500"
},
{
"name" : "BurninBoxConfig_v33",
"assigned" : "2020-07-24T11:00:07.676-0500"
},
{
"name" : "BurninBoxConfig_v34",
"assigned" : "2020-07-24T11:56:06.389-0500"
},
{
"name" : "BurninBoxConfig_v35",
"assigned" : "2020-07-24T12:12:09.404-0500"
},
{
"name" : "BurninBoxConfig_v36",
"assigned" : "2020-07-24T12:16:35.907-0500"
},
{
"name" : "BurninBoxConfiguration_v0",
"assigned" : "2020-07-29T15:59:40.948-0500"
},
{
"name" : "BurninBoxConfiguration_v1",
"assigned" : "2020-07-30T11:42:27.583-0500"
},
{
"name" : "BurninBoxConfiguration_v2",
"assigned" : "2020-07-30T12:05:12.974-0500"
}
]
}