{
"ouid" : [
"8f54266223f44e0aafa7ba56",
"f2f5a3d142084375b404faf0"
],
"version" : {
"0" : [
"8f54266223f44e0aafa7ba56"
],
"1" : [
"f2f5a3d142084375b404faf0"
]
},
"configurations.name" : {
"notprovided" : [
"8f54266223f44e0aafa7ba56",
"f2f5a3d142084375b404faf0"
],
"FTBFConfig_v0" : [
"8f54266223f44e0aafa7ba56"
],
"FTBFConfig_v1" : [
"8f54266223f44e0aafa7ba56"
],
"FTBFConfig_v2" : [
"8f54266223f44e0aafa7ba56"
],
"FTBFConfig_v3" : [
"8f54266223f44e0aafa7ba56"
],
"FTBFConfig_v4" : [
"8f54266223f44e0aafa7ba56"
],
"FTBFConfig_v5" : [
"8f54266223f44e0aafa7ba56"
],
"FTBFConfig_v6" : [
"8f54266223f44e0aafa7ba56"
],
"FTBFConfig_v7" : [
"8f54266223f44e0aafa7ba56"
],
"FTBFConfig_v8" : [
"8f54266223f44e0aafa7ba56"
],
"FTBFConfig_v9" : [
"8f54266223f44e0aafa7ba56"
],
"FTBFConfig_v10" : [
"8f54266223f44e0aafa7ba56"
],
"FTBFConfig_v11" : [
"8f54266223f44e0aafa7ba56"
],
"FTBFConfig_v12" : [
"8f54266223f44e0aafa7ba56"
],
"FTBFConfig_v13" : [
"8f54266223f44e0aafa7ba56"
],
"FTBFConfig_v14" : [
"8f54266223f44e0aafa7ba56"
],
"FTBFConfig_v15" : [
"8f54266223f44e0aafa7ba56"
],
"FTBFConfig_v16" : [
"8f54266223f44e0aafa7ba56"
],
"FTBFConfig_v17" : [
"8f54266223f44e0aafa7ba56"
],
"FTBFConfig_v18" : [
"8f54266223f44e0aafa7ba56"
],
"FTBFConfig_v19" : [
"8f54266223f44e0aafa7ba56"
],
"FTBFConfig_v20" : [
"8f54266223f44e0aafa7ba56"
],
"FTBFConfig_v21" : [
"8f54266223f44e0aafa7ba56"
],
"FTBFConfig_v22" : [
"8f54266223f44e0aafa7ba56"
],
"FTBFConfig_v23" : [
"f2f5a3d142084375b404faf0"
],
"FTBFConfig_v24" : [
"f2f5a3d142084375b404faf0"
],
"FTBFConfig_v25" : [
"f2f5a3d142084375b404faf0"
],
"FTBFConfig_v26" : [
"f2f5a3d142084375b404faf0"
],
"FTBFConfig_v27" : [
"f2f5a3d142084375b404faf0"
],
"FTBFConfig_v28" : [
"f2f5a3d142084375b404faf0"
],
"FTBFConfig_v29" : [
"f2f5a3d142084375b404faf0"
],
"FTBFConfig_v30" : [
"f2f5a3d142084375b404faf0"
],
"FTBFConfig_v31" : [
"f2f5a3d142084375b404faf0"
],
"FTBFConfig_v32" : [
"f2f5a3d142084375b404faf0"
],
"FTBFConfig_v33" : [
"f2f5a3d142084375b404faf0"
],
"FTBFConfig_v34" : [
"f2f5a3d142084375b404faf0"
],
"FTBFConfig_v35" : [
"f2f5a3d142084375b404faf0"
],
"FTBFConfig_v36" : [
"f2f5a3d142084375b404faf0"
],
"FTBFConfig_v37" : [
"f2f5a3d142084375b404faf0"
],
"FTBFConfig_v38" : [
"f2f5a3d142084375b404faf0"
],
"FTBFConfig_v39" : [
"f2f5a3d142084375b404faf0"
],
"FTBFConfig_v40" : [
"f2f5a3d142084375b404faf0"
],
"FTBFConfig_v41" : [
"f2f5a3d142084375b404faf0"
],
"FTBFConfig_v42" : [
"f2f5a3d142084375b404faf0"
],
"FTBFConfig_v43" : [
"f2f5a3d142084375b404faf0"
],
"FTBFConfig_v44" : [
"f2f5a3d142084375b404faf0"
],
"FTBFConfig_v45" : [
"f2f5a3d142084375b404faf0"
],
"FTBFConfig_v46" : [
"f2f5a3d142084375b404faf0"
],
"FTBFConfig_v47" : [
"f2f5a3d142084375b404faf0"
],
"FTBFConfig_v48" : [
"f2f5a3d142084375b404faf0"
],
"FTBFConfig_v49" : [
"f2f5a3d142084375b404faf0"
],
"FTBFConfig_v52" : [
"f2f5a3d142084375b404faf0"
],
"FTBFConfig_v53" : [
"f2f5a3d142084375b404faf0"
],
"FTBFConfig_v54" : [
"f2f5a3d142084375b404faf0"
],
"FTBFConfig_v55" : [
"f2f5a3d142084375b404faf0"
],
"FTBFConfig_v56" : [
"f2f5a3d142084375b404faf0"
],
"FTBFConfig_v57" : [
"f2f5a3d142084375b404faf0"
],
"FTBFConfig_v58" : [
"f2f5a3d142084375b404faf0"
],
"FTBFConfig_v59" : [
"f2f5a3d142084375b404faf0"
],
"FTBFConfig_v60" : [
"f2f5a3d142084375b404faf0"
],
"FTBFConfig_v61" : [
"f2f5a3d142084375b404faf0"
],
"FTBFConfig_v62" : [
"f2f5a3d142084375b404faf0"
],
"FTBFConfig_v63" : [
"f2f5a3d142084375b404faf0"
],
"FTBFConfig_v64" : [
"f2f5a3d142084375b404faf0"
],
"FTBFConfig_v65" : [
"f2f5a3d142084375b404faf0"
],
"FTBFConfig_v66" : [
"f2f5a3d142084375b404faf0"
],
"FTBFConfig_v67" : [
"f2f5a3d142084375b404faf0"
],
"FTBFConfig_v68" : [
"f2f5a3d142084375b404faf0"
],
"FTBFConfig_v69" : [
"f2f5a3d142084375b404faf0"
],
"FTBFConfig_v70" : [
"f2f5a3d142084375b404faf0"
],
"FTBFConfigNim_v0" : [
"f2f5a3d142084375b404faf0"
],
"FTBFConfigNim_v1" : [
"f2f5a3d142084375b404faf0"
],
"FTBFConfigNim_v2" : [
"f2f5a3d142084375b404faf0"
],
"FTBFConfigNim_v3" : [
"f2f5a3d142084375b404faf0"
],
"FTBFConfigNim_v4" : [
"f2f5a3d142084375b404faf0"
],
"FTBFConfigNim_v5" : [
"f2f5a3d142084375b404faf0"
],
"FTBFConfigNim_v6" : [
"f2f5a3d142084375b404faf0"
],
"FTBFConfigNim_v7" : [
"f2f5a3d142084375b404faf0"
],
"FTBFConfigNim_v8" : [
"f2f5a3d142084375b404faf0"
],
"FTBFConfigNim_v9" : [
"f2f5a3d142084375b404faf0"
],
"FTBFConfigNim_v10" : [
"f2f5a3d142084375b404faf0"
],
"FTBFConfigNim_v11" : [
"f2f5a3d142084375b404faf0"
],
"FTBFConfigNim_v12" : [
"f2f5a3d142084375b404faf0"
],
"FTBFConfigNim_v13" : [
"f2f5a3d142084375b404faf0"
],
"FTBFConfigNim_v14" : [
"f2f5a3d142084375b404faf0"
],
"FTBFConfigNim_v15" : [
"f2f5a3d142084375b404faf0"
],
"FTBFConfigNim_v16" : [
"f2f5a3d142084375b404faf0"
],
"FTBFConfigNim_v17" : [
"f2f5a3d142084375b404faf0"
],
"FTBFConfigNim_v18" : [
"f2f5a3d142084375b404faf0"
],
"FTBFConfigNim_v19" : [
"f2f5a3d142084375b404faf0"
],
"FTBFConfigNim_v20" : [
"f2f5a3d142084375b404faf0"
],
"FTBFConfigNim_v21" : [
"f2f5a3d142084375b404faf0"
],
"FTBFConfigNim_v22" : [
"f2f5a3d142084375b404faf0"
],
"FTBFConfigNim_v23" : [
"f2f5a3d142084375b404faf0"
],
"FTBFConfigNim_v24" : [
"f2f5a3d142084375b404faf0"
],
"FTBFConfigNim_v25" : [
"f2f5a3d142084375b404faf0"
],
"FTBFConfigNim_v26" : [
"f2f5a3d142084375b404faf0"
],
"FTBFConfigNim_v27" : [
"f2f5a3d142084375b404faf0"
],
"FTBFConfigNim_v28" : [
"f2f5a3d142084375b404faf0"
],
"FTBFConfigNim_v29" : [
"f2f5a3d142084375b404faf0"
],
"FTBFConfig_v71" : [
"f2f5a3d142084375b404faf0"
],
"FTBFConfig_v72" : [
"f2f5a3d142084375b404faf0"
],
"FTBFConfig_v73" : [
"f2f5a3d142084375b404faf0"
],
"FTBFConfig_v75" : [
"f2f5a3d142084375b404faf0"
],
"FTBFConfig_v76" : [
"f2f5a3d142084375b404faf0"
],
"FTBFConfig_v77" : [
"f2f5a3d142084375b404faf0"
],
"FTBFConfig_v78" : [
"f2f5a3d142084375b404faf0"
],
"FTBFConfig_v79" : [
"f2f5a3d142084375b404faf0"
],
"FTBFConfig_v80" : [
"f2f5a3d142084375b404faf0"
],
"FTBFConfig_v81" : [
"f2f5a3d142084375b404faf0"
],
"FTBFConfig_v82" : [
"f2f5a3d142084375b404faf0"
],
"FTBFConfig_v83" : [
"f2f5a3d142084375b404faf0"
],
"FTBFConfig_v84" : [
"f2f5a3d142084375b404faf0"
],
"FTBFConfig_v85" : [
"f2f5a3d142084375b404faf0"
],
"FTBFConfig_v86" : [
"f2f5a3d142084375b404faf0"
],
"FTBFConfig_v87" : [
"f2f5a3d142084375b404faf0"
],
"FTBFConfig_v88" : [
"f2f5a3d142084375b404faf0"
],
"FTBFConfig_v89" : [
"f2f5a3d142084375b404faf0"
],
"FTBFConfig_v90" : [
"f2f5a3d142084375b404faf0"
],
"FTBFConfig_v91" : [
"f2f5a3d142084375b404faf0"
],
"FTBFConfig_v92" : [
"f2f5a3d142084375b404faf0"
],
"FTBFConfig_v93" : [
"f2f5a3d142084375b404faf0"
],
"FTBFConfig_v94" : [
"f2f5a3d142084375b404faf0"
],
"FTBFConfig_v95" : [
"f2f5a3d142084375b404faf0"
],
"FTBFConfig_v96" : [
"f2f5a3d142084375b404faf0"
],
"FTBFConfig_v97" : [
"f2f5a3d142084375b404faf0"
],
"FTBFConfig_v98" : [
"f2f5a3d142084375b404faf0"
],
"FTBFConfig_v99" : [
"f2f5a3d142084375b404faf0"
],
"FTBFConfig_v100" : [
"f2f5a3d142084375b404faf0"
],
"FTBFConfig_v101" : [
"f2f5a3d142084375b404faf0"
],
"FTBFConfig_v102" : [
"f2f5a3d142084375b404faf0"
],
"FTBFConfig_v103" : [
"f2f5a3d142084375b404faf0"
],
"FTBFConfig_v104" : [
"f2f5a3d142084375b404faf0"
],
"FTBFConfig_v105" : [
"f2f5a3d142084375b404faf0"
],
"FTBFConfig_v106" : [
"f2f5a3d142084375b404faf0"
],
"FTBFConfig_v107" : [
"f2f5a3d142084375b404faf0"
],
"FTBFConfig_v108" : [
"f2f5a3d142084375b404faf0"
],
"FTBFConfig_v109" : [
"f2f5a3d142084375b404faf0"
],
"FTBFConfig_v110" : [
"f2f5a3d142084375b404faf0"
],
"FTBFConfig_v111" : [
"f2f5a3d142084375b404faf0"
],
"FTBFConfig_v112" : [
"f2f5a3d142084375b404faf0"
],
"FTBFConfig_v113" : [
"f2f5a3d142084375b404faf0"
],
"FTBFConfig_v114" : [
"f2f5a3d142084375b404faf0"
],
"FTBFConfig_v115" : [
"f2f5a3d142084375b404faf0"
],
"FTBFConfig_v116" : [
"f2f5a3d142084375b404faf0"
],
"FTBFConfig_v117" : [
"f2f5a3d142084375b404faf0"
],
"FTBFConfig_v118" : [
"f2f5a3d142084375b404faf0"
],
"FTBFConfig_v119" : [
"f2f5a3d142084375b404faf0"
],
"FTBFConfig_v120" : [
"f2f5a3d142084375b404faf0"
],
"FTBFConfig_v121" : [
"f2f5a3d142084375b404faf0"
],
"FTBFConfig_v122" : [
"f2f5a3d142084375b404faf0"
],
"FTBFConfig_v123" : [
"f2f5a3d142084375b404faf0"
],
"FTBFConfig_v124" : [
"f2f5a3d142084375b404faf0"
],
"FTBFConfig_v125" : [
"f2f5a3d142084375b404faf0"
],
"FTBFConfig_v126" : [
"f2f5a3d142084375b404faf0"
],
"FTBFConfig_v127" : [
"f2f5a3d142084375b404faf0"
],
"FTBFConfig_v128" : [
"f2f5a3d142084375b404faf0"
],
"FTBFConfig_v129" : [
"f2f5a3d142084375b404faf0"
],
"FTBFConfig_v130" : [
"f2f5a3d142084375b404faf0"
],
"FTBFConfig_v131" : [
"f2f5a3d142084375b404faf0"
],
"FTBFConfig_v132" : [
"f2f5a3d142084375b404faf0"
],
"FTBFConfig_v133" : [
"f2f5a3d142084375b404faf0"
],
"FTBFConfig_v134" : [
"f2f5a3d142084375b404faf0"
],
"FTBFConfig_v135" : [
"f2f5a3d142084375b404faf0"
],
"FTBFConfig_v136" : [
"f2f5a3d142084375b404faf0"
],
"FTBFConfig_v137" : [
"f2f5a3d142084375b404faf0"
],
"FTBFConfig_v138" : [
"f2f5a3d142084375b404faf0"
],
"FTBFConfig_v139" : [
"f2f5a3d142084375b404faf0"
],
"FTBFConfig_v140" : [
"f2f5a3d142084375b404faf0"
],
"FTBFConfig_v141" : [
"f2f5a3d142084375b404faf0"
],
"FTBFConfig_v142" : [
"f2f5a3d142084375b404faf0"
]
},
"entities.name" : {
"OTSROOT" : [
"8f54266223f44e0aafa7ba56",
"f2f5a3d142084375b404faf0"
]
},
"aliases.active.name" : {

},
"runs.name" : {

},
"configurations.assigned" : {
"notprovided" : [
"2017-11-08T15:56:04.560-0600",
"2017-11-17T17:26:41.603-0600"
],
"FTBFConfig_v0" : [
"2017-11-08T15:56:07.579-0600"
],
"FTBFConfig_v1" : [
"2017-11-09T09:56:32.513-0600"
],
"FTBFConfig_v2" : [
"2017-11-09T10:06:01.519-0600"
],
"FTBFConfig_v3" : [
"2017-11-09T10:37:13.122-0600"
],
"FTBFConfig_v4" : [
"2017-11-15T11:30:11.985-0600"
],
"FTBFConfig_v5" : [
"2017-11-15T11:54:58.870-0600"
],
"FTBFConfig_v6" : [
"2017-11-15T11:57:51.479-0600"
],
"FTBFConfig_v7" : [
"2017-11-15T12:42:33.938-0600"
],
"FTBFConfig_v8" : [
"2017-11-15T13:01:05.001-0600"
],
"FTBFConfig_v9" : [
"2017-11-15T13:02:58.407-0600"
],
"FTBFConfig_v10" : [
"2017-11-15T13:04:25.957-0600"
],
"FTBFConfig_v11" : [
"2017-11-15T13:07:53.512-0600"
],
"FTBFConfig_v12" : [
"2017-11-15T13:12:00.964-0600"
],
"FTBFConfig_v13" : [
"2017-11-15T13:13:54.971-0600"
],
"FTBFConfig_v14" : [
"2017-11-15T13:27:36.788-0600"
],
"FTBFConfig_v15" : [
"2017-11-15T13:35:48.982-0600"
],
"FTBFConfig_v16" : [
"2017-11-15T13:36:53.565-0600"
],
"FTBFConfig_v17" : [
"2017-11-15T15:33:32.150-0600"
],
"FTBFConfig_v18" : [
"2017-11-15T15:35:35.791-0600"
],
"FTBFConfig_v19" : [
"2017-11-15T15:38:04.642-0600"
],
"FTBFConfig_v20" : [
"2017-11-15T16:26:32.711-0600"
],
"FTBFConfig_v21" : [
"2017-11-16T09:22:33.499-0600"
],
"FTBFConfig_v22" : [
"2017-11-17T10:23:29.723-0600"
],
"FTBFConfig_v23" : [
"2017-11-17T17:26:47.377-0600"
],
"FTBFConfig_v24" : [
"2017-11-17T17:58:27.929-0600"
],
"FTBFConfig_v25" : [
"2017-11-17T18:24:47.646-0600"
],
"FTBFConfig_v26" : [
"2017-11-17T18:32:25.845-0600"
],
"FTBFConfig_v27" : [
"2017-11-17T18:43:33.039-0600"
],
"FTBFConfig_v28" : [
"2017-11-17T18:48:35.113-0600"
],
"FTBFConfig_v29" : [
"2017-11-20T14:48:33.105-0600"
],
"FTBFConfig_v30" : [
"2017-11-20T15:39:58.138-0600"
],
"FTBFConfig_v31" : [
"2017-11-20T16:41:04.172-0600"
],
"FTBFConfig_v32" : [
"2017-11-20T18:55:37.134-0600"
],
"FTBFConfig_v33" : [
"2017-11-20T18:57:32.476-0600"
],
"FTBFConfig_v34" : [
"2017-11-29T17:50:41.946-0600"
],
"FTBFConfig_v35" : [
"2017-11-29T18:00:35.039-0600"
],
"FTBFConfig_v36" : [
"2017-11-29T18:35:13.624-0600"
],
"FTBFConfig_v37" : [
"2017-12-01T09:36:20.613-0600"
],
"FTBFConfig_v38" : [
"2017-12-01T09:52:03.483-0600"
],
"FTBFConfig_v39" : [
"2017-12-01T11:52:00.750-0600"
],
"FTBFConfig_v40" : [
"2017-12-01T12:18:22.916-0600"
],
"FTBFConfig_v41" : [
"2017-12-01T12:21:04.862-0600"
],
"FTBFConfig_v42" : [
"2017-12-01T12:43:24.377-0600"
],
"FTBFConfig_v43" : [
"2017-12-01T12:58:02.384-0600"
],
"FTBFConfig_v44" : [
"2017-12-01T13:00:54.849-0600"
],
"FTBFConfig_v45" : [
"2017-12-01T13:25:51.515-0600"
],
"FTBFConfig_v46" : [
"2017-12-01T13:35:46.299-0600"
],
"FTBFConfig_v47" : [
"2017-12-01T14:00:54.402-0600"
],
"FTBFConfig_v48" : [
"2017-12-01T14:04:01.767-0600"
],
"FTBFConfig_v49" : [
"2017-12-01T15:32:01.952-0600"
],
"FTBFConfig_v52" : [
"2017-12-01T15:37:35.555-0600"
],
"FTBFConfig_v53" : [
"2017-12-01T15:41:01.484-0600"
],
"FTBFConfig_v54" : [
"2017-12-01T15:52:51.781-0600"
],
"FTBFConfig_v55" : [
"2017-12-01T15:54:37.008-0600"
],
"FTBFConfig_v56" : [
"2017-12-01T15:55:36.571-0600"
],
"FTBFConfig_v57" : [
"2017-12-01T15:56:42.464-0600"
],
"FTBFConfig_v58" : [
"2017-12-01T15:57:40.570-0600"
],
"FTBFConfig_v59" : [
"2017-12-01T15:58:32.389-0600"
],
"FTBFConfig_v60" : [
"2017-12-01T15:59:33.659-0600"
],
"FTBFConfig_v61" : [
"2017-12-01T16:19:43.534-0600"
],
"FTBFConfig_v62" : [
"2017-12-01T16:22:05.963-0600"
],
"FTBFConfig_v63" : [
"2017-12-01T16:31:26.631-0600"
],
"FTBFConfig_v64" : [
"2017-12-01T17:06:34.006-0600"
],
"FTBFConfig_v65" : [
"2017-12-01T17:32:46.191-0600"
],
"FTBFConfig_v66" : [
"2017-12-01T20:38:52.622-0600"
],
"FTBFConfig_v67" : [
"2017-12-01T21:25:03.913-0600"
],
"FTBFConfig_v68" : [
"2017-12-01T21:43:03.653-0600"
],
"FTBFConfig_v69" : [
"2017-12-01T21:45:02.239-0600"
],
"FTBFConfig_v70" : [
"2017-12-01T21:59:21.560-0600"
],
"FTBFConfigNim_v0" : [
"2017-12-01T22:00:08.300-0600"
],
"FTBFConfigNim_v1" : [
"2017-12-01T22:13:10.167-0600"
],
"FTBFConfigNim_v2" : [
"2017-12-01T22:15:57.316-0600"
],
"FTBFConfigNim_v3" : [
"2017-12-01T22:17:05.891-0600"
],
"FTBFConfigNim_v4" : [
"2017-12-01T22:19:08.421-0600"
],
"FTBFConfigNim_v5" : [
"2017-12-01T22:21:59.235-0600"
],
"FTBFConfigNim_v6" : [
"2017-12-01T22:23:17.736-0600"
],
"FTBFConfigNim_v7" : [
"2017-12-01T22:25:19.253-0600"
],
"FTBFConfigNim_v8" : [
"2017-12-01T22:27:06.934-0600"
],
"FTBFConfigNim_v9" : [
"2017-12-01T22:29:31.210-0600"
],
"FTBFConfigNim_v10" : [
"2017-12-01T22:52:36.582-0600"
],
"FTBFConfigNim_v11" : [
"2017-12-01T22:57:31.071-0600"
],
"FTBFConfigNim_v12" : [
"2017-12-01T23:00:09.307-0600"
],
"FTBFConfigNim_v13" : [
"2017-12-01T23:52:37.435-0600"
],
"FTBFConfigNim_v14" : [
"2017-12-01T23:58:11.919-0600"
],
"FTBFConfigNim_v15" : [
"2017-12-02T00:00:36.132-0600"
],
"FTBFConfigNim_v16" : [
"2017-12-02T00:13:11.378-0600"
],
"FTBFConfigNim_v17" : [
"2017-12-02T00:28:30.272-0600"
],
"FTBFConfigNim_v18" : [
"2017-12-02T00:29:36.363-0600"
],
"FTBFConfigNim_v19" : [
"2017-12-02T00:31:15.532-0600"
],
"FTBFConfigNim_v20" : [
"2017-12-02T00:57:29.423-0600"
],
"FTBFConfigNim_v21" : [
"2017-12-02T10:58:03.996-0600"
],
"FTBFConfigNim_v22" : [
"2017-12-02T11:08:20.170-0600"
],
"FTBFConfigNim_v23" : [
"2017-12-02T11:12:41.811-0600"
],
"FTBFConfigNim_v24" : [
"2017-12-02T11:18:44.704-0600"
],
"FTBFConfigNim_v25" : [
"2017-12-02T11:27:07.916-0600"
],
"FTBFConfigNim_v26" : [
"2017-12-02T11:38:38.999-0600"
],
"FTBFConfigNim_v27" : [
"2017-12-02T11:49:10.231-0600"
],
"FTBFConfigNim_v28" : [
"2017-12-02T11:55:11.763-0600"
],
"FTBFConfigNim_v29" : [
"2017-12-02T12:06:28.612-0600"
],
"FTBFConfig_v71" : [
"2017-12-02T12:24:17.172-0600"
],
"FTBFConfig_v72" : [
"2017-12-02T12:43:38.110-0600"
],
"FTBFConfig_v73" : [
"2017-12-02T13:55:37.812-0600"
],
"FTBFConfig_v75" : [
"2017-12-02T14:12:20.998-0600"
],
"FTBFConfig_v76" : [
"2017-12-02T19:05:56.001-0600"
],
"FTBFConfig_v77" : [
"2017-12-02T19:12:15.854-0600"
],
"FTBFConfig_v78" : [
"2017-12-03T14:03:50.986-0600"
],
"FTBFConfig_v79" : [
"2017-12-03T14:09:09.318-0600"
],
"FTBFConfig_v80" : [
"2017-12-03T14:11:13.089-0600"
],
"FTBFConfig_v81" : [
"2017-12-03T14:22:36.097-0600"
],
"FTBFConfig_v82" : [
"2017-12-03T14:40:40.942-0600"
],
"FTBFConfig_v83" : [
"2017-12-03T14:45:08.305-0600"
],
"FTBFConfig_v84" : [
"2017-12-04T14:51:33.532-0600"
],
"FTBFConfig_v85" : [
"2017-12-04T14:55:46.766-0600"
],
"FTBFConfig_v86" : [
"2017-12-04T16:51:09.844-0600"
],
"FTBFConfig_v87" : [
"2017-12-04T16:56:50.484-0600"
],
"FTBFConfig_v88" : [
"2017-12-04T17:01:15.268-0600"
],
"FTBFConfig_v89" : [
"2017-12-04T17:04:00.391-0600"
],
"FTBFConfig_v90" : [
"2017-12-04T17:07:20.127-0600"
],
"FTBFConfig_v91" : [
"2017-12-04T17:09:29.223-0600"
],
"FTBFConfig_v92" : [
"2017-12-04T17:11:41.746-0600"
],
"FTBFConfig_v93" : [
"2017-12-04T21:05:24.242-0600"
],
"FTBFConfig_v94" : [
"2017-12-04T21:17:15.306-0600"
],
"FTBFConfig_v95" : [
"2017-12-04T21:41:20.911-0600"
],
"FTBFConfig_v96" : [
"2017-12-04T22:39:05.574-0600"
],
"FTBFConfig_v97" : [
"2017-12-04T23:01:16.119-0600"
],
"FTBFConfig_v98" : [
"2017-12-07T11:07:50.069-0600"
],
"FTBFConfig_v99" : [
"2017-12-07T11:50:02.755-0600"
],
"FTBFConfig_v100" : [
"2017-12-07T11:58:29.489-0600"
],
"FTBFConfig_v101" : [
"2017-12-08T13:30:51.676-0600"
],
"FTBFConfig_v102" : [
"2017-12-08T13:32:38.578-0600"
],
"FTBFConfig_v103" : [
"2017-12-12T11:03:08.419-0600"
],
"FTBFConfig_v104" : [
"2017-12-12T13:51:03.028-0600"
],
"FTBFConfig_v105" : [
"2017-12-12T15:25:09.002-0600"
],
"FTBFConfig_v106" : [
"2017-12-13T10:24:27.285-0600"
],
"FTBFConfig_v107" : [
"2017-12-13T10:27:05.947-0600"
],
"FTBFConfig_v108" : [
"2018-02-01T21:14:29.782-0600"
],
"FTBFConfig_v109" : [
"2018-02-01T21:21:06.917-0600"
],
"FTBFConfig_v110" : [
"2018-02-02T11:25:37.962-0600"
],
"FTBFConfig_v111" : [
"2018-02-02T11:37:16.767-0600"
],
"FTBFConfig_v112" : [
"2018-02-02T11:47:19.288-0600"
],
"FTBFConfig_v113" : [
"2018-02-02T11:53:40.528-0600"
],
"FTBFConfig_v114" : [
"2018-02-02T12:00:56.707-0600"
],
"FTBFConfig_v115" : [
"2018-02-02T12:27:18.127-0600"
],
"FTBFConfig_v116" : [
"2018-02-02T14:28:57.670-0600"
],
"FTBFConfig_v117" : [
"2018-02-02T14:30:24.037-0600"
],
"FTBFConfig_v118" : [
"2018-02-02T14:34:05.289-0600"
],
"FTBFConfig_v119" : [
"2018-02-02T14:36:31.894-0600"
],
"FTBFConfig_v120" : [
"2018-02-02T14:38:45.318-0600"
],
"FTBFConfig_v121" : [
"2018-02-02T14:41:54.636-0600"
],
"FTBFConfig_v122" : [
"2018-02-02T14:50:28.686-0600"
],
"FTBFConfig_v123" : [
"2018-02-02T14:53:01.583-0600"
],
"FTBFConfig_v124" : [
"2018-02-02T14:59:54.894-0600"
],
"FTBFConfig_v125" : [
"2018-02-02T15:04:13.028-0600"
],
"FTBFConfig_v126" : [
"2018-02-02T15:50:16.359-0600"
],
"FTBFConfig_v127" : [
"2018-02-02T15:51:35.817-0600"
],
"FTBFConfig_v128" : [
"2018-02-02T15:52:40.933-0600"
],
"FTBFConfig_v129" : [
"2018-02-02T16:02:49.929-0600"
],
"FTBFConfig_v130" : [
"2018-02-02T16:08:49.450-0600"
],
"FTBFConfig_v131" : [
"2018-02-02T16:11:35.306-0600"
],
"FTBFConfig_v132" : [
"2018-02-02T16:13:03.186-0600"
],
"FTBFConfig_v133" : [
"2018-02-02T16:14:33.851-0600"
],
"FTBFConfig_v134" : [
"2018-02-02T16:26:26.752-0600"
],
"FTBFConfig_v135" : [
"2018-02-02T16:27:13.842-0600"
],
"FTBFConfig_v136" : [
"2018-02-02T16:29:35.205-0600"
],
"FTBFConfig_v137" : [
"2018-02-02T16:31:45.874-0600"
],
"FTBFConfig_v138" : [
"2018-02-02T16:34:18.526-0600"
],
"FTBFConfig_v139" : [
"2018-02-02T17:39:34.599-0600"
],
"FTBFConfig_v140" : [
"2018-02-02T17:42:56.818-0600"
],
"FTBFConfig_v141" : [
"2018-02-02T17:47:42.019-0600"
],
"FTBFConfig_v142" : [
"2018-02-02T17:54:06.031-0600"
]
}
}