{
"document" : {
"data" : {
"NAME" : "DATA_PROCESSOR_TABLE",
"COMMENT" : "No comment.",
"AUTHOR" : "admin",
"CREATION_TIME" : 1563824589,
"COL_TYPES" : {
"DATA_PROCESSOR_GROUP_ID" : "VARCHAR2",
"PROCESSOR_UID" : "VARCHAR2",
"PROCESSOR_TYPE" : "VARCHAR2",
"PROCESSOR_PLUGIN_NAME" : "VARCHAR2",
"LINK_TO_PROCESSOR_TABLE" : "VARCHAR2",
"LINK_TO_PROCESSOR_UID" : "VARCHAR2",
"STATUS" : "VARCHAR2",
"COMMENT_DESCRIPTION" : "VARCHAR2",
"AUTHOR" : "VARCHAR2",
"RECORD_INSERTION_TIME" : "TIMESTAMP WITH TIMEZONE"
},
"DATA_SET" : [
{
"DATA_PROCESSOR_GROUP_ID" : "OuterTrackerDataBuffer0",
"PROCESSOR_UID" : "OuterTrackerDataBuffer0Listener0",
"PROCESSOR_TYPE" : "Producer",
"PROCESSOR_PLUGIN_NAME" : "UDPDataListenerProducer",
"LINK_TO_PROCESSOR_TABLE" : "UDPDataListenerProducerTable",
"LINK_TO_PROCESSOR_UID" : "OuterTrackerDataBuffer0Listener0",
"STATUS" : "On",
"COMMENT_DESCRIPTION" : "",
"AUTHOR" : "admin",
"RECORD_INSERTION_TIME" : "1550771721"
},
{
"DATA_PROCESSOR_GROUP_ID" : "OuterTrackerDataBuffer0",
"PROCESSOR_UID" : "OuterTrackerDataBuffer0RawDataSaver0",
"PROCESSOR_TYPE" : "Consumer",
"PROCESSOR_PLUGIN_NAME" : "RawDataSaverConsumer",
"LINK_TO_PROCESSOR_TABLE" : "RawDataSaverConsumerTable",
"LINK_TO_PROCESSOR_UID" : "OuterTrackerDataBuffer0RawDataSaver0",
"STATUS" : "On",
"COMMENT_DESCRIPTION" : "",
"AUTHOR" : "admin",
"RECORD_INSERTION_TIME" : "1550866562"
},
{
"DATA_PROCESSOR_GROUP_ID" : "VisualDataBuffer",
"PROCESSOR_UID" : "VisualDataBufferListener",
"PROCESSOR_TYPE" : "Producer",
"PROCESSOR_PLUGIN_NAME" : "UDPDataListenerProducer",
"LINK_TO_PROCESSOR_TABLE" : "UDPDataListenerProducerTable",
"LINK_TO_PROCESSOR_UID" : "VisualDataBufferListener",
"STATUS" : "On",
"COMMENT_DESCRIPTION" : "",
"AUTHOR" : "admin",
"RECORD_INSERTION_TIME" : "1550871200"
},
{
"DATA_PROCESSOR_GROUP_ID" : "VisualDataBuffer",
"PROCESSOR_UID" : "VisualDataBufferOTDQMHistos",
"PROCESSOR_TYPE" : "Consumer",
"PROCESSOR_PLUGIN_NAME" : "DQMMiddlewareHistosConsumer",
"LINK_TO_PROCESSOR_TABLE" : "OTDQMHistosConsumerTable",
"LINK_TO_PROCESSOR_UID" : "VisualDataBufferOTDQMHistos",
"STATUS" : "On",
"COMMENT_DESCRIPTION" : "",
"AUTHOR" : "admin",
"RECORD_INSERTION_TIME" : "1563824589"
}
]
},
"metadata" : {

},
"search" : [

]
},
"comments" : [

],
"origin" : {
"source" : "template",
"name" : "notprovided",
"format" : "json",
"created" : "2019-07-22T14:43:09.701-0500",
"rawdata" : [

]
},
"version" : "2",
"entities" : [
{
"name" : "OTSROOT",
"assigned" : "2019-07-22T14:43:09.702-0500"
}
],
"configurations" : [
{
"name" : "notprovided",
"assigned" : "2019-07-22T14:43:09.701-0500"
},
{
"name" : "DefaultConfig_v3",
"assigned" : "2019-07-22T14:43:10.116-0500"
},
{
"name" : "DefaultConfig_v6",
"assigned" : "2019-07-23T09:00:31.829-0500"
},
{
"name" : "DefaultConfig_v7",
"assigned" : "2019-07-23T09:04:43.538-0500"
}
],
"changelog" : "notprovided",
"bookkeeping" : {
"isdeleted" : false,
"isreadonly" : false,
"updates" : [
{
"event" : "addConfiguration",
"timestamp" : "2019-07-22T14:43:09.702-0500",
"value" : {
"name" : "notprovided",
"assigned" : "2019-07-22T14:43:09.701-0500"
}
},
{
"event" : "setVersion",
"timestamp" : "2019-07-22T14:43:09.702-0500",
"value" : {
"name" : "2",
"assigned" : "2019-07-22T14:43:09.702-0500"
}
},
{
"event" : "setCollection",
"timestamp" : "2019-07-22T14:43:09.702-0500",
"value" : {
"name" : "DataProcessorTable",
"assigned" : "2019-07-22T14:43:09.702-0500"
}
},
{
"event" : "addEntity",
"timestamp" : "2019-07-22T14:43:09.702-0500",
"value" : {
"name" : "OTSROOT",
"assigned" : "2019-07-22T14:43:09.702-0500"
}
},
{
"event" : "addConfiguration",
"timestamp" : "2019-07-22T14:43:10.116-0500",
"value" : {
"name" : "DefaultConfig_v3",
"assigned" : "2019-07-22T14:43:10.116-0500"
}
},
{
"event" : "addConfiguration",
"timestamp" : "2019-07-23T09:00:31.829-0500",
"value" : {
"name" : "DefaultConfig_v6",
"assigned" : "2019-07-23T09:00:31.829-0500"
}
},
{
"event" : "addConfiguration",
"timestamp" : "2019-07-23T09:04:43.538-0500",
"value" : {
"name" : "DefaultConfig_v7",
"assigned" : "2019-07-23T09:04:43.538-0500"
}
}
],
"created" : "2019-07-22T14:43:09.701-0500"
},
"_id" : {
"$oid" : "153416333f0d48798f6103a8"
},
"collection" : "DataProcessorTable",
"aliases" : {
"active" : [

],
"history" : [

]
},
"runs" : [

],
"attachments" : [

],
"configtype" : "notprovided"
}