{
"document" : {
"data" : {
"NAME" : "DATA_PROCESSOR_TABLE",
"COMMENT" : "No comment.",
"AUTHOR" : "admin",
"CREATION_TIME" : 1619793351,
"COL_TYPES" : {
"DATA_PROCESSOR_GROUP_ID" : "STRING",
"PROCESSOR_UID" : "STRING",
"PROCESSOR_TYPE" : "STRING",
"PROCESSOR_PLUGIN_NAME" : "STRING",
"LINK_TO_PROCESSOR_TABLE" : "STRING",
"LINK_TO_PROCESSOR_UID" : "STRING",
"STATUS" : "STRING",
"COMMENT_DESCRIPTION" : "STRING",
"AUTHOR" : "STRING",
"RECORD_INSERTION_TIME" : "TIMESTAMP WITH TIMEZONE"
},
"DATA_SET" : [
{
"DATA_PROCESSOR_GROUP_ID" : "OuterTrackerDataBuffer0",
"PROCESSOR_UID" : "OuterTrackerDataBuffer0Listener0",
"PROCESSOR_TYPE" : "Producer",
"PROCESSOR_PLUGIN_NAME" : "UDPDataListenerProducer",
"LINK_TO_PROCESSOR_TABLE" : "UDPDataListenerProducerTable",
"LINK_TO_PROCESSOR_UID" : "OuterTrackerDataBuffer0Listener0",
"STATUS" : "On",
"COMMENT_DESCRIPTION" : "",
"AUTHOR" : "admin",
"RECORD_INSERTION_TIME" : "1550771721"
},
{
"DATA_PROCESSOR_GROUP_ID" : "OuterTrackerDataBuffer0",
"PROCESSOR_UID" : "OuterTrackerDataBuffer0RawDataSaver0",
"PROCESSOR_TYPE" : "Consumer",
"PROCESSOR_PLUGIN_NAME" : "RawDataSaverConsumer",
"LINK_TO_PROCESSOR_TABLE" : "RawDataSaverConsumerTable",
"LINK_TO_PROCESSOR_UID" : "OuterTrackerDataBuffer0RawDataSaver0",
"STATUS" : "On",
"COMMENT_DESCRIPTION" : "",
"AUTHOR" : "admin",
"RECORD_INSERTION_TIME" : "1550866562"
},
{
"DATA_PROCESSOR_GROUP_ID" : "VisualDataBuffer",
"PROCESSOR_UID" : "VisualDataBufferReceiver",
"PROCESSOR_TYPE" : "Producer",
"PROCESSOR_PLUGIN_NAME" : "TCPDataReceiverProducer",
"LINK_TO_PROCESSOR_TABLE" : "TCPDataReceiverProducerTable",
"LINK_TO_PROCESSOR_UID" : "VisualDataBufferReceiver",
"STATUS" : "On",
"COMMENT_DESCRIPTION" : "",
"AUTHOR" : "admin",
"RECORD_INSERTION_TIME" : "1619793351"
},
{
"DATA_PROCESSOR_GROUP_ID" : "VisualDataBuffer",
"PROCESSOR_UID" : "VisualDataBufferOTDQMHistos",
"PROCESSOR_TYPE" : "Consumer",
"PROCESSOR_PLUGIN_NAME" : "DQMMiddlewareHistosConsumer",
"LINK_TO_PROCESSOR_TABLE" : "OTDQMHistosConsumerTable",
"LINK_TO_PROCESSOR_UID" : "VisualDataBufferOTDQMHistos",
"STATUS" : "Off",
"COMMENT_DESCRIPTION" : "",
"AUTHOR" : "admin",
"RECORD_INSERTION_TIME" : "1574289694"
},
{
"DATA_PROCESSOR_GROUP_ID" : "VisualDataBuffer",
"PROCESSOR_UID" : "VisualDataBufferDQMHistoMakerHistos",
"PROCESSOR_TYPE" : "Consumer",
"PROCESSOR_PLUGIN_NAME" : "DQMHistoMakerConsumer",
"LINK_TO_PROCESSOR_TABLE" : "DQMHistoMakerConsumerTable",
"LINK_TO_PROCESSOR_UID" : "VisualDataBufferHistoMakerHistos",
"STATUS" : "On",
"COMMENT_DESCRIPTION" : "",
"AUTHOR" : "admin",
"RECORD_INSERTION_TIME" : "1574289722"
}
]
},
"metadata" : {

},
"search" : [

]
},
"comments" : [

],
"origin" : {
"source" : "template",
"name" : "notprovided",
"format" : "json",
"created" : "2021-04-30T09:35:51.904-0500",
"rawdata" : [

]
},
"version" : "9",
"entities" : [
{
"name" : "OTSROOT",
"assigned" : "2021-04-30T09:35:51.905-0500"
}
],
"configurations" : [
{
"name" : "notprovided",
"assigned" : "2021-04-30T09:35:51.904-0500"
},
{
"name" : "DefaultConfig_v27",
"assigned" : "2021-04-30T09:36:19.333-0500"
}
],
"changelog" : "notprovided",
"bookkeeping" : {
"isdeleted" : false,
"isreadonly" : false,
"updates" : [
{
"event" : "addConfiguration",
"timestamp" : "2021-04-30T09:35:51.904-0500",
"value" : {
"name" : "notprovided",
"assigned" : "2021-04-30T09:35:51.904-0500"
}
},
{
"event" : "setVersion",
"timestamp" : "2021-04-30T09:35:51.904-0500",
"value" : {
"name" : "9",
"assigned" : "2021-04-30T09:35:51.904-0500"
}
},
{
"event" : "setCollection",
"timestamp" : "2021-04-30T09:35:51.905-0500",
"value" : {
"name" : "DataProcessorTable",
"assigned" : "2021-04-30T09:35:51.905-0500"
}
},
{
"event" : "addEntity",
"timestamp" : "2021-04-30T09:35:51.905-0500",
"value" : {
"name" : "OTSROOT",
"assigned" : "2021-04-30T09:35:51.905-0500"
}
},
{
"event" : "addConfiguration",
"timestamp" : "2021-04-30T09:36:19.333-0500",
"value" : {
"name" : "DefaultConfig_v27",
"assigned" : "2021-04-30T09:36:19.333-0500"
}
}
],
"created" : "2021-04-30T09:35:51.904-0500"
},
"_id" : {
"$oid" : "a053194cccf5412498e8cc0d"
},
"collection" : "DataProcessorTable",
"aliases" : {
"active" : [

],
"history" : [

]
},
"runs" : [

],
"attachments" : [

],
"configtype" : "notprovided"
}