{
"ouid" : [
"153416333f0d48798f6103a8",
"380c664ac08e4eb7b40fb5bf",
"4385ca89defa47c4b0060132",
"4749977496d647079f78f180",
"793a3a17f6a64c2a892f7d9a",
"a053194cccf5412498e8cc0d",
"aed8aada404241f9bc852d82",
"b057b706c5e64024aa83f8c7",
"bcee6b74aea24de3b6ad0249",
"ee77f74118b94b1bb16b6c31",
"f4c8132bb6584090856a00c0"
],
"version" : {
"1" : [
"f4c8132bb6584090856a00c0"
],
"2" : [
"153416333f0d48798f6103a8"
],
"3" : [
"b057b706c5e64024aa83f8c7"
],
"4" : [
"4749977496d647079f78f180"
],
"5" : [
"aed8aada404241f9bc852d82"
],
"6" : [
"793a3a17f6a64c2a892f7d9a"
],
"7" : [
"bcee6b74aea24de3b6ad0249"
],
"8" : [
"380c664ac08e4eb7b40fb5bf"
],
"9" : [
"a053194cccf5412498e8cc0d"
],
"10" : [
"4385ca89defa47c4b0060132"
],
"11" : [
"ee77f74118b94b1bb16b6c31"
]
},
"configurations.name" : {
"notprovided" : [
"153416333f0d48798f6103a8",
"380c664ac08e4eb7b40fb5bf",
"4385ca89defa47c4b0060132",
"4749977496d647079f78f180",
"793a3a17f6a64c2a892f7d9a",
"a053194cccf5412498e8cc0d",
"aed8aada404241f9bc852d82",
"b057b706c5e64024aa83f8c7",
"bcee6b74aea24de3b6ad0249",
"ee77f74118b94b1bb16b6c31",
"f4c8132bb6584090856a00c0"
],
"DefaultConfig_v1" : [
"f4c8132bb6584090856a00c0"
],
"DefaultConfig_v2" : [
"f4c8132bb6584090856a00c0"
],
"DefaultConfig_v3" : [
"153416333f0d48798f6103a8"
],
"DefaultConfig_v4" : [
"b057b706c5e64024aa83f8c7"
],
"DefaultConfig_v5" : [
"b057b706c5e64024aa83f8c7"
],
"DefaultConfig_v6" : [
"153416333f0d48798f6103a8"
],
"DefaultConfig_v7" : [
"153416333f0d48798f6103a8"
],
"DefaultConfig_v8" : [
"b057b706c5e64024aa83f8c7"
],
"DefaultConfig_v9" : [
"b057b706c5e64024aa83f8c7"
],
"DefaultConfig_v10" : [
"4749977496d647079f78f180"
],
"DefaultConfig_v11" : [
"aed8aada404241f9bc852d82"
],
"DefaultConfig_v12" : [
"793a3a17f6a64c2a892f7d9a"
],
"DefaultConfig_v13" : [
"aed8aada404241f9bc852d82"
],
"DefaultConfig_v14" : [
"bcee6b74aea24de3b6ad0249"
],
"DefaultConfig_v15" : [
"bcee6b74aea24de3b6ad0249"
],
"DefaultConfig_v16" : [
"380c664ac08e4eb7b40fb5bf"
],
"DefaultConfig_v17" : [
"bcee6b74aea24de3b6ad0249"
],
"DefaultConfig_v18" : [
"bcee6b74aea24de3b6ad0249"
],
"DefaultConfig_v19" : [
"bcee6b74aea24de3b6ad0249"
],
"DefaultConfig_v20" : [
"bcee6b74aea24de3b6ad0249"
],
"DefaultConfig_v21" : [
"bcee6b74aea24de3b6ad0249"
],
"DefaultConfig_v22" : [
"bcee6b74aea24de3b6ad0249"
],
"DefaultConfig_v23" : [
"bcee6b74aea24de3b6ad0249"
],
"DefaultConfig_v24" : [
"bcee6b74aea24de3b6ad0249"
],
"DefaultConfig_v25" : [
"bcee6b74aea24de3b6ad0249"
],
"DefaultConfig_v26" : [
"bcee6b74aea24de3b6ad0249"
],
"DefaultConfig_v27" : [
"a053194cccf5412498e8cc0d"
],
"DefaultConfig_v28" : [
"4385ca89defa47c4b0060132"
],
"DefaultConfig_v29" : [
"4385ca89defa47c4b0060132"
],
"DefaultConfig_v30" : [
"4385ca89defa47c4b0060132"
],
"DefaultConfig_v31" : [
"4385ca89defa47c4b0060132"
],
"DefaultConfig_v32" : [
"4385ca89defa47c4b0060132"
],
"DefaultConfig_v33" : [
"4385ca89defa47c4b0060132"
],
"DefaultConfig_v34" : [
"4385ca89defa47c4b0060132"
],
"DefaultConfig_v35" : [
"ee77f74118b94b1bb16b6c31"
],
"DefaultConfig_v36" : [
"ee77f74118b94b1bb16b6c31"
],
"DefaultConfig_v37" : [
"ee77f74118b94b1bb16b6c31"
]
},
"entities.name" : {
"OTSROOT" : [
"153416333f0d48798f6103a8",
"380c664ac08e4eb7b40fb5bf",
"4385ca89defa47c4b0060132",
"4749977496d647079f78f180",
"793a3a17f6a64c2a892f7d9a",
"a053194cccf5412498e8cc0d",
"aed8aada404241f9bc852d82",
"b057b706c5e64024aa83f8c7",
"bcee6b74aea24de3b6ad0249",
"ee77f74118b94b1bb16b6c31",
"f4c8132bb6584090856a00c0"
]
},
"aliases.active.name" : {

},
"runs.name" : {

},
"configurations.assigned" : {
"notprovided" : [
"2019-02-22T16:11:42.700-0600",
"2019-07-22T14:43:09.701-0500",
"2019-07-22T14:47:00.865-0500",
"2019-11-20T15:18:09.745-0600",
"2019-11-20T15:28:11.783-0600",
"2019-11-20T15:58:28.907-0600",
"2019-11-20T16:24:17.971-0600",
"2019-11-20T16:42:09.305-0600",
"2021-04-30T09:35:51.904-0500",
"2021-04-30T11:59:05.003-0500",
"2021-05-12T16:05:32.135-0500"
],
"DefaultConfig_v1" : [
"2019-02-22T16:11:42.996-0600"
],
"DefaultConfig_v2" : [
"2019-07-22T11:27:30.258-0500"
],
"DefaultConfig_v3" : [
"2019-07-22T14:43:10.116-0500"
],
"DefaultConfig_v4" : [
"2019-07-22T14:47:01.283-0500"
],
"DefaultConfig_v5" : [
"2019-07-22T15:05:41.353-0500"
],
"DefaultConfig_v6" : [
"2019-07-23T09:00:31.829-0500"
],
"DefaultConfig_v7" : [
"2019-07-23T09:04:43.538-0500"
],
"DefaultConfig_v8" : [
"2019-07-23T09:48:11.638-0500"
],
"DefaultConfig_v9" : [
"2019-08-07T11:00:29.232-0500"
],
"DefaultConfig_v10" : [
"2019-11-20T15:25:38.393-0600"
],
"DefaultConfig_v11" : [
"2019-11-20T15:28:12.412-0600"
],
"DefaultConfig_v12" : [
"2019-11-20T15:58:29.693-0600"
],
"DefaultConfig_v13" : [
"2019-11-20T16:23:03.421-0600"
],
"DefaultConfig_v14" : [
"2019-11-20T16:24:45.544-0600"
],
"DefaultConfig_v15" : [
"2019-11-20T16:27:46.375-0600"
],
"DefaultConfig_v16" : [
"2019-11-20T16:42:10.912-0600"
],
"DefaultConfig_v17" : [
"2019-12-09T19:33:37.492-0600"
],
"DefaultConfig_v18" : [
"2019-12-10T14:21:50.393-0600"
],
"DefaultConfig_v19" : [
"2021-04-29T11:28:51.702-0500"
],
"DefaultConfig_v20" : [
"2021-04-29T11:36:29.720-0500"
],
"DefaultConfig_v21" : [
"2021-04-29T11:56:50.061-0500"
],
"DefaultConfig_v22" : [
"2021-04-29T12:03:11.716-0500"
],
"DefaultConfig_v23" : [
"2021-04-29T12:06:21.549-0500"
],
"DefaultConfig_v24" : [
"2021-04-29T13:06:39.184-0500"
],
"DefaultConfig_v25" : [
"2021-04-30T09:33:57.007-0500"
],
"DefaultConfig_v26" : [
"2021-04-30T09:34:32.585-0500"
],
"DefaultConfig_v27" : [
"2021-04-30T09:36:19.333-0500"
],
"DefaultConfig_v28" : [
"2021-04-30T11:59:05.913-0500"
],
"DefaultConfig_v29" : [
"2021-04-30T12:10:52.437-0500"
],
"DefaultConfig_v30" : [
"2021-04-30T12:11:38.730-0500"
],
"DefaultConfig_v31" : [
"2021-05-06T17:42:15.268-0500"
],
"DefaultConfig_v32" : [
"2021-05-10T10:42:47.065-0500"
],
"DefaultConfig_v33" : [
"2021-05-10T11:08:52.842-0500"
],
"DefaultConfig_v34" : [
"2021-05-12T15:51:22.920-0500"
],
"DefaultConfig_v35" : [
"2021-05-12T16:11:01.106-0500"
],
"DefaultConfig_v36" : [
"2021-05-14T15:34:24.486-0500"
],
"DefaultConfig_v37" : [
"2021-05-14T16:41:01.129-0500"
]
}
}