{
"ouid" : [
"d05bc2015c904dbaa4a33610"
],
"version" : {
"1" : [
"d05bc2015c904dbaa4a33610"
]
},
"configurations.name" : {
"notprovided" : [
"d05bc2015c904dbaa4a33610"
],
"DefaultConfig_v1" : [
"d05bc2015c904dbaa4a33610"
],
"DefaultConfig_v2" : [
"d05bc2015c904dbaa4a33610"
],
"DefaultConfig_v3" : [
"d05bc2015c904dbaa4a33610"
],
"DefaultConfig_v4" : [
"d05bc2015c904dbaa4a33610"
],
"DefaultConfig_v5" : [
"d05bc2015c904dbaa4a33610"
],
"DefaultConfig_v6" : [
"d05bc2015c904dbaa4a33610"
],
"DefaultConfig_v7" : [
"d05bc2015c904dbaa4a33610"
],
"DefaultConfig_v8" : [
"d05bc2015c904dbaa4a33610"
],
"DefaultConfig_v9" : [
"d05bc2015c904dbaa4a33610"
],
"DefaultConfig_v10" : [
"d05bc2015c904dbaa4a33610"
],
"DefaultConfig_v11" : [
"d05bc2015c904dbaa4a33610"
],
"DefaultConfig_v12" : [
"d05bc2015c904dbaa4a33610"
]
},
"entities.name" : {
"OTSROOT" : [
"d05bc2015c904dbaa4a33610"
]
},
"aliases.active.name" : {

},
"runs.name" : {

},
"configurations.assigned" : {
"notprovided" : [
"2020-07-21T14:27:46.620-0500"
],
"DefaultConfig_v1" : [
"2020-07-21T14:27:47.106-0500"
],
"DefaultConfig_v2" : [
"2020-07-21T14:44:16.833-0500"
],
"DefaultConfig_v3" : [
"2020-07-21T14:57:50.729-0500"
],
"DefaultConfig_v4" : [
"2020-07-28T10:52:34.675-0500"
],
"DefaultConfig_v5" : [
"2020-09-09T19:37:59.962+0200"
],
"DefaultConfig_v6" : [
"2020-09-09T19:46:43.211+0200"
],
"DefaultConfig_v7" : [
"2020-09-09T21:28:06.789+0200"
],
"DefaultConfig_v8" : [
"2020-09-10T19:06:32.830+0200"
],
"DefaultConfig_v9" : [
"2020-09-11T17:53:12.448+0200"
],
"DefaultConfig_v10" : [
"2020-09-15T17:25:16.737+0200"
],
"DefaultConfig_v11" : [
"2020-09-15T17:39:24.380+0200"
],
"DefaultConfig_v12" : [
"2020-11-10T21:07:07.361+0100"
]
}
}