{
"ouid" : [
"4a9e19debdbc4fadaa75538c",
"64fd79d0a4ff433e99610d09"
],
"version" : {
"0" : [
"64fd79d0a4ff433e99610d09"
],
"1" : [
"4a9e19debdbc4fadaa75538c"
]
},
"configurations.name" : {
"notprovided" : [
"4a9e19debdbc4fadaa75538c",
"64fd79d0a4ff433e99610d09"
],
"iterateDefaultGroup_v0" : [
"64fd79d0a4ff433e99610d09"
],
"iterateDefaultGroup_v1" : [
"4a9e19debdbc4fadaa75538c"
],
"iterateDefaultGroup_v2" : [
"4a9e19debdbc4fadaa75538c"
],
"iterateDefaultGroup_v3" : [
"4a9e19debdbc4fadaa75538c"
],
"iterateDefaultGroup_v4" : [
"4a9e19debdbc4fadaa75538c"
],
"iterateDefaultGroup_v5" : [
"4a9e19debdbc4fadaa75538c"
],
"iterateDefaultGroup_v6" : [
"4a9e19debdbc4fadaa75538c"
],
"iterateDefaultGroup_v7" : [
"4a9e19debdbc4fadaa75538c"
],
"iterateDefaultGroup_v8" : [
"4a9e19debdbc4fadaa75538c"
],
"iterateDefaultGroup_v9" : [
"4a9e19debdbc4fadaa75538c"
],
"iterateDefaultGroup_v10" : [
"4a9e19debdbc4fadaa75538c"
],
"iterateDefaultGroup_v11" : [
"4a9e19debdbc4fadaa75538c"
],
"iterateDefaultGroup_v12" : [
"4a9e19debdbc4fadaa75538c"
]
},
"entities.name" : {
"OTSROOT" : [
"4a9e19debdbc4fadaa75538c",
"64fd79d0a4ff433e99610d09"
]
},
"aliases.active.name" : {

},
"runs.name" : {

},
"configurations.assigned" : {
"notprovided" : [
"2020-07-21T14:47:39.012-0500",
"2020-07-21T15:25:07.140-0500"
],
"iterateDefaultGroup_v0" : [
"2020-07-21T14:47:39.484-0500"
],
"iterateDefaultGroup_v1" : [
"2020-07-21T15:25:07.892-0500"
],
"iterateDefaultGroup_v2" : [
"2020-07-21T15:28:04.262-0500"
],
"iterateDefaultGroup_v3" : [
"2020-07-21T15:42:20.516-0500"
],
"iterateDefaultGroup_v4" : [
"2020-07-21T15:45:03.583-0500"
],
"iterateDefaultGroup_v5" : [
"2020-07-21T15:57:33.586-0500"
],
"iterateDefaultGroup_v6" : [
"2020-07-28T10:52:35.075-0500"
],
"iterateDefaultGroup_v7" : [
"2020-07-28T13:01:36.767-0500"
],
"iterateDefaultGroup_v8" : [
"2020-07-28T13:03:26.976-0500"
],
"iterateDefaultGroup_v9" : [
"2020-07-28T13:12:57.942-0500"
],
"iterateDefaultGroup_v10" : [
"2020-07-28T13:15:25.187-0500"
],
"iterateDefaultGroup_v11" : [
"2020-07-28T13:20:57.108-0500"
],
"iterateDefaultGroup_v12" : [
"2020-07-28T13:27:37.693-0500"
]
}
}