{
"ouid" : [
"0226b24a783a4092a65a76aa",
"02db153ab87a433cb2669577",
"0b2450f4bae043889e1f3014",
"0ed9e0e23b784e56937c45b1",
"0fb54aaee0ec4dab86501d38",
"0ff0304041d242eba49dc50c",
"102540225d5e4b3e8ab93855",
"1144b766c76d4731be241438",
"1198f8d0cd714d9cb255b230",
"13f2ce95902a432db357bb8a",
"16212f2a45f443968081a239",
"181d0996261d48cd89c49564",
"18d6b0aab99841fba509d0ff",
"1940fc04e4b74a57bc2e6466",
"1950b39cb8724243b398c9e9",
"1a4767604fb5432189ed36b2",
"1e787fff06a0471c8b38b5d8",
"22e6da7c4ce84f6c9a766bad",
"2472f7b598cd4c3a8af03a56",
"2493e866ec7449a485468ecf",
"256645bec8294087a42cc0dd",
"278ba83740f74f9c96e92199",
"2b25d7b13b164666a9b17aee",
"2b5a0274a4fd48df9b8e0ad5",
"2c5e4981aa394edca92d5ef1",
"2cebeddbde5b4e8abedf3d85",
"31933801926d4fdbb9619c4a",
"345e83b01b344bab925b4ec1",
"34c45f8ba1ae473a934c660f",
"37db36d1ba1245c9ae76bc99",
"3927f5489ba94f51b91e19a5",
"3d6ee1fbee994ec1b82d2254",
"3e091ab253144b239f668e65",
"3e4a6c61f03342bc9ec05aa0",
"3e917fbebc244857a1c181c6",
"3eaada2debb24493a4aba5d5",
"4237238d2afd4e50bae3150e",
"4597d1423d7443d0a74df985",
"47d713feeded4a22b35f3543",
"4838022e0d194746a59ad655",
"4916e96f09ca420e98a517da",
"497563e3da2640a2b09253e0",
"4c43fa10faad4d4d9a77b942",
"4cb660a46b5e4bf39f91a557",
"4ece64364d5b435bb073cbde",
"4f0f85e473274cd59be0a030",
"4f6809fe46724753881c5b6c",
"50dbd6b6f6d247be9ca0c3b3",
"51f15e1dad184c4787bd773b",
"531abcd0a8ab4abdb34ff070",
"552519f18e53441d8794b2f2",
"572aff7fa3e84c5fa593286d",
"59072503b4bb43b99415d405",
"5a59a91c38ad408ea477cb38",
"5c7679f1e5d64fb28cc5aa1f",
"5d8e12a2383744fca79d248f",
"5de998bb0e86430b9d0b814d",
"5e33f5550567479f89cae8e8",
"66bb1675b60041b8a8e69ce4",
"6854f7756353481b9ec50856",
"685c5518a9a749ca8d225147",
"68865406e6bb4ef7b9948974",
"6bbea5a6b5d64725af84877d",
"6cbdcb66fbcb4e099cf26b27",
"6eb9facd443c44f38b5f13f6",
"71fa3958380f4642ab8952bf",
"786d514c29f24734b436a14d",
"7993f124cc44452fb503c021",
"7cefddf2f61b4b9cb00af3cf",
"7f4fd7512bc3492c9ae8a334",
"839186daf5af40ecad8a1fb0",
"83d7e0a0807d4a11a6a7d5e1",
"840316bbcd0e4151ae6390b1",
"87a18dfa62244e24964c3009",
"89243a16f3f84d659fb40d1a",
"8ba28eb13aab43c2b68cd594",
"8dbf199d71414abcb7f2a737",
"8f6e0e7a2ae544e996583166",
"8ff5358300c6471193798c95",
"904a82fdda1946869fbf5467",
"9088901f192b466ab8a409f9",
"97c84f38fd47464683a00dff",
"98ae1fb8352440f483a3bd17",
"98f19707be0c412084baeddb",
"9a90da6cf335497899b2a747",
"9ec995c668ba44a5b6aa89e1",
"a013fa3d2c0b4a43812a60d2",
"a0621a24eb874e72ab3ef9a4",
"a184a7fc90bf4bcc84fa2d48",
"a3679043e01a4c499fe7623b",
"a60c427ae4f3479785a8a0d1",
"ab195ba768b34600a34b5aac",
"ac37acfef7904f9da7eb4514",
"adc6e005bf324b84b4f984bd",
"b398f3a5398046359317ab50",
"b5889e8465c0401f99bc55e5",
"bec41dd3e3ab41fbbf171838",
"bf80f03db0f8415387042f11",
"c33f4249bb574cb0aca9f6fe",
"c380533f10964373988b1c68",
"c5aae96c420746ada95ea927",
"c656922787b643b58c056687",
"c9bcdbbf401c42f18e33d4a2",
"ca5c3db7f72345f68ccc57fa",
"cbb3072f3cf641dc91171250",
"ccc40c801bb2429284487052",
"cf9094efd28841a4a2cfd6a4",
"d1afd7f232ef4b1bbbc3aab4",
"d1b9c4d83b6645bfb5b05dc6",
"d24437c0c7044aaa8461ea94",
"d7fdb927c262491ab3e27308",
"db9d166513db42ba8d909921",
"dc753a8e3a864555bf7cb82a",
"df4a14aca3ee4f35ba7ba173",
"dfba4b635a1249438aabcb22",
"e414d1b5385e4516a41c43f6",
"e5004c5e915b48b8bb4b83ea",
"e7d16e232a4f4877b7515dc5",
"e880f14fc0e742b78a02dfde",
"e880fa22b96d419d8490a152",
"e95cdae24ffa42f8975c57a0",
"e9797b8327514d76beff60bf",
"eb2b8da7bacf4acc853addd6",
"f4853b0e640542fd9ec027a5",
"f5da10dec98f4d57bbf5081f",
"f62ec6cd38ba49b6971dad26",
"f63def0991694f929f18fe54",
"f81d27a3873248a6b5a24921",
"f8564902a05a478ea2550a4f",
"f8b40a87a69b4781b9744c89",
"f9658767c3464b6ea143b08e",
"fa81aaa470484d67a2a77f4f",
"fd26759aaef94b0191a5e10e",
"fe19f26702d340f8a72300b4",
"fe6803fe04da429c942bdd7d",
"fee234be97fc4f908265e575",
"ff0e6c4f2eb948d3a49078ff"
],
"version" : {
"0" : [
"6bbea5a6b5d64725af84877d"
],
"1" : [
"fe6803fe04da429c942bdd7d"
],
"2" : [
"02db153ab87a433cb2669577"
],
"3" : [
"37db36d1ba1245c9ae76bc99"
],
"4" : [
"9ec995c668ba44a5b6aa89e1"
],
"5" : [
"df4a14aca3ee4f35ba7ba173"
],
"6" : [
"f5da10dec98f4d57bbf5081f"
],
"7" : [
"ab195ba768b34600a34b5aac"
],
"8" : [
"ca5c3db7f72345f68ccc57fa"
],
"9" : [
"7f4fd7512bc3492c9ae8a334"
],
"10" : [
"1940fc04e4b74a57bc2e6466"
],
"11" : [
"7993f124cc44452fb503c021"
],
"12" : [
"2b25d7b13b164666a9b17aee"
],
"13" : [
"256645bec8294087a42cc0dd"
],
"14" : [
"e7d16e232a4f4877b7515dc5"
],
"15" : [
"1a4767604fb5432189ed36b2"
],
"16" : [
"fd26759aaef94b0191a5e10e"
],
"17" : [
"71fa3958380f4642ab8952bf"
],
"18" : [
"bf80f03db0f8415387042f11"
],
"19" : [
"cbb3072f3cf641dc91171250"
],
"20" : [
"4c43fa10faad4d4d9a77b942"
],
"21" : [
"fa81aaa470484d67a2a77f4f"
],
"22" : [
"d1b9c4d83b6645bfb5b05dc6"
],
"23" : [
"dfba4b635a1249438aabcb22"
],
"24" : [
"685c5518a9a749ca8d225147"
],
"25" : [
"2b5a0274a4fd48df9b8e0ad5"
],
"26" : [
"4f6809fe46724753881c5b6c"
],
"27" : [
"a0621a24eb874e72ab3ef9a4"
],
"28" : [
"8f6e0e7a2ae544e996583166"
],
"29" : [
"e95cdae24ffa42f8975c57a0"
],
"30" : [
"0ff0304041d242eba49dc50c"
],
"31" : [
"f8b40a87a69b4781b9744c89"
],
"32" : [
"a60c427ae4f3479785a8a0d1"
],
"33" : [
"31933801926d4fdbb9619c4a"
],
"34" : [
"4f0f85e473274cd59be0a030"
],
"35" : [
"839186daf5af40ecad8a1fb0"
],
"36" : [
"4838022e0d194746a59ad655"
],
"37" : [
"5a59a91c38ad408ea477cb38"
],
"38" : [
"102540225d5e4b3e8ab93855"
],
"39" : [
"278ba83740f74f9c96e92199"
],
"40" : [
"b5889e8465c0401f99bc55e5"
],
"41" : [
"51f15e1dad184c4787bd773b"
],
"42" : [
"22e6da7c4ce84f6c9a766bad"
],
"43" : [
"a3679043e01a4c499fe7623b"
],
"44" : [
"d7fdb927c262491ab3e27308"
],
"45" : [
"66bb1675b60041b8a8e69ce4"
],
"46" : [
"eb2b8da7bacf4acc853addd6"
],
"47" : [
"98ae1fb8352440f483a3bd17"
],
"48" : [
"cf9094efd28841a4a2cfd6a4"
],
"49" : [
"98f19707be0c412084baeddb"
],
"50" : [
"5e33f5550567479f89cae8e8"
],
"51" : [
"34c45f8ba1ae473a934c660f"
],
"52" : [
"4237238d2afd4e50bae3150e"
],
"53" : [
"0ed9e0e23b784e56937c45b1"
],
"54" : [
"fee234be97fc4f908265e575"
],
"55" : [
"9088901f192b466ab8a409f9"
],
"56" : [
"2493e866ec7449a485468ecf"
],
"57" : [
"497563e3da2640a2b09253e0"
],
"58" : [
"531abcd0a8ab4abdb34ff070"
],
"59" : [
"b398f3a5398046359317ab50"
],
"60" : [
"c5aae96c420746ada95ea927"
],
"61" : [
"6cbdcb66fbcb4e099cf26b27"
],
"62" : [
"a013fa3d2c0b4a43812a60d2"
],
"63" : [
"8ba28eb13aab43c2b68cd594"
],
"64" : [
"db9d166513db42ba8d909921"
],
"65" : [
"87a18dfa62244e24964c3009"
],
"66" : [
"f63def0991694f929f18fe54"
],
"67" : [
"e414d1b5385e4516a41c43f6"
],
"68" : [
"97c84f38fd47464683a00dff"
],
"69" : [
"d24437c0c7044aaa8461ea94"
],
"70" : [
"ac37acfef7904f9da7eb4514"
],
"71" : [
"1e787fff06a0471c8b38b5d8"
],
"72" : [
"a184a7fc90bf4bcc84fa2d48"
],
"73" : [
"c656922787b643b58c056687"
],
"74" : [
"5d8e12a2383744fca79d248f"
],
"75" : [
"4cb660a46b5e4bf39f91a557"
],
"76" : [
"5c7679f1e5d64fb28cc5aa1f"
],
"77" : [
"2472f7b598cd4c3a8af03a56"
],
"78" : [
"68865406e6bb4ef7b9948974"
],
"79" : [
"18d6b0aab99841fba509d0ff"
],
"80" : [
"d1afd7f232ef4b1bbbc3aab4"
],
"81" : [
"f4853b0e640542fd9ec027a5"
],
"82" : [
"1198f8d0cd714d9cb255b230"
],
"83" : [
"6854f7756353481b9ec50856"
],
"84" : [
"0226b24a783a4092a65a76aa"
],
"85" : [
"ccc40c801bb2429284487052"
],
"86" : [
"3e917fbebc244857a1c181c6"
],
"87" : [
"8dbf199d71414abcb7f2a737"
],
"88" : [
"e880f14fc0e742b78a02dfde"
],
"89" : [
"89243a16f3f84d659fb40d1a"
],
"90" : [
"ff0e6c4f2eb948d3a49078ff"
],
"91" : [
"e9797b8327514d76beff60bf"
],
"92" : [
"fe19f26702d340f8a72300b4"
],
"93" : [
"47d713feeded4a22b35f3543"
],
"94" : [
"e880fa22b96d419d8490a152"
],
"95" : [
"3e091ab253144b239f668e65"
],
"96" : [
"345e83b01b344bab925b4ec1"
],
"97" : [
"4ece64364d5b435bb073cbde"
],
"98" : [
"8ff5358300c6471193798c95"
],
"99" : [
"572aff7fa3e84c5fa593286d"
],
"100" : [
"1950b39cb8724243b398c9e9"
],
"101" : [
"bec41dd3e3ab41fbbf171838"
],
"102" : [
"f62ec6cd38ba49b6971dad26"
],
"103" : [
"3e4a6c61f03342bc9ec05aa0"
],
"104" : [
"840316bbcd0e4151ae6390b1"
],
"105" : [
"9a90da6cf335497899b2a747"
],
"106" : [
"2c5e4981aa394edca92d5ef1"
],
"107" : [
"83d7e0a0807d4a11a6a7d5e1"
],
"108" : [
"50dbd6b6f6d247be9ca0c3b3"
],
"109" : [
"c9bcdbbf401c42f18e33d4a2"
],
"110" : [
"16212f2a45f443968081a239"
],
"111" : [
"3d6ee1fbee994ec1b82d2254"
],
"112" : [
"0b2450f4bae043889e1f3014"
],
"113" : [
"7cefddf2f61b4b9cb00af3cf"
],
"114" : [
"904a82fdda1946869fbf5467"
],
"115" : [
"4916e96f09ca420e98a517da"
],
"116" : [
"f8564902a05a478ea2550a4f"
],
"117" : [
"adc6e005bf324b84b4f984bd"
],
"118" : [
"13f2ce95902a432db357bb8a"
],
"119" : [
"3927f5489ba94f51b91e19a5"
],
"120" : [
"e5004c5e915b48b8bb4b83ea"
],
"121" : [
"0fb54aaee0ec4dab86501d38"
],
"122" : [
"59072503b4bb43b99415d405"
],
"123" : [
"1144b766c76d4731be241438"
],
"124" : [
"c380533f10964373988b1c68"
],
"125" : [
"6eb9facd443c44f38b5f13f6"
],
"126" : [
"dc753a8e3a864555bf7cb82a"
],
"127" : [
"f9658767c3464b6ea143b08e"
],
"128" : [
"786d514c29f24734b436a14d"
],
"129" : [
"c33f4249bb574cb0aca9f6fe"
],
"130" : [
"f81d27a3873248a6b5a24921"
],
"131" : [
"2cebeddbde5b4e8abedf3d85"
],
"132" : [
"5de998bb0e86430b9d0b814d"
],
"133" : [
"552519f18e53441d8794b2f2"
],
"134" : [
"4597d1423d7443d0a74df985"
],
"135" : [
"181d0996261d48cd89c49564"
],
"136" : [
"3eaada2debb24493a4aba5d5"
]
},
"configurations.name" : {
"notprovided" : [
"0226b24a783a4092a65a76aa",
"02db153ab87a433cb2669577",
"0b2450f4bae043889e1f3014",
"0ed9e0e23b784e56937c45b1",
"0fb54aaee0ec4dab86501d38",
"0ff0304041d242eba49dc50c",
"102540225d5e4b3e8ab93855",
"1144b766c76d4731be241438",
"1198f8d0cd714d9cb255b230",
"13f2ce95902a432db357bb8a",
"16212f2a45f443968081a239",
"181d0996261d48cd89c49564",
"18d6b0aab99841fba509d0ff",
"1940fc04e4b74a57bc2e6466",
"1950b39cb8724243b398c9e9",
"1a4767604fb5432189ed36b2",
"1e787fff06a0471c8b38b5d8",
"22e6da7c4ce84f6c9a766bad",
"2472f7b598cd4c3a8af03a56",
"2493e866ec7449a485468ecf",
"256645bec8294087a42cc0dd",
"278ba83740f74f9c96e92199",
"2b25d7b13b164666a9b17aee",
"2b5a0274a4fd48df9b8e0ad5",
"2c5e4981aa394edca92d5ef1",
"2cebeddbde5b4e8abedf3d85",
"31933801926d4fdbb9619c4a",
"345e83b01b344bab925b4ec1",
"34c45f8ba1ae473a934c660f",
"37db36d1ba1245c9ae76bc99",
"3927f5489ba94f51b91e19a5",
"3d6ee1fbee994ec1b82d2254",
"3e091ab253144b239f668e65",
"3e4a6c61f03342bc9ec05aa0",
"3e917fbebc244857a1c181c6",
"3eaada2debb24493a4aba5d5",
"4237238d2afd4e50bae3150e",
"4597d1423d7443d0a74df985",
"47d713feeded4a22b35f3543",
"4838022e0d194746a59ad655",
"4916e96f09ca420e98a517da",
"497563e3da2640a2b09253e0",
"4c43fa10faad4d4d9a77b942",
"4cb660a46b5e4bf39f91a557",
"4ece64364d5b435bb073cbde",
"4f0f85e473274cd59be0a030",
"4f6809fe46724753881c5b6c",
"50dbd6b6f6d247be9ca0c3b3",
"51f15e1dad184c4787bd773b",
"531abcd0a8ab4abdb34ff070",
"552519f18e53441d8794b2f2",
"572aff7fa3e84c5fa593286d",
"59072503b4bb43b99415d405",
"5a59a91c38ad408ea477cb38",
"5c7679f1e5d64fb28cc5aa1f",
"5d8e12a2383744fca79d248f",
"5de998bb0e86430b9d0b814d",
"5e33f5550567479f89cae8e8",
"66bb1675b60041b8a8e69ce4",
"6854f7756353481b9ec50856",
"685c5518a9a749ca8d225147",
"68865406e6bb4ef7b9948974",
"6bbea5a6b5d64725af84877d",
"6cbdcb66fbcb4e099cf26b27",
"6eb9facd443c44f38b5f13f6",
"71fa3958380f4642ab8952bf",
"786d514c29f24734b436a14d",
"7993f124cc44452fb503c021",
"7cefddf2f61b4b9cb00af3cf",
"7f4fd7512bc3492c9ae8a334",
"839186daf5af40ecad8a1fb0",
"83d7e0a0807d4a11a6a7d5e1",
"840316bbcd0e4151ae6390b1",
"87a18dfa62244e24964c3009",
"89243a16f3f84d659fb40d1a",
"8ba28eb13aab43c2b68cd594",
"8dbf199d71414abcb7f2a737",
"8f6e0e7a2ae544e996583166",
"8ff5358300c6471193798c95",
"904a82fdda1946869fbf5467",
"9088901f192b466ab8a409f9",
"97c84f38fd47464683a00dff",
"98ae1fb8352440f483a3bd17",
"98f19707be0c412084baeddb",
"9a90da6cf335497899b2a747",
"9ec995c668ba44a5b6aa89e1",
"a013fa3d2c0b4a43812a60d2",
"a0621a24eb874e72ab3ef9a4",
"a184a7fc90bf4bcc84fa2d48",
"a3679043e01a4c499fe7623b",
"a60c427ae4f3479785a8a0d1",
"ab195ba768b34600a34b5aac",
"ac37acfef7904f9da7eb4514",
"adc6e005bf324b84b4f984bd",
"b398f3a5398046359317ab50",
"b5889e8465c0401f99bc55e5",
"bec41dd3e3ab41fbbf171838",
"bf80f03db0f8415387042f11",
"c33f4249bb574cb0aca9f6fe",
"c380533f10964373988b1c68",
"c5aae96c420746ada95ea927",
"c656922787b643b58c056687",
"c9bcdbbf401c42f18e33d4a2",
"ca5c3db7f72345f68ccc57fa",
"cbb3072f3cf641dc91171250",
"ccc40c801bb2429284487052",
"cf9094efd28841a4a2cfd6a4",
"d1afd7f232ef4b1bbbc3aab4",
"d1b9c4d83b6645bfb5b05dc6",
"d24437c0c7044aaa8461ea94",
"d7fdb927c262491ab3e27308",
"db9d166513db42ba8d909921",
"dc753a8e3a864555bf7cb82a",
"df4a14aca3ee4f35ba7ba173",
"dfba4b635a1249438aabcb22",
"e414d1b5385e4516a41c43f6",
"e5004c5e915b48b8bb4b83ea",
"e7d16e232a4f4877b7515dc5",
"e880f14fc0e742b78a02dfde",
"e880fa22b96d419d8490a152",
"e95cdae24ffa42f8975c57a0",
"e9797b8327514d76beff60bf",
"eb2b8da7bacf4acc853addd6",
"f4853b0e640542fd9ec027a5",
"f5da10dec98f4d57bbf5081f",
"f62ec6cd38ba49b6971dad26",
"f63def0991694f929f18fe54",
"f81d27a3873248a6b5a24921",
"f8564902a05a478ea2550a4f",
"f8b40a87a69b4781b9744c89",
"f9658767c3464b6ea143b08e",
"fa81aaa470484d67a2a77f4f",
"fd26759aaef94b0191a5e10e",
"fe19f26702d340f8a72300b4",
"fe6803fe04da429c942bdd7d",
"fee234be97fc4f908265e575",
"ff0e6c4f2eb948d3a49078ff"
],
"DefaultConfig_v1" : [
"fe6803fe04da429c942bdd7d"
],
"DefaultContext_v2" : [
"02db153ab87a433cb2669577"
],
"GroupAliasTreeEditWizBackbone_v3" : [
"37db36d1ba1245c9ae76bc99"
],
"DefaultConfig_v2" : [
"9ec995c668ba44a5b6aa89e1"
],
"TableEditWizBackbone_v0" : [
"df4a14aca3ee4f35ba7ba173"
],
"DefaultConfig_v3" : [
"f5da10dec98f4d57bbf5081f"
],
"TableEditWizBackbone_v1" : [
"ab195ba768b34600a34b5aac"
],
"DefaultConfig_v4" : [
"ca5c3db7f72345f68ccc57fa"
],
"TableEditWizBackbone_v2" : [
"7f4fd7512bc3492c9ae8a334"
],
"DefaultConfig_v5" : [
"1940fc04e4b74a57bc2e6466"
],
"TableEditWizBackbone_v3" : [
"7993f124cc44452fb503c021"
],
"DefaultConfig_v6" : [
"2b25d7b13b164666a9b17aee"
],
"TableEditWizBackbone_v4" : [
"256645bec8294087a42cc0dd"
],
"DefaultConfig_v7" : [
"e7d16e232a4f4877b7515dc5"
],
"TableEditWizBackbone_v5" : [
"1a4767604fb5432189ed36b2"
],
"DefaultContext_v3" : [
"fd26759aaef94b0191a5e10e"
],
"GroupAliasTreeEditWizBackbone_v5" : [
"71fa3958380f4642ab8952bf"
],
"DefaultConfig_v8" : [
"bf80f03db0f8415387042f11"
],
"TableEditWizBackbone_v6" : [
"cbb3072f3cf641dc91171250"
],
"DefaultConfig_v9" : [
"4c43fa10faad4d4d9a77b942"
],
"TableEditWizBackbone_v7" : [
"fa81aaa470484d67a2a77f4f"
],
"DefaultContext_v4" : [
"d1b9c4d83b6645bfb5b05dc6"
],
"TableEditWizBackbone_v8" : [
"dfba4b635a1249438aabcb22"
],
"DefaultContext_v5" : [
"685c5518a9a749ca8d225147"
],
"TableEditWizBackbone_v9" : [
"2b5a0274a4fd48df9b8e0ad5"
],
"DefaultContext_v6" : [
"4f6809fe46724753881c5b6c"
],
"TableEditWizBackbone_v10" : [
"a0621a24eb874e72ab3ef9a4"
],
"DefaultConfig_v10" : [
"8f6e0e7a2ae544e996583166"
],
"TableEditWizBackbone_v11" : [
"e95cdae24ffa42f8975c57a0"
],
"DefaultContext_v7" : [
"0ff0304041d242eba49dc50c"
],
"TableEditWizBackbone_v12" : [
"f8b40a87a69b4781b9744c89"
],
"DefaultContext_v8" : [
"a60c427ae4f3479785a8a0d1"
],
"GroupAliasTreeEditWizBackbone_v6" : [
"31933801926d4fdbb9619c4a"
],
"DefaultConfig_v11" : [
"4f0f85e473274cd59be0a030"
],
"GroupAliasTreeEditWizBackbone_v7" : [
"839186daf5af40ecad8a1fb0"
],
"DefaultContext_v9" : [
"4838022e0d194746a59ad655"
],
"GroupAliasTreeEditWizBackbone_v8" : [
"5a59a91c38ad408ea477cb38"
],
"DefaultContext_v10" : [
"102540225d5e4b3e8ab93855"
],
"GroupAliasTreeEditWizBackbone_v9" : [
"278ba83740f74f9c96e92199"
],
"DefaultConfig_v12" : [
"b5889e8465c0401f99bc55e5"
],
"TableEditWizBackbone_v13" : [
"51f15e1dad184c4787bd773b"
],
"GroupAliasTreeEditWizBackbone_v10" : [
"22e6da7c4ce84f6c9a766bad"
],
"DefaultContext_v11" : [
"a3679043e01a4c499fe7623b"
],
"GroupAliasTreeEditWizBackbone_v11" : [
"d7fdb927c262491ab3e27308"
],
"GroupAliasTreeEditWizBackbone_v12" : [
"66bb1675b60041b8a8e69ce4"
],
"DefaultConfig_v13" : [
"eb2b8da7bacf4acc853addd6"
],
"TableEditWizBackbone_v14" : [
"98ae1fb8352440f483a3bd17"
],
"DefaultConfig_v14" : [
"cf9094efd28841a4a2cfd6a4"
],
"TableEditWizBackbone_v15" : [
"98f19707be0c412084baeddb"
],
"DefaultConfig_v15" : [
"5e33f5550567479f89cae8e8"
],
"TableEditWizBackbone_v16" : [
"34c45f8ba1ae473a934c660f"
],
"DefaultConfig_v16" : [
"4237238d2afd4e50bae3150e"
],
"GroupAliasTreeEditWizBackbone_v13" : [
"0ed9e0e23b784e56937c45b1"
],
"DefaultContext_v12" : [
"fee234be97fc4f908265e575"
],
"GroupAliasTreeEditWizBackbone_v14" : [
"9088901f192b466ab8a409f9"
],
"DefaultContext_v13" : [
"2493e866ec7449a485468ecf"
],
"TableEditWizBackbone_v17" : [
"497563e3da2640a2b09253e0"
],
"TableEditWizBackbone_v18" : [
"531abcd0a8ab4abdb34ff070"
],
"DefaultContext_v14" : [
"b398f3a5398046359317ab50"
],
"GroupAliasTreeEditWizBackbone_v15" : [
"c5aae96c420746ada95ea927"
],
"GroupAliasTreeEditWizBackbone_v16" : [
"6cbdcb66fbcb4e099cf26b27"
],
"DefaultConfig_v17" : [
"a013fa3d2c0b4a43812a60d2"
],
"GroupAliasTreeEditWizBackbone_v17" : [
"8ba28eb13aab43c2b68cd594"
],
"DefaultConfig_v18" : [
"db9d166513db42ba8d909921"
],
"GroupAliasTreeEditWizBackbone_v18" : [
"87a18dfa62244e24964c3009"
],
"GroupAliasTreeEditWizBackbone_v19" : [
"f63def0991694f929f18fe54"
],
"DefaultContext_v15" : [
"e414d1b5385e4516a41c43f6"
],
"TableEditWizBackbone_v19" : [
"97c84f38fd47464683a00dff"
],
"DefaultContext_v16" : [
"d24437c0c7044aaa8461ea94"
],
"TableEditWizBackbone_v20" : [
"ac37acfef7904f9da7eb4514"
],
"DefaultConfig_v19" : [
"1e787fff06a0471c8b38b5d8"
],
"GroupAliasTreeEditWizBackbone_v20" : [
"a184a7fc90bf4bcc84fa2d48"
],
"DefaultConfig_v20" : [
"c656922787b643b58c056687"
],
"TableEditWizBackbone_v21" : [
"5d8e12a2383744fca79d248f"
],
"DefaultConfig_v21" : [
"4cb660a46b5e4bf39f91a557"
],
"TableEditWizBackbone_v22" : [
"5c7679f1e5d64fb28cc5aa1f"
],
"DefaultConfig_v22" : [
"2472f7b598cd4c3a8af03a56"
],
"TableEditWizBackbone_v23" : [
"68865406e6bb4ef7b9948974"
],
"DefaultConfig_v23" : [
"18d6b0aab99841fba509d0ff"
],
"TableEditWizBackbone_v24" : [
"d1afd7f232ef4b1bbbc3aab4"
],
"DefaultContext_v17" : [
"f4853b0e640542fd9ec027a5"
],
"GroupAliasTreeEditWizBackbone_v21" : [
"1198f8d0cd714d9cb255b230"
],
"DefaultContext_v18" : [
"6854f7756353481b9ec50856"
],
"GroupAliasTreeEditWizBackbone_v22" : [
"0226b24a783a4092a65a76aa"
],
"DefaultContext_v19" : [
"ccc40c801bb2429284487052"
],
"GroupAliasTreeEditWizBackbone_v23" : [
"3e917fbebc244857a1c181c6"
],
"DefaultContext_v20" : [
"8dbf199d71414abcb7f2a737"
],
"TableEditWizBackbone_v25" : [
"e880f14fc0e742b78a02dfde"
],
"DefaultConfig_v24" : [
"89243a16f3f84d659fb40d1a"
],
"GroupAliasTreeEditWizBackbone_v24" : [
"ff0e6c4f2eb948d3a49078ff"
],
"DefaultContext_v21" : [
"e9797b8327514d76beff60bf"
],
"GroupAliasTreeEditWizBackbone_v25" : [
"fe19f26702d340f8a72300b4"
],
"DefaultConfig_v25" : [
"47d713feeded4a22b35f3543"
],
"TableEditWizBackbone_v26" : [
"e880fa22b96d419d8490a152"
],
"DefaultConfig_v26" : [
"3e091ab253144b239f668e65"
],
"TableEditWizBackbone_v27" : [
"345e83b01b344bab925b4ec1"
],
"DefaultConfig_v27" : [
"4ece64364d5b435bb073cbde"
],
"TableEditWizBackbone_v28" : [
"8ff5358300c6471193798c95"
],
"DefaultConfig_v28" : [
"572aff7fa3e84c5fa593286d"
],
"TableEditWizBackbone_v29" : [
"1950b39cb8724243b398c9e9"
],
"DefaultConfig_v29" : [
"bec41dd3e3ab41fbbf171838"
],
"TableEditWizBackbone_v30" : [
"f62ec6cd38ba49b6971dad26"
],
"DefaultConfig_v30" : [
"3e4a6c61f03342bc9ec05aa0"
],
"GroupAliasTreeEditWizBackbone_v26" : [
"840316bbcd0e4151ae6390b1"
],
"DefaultConfig_v31" : [
"9a90da6cf335497899b2a747"
],
"GroupAliasTreeEditWizBackbone_v27" : [
"2c5e4981aa394edca92d5ef1"
],
"DefaultConfig_v32" : [
"83d7e0a0807d4a11a6a7d5e1"
],
"GroupAliasTreeEditWizBackbone_v28" : [
"50dbd6b6f6d247be9ca0c3b3"
],
"DefaultConfig_v33" : [
"c9bcdbbf401c42f18e33d4a2"
],
"GroupAliasTreeEditWizBackbone_v29" : [
"16212f2a45f443968081a239"
],
"DefaultContext_v22" : [
"3d6ee1fbee994ec1b82d2254"
],
"TableEditWizBackbone_v31" : [
"0b2450f4bae043889e1f3014"
],
"DefaultConfig_v34" : [
"7cefddf2f61b4b9cb00af3cf"
],
"TableEditWizBackbone_v32" : [
"904a82fdda1946869fbf5467"
],
"DefaultContext_v23" : [
"4916e96f09ca420e98a517da"
],
"TableEditWizBackbone_v33" : [
"f8564902a05a478ea2550a4f"
],
"DefaultConfig_v35" : [
"adc6e005bf324b84b4f984bd"
],
"TableEditWizBackbone_v34" : [
"13f2ce95902a432db357bb8a"
],
"DefaultConfig_v36" : [
"3927f5489ba94f51b91e19a5"
],
"DefaultContext_v24" : [
"e5004c5e915b48b8bb4b83ea"
],
"GroupAliasTreeEditWizBackbone_v30" : [
"0fb54aaee0ec4dab86501d38"
],
"GroupAliasTreeEditWizBackbone_v31" : [
"59072503b4bb43b99415d405"
],
"DefaultConfig_v37" : [
"1144b766c76d4731be241438"
],
"DefaultContext_v25" : [
"c380533f10964373988b1c68"
],
"GroupAliasTreeEditWizBackbone_v32" : [
"6eb9facd443c44f38b5f13f6"
],
"GroupAliasTreeEditWizBackbone_v33" : [
"dc753a8e3a864555bf7cb82a"
],
"GroupAliasTreeEditWizBackbone_v34" : [
"f9658767c3464b6ea143b08e"
],
"DefaultContext_v26" : [
"786d514c29f24734b436a14d"
],
"TableEditWizBackbone_v35" : [
"c33f4249bb574cb0aca9f6fe"
],
"DefaultContext_v27" : [
"f81d27a3873248a6b5a24921"
],
"TableEditWizBackbone_v36" : [
"2cebeddbde5b4e8abedf3d85"
],
"DefaultContext_v28" : [
"5de998bb0e86430b9d0b814d"
],
"TableEditWizBackbone_v37" : [
"552519f18e53441d8794b2f2"
],
"TableEditWizBackbone_v38" : [
"4597d1423d7443d0a74df985"
],
"DefaultContext_v29" : [
"181d0996261d48cd89c49564"
],
"TableEditWizBackbone_v39" : [
"3eaada2debb24493a4aba5d5"
]
},
"entities.name" : {
"OTSROOT" : [
"0226b24a783a4092a65a76aa",
"02db153ab87a433cb2669577",
"0b2450f4bae043889e1f3014",
"0ed9e0e23b784e56937c45b1",
"0fb54aaee0ec4dab86501d38",
"0ff0304041d242eba49dc50c",
"102540225d5e4b3e8ab93855",
"1144b766c76d4731be241438",
"1198f8d0cd714d9cb255b230",
"13f2ce95902a432db357bb8a",
"16212f2a45f443968081a239",
"181d0996261d48cd89c49564",
"18d6b0aab99841fba509d0ff",
"1940fc04e4b74a57bc2e6466",
"1950b39cb8724243b398c9e9",
"1a4767604fb5432189ed36b2",
"1e787fff06a0471c8b38b5d8",
"22e6da7c4ce84f6c9a766bad",
"2472f7b598cd4c3a8af03a56",
"2493e866ec7449a485468ecf",
"256645bec8294087a42cc0dd",
"278ba83740f74f9c96e92199",
"2b25d7b13b164666a9b17aee",
"2b5a0274a4fd48df9b8e0ad5",
"2c5e4981aa394edca92d5ef1",
"2cebeddbde5b4e8abedf3d85",
"31933801926d4fdbb9619c4a",
"345e83b01b344bab925b4ec1",
"34c45f8ba1ae473a934c660f",
"37db36d1ba1245c9ae76bc99",
"3927f5489ba94f51b91e19a5",
"3d6ee1fbee994ec1b82d2254",
"3e091ab253144b239f668e65",
"3e4a6c61f03342bc9ec05aa0",
"3e917fbebc244857a1c181c6",
"3eaada2debb24493a4aba5d5",
"4237238d2afd4e50bae3150e",
"4597d1423d7443d0a74df985",
"47d713feeded4a22b35f3543",
"4838022e0d194746a59ad655",
"4916e96f09ca420e98a517da",
"497563e3da2640a2b09253e0",
"4c43fa10faad4d4d9a77b942",
"4cb660a46b5e4bf39f91a557",
"4ece64364d5b435bb073cbde",
"4f0f85e473274cd59be0a030",
"4f6809fe46724753881c5b6c",
"50dbd6b6f6d247be9ca0c3b3",
"51f15e1dad184c4787bd773b",
"531abcd0a8ab4abdb34ff070",
"552519f18e53441d8794b2f2",
"572aff7fa3e84c5fa593286d",
"59072503b4bb43b99415d405",
"5a59a91c38ad408ea477cb38",
"5c7679f1e5d64fb28cc5aa1f",
"5d8e12a2383744fca79d248f",
"5de998bb0e86430b9d0b814d",
"5e33f5550567479f89cae8e8",
"66bb1675b60041b8a8e69ce4",
"6854f7756353481b9ec50856",
"685c5518a9a749ca8d225147",
"68865406e6bb4ef7b9948974",
"6bbea5a6b5d64725af84877d",
"6cbdcb66fbcb4e099cf26b27",
"6eb9facd443c44f38b5f13f6",
"71fa3958380f4642ab8952bf",
"786d514c29f24734b436a14d",
"7993f124cc44452fb503c021",
"7cefddf2f61b4b9cb00af3cf",
"7f4fd7512bc3492c9ae8a334",
"839186daf5af40ecad8a1fb0",
"83d7e0a0807d4a11a6a7d5e1",
"840316bbcd0e4151ae6390b1",
"87a18dfa62244e24964c3009",
"89243a16f3f84d659fb40d1a",
"8ba28eb13aab43c2b68cd594",
"8dbf199d71414abcb7f2a737",
"8f6e0e7a2ae544e996583166",
"8ff5358300c6471193798c95",
"904a82fdda1946869fbf5467",
"9088901f192b466ab8a409f9",
"97c84f38fd47464683a00dff",
"98ae1fb8352440f483a3bd17",
"98f19707be0c412084baeddb",
"9a90da6cf335497899b2a747",
"9ec995c668ba44a5b6aa89e1",
"a013fa3d2c0b4a43812a60d2",
"a0621a24eb874e72ab3ef9a4",
"a184a7fc90bf4bcc84fa2d48",
"a3679043e01a4c499fe7623b",
"a60c427ae4f3479785a8a0d1",
"ab195ba768b34600a34b5aac",
"ac37acfef7904f9da7eb4514",
"adc6e005bf324b84b4f984bd",
"b398f3a5398046359317ab50",
"b5889e8465c0401f99bc55e5",
"bec41dd3e3ab41fbbf171838",
"bf80f03db0f8415387042f11",
"c33f4249bb574cb0aca9f6fe",
"c380533f10964373988b1c68",
"c5aae96c420746ada95ea927",
"c656922787b643b58c056687",
"c9bcdbbf401c42f18e33d4a2",
"ca5c3db7f72345f68ccc57fa",
"cbb3072f3cf641dc91171250",
"ccc40c801bb2429284487052",
"cf9094efd28841a4a2cfd6a4",
"d1afd7f232ef4b1bbbc3aab4",
"d1b9c4d83b6645bfb5b05dc6",
"d24437c0c7044aaa8461ea94",
"d7fdb927c262491ab3e27308",
"db9d166513db42ba8d909921",
"dc753a8e3a864555bf7cb82a",
"df4a14aca3ee4f35ba7ba173",
"dfba4b635a1249438aabcb22",
"e414d1b5385e4516a41c43f6",
"e5004c5e915b48b8bb4b83ea",
"e7d16e232a4f4877b7515dc5",
"e880f14fc0e742b78a02dfde",
"e880fa22b96d419d8490a152",
"e95cdae24ffa42f8975c57a0",
"e9797b8327514d76beff60bf",
"eb2b8da7bacf4acc853addd6",
"f4853b0e640542fd9ec027a5",
"f5da10dec98f4d57bbf5081f",
"f62ec6cd38ba49b6971dad26",
"f63def0991694f929f18fe54",
"f81d27a3873248a6b5a24921",
"f8564902a05a478ea2550a4f",
"f8b40a87a69b4781b9744c89",
"f9658767c3464b6ea143b08e",
"fa81aaa470484d67a2a77f4f",
"fd26759aaef94b0191a5e10e",
"fe19f26702d340f8a72300b4",
"fe6803fe04da429c942bdd7d",
"fee234be97fc4f908265e575",
"ff0e6c4f2eb948d3a49078ff"
]
},
"aliases.active.name" : {

},
"runs.name" : {

},
"configurations.assigned" : {
"notprovided" : [
"2019-02-22T16:11:42.601-0600",
"2019-02-22T16:11:42.933-0600",
"2019-02-22T16:11:43.416-0600",
"2019-02-22T16:11:43.679-0600",
"2019-07-22T11:27:30.163-0500",
"2019-07-22T11:27:31.044-0500",
"2019-07-22T14:43:10.007-0500",
"2019-07-22T14:43:10.852-0500",
"2019-07-22T14:47:01.176-0500",
"2019-07-22T14:47:01.997-0500",
"2019-07-22T15:05:41.249-0500",
"2019-07-22T15:05:42.078-0500",
"2019-07-23T09:00:31.709-0500",
"2019-07-23T09:00:32.572-0500",
"2019-07-23T09:04:43.427-0500",
"2019-07-23T09:04:44.257-0500",
"2019-07-23T09:05:25.363-0500",
"2019-07-23T09:05:26.150-0500",
"2019-07-23T09:48:11.509-0500",
"2019-07-23T09:48:12.376-0500",
"2019-08-07T11:00:29.093-0500",
"2019-08-07T11:00:30.056-0500",
"2019-11-19T16:07:21.516-0600",
"2019-11-19T16:07:22.292-0600",
"2019-11-20T14:24:12.451-0600",
"2019-11-20T14:24:13.291-0600",
"2019-11-20T14:39:27.310-0600",
"2019-11-20T14:39:28.170-0600",
"2019-11-20T15:25:38.248-0600",
"2019-11-20T15:25:39.315-0600",
"2019-11-20T15:26:58.340-0600",
"2019-11-20T15:26:59.272-0600",
"2019-11-20T15:27:24.372-0600",
"2019-11-20T15:27:25.250-0600",
"2019-11-20T15:28:12.261-0600",
"2019-11-20T15:28:13.273-0600",
"2019-11-20T15:28:33.549-0600",
"2019-11-20T15:28:34.442-0600",
"2019-11-20T15:56:57.586-0600",
"2019-11-20T15:56:59.097-0600",
"2019-11-20T15:58:29.520-0600",
"2019-11-20T15:58:30.858-0600",
"2019-11-20T15:59:10.513-0600",
"2019-11-20T16:00:09.000-0600",
"2019-11-20T16:00:09.952-0600",
"2019-11-20T16:01:26.823-0600",
"2019-11-20T16:23:03.261-0600",
"2019-11-20T16:23:04.526-0600",
"2019-11-20T16:24:45.393-0600",
"2019-11-20T16:24:46.676-0600",
"2019-11-20T16:27:46.203-0600",
"2019-11-20T16:27:47.505-0600",
"2019-11-20T16:42:10.736-0600",
"2019-11-20T16:42:11.967-0600",
"2019-12-05T17:52:36.175-0600",
"2019-12-05T17:52:37.211-0600",
"2019-12-06T09:54:12.457-0600",
"2019-12-06T09:54:13.629-0600",
"2019-12-06T17:09:41.321-0600",
"2019-12-09T11:56:59.271-0600",
"2019-12-09T11:57:00.351-0600",
"2019-12-09T15:50:02.214-0600",
"2019-12-09T19:33:37.345-0600",
"2019-12-09T19:33:38.831-0600",
"2019-12-10T14:21:49.035-0600",
"2019-12-10T14:21:55.545-0600",
"2019-12-13T13:15:34.500-0600",
"2019-12-13T13:20:54.265-0600",
"2019-12-13T13:20:58.538-0600",
"2021-04-29T11:04:32.889-0500",
"2021-04-29T11:04:34.054-0500",
"2021-04-29T11:28:51.532-0500",
"2021-04-29T11:28:52.714-0500",
"2021-04-29T11:36:29.542-0500",
"2021-04-29T11:36:30.840-0500",
"2021-04-29T11:56:49.895-0500",
"2021-04-29T11:56:51.113-0500",
"2021-04-29T12:03:11.563-0500",
"2021-04-29T12:03:12.662-0500",
"2021-04-29T12:06:21.381-0500",
"2021-04-29T12:06:22.600-0500",
"2021-04-29T12:14:45.549-0500",
"2021-04-29T12:14:46.643-0500",
"2021-04-29T12:25:33.040-0500",
"2021-04-29T12:25:33.840-0500",
"2021-04-29T12:25:52.517-0500",
"2021-04-29T12:25:53.806-0500",
"2021-04-29T12:40:03.825-0500",
"2021-04-29T12:40:04.920-0500",
"2021-04-29T13:06:39.016-0500",
"2021-04-29T13:06:40.313-0500",
"2021-04-29T13:20:39.999-0500",
"2021-04-29T13:20:41.176-0500",
"2021-04-30T09:33:56.852-0500",
"2021-04-30T09:33:58.207-0500",
"2021-04-30T09:34:32.407-0500",
"2021-04-30T09:34:33.753-0500",
"2021-04-30T09:36:19.148-0500",
"2021-04-30T09:36:20.472-0500",
"2021-04-30T11:59:05.718-0500",
"2021-04-30T11:59:07.212-0500",
"2021-04-30T12:10:52.289-0500",
"2021-04-30T12:10:53.559-0500",
"2021-04-30T12:11:38.548-0500",
"2021-04-30T12:11:39.989-0500",
"2021-05-06T17:42:15.107-0500",
"2021-05-06T17:42:16.394-0500",
"2021-05-10T10:42:46.859-0500",
"2021-05-10T10:42:48.362-0500",
"2021-05-10T11:08:52.630-0500",
"2021-05-10T11:08:54.210-0500",
"2021-05-10T11:39:29.835-0500",
"2021-05-10T11:39:31.205-0500",
"2021-05-12T15:51:22.710-0500",
"2021-05-12T15:51:24.214-0500",
"2021-05-12T15:51:57.973-0500",
"2021-05-12T15:51:59.250-0500",
"2021-05-12T16:11:00.896-0500",
"2021-05-12T16:11:02.400-0500",
"2021-05-14T15:34:24.293-0500",
"2021-05-14T15:34:25.742-0500",
"2021-05-14T15:34:27.085-0500",
"2021-05-14T15:34:28.083-0500",
"2021-05-14T16:41:00.916-0500",
"2021-05-14T16:41:02.434-0500",
"2021-05-14T16:41:03.765-0500",
"2021-05-14T16:41:04.750-0500",
"2021-05-25T12:00:06.865-0500",
"2021-05-25T12:01:04.565-0500",
"2021-05-25T12:01:05.995-0500",
"2021-05-25T12:57:26.157-0500",
"2021-05-25T12:57:27.540-0500",
"2021-05-25T13:06:03.070-0500",
"2021-05-25T13:06:04.433-0500",
"2021-05-25T13:21:23.669-0500",
"2021-05-25T13:51:12.995-0500",
"2021-05-25T13:51:14.265-0500"
],
"DefaultConfig_v1" : [
"2019-02-22T16:11:43.148-0600"
],
"DefaultContext_v2" : [
"2019-02-22T16:11:43.537-0600"
],
"GroupAliasTreeEditWizBackbone_v3" : [
"2019-02-22T16:11:43.716-0600"
],
"DefaultConfig_v2" : [
"2019-07-22T11:27:30.496-0500"
],
"TableEditWizBackbone_v0" : [
"2019-07-22T11:27:31.109-0500"
],
"DefaultConfig_v3" : [
"2019-07-22T14:43:10.386-0500"
],
"TableEditWizBackbone_v1" : [
"2019-07-22T14:43:10.922-0500"
],
"DefaultConfig_v4" : [
"2019-07-22T14:47:01.551-0500"
],
"TableEditWizBackbone_v2" : [
"2019-07-22T14:47:02.067-0500"
],
"DefaultConfig_v5" : [
"2019-07-22T15:05:41.600-0500"
],
"TableEditWizBackbone_v3" : [
"2019-07-22T15:05:42.148-0500"
],
"DefaultConfig_v6" : [
"2019-07-23T09:00:32.089-0500"
],
"TableEditWizBackbone_v4" : [
"2019-07-23T09:00:32.642-0500"
],
"DefaultConfig_v7" : [
"2019-07-23T09:04:43.817-0500"
],
"TableEditWizBackbone_v5" : [
"2019-07-23T09:04:44.323-0500"
],
"DefaultContext_v3" : [
"2019-07-23T09:05:25.597-0500"
],
"GroupAliasTreeEditWizBackbone_v5" : [
"2019-07-23T09:05:26.217-0500"
],
"DefaultConfig_v8" : [
"2019-07-23T09:48:11.920-0500"
],
"TableEditWizBackbone_v6" : [
"2019-07-23T09:48:12.451-0500"
],
"DefaultConfig_v9" : [
"2019-08-07T11:00:29.548-0500"
],
"TableEditWizBackbone_v7" : [
"2019-08-07T11:00:30.148-0500"
],
"DefaultContext_v4" : [
"2019-11-19T16:07:21.741-0600"
],
"TableEditWizBackbone_v8" : [
"2019-11-19T16:07:22.365-0600"
],
"DefaultContext_v5" : [
"2019-11-20T14:24:12.692-0600"
],
"TableEditWizBackbone_v9" : [
"2019-11-20T14:24:13.368-0600"
],
"DefaultContext_v6" : [
"2019-11-20T14:39:27.546-0600"
],
"TableEditWizBackbone_v10" : [
"2019-11-20T14:39:28.242-0600"
],
"DefaultConfig_v10" : [
"2019-11-20T15:25:38.707-0600"
],
"TableEditWizBackbone_v11" : [
"2019-11-20T15:25:39.385-0600"
],
"DefaultContext_v7" : [
"2019-11-20T15:26:58.577-0600"
],
"TableEditWizBackbone_v12" : [
"2019-11-20T15:26:59.348-0600"
],
"DefaultContext_v8" : [
"2019-11-20T15:27:24.611-0600"
],
"GroupAliasTreeEditWizBackbone_v6" : [
"2019-11-20T15:27:25.326-0600"
],
"DefaultConfig_v11" : [
"2019-11-20T15:28:12.741-0600"
],
"GroupAliasTreeEditWizBackbone_v7" : [
"2019-11-20T15:28:13.347-0600"
],
"DefaultContext_v9" : [
"2019-11-20T15:28:33.793-0600"
],
"GroupAliasTreeEditWizBackbone_v8" : [
"2019-11-20T15:28:34.524-0600"
],
"DefaultContext_v10" : [
"2019-11-20T15:56:57.850-0600"
],
"GroupAliasTreeEditWizBackbone_v9" : [
"2019-11-20T15:56:59.183-0600"
],
"DefaultConfig_v12" : [
"2019-11-20T15:58:30.058-0600"
],
"TableEditWizBackbone_v13" : [
"2019-11-20T15:58:30.940-0600"
],
"GroupAliasTreeEditWizBackbone_v10" : [
"2019-11-20T15:59:10.601-0600"
],
"DefaultContext_v11" : [
"2019-11-20T16:00:09.247-0600"
],
"GroupAliasTreeEditWizBackbone_v11" : [
"2019-11-20T16:00:10.030-0600"
],
"GroupAliasTreeEditWizBackbone_v12" : [
"2019-11-20T16:01:26.903-0600"
],
"DefaultConfig_v13" : [
"2019-11-20T16:23:03.769-0600"
],
"TableEditWizBackbone_v14" : [
"2019-11-20T16:23:04.595-0600"
],
"DefaultConfig_v14" : [
"2019-11-20T16:24:45.921-0600"
],
"TableEditWizBackbone_v15" : [
"2019-11-20T16:24:46.761-0600"
],
"DefaultConfig_v15" : [
"2019-11-20T16:27:46.756-0600"
],
"TableEditWizBackbone_v16" : [
"2019-11-20T16:27:47.581-0600"
],
"DefaultConfig_v16" : [
"2019-11-20T16:42:11.320-0600"
],
"GroupAliasTreeEditWizBackbone_v13" : [
"2019-11-20T16:42:12.051-0600"
],
"DefaultContext_v12" : [
"2019-12-05T17:52:36.359-0600"
],
"GroupAliasTreeEditWizBackbone_v14" : [
"2019-12-05T17:52:37.266-0600"
],
"DefaultContext_v13" : [
"2019-12-06T09:54:12.718-0600"
],
"TableEditWizBackbone_v17" : [
"2019-12-06T09:54:13.717-0600"
],
"TableEditWizBackbone_v18" : [
"2019-12-06T17:09:41.386-0600"
],
"DefaultContext_v14" : [
"2019-12-09T11:56:59.500-0600"
],
"GroupAliasTreeEditWizBackbone_v15" : [
"2019-12-09T11:57:00.434-0600"
],
"GroupAliasTreeEditWizBackbone_v16" : [
"2019-12-09T15:50:02.280-0600"
],
"DefaultConfig_v17" : [
"2019-12-09T19:33:37.864-0600"
],
"GroupAliasTreeEditWizBackbone_v17" : [
"2019-12-09T19:33:38.898-0600"
],
"DefaultConfig_v18" : [
"2019-12-10T14:21:53.470-0600"
],
"GroupAliasTreeEditWizBackbone_v18" : [
"2019-12-10T14:21:56.228-0600"
],
"GroupAliasTreeEditWizBackbone_v19" : [
"2019-12-13T13:15:35.014-0600"
],
"DefaultContext_v15" : [
"2019-12-13T13:20:55.926-0600"
],
"TableEditWizBackbone_v19" : [
"2019-12-13T13:20:59.146-0600"
],
"DefaultContext_v16" : [
"2021-04-29T11:04:33.203-0500"
],
"TableEditWizBackbone_v20" : [
"2021-04-29T11:04:34.132-0500"
],
"DefaultConfig_v19" : [
"2021-04-29T11:28:52.085-0500"
],
"GroupAliasTreeEditWizBackbone_v20" : [
"2021-04-29T11:28:52.795-0500"
],
"DefaultConfig_v20" : [
"2021-04-29T11:36:30.099-0500"
],
"TableEditWizBackbone_v21" : [
"2021-04-29T11:36:30.908-0500"
],
"DefaultConfig_v21" : [
"2021-04-29T11:56:50.432-0500"
],
"TableEditWizBackbone_v22" : [
"2021-04-29T11:56:51.187-0500"
],
"DefaultConfig_v22" : [
"2021-04-29T12:03:12.062-0500"
],
"TableEditWizBackbone_v23" : [
"2021-04-29T12:03:12.734-0500"
],
"DefaultConfig_v23" : [
"2021-04-29T12:06:21.909-0500"
],
"TableEditWizBackbone_v24" : [
"2021-04-29T12:06:22.683-0500"
],
"DefaultContext_v17" : [
"2021-04-29T12:14:45.857-0500"
],
"GroupAliasTreeEditWizBackbone_v21" : [
"2021-04-29T12:14:46.721-0500"
],
"DefaultContext_v18" : [
"2021-04-29T12:25:33.358-0500"
],
"GroupAliasTreeEditWizBackbone_v22" : [
"2021-04-29T12:25:33.914-0500"
],
"DefaultContext_v19" : [
"2021-04-29T12:25:52.835-0500"
],
"GroupAliasTreeEditWizBackbone_v23" : [
"2021-04-29T12:25:53.884-0500"
],
"DefaultContext_v20" : [
"2021-04-29T12:40:04.111-0500"
],
"TableEditWizBackbone_v25" : [
"2021-04-29T12:40:04.990-0500"
],
"DefaultConfig_v24" : [
"2021-04-29T13:06:39.572-0500"
],
"GroupAliasTreeEditWizBackbone_v24" : [
"2021-04-29T13:06:40.397-0500"
],
"DefaultContext_v21" : [
"2021-04-29T13:20:40.335-0500"
],
"GroupAliasTreeEditWizBackbone_v25" : [
"2021-04-29T13:20:41.264-0500"
],
"DefaultConfig_v25" : [
"2021-04-30T09:33:57.431-0500"
],
"TableEditWizBackbone_v26" : [
"2021-04-30T09:33:58.288-0500"
],
"DefaultConfig_v26" : [
"2021-04-30T09:34:32.972-0500"
],
"TableEditWizBackbone_v27" : [
"2021-04-30T09:34:33.833-0500"
],
"DefaultConfig_v27" : [
"2021-04-30T09:36:19.715-0500"
],
"TableEditWizBackbone_v28" : [
"2021-04-30T09:36:20.554-0500"
],
"DefaultConfig_v28" : [
"2021-04-30T11:59:06.397-0500"
],
"TableEditWizBackbone_v29" : [
"2021-04-30T11:59:07.310-0500"
],
"DefaultConfig_v29" : [
"2021-04-30T12:10:52.824-0500"
],
"TableEditWizBackbone_v30" : [
"2021-04-30T12:10:53.641-0500"
],
"DefaultConfig_v30" : [
"2021-04-30T12:11:39.129-0500"
],
"GroupAliasTreeEditWizBackbone_v26" : [
"2021-04-30T12:11:40.062-0500"
],
"DefaultConfig_v31" : [
"2021-05-06T17:42:15.645-0500"
],
"GroupAliasTreeEditWizBackbone_v27" : [
"2021-05-06T17:42:16.467-0500"
],
"DefaultConfig_v32" : [
"2021-05-10T10:42:47.514-0500"
],
"GroupAliasTreeEditWizBackbone_v28" : [
"2021-05-10T10:42:48.450-0500"
],
"DefaultConfig_v33" : [
"2021-05-10T11:08:53.312-0500"
],
"GroupAliasTreeEditWizBackbone_v29" : [
"2021-05-10T11:08:54.303-0500"
],
"DefaultContext_v22" : [
"2021-05-10T11:39:30.204-0500"
],
"TableEditWizBackbone_v31" : [
"2021-05-10T11:39:31.298-0500"
],
"DefaultConfig_v34" : [
"2021-05-12T15:51:23.379-0500"
],
"TableEditWizBackbone_v32" : [
"2021-05-12T15:51:24.300-0500"
],
"DefaultContext_v23" : [
"2021-05-12T15:51:58.323-0500"
],
"TableEditWizBackbone_v33" : [
"2021-05-12T15:51:59.344-0500"
],
"DefaultConfig_v35" : [
"2021-05-12T16:11:01.572-0500"
],
"TableEditWizBackbone_v34" : [
"2021-05-12T16:11:02.490-0500"
],
"DefaultConfig_v36" : [
"2021-05-14T15:34:24.934-0500"
],
"DefaultContext_v24" : [
"2021-05-14T15:34:26.096-0500"
],
"GroupAliasTreeEditWizBackbone_v30" : [
"2021-05-14T15:34:27.181-0500"
],
"GroupAliasTreeEditWizBackbone_v31" : [
"2021-05-14T15:34:28.179-0500"
],
"DefaultConfig_v37" : [
"2021-05-14T16:41:01.583-0500"
],
"DefaultContext_v25" : [
"2021-05-14T16:41:02.756-0500"
],
"GroupAliasTreeEditWizBackbone_v32" : [
"2021-05-14T16:41:03.858-0500"
],
"GroupAliasTreeEditWizBackbone_v33" : [
"2021-05-14T16:41:04.854-0500"
],
"GroupAliasTreeEditWizBackbone_v34" : [
"2021-05-25T12:00:06.970-0500"
],
"DefaultContext_v26" : [
"2021-05-25T12:01:04.959-0500"
],
"TableEditWizBackbone_v35" : [
"2021-05-25T12:01:06.089-0500"
],
"DefaultContext_v27" : [
"2021-05-25T12:57:26.543-0500"
],
"TableEditWizBackbone_v36" : [
"2021-05-25T12:57:27.641-0500"
],
"DefaultContext_v28" : [
"2021-05-25T13:06:03.390-0500"
],
"TableEditWizBackbone_v37" : [
"2021-05-25T13:06:04.517-0500"
],
"TableEditWizBackbone_v38" : [
"2021-05-25T13:21:23.756-0500"
],
"DefaultContext_v29" : [
"2021-05-25T13:51:13.322-0500"
],
"TableEditWizBackbone_v39" : [
"2021-05-25T13:51:14.345-0500"
]
}
}