{
"ouid" : [
"2ac16f5aa3c44782b06990fa"
],
"version" : {
"0" : [
"2ac16f5aa3c44782b06990fa"
]
},
"configurations.name" : {
"notprovided" : [
"2ac16f5aa3c44782b06990fa"
],
"BurninBoxConfig_v29" : [
"2ac16f5aa3c44782b06990fa"
],
"DefaultContext_v5" : [
"2ac16f5aa3c44782b06990fa"
],
"DefaultContext_v6" : [
"2ac16f5aa3c44782b06990fa"
],
"DefaultContext_v7" : [
"2ac16f5aa3c44782b06990fa"
],
"DefaultContext_v8" : [
"2ac16f5aa3c44782b06990fa"
],
"DefaultContext_v9" : [
"2ac16f5aa3c44782b06990fa"
],
"DefaultContext_v10" : [
"2ac16f5aa3c44782b06990fa"
],
"DefaultContext_v11" : [
"2ac16f5aa3c44782b06990fa"
],
"DefaultContext_v12" : [
"2ac16f5aa3c44782b06990fa"
],
"DefaultContext_v13" : [
"2ac16f5aa3c44782b06990fa"
],
"DefaultContext_v14" : [
"2ac16f5aa3c44782b06990fa"
],
"DefaultContext_v15" : [
"2ac16f5aa3c44782b06990fa"
],
"DefaultContext_v16" : [
"2ac16f5aa3c44782b06990fa"
],
"DefaultContext_v17" : [
"2ac16f5aa3c44782b06990fa"
],
"DefaultContext_v18" : [
"2ac16f5aa3c44782b06990fa"
],
"DefaultContext_v19" : [
"2ac16f5aa3c44782b06990fa"
],
"DefaultContext_v20" : [
"2ac16f5aa3c44782b06990fa"
],
"DefaultContext_v21" : [
"2ac16f5aa3c44782b06990fa"
],
"DefaultContext_v22" : [
"2ac16f5aa3c44782b06990fa"
],
"DefaultContext_v23" : [
"2ac16f5aa3c44782b06990fa"
],
"DefaultContext_v24" : [
"2ac16f5aa3c44782b06990fa"
],
"DefaultContext_v25" : [
"2ac16f5aa3c44782b06990fa"
],
"DefaultContext_v26" : [
"2ac16f5aa3c44782b06990fa"
],
"DefaultContext_v27" : [
"2ac16f5aa3c44782b06990fa"
],
"DefaultContext_v28" : [
"2ac16f5aa3c44782b06990fa"
],
"DefaultContext_v29" : [
"2ac16f5aa3c44782b06990fa"
],
"DefaultContext_v30" : [
"2ac16f5aa3c44782b06990fa"
],
"DefaultContext_v31" : [
"2ac16f5aa3c44782b06990fa"
],
"DefaultContext_v32" : [
"2ac16f5aa3c44782b06990fa"
],
"DefaultContext_v33" : [
"2ac16f5aa3c44782b06990fa"
],
"DefaultContext_v34" : [
"2ac16f5aa3c44782b06990fa"
],
"DefaultContext_v35" : [
"2ac16f5aa3c44782b06990fa"
],
"DefaultContext_v36" : [
"2ac16f5aa3c44782b06990fa"
],
"DefaultContext_v37" : [
"2ac16f5aa3c44782b06990fa"
],
"DefaultContext_v38" : [
"2ac16f5aa3c44782b06990fa"
],
"DefaultContext_v39" : [
"2ac16f5aa3c44782b06990fa"
],
"DefaultContext_v40" : [
"2ac16f5aa3c44782b06990fa"
],
"DefaultContext_v41" : [
"2ac16f5aa3c44782b06990fa"
],
"DefaultContext_v42" : [
"2ac16f5aa3c44782b06990fa"
],
"DefaultContext_v43" : [
"2ac16f5aa3c44782b06990fa"
],
"DefaultContext_v44" : [
"2ac16f5aa3c44782b06990fa"
],
"DefaultContext_v45" : [
"2ac16f5aa3c44782b06990fa"
],
"DefaultContext_v46" : [
"2ac16f5aa3c44782b06990fa"
],
"DefaultContext_v47" : [
"2ac16f5aa3c44782b06990fa"
],
"DefaultContext_v48" : [
"2ac16f5aa3c44782b06990fa"
],
"DefaultContext_v49" : [
"2ac16f5aa3c44782b06990fa"
],
"DefaultContext_v50" : [
"2ac16f5aa3c44782b06990fa"
],
"DefaultContext_v51" : [
"2ac16f5aa3c44782b06990fa"
],
"DefaultContext_v52" : [
"2ac16f5aa3c44782b06990fa"
],
"DefaultContext_v53" : [
"2ac16f5aa3c44782b06990fa"
],
"DefaultContext_v54" : [
"2ac16f5aa3c44782b06990fa"
],
"DefaultContext_v55" : [
"2ac16f5aa3c44782b06990fa"
],
"DefaultContext_v56" : [
"2ac16f5aa3c44782b06990fa"
],
"DefaultContext_v57" : [
"2ac16f5aa3c44782b06990fa"
],
"DefaultContext_v58" : [
"2ac16f5aa3c44782b06990fa"
],
"DefaultContext_v59" : [
"2ac16f5aa3c44782b06990fa"
],
"DefaultContext_v60" : [
"2ac16f5aa3c44782b06990fa"
],
"DefaultContext_v61" : [
"2ac16f5aa3c44782b06990fa"
],
"DefaultContext_v62" : [
"2ac16f5aa3c44782b06990fa"
],
"DefaultContext_v63" : [
"2ac16f5aa3c44782b06990fa"
],
"DefaultContext_v64" : [
"2ac16f5aa3c44782b06990fa"
],
"DefaultContext_v65" : [
"2ac16f5aa3c44782b06990fa"
],
"DefaultContext_v66" : [
"2ac16f5aa3c44782b06990fa"
],
"DefaultContext_v67" : [
"2ac16f5aa3c44782b06990fa"
],
"DefaultContext_v68" : [
"2ac16f5aa3c44782b06990fa"
],
"DefaultContext_v69" : [
"2ac16f5aa3c44782b06990fa"
],
"DefaultContext_v70" : [
"2ac16f5aa3c44782b06990fa"
],
"DefaultContext_v71" : [
"2ac16f5aa3c44782b06990fa"
],
"DefaultContext_v72" : [
"2ac16f5aa3c44782b06990fa"
],
"DefaultContext_v73" : [
"2ac16f5aa3c44782b06990fa"
],
"DefaultContext_v74" : [
"2ac16f5aa3c44782b06990fa"
],
"DefaultContext_v75" : [
"2ac16f5aa3c44782b06990fa"
],
"DefaultContext_v76" : [
"2ac16f5aa3c44782b06990fa"
],
"DefaultContext_v77" : [
"2ac16f5aa3c44782b06990fa"
],
"DefaultContext_v78" : [
"2ac16f5aa3c44782b06990fa"
],
"DefaultContext_v79" : [
"2ac16f5aa3c44782b06990fa"
]
},
"entities.name" : {
"OTSROOT" : [
"2ac16f5aa3c44782b06990fa"
]
},
"aliases.active.name" : {

},
"runs.name" : {

},
"configurations.assigned" : {
"notprovided" : [
"2020-06-29T10:55:09.621-0500"
],
"BurninBoxConfig_v29" : [
"2020-06-29T10:55:10.726-0500"
],
"DefaultContext_v5" : [
"2020-06-29T11:00:05.285-0500"
],
"DefaultContext_v6" : [
"2020-07-29T16:01:22.392-0500"
],
"DefaultContext_v7" : [
"2020-07-29T16:34:42.750-0500"
],
"DefaultContext_v8" : [
"2020-07-29T16:39:53.588-0500"
],
"DefaultContext_v9" : [
"2020-07-29T16:40:44.204-0500"
],
"DefaultContext_v10" : [
"2020-07-29T16:45:01.493-0500"
],
"DefaultContext_v11" : [
"2020-07-29T16:49:16.303-0500"
],
"DefaultContext_v12" : [
"2020-09-02T15:22:09.469-0500"
],
"DefaultContext_v13" : [
"2020-10-05T17:04:58.207-0500"
],
"DefaultContext_v14" : [
"2020-10-05T17:07:06.710-0500"
],
"DefaultContext_v15" : [
"2020-10-05T17:43:27.150-0500"
],
"DefaultContext_v16" : [
"2020-10-05T17:51:30.095-0500"
],
"DefaultContext_v17" : [
"2020-10-09T11:58:10.192-0500"
],
"DefaultContext_v18" : [
"2020-10-09T12:53:53.903-0500"
],
"DefaultContext_v19" : [
"2020-10-09T12:57:06.662-0500"
],
"DefaultContext_v20" : [
"2020-10-09T13:00:58.002-0500"
],
"DefaultContext_v21" : [
"2020-10-09T15:30:48.447-0500"
],
"DefaultContext_v22" : [
"2020-10-09T15:32:24.127-0500"
],
"DefaultContext_v23" : [
"2020-10-09T15:32:58.497-0500"
],
"DefaultContext_v24" : [
"2020-10-09T16:47:19.076-0500"
],
"DefaultContext_v25" : [
"2020-10-12T09:37:49.944-0500"
],
"DefaultContext_v26" : [
"2020-10-12T09:41:39.455-0500"
],
"DefaultContext_v27" : [
"2020-10-29T11:54:28.355-0500"
],
"DefaultContext_v28" : [
"2020-10-29T11:54:56.346-0500"
],
"DefaultContext_v29" : [
"2020-10-29T13:33:31.054-0500"
],
"DefaultContext_v30" : [
"2020-11-16T17:04:43.352-0600"
],
"DefaultContext_v31" : [
"2020-11-16T17:07:49.691-0600"
],
"DefaultContext_v32" : [
"2020-11-16T17:10:03.819-0600"
],
"DefaultContext_v33" : [
"2021-07-07T14:45:52.233-0500"
],
"DefaultContext_v34" : [
"2021-07-07T16:02:04.355-0500"
],
"DefaultContext_v35" : [
"2021-07-07T16:05:37.916-0500"
],
"DefaultContext_v36" : [
"2021-07-08T14:00:20.433-0500"
],
"DefaultContext_v37" : [
"2021-07-08T14:17:00.149-0500"
],
"DefaultContext_v38" : [
"2021-07-08T16:21:56.261-0500"
],
"DefaultContext_v39" : [
"2021-07-08T16:24:39.395-0500"
],
"DefaultContext_v40" : [
"2021-07-14T13:02:14.203-0500"
],
"DefaultContext_v41" : [
"2021-07-14T13:03:01.334-0500"
],
"DefaultContext_v42" : [
"2021-07-14T14:39:31.797-0500"
],
"DefaultContext_v43" : [
"2021-07-21T12:08:22.617-0500"
],
"DefaultContext_v44" : [
"2021-08-03T11:10:39.577-0500"
],
"DefaultContext_v45" : [
"2021-09-02T14:08:00.972-0500"
],
"DefaultContext_v46" : [
"2021-09-24T15:36:52.610-0500"
],
"DefaultContext_v47" : [
"2021-09-28T10:22:57.615-0500"
],
"DefaultContext_v48" : [
"2021-11-10T15:11:05.305-0600"
],
"DefaultContext_v49" : [
"2022-04-18T12:56:04.330-0400"
],
"DefaultContext_v50" : [
"2022-04-20T10:06:52.245-0400"
],
"DefaultContext_v51" : [
"2023-01-19T10:05:01.553-0600"
],
"DefaultContext_v52" : [
"2023-01-19T11:02:48.170-0600"
],
"DefaultContext_v53" : [
"2023-01-19T12:09:18.059-0600"
],
"DefaultContext_v54" : [
"2023-01-23T15:11:58.185-0600"
],
"DefaultContext_v55" : [
"2023-01-30T13:43:40.861-0600"
],
"DefaultContext_v56" : [
"2023-02-13T14:11:45.882-0600"
],
"DefaultContext_v57" : [
"2023-02-13T14:13:00.397-0600"
],
"DefaultContext_v58" : [
"2023-02-13T14:20:59.581-0600"
],
"DefaultContext_v59" : [
"2023-02-13T14:33:43.508-0600"
],
"DefaultContext_v60" : [
"2023-02-13T14:58:14.715-0600"
],
"DefaultContext_v61" : [
"2023-02-16T12:29:02.347-0600"
],
"DefaultContext_v62" : [
"2023-02-16T14:03:00.795-0600"
],
"DefaultContext_v63" : [
"2023-02-16T14:04:39.902-0600"
],
"DefaultContext_v64" : [
"2023-02-16T14:42:27.015-0600"
],
"DefaultContext_v65" : [
"2023-02-16T14:49:47.024-0600"
],
"DefaultContext_v66" : [
"2023-02-16T14:53:11.780-0600"
],
"DefaultContext_v67" : [
"2023-02-16T14:55:43.370-0600"
],
"DefaultContext_v68" : [
"2023-02-17T08:58:42.509-0600"
],
"DefaultContext_v69" : [
"2023-02-17T09:04:54.292-0600"
],
"DefaultContext_v70" : [
"2023-02-17T09:06:41.312-0600"
],
"DefaultContext_v71" : [
"2023-02-17T09:07:48.171-0600"
],
"DefaultContext_v72" : [
"2023-02-23T08:41:50.350-0600"
],
"DefaultContext_v73" : [
"2023-02-28T13:19:24.099-0600"
],
"DefaultContext_v74" : [
"2023-02-28T13:20:44.994-0600"
],
"DefaultContext_v75" : [
"2023-03-01T10:10:37.166-0600"
],
"DefaultContext_v76" : [
"2023-04-14T11:05:29.418-0500"
],
"DefaultContext_v77" : [
"2023-04-14T11:09:59.569-0500"
],
"DefaultContext_v78" : [
"2023-04-14T14:03:30.371-0500"
],
"DefaultContext_v79" : [
"2023-04-14T15:36:53.178-0500"
]
}
}