{
"document" : {
"data" : {
"NAME" : "FE_PURDUE_FSSR_INTERFACE_CONFIGURATION",
"COMMENT" : "Purdue FE-for-FSSR records",
"AUTHOR" : "admin",
"CREATION_TIME" : 1509657731,
"COL_TYPES" : {
"INTERFACE_ID" : "VARCHAR2",
"STATUS" : "VARCHAR2",
"FIRMWARE_VERSION" : "NUMBER",
"INTERFACE_IP_ADDRESS" : "VARCHAR2",
"INTERFACE_PORT" : "NUMBER",
"HOST_IP_ADDRESS" : "VARCHAR2",
"HOST_PORT" : "NUMBER",
"STREAM_TO_IP_ADDRESS" : "VARCHAR2",
"STREAM_TO_PORT" : "NUMBER",
"CLOCK_SELECT" : "VARCHAR2",
"CLOCK_SPEED_M_HZ" : "NUMBER",
"CHANNEL_STATUS0" : "VARCHAR2",
"CHANNEL_STATUS1" : "VARCHAR2",
"CHANNEL_STATUS2" : "VARCHAR2",
"CHANNEL_STATUS3" : "VARCHAR2",
"CHANNEL_STATUS4" : "VARCHAR2",
"CHANNEL_STATUS5" : "VARCHAR2",
"COMMENT_DESCRIPTION" : "VARCHAR2",
"AUTHOR" : "VARCHAR2",
"RECORD_INSERTION_TIME" : "TIMESTAMP WITH TIMEZONE"
},
"DATA_SET" : [
{
"INTERFACE_ID" : "PurdueFSSR0",
"STATUS" : "On",
"FIRMWARE_VERSION" : "1",
"INTERFACE_IP_ADDRESS" : "192.168.133.20",
"INTERFACE_PORT" : "47000",
"HOST_IP_ADDRESS" : "192.168.133.1",
"HOST_PORT" : "10000",
"STREAM_TO_IP_ADDRESS" : "192.168.133.1",
"STREAM_TO_PORT" : "47000",
"CLOCK_SELECT" : "External",
"CLOCK_SPEED_M_HZ" : "13.5",
"CHANNEL_STATUS0" : "On",
"CHANNEL_STATUS1" : "On",
"CHANNEL_STATUS2" : "On",
"CHANNEL_STATUS3" : "On",
"CHANNEL_STATUS4" : "Off",
"CHANNEL_STATUS5" : "Off",
"COMMENT_DESCRIPTION" : "No Comment",
"AUTHOR" : "admin",
"RECORD_INSERTION_TIME" : "1509657731"
},
{
"INTERFACE_ID" : "PurdueFSSR1",
"STATUS" : "On",
"FIRMWARE_VERSION" : "1",
"INTERFACE_IP_ADDRESS" : "192.168.133.36",
"INTERFACE_PORT" : "47000",
"HOST_IP_ADDRESS" : "192.168.133.1",
"HOST_PORT" : "10001",
"STREAM_TO_IP_ADDRESS" : "192.168.133.1",
"STREAM_TO_PORT" : "47001",
"CLOCK_SELECT" : "External",
"CLOCK_SPEED_M_HZ" : "13.5",
"CHANNEL_STATUS0" : "On",
"CHANNEL_STATUS1" : "On",
"CHANNEL_STATUS2" : "On",
"CHANNEL_STATUS3" : "On",
"CHANNEL_STATUS4" : "Off",
"CHANNEL_STATUS5" : "Off",
"COMMENT_DESCRIPTION" : "No Comment",
"AUTHOR" : "admin",
"RECORD_INSERTION_TIME" : "1509657731"
},
{
"INTERFACE_ID" : "PurdueFSSR2",
"STATUS" : "On",
"FIRMWARE_VERSION" : "1",
"INTERFACE_IP_ADDRESS" : "192.168.133.132",
"INTERFACE_PORT" : "47000",
"HOST_IP_ADDRESS" : "192.168.133.1",
"HOST_PORT" : "10002",
"STREAM_TO_IP_ADDRESS" : "192.168.133.1",
"STREAM_TO_PORT" : "47002",
"CLOCK_SELECT" : "External",
"CLOCK_SPEED_M_HZ" : "13.5",
"CHANNEL_STATUS0" : "On",
"CHANNEL_STATUS1" : "On",
"CHANNEL_STATUS2" : "On",
"CHANNEL_STATUS3" : "On",
"CHANNEL_STATUS4" : "On",
"CHANNEL_STATUS5" : "On",
"COMMENT_DESCRIPTION" : "No Comment",
"AUTHOR" : "admin",
"RECORD_INSERTION_TIME" : "1509657731"
}
]
},
"metadata" : {

},
"search" : [

]
},
"comments" : [

],
"origin" : {
"source" : "template",
"name" : "notprovided",
"format" : "json",
"created" : "2017-11-08T15:56:03.846-0600",
"rawdata" : [

]
},
"version" : "0",
"entities" : [
{
"name" : "OTSROOT",
"assigned" : "2017-11-08T15:56:03.849-0600"
}
],
"configurations" : [
{
"name" : "notprovided",
"assigned" : "2017-11-08T15:56:03.847-0600"
},
{
"name" : "FTBFConfig_v0",
"assigned" : "2017-11-08T15:56:06.790-0600"
},
{
"name" : "FTBFConfig_v1",
"assigned" : "2017-11-09T09:56:31.537-0600"
},
{
"name" : "FTBFConfig_v2",
"assigned" : "2017-11-09T10:06:00.514-0600"
},
{
"name" : "FTBFConfig_v3",
"assigned" : "2017-11-09T10:37:12.102-0600"
},
{
"name" : "FTBFConfig_v4",
"assigned" : "2017-11-15T11:30:10.943-0600"
},
{
"name" : "FTBFConfig_v5",
"assigned" : "2017-11-15T11:54:57.766-0600"
},
{
"name" : "FTBFConfig_v6",
"assigned" : "2017-11-15T11:57:50.402-0600"
},
{
"name" : "FTBFConfig_v7",
"assigned" : "2017-11-15T12:42:32.855-0600"
},
{
"name" : "FTBFConfig_v8",
"assigned" : "2017-11-15T13:01:03.884-0600"
},
{
"name" : "FTBFConfig_v9",
"assigned" : "2017-11-15T13:02:57.244-0600"
},
{
"name" : "FTBFConfig_v10",
"assigned" : "2017-11-15T13:04:24.819-0600"
},
{
"name" : "FTBFConfig_v11",
"assigned" : "2017-11-15T13:07:52.326-0600"
},
{
"name" : "FTBFConfig_v12",
"assigned" : "2017-11-15T13:11:59.803-0600"
},
{
"name" : "FTBFConfig_v13",
"assigned" : "2017-11-15T13:13:53.763-0600"
},
{
"name" : "FTBFConfig_v14",
"assigned" : "2017-11-15T13:27:32.130-0600"
},
{
"name" : "FTBFConfig_v15",
"assigned" : "2017-11-15T13:35:47.767-0600"
},
{
"name" : "FTBFConfig_v16",
"assigned" : "2017-11-15T13:36:52.374-0600"
},
{
"name" : "FTBFConfig_v17",
"assigned" : "2017-11-15T15:33:30.925-0600"
},
{
"name" : "FTBFConfig_v18",
"assigned" : "2017-11-15T15:35:34.551-0600"
},
{
"name" : "FTBFConfig_v19",
"assigned" : "2017-11-15T15:38:03.416-0600"
},
{
"name" : "FTBFConfig_v20",
"assigned" : "2017-11-15T16:26:31.376-0600"
},
{
"name" : "FTBFConfig_v21",
"assigned" : "2017-11-16T09:22:32.224-0600"
},
{
"name" : "FTBFConfig_v22",
"assigned" : "2017-11-17T10:23:28.456-0600"
},
{
"name" : "FTBFConfig_v23",
"assigned" : "2017-11-17T17:26:46.036-0600"
},
{
"name" : "FTBFConfig_v24",
"assigned" : "2017-11-17T17:58:26.608-0600"
},
{
"name" : "FTBFConfig_v25",
"assigned" : "2017-11-17T18:24:46.271-0600"
},
{
"name" : "FTBFConfig_v26",
"assigned" : "2017-11-17T18:32:24.046-0600"
},
{
"name" : "FTBFConfig_v27",
"assigned" : "2017-11-17T18:43:31.222-0600"
},
{
"name" : "FTBFConfig_v28",
"assigned" : "2017-11-17T18:48:33.268-0600"
},
{
"name" : "FTBFConfig_v29",
"assigned" : "2017-11-20T14:48:31.709-0600"
},
{
"name" : "FTBFConfig_v30",
"assigned" : "2017-11-20T15:39:56.776-0600"
},
{
"name" : "FTBFConfig_v31",
"assigned" : "2017-11-20T16:41:02.819-0600"
},
{
"name" : "FTBFConfig_v32",
"assigned" : "2017-11-20T18:55:35.751-0600"
},
{
"name" : "FTBFConfig_v33",
"assigned" : "2017-11-20T18:57:31.055-0600"
},
{
"name" : "FTBFConfig_v34",
"assigned" : "2017-11-29T17:50:40.519-0600"
},
{
"name" : "FTBFConfig_v35",
"assigned" : "2017-11-29T18:00:33.470-0600"
},
{
"name" : "FTBFConfig_v36",
"assigned" : "2017-11-29T18:35:12.179-0600"
},
{
"name" : "FTBFConfig_v37",
"assigned" : "2017-12-01T09:36:18.931-0600"
},
{
"name" : "FTBFConfig_v38",
"assigned" : "2017-12-01T09:52:01.948-0600"
},
{
"name" : "FTBFConfig_v39",
"assigned" : "2017-12-01T11:51:59.221-0600"
},
{
"name" : "FTBFConfig_v40",
"assigned" : "2017-12-01T12:18:21.330-0600"
},
{
"name" : "FTBFConfig_v41",
"assigned" : "2017-12-01T12:21:03.331-0600"
},
{
"name" : "FTBFConfig_v42",
"assigned" : "2017-12-01T12:43:22.768-0600"
},
{
"name" : "FTBFConfig_v43",
"assigned" : "2017-12-01T12:58:00.610-0600"
},
{
"name" : "FTBFConfig_v44",
"assigned" : "2017-12-01T13:00:53.186-0600"
},
{
"name" : "FTBFConfig_v45",
"assigned" : "2017-12-01T13:25:49.692-0600"
},
{
"name" : "FTBFConfig_v46",
"assigned" : "2017-12-01T13:35:44.479-0600"
},
{
"name" : "FTBFConfig_v47",
"assigned" : "2017-12-01T14:00:52.751-0600"
},
{
"name" : "FTBFConfig_v48",
"assigned" : "2017-12-01T14:04:00.112-0600"
},
{
"name" : "FTBFConfig_v49",
"assigned" : "2017-12-01T15:32:00.280-0600"
},
{
"name" : "FTBFConfig_v52",
"assigned" : "2017-12-01T15:37:32.965-0600"
},
{
"name" : "FTBFConfig_v53",
"assigned" : "2017-12-01T15:40:59.778-0600"
},
{
"name" : "FTBFConfig_v54",
"assigned" : "2017-12-01T15:52:50.113-0600"
},
{
"name" : "FTBFConfig_v55",
"assigned" : "2017-12-01T15:54:35.278-0600"
},
{
"name" : "FTBFConfig_v56",
"assigned" : "2017-12-01T15:55:34.865-0600"
},
{
"name" : "FTBFConfig_v57",
"assigned" : "2017-12-01T15:56:40.707-0600"
},
{
"name" : "FTBFConfig_v58",
"assigned" : "2017-12-01T15:57:38.746-0600"
},
{
"name" : "FTBFConfig_v59",
"assigned" : "2017-12-01T15:58:30.668-0600"
},
{
"name" : "FTBFConfig_v60",
"assigned" : "2017-12-01T15:59:31.892-0600"
},
{
"name" : "FTBFConfig_v61",
"assigned" : "2017-12-01T16:19:41.741-0600"
},
{
"name" : "FTBFConfig_v62",
"assigned" : "2017-12-01T16:22:04.193-0600"
},
{
"name" : "FTBFConfig_v63",
"assigned" : "2017-12-01T16:31:24.832-0600"
},
{
"name" : "FTBFConfig_v64",
"assigned" : "2017-12-01T17:06:32.167-0600"
},
{
"name" : "FTBFConfig_v65",
"assigned" : "2017-12-01T17:32:44.306-0600"
},
{
"name" : "FTBFConfig_v66",
"assigned" : "2017-12-01T20:38:50.713-0600"
},
{
"name" : "FTBFConfig_v67",
"assigned" : "2017-12-01T21:25:02.061-0600"
},
{
"name" : "FTBFConfig_v68",
"assigned" : "2017-12-01T21:43:01.764-0600"
},
{
"name" : "FTBFConfig_v69",
"assigned" : "2017-12-01T21:45:00.345-0600"
},
{
"name" : "FTBFConfig_v70",
"assigned" : "2017-12-01T21:59:19.628-0600"
},
{
"name" : "FTBFConfigNim_v0",
"assigned" : "2017-12-01T22:00:06.373-0600"
},
{
"name" : "FTBFConfigNim_v1",
"assigned" : "2017-12-01T22:13:08.127-0600"
},
{
"name" : "FTBFConfigNim_v2",
"assigned" : "2017-12-01T22:15:55.371-0600"
},
{
"name" : "FTBFConfigNim_v3",
"assigned" : "2017-12-01T22:17:03.937-0600"
},
{
"name" : "FTBFConfigNim_v4",
"assigned" : "2017-12-01T22:19:06.466-0600"
},
{
"name" : "FTBFConfigNim_v5",
"assigned" : "2017-12-01T22:21:57.242-0600"
},
{
"name" : "FTBFConfigNim_v6",
"assigned" : "2017-12-01T22:23:14.761-0600"
},
{
"name" : "FTBFConfigNim_v7",
"assigned" : "2017-12-01T22:25:17.229-0600"
},
{
"name" : "FTBFConfigNim_v8",
"assigned" : "2017-12-01T22:27:04.904-0600"
},
{
"name" : "FTBFConfigNim_v9",
"assigned" : "2017-12-01T22:29:29.042-0600"
},
{
"name" : "FTBFConfigNim_v10",
"assigned" : "2017-12-01T22:52:34.359-0600"
},
{
"name" : "FTBFConfigNim_v11",
"assigned" : "2017-12-01T22:57:29.038-0600"
},
{
"name" : "FTBFConfigNim_v12",
"assigned" : "2017-12-01T23:00:07.231-0600"
},
{
"name" : "FTBFConfigNim_v13",
"assigned" : "2017-12-01T23:52:35.375-0600"
},
{
"name" : "FTBFConfigNim_v14",
"assigned" : "2017-12-01T23:58:09.844-0600"
},
{
"name" : "FTBFConfigNim_v15",
"assigned" : "2017-12-02T00:00:34.052-0600"
},
{
"name" : "FTBFConfigNim_v16",
"assigned" : "2017-12-02T00:13:09.284-0600"
},
{
"name" : "FTBFConfigNim_v17",
"assigned" : "2017-12-02T00:28:28.182-0600"
},
{
"name" : "FTBFConfigNim_v18",
"assigned" : "2017-12-02T00:29:34.254-0600"
},
{
"name" : "FTBFConfigNim_v19",
"assigned" : "2017-12-02T00:31:13.096-0600"
},
{
"name" : "FTBFConfigNim_v20",
"assigned" : "2017-12-02T00:57:27.281-0600"
},
{
"name" : "FTBFConfigNim_v21",
"assigned" : "2017-12-02T10:58:01.848-0600"
},
{
"name" : "FTBFConfigNim_v22",
"assigned" : "2017-12-02T11:08:18.035-0600"
},
{
"name" : "FTBFConfigNim_v23",
"assigned" : "2017-12-02T11:12:39.657-0600"
},
{
"name" : "FTBFConfigNim_v24",
"assigned" : "2017-12-02T11:18:42.524-0600"
},
{
"name" : "FTBFConfigNim_v25",
"assigned" : "2017-12-02T11:27:05.722-0600"
},
{
"name" : "FTBFConfigNim_v26",
"assigned" : "2017-12-02T11:38:36.768-0600"
},
{
"name" : "FTBFConfigNim_v27",
"assigned" : "2017-12-02T11:49:07.972-0600"
},
{
"name" : "FTBFConfigNim_v28",
"assigned" : "2017-12-02T11:55:09.486-0600"
},
{
"name" : "FTBFConfigNim_v29",
"assigned" : "2017-12-02T12:06:26.269-0600"
},
{
"name" : "FTBFConfig_v71",
"assigned" : "2017-12-02T12:24:14.931-0600"
},
{
"name" : "FTBFConfig_v72",
"assigned" : "2017-12-02T12:43:35.812-0600"
},
{
"name" : "FTBFConfig_v73",
"assigned" : "2017-12-02T13:55:35.481-0600"
},
{
"name" : "FTBFConfig_v75",
"assigned" : "2017-12-02T14:12:18.669-0600"
},
{
"name" : "FTBFConfig_v76",
"assigned" : "2017-12-02T19:05:53.718-0600"
},
{
"name" : "FTBFConfig_v77",
"assigned" : "2017-12-02T19:12:13.554-0600"
},
{
"name" : "FTBFConfig_v78",
"assigned" : "2017-12-03T14:03:48.698-0600"
},
{
"name" : "FTBFConfig_v79",
"assigned" : "2017-12-03T14:09:06.961-0600"
},
{
"name" : "FTBFConfig_v80",
"assigned" : "2017-12-03T14:11:10.694-0600"
},
{
"name" : "FTBFConfig_v81",
"assigned" : "2017-12-03T14:22:33.754-0600"
},
{
"name" : "FTBFConfig_v82",
"assigned" : "2017-12-03T14:40:38.569-0600"
},
{
"name" : "FTBFConfig_v83",
"assigned" : "2017-12-03T14:45:05.921-0600"
},
{
"name" : "FTBFConfig_v84",
"assigned" : "2017-12-04T14:51:31.213-0600"
},
{
"name" : "FTBFConfig_v85",
"assigned" : "2017-12-04T14:55:44.406-0600"
},
{
"name" : "FTBFConfig_v86",
"assigned" : "2017-12-04T16:51:07.467-0600"
},
{
"name" : "FTBFConfig_v87",
"assigned" : "2017-12-04T16:56:48.107-0600"
},
{
"name" : "FTBFConfig_v88",
"assigned" : "2017-12-04T17:01:12.847-0600"
},
{
"name" : "FTBFConfig_v89",
"assigned" : "2017-12-04T17:03:57.962-0600"
},
{
"name" : "FTBFConfig_v90",
"assigned" : "2017-12-04T17:07:17.611-0600"
},
{
"name" : "FTBFConfig_v91",
"assigned" : "2017-12-04T17:09:26.734-0600"
},
{
"name" : "FTBFConfig_v92",
"assigned" : "2017-12-04T17:11:39.259-0600"
},
{
"name" : "FTBFConfig_v93",
"assigned" : "2017-12-04T21:05:21.797-0600"
},
{
"name" : "FTBFConfig_v94",
"assigned" : "2017-12-04T21:17:12.778-0600"
},
{
"name" : "FTBFConfig_v95",
"assigned" : "2017-12-04T21:41:18.418-0600"
},
{
"name" : "FTBFConfig_v96",
"assigned" : "2017-12-04T22:39:03.079-0600"
},
{
"name" : "FTBFConfig_v97",
"assigned" : "2017-12-04T23:01:13.584-0600"
},
{
"name" : "FTBFConfig_v98",
"assigned" : "2017-12-07T11:07:47.584-0600"
},
{
"name" : "FTBFConfig_v99",
"assigned" : "2017-12-07T11:50:00.245-0600"
},
{
"name" : "FTBFConfig_v100",
"assigned" : "2017-12-07T11:58:26.996-0600"
},
{
"name" : "FTBFConfig_v101",
"assigned" : "2017-12-08T13:30:49.166-0600"
},
{
"name" : "FTBFConfig_v102",
"assigned" : "2017-12-08T13:32:36.029-0600"
},
{
"name" : "FTBFConfig_v103",
"assigned" : "2017-12-12T11:03:05.849-0600"
},
{
"name" : "FTBFConfig_v104",
"assigned" : "2017-12-12T13:51:00.375-0600"
},
{
"name" : "FTBFConfig_v105",
"assigned" : "2017-12-12T15:25:06.333-0600"
},
{
"name" : "FTBFConfig_v106",
"assigned" : "2017-12-13T10:24:24.660-0600"
},
{
"name" : "FTBFConfig_v107",
"assigned" : "2017-12-13T10:27:03.390-0600"
},
{
"name" : "FTBFConfig_v108",
"assigned" : "2018-02-01T21:14:27.047-0600"
},
{
"name" : "FTBFConfig_v109",
"assigned" : "2018-02-01T21:21:04.166-0600"
},
{
"name" : "FTBFConfig_v110",
"assigned" : "2018-02-02T11:25:35.127-0600"
},
{
"name" : "FTBFConfig_v111",
"assigned" : "2018-02-02T11:37:13.984-0600"
},
{
"name" : "FTBFConfig_v112",
"assigned" : "2018-02-02T11:47:16.478-0600"
},
{
"name" : "FTBFConfig_v113",
"assigned" : "2018-02-02T11:53:37.729-0600"
},
{
"name" : "FTBFConfig_v114",
"assigned" : "2018-02-02T12:00:53.844-0600"
},
{
"name" : "FTBFConfig_v115",
"assigned" : "2018-02-02T12:27:15.318-0600"
},
{
"name" : "FTBFConfig_v116",
"assigned" : "2018-02-02T14:28:54.838-0600"
},
{
"name" : "FTBFConfig_v117",
"assigned" : "2018-02-02T14:30:21.203-0600"
},
{
"name" : "FTBFConfig_v118",
"assigned" : "2018-02-02T14:34:02.452-0600"
},
{
"name" : "FTBFConfig_v119",
"assigned" : "2018-02-02T14:36:29.052-0600"
},
{
"name" : "FTBFConfig_v120",
"assigned" : "2018-02-02T14:38:42.414-0600"
},
{
"name" : "FTBFConfig_v121",
"assigned" : "2018-02-02T14:41:51.712-0600"
},
{
"name" : "FTBFConfig_v122",
"assigned" : "2018-02-02T14:50:25.799-0600"
},
{
"name" : "FTBFConfig_v123",
"assigned" : "2018-02-02T14:52:58.674-0600"
},
{
"name" : "FTBFConfig_v124",
"assigned" : "2018-02-02T14:59:51.989-0600"
},
{
"name" : "FTBFConfig_v125",
"assigned" : "2018-02-02T15:04:10.109-0600"
},
{
"name" : "FTBFConfig_v126",
"assigned" : "2018-02-02T15:50:13.359-0600"
},
{
"name" : "FTBFConfig_v127",
"assigned" : "2018-02-02T15:51:32.818-0600"
},
{
"name" : "FTBFConfig_v128",
"assigned" : "2018-02-02T15:52:37.978-0600"
},
{
"name" : "FTBFConfig_v129",
"assigned" : "2018-02-02T16:02:46.899-0600"
},
{
"name" : "FTBFConfig_v130",
"assigned" : "2018-02-02T16:08:46.449-0600"
},
{
"name" : "FTBFConfig_v131",
"assigned" : "2018-02-02T16:11:32.297-0600"
},
{
"name" : "FTBFConfig_v132",
"assigned" : "2018-02-02T16:13:00.164-0600"
},
{
"name" : "FTBFConfig_v133",
"assigned" : "2018-02-02T16:14:30.789-0600"
},
{
"name" : "FTBFConfig_v134",
"assigned" : "2018-02-02T16:26:23.684-0600"
},
{
"name" : "FTBFConfig_v135",
"assigned" : "2018-02-02T16:27:10.788-0600"
},
{
"name" : "FTBFConfig_v136",
"assigned" : "2018-02-02T16:29:32.149-0600"
},
{
"name" : "FTBFConfig_v137",
"assigned" : "2018-02-02T16:31:42.770-0600"
},
{
"name" : "FTBFConfig_v138",
"assigned" : "2018-02-02T16:34:15.446-0600"
},
{
"name" : "FTBFConfig_v139",
"assigned" : "2018-02-02T17:39:31.495-0600"
},
{
"name" : "FTBFConfig_v140",
"assigned" : "2018-02-02T17:42:53.677-0600"
},
{
"name" : "FTBFConfig_v141",
"assigned" : "2018-02-02T17:47:38.903-0600"
},
{
"name" : "FTBFConfig_v142",
"assigned" : "2018-02-02T17:54:02.896-0600"
}
],
"changelog" : "notprovided",
"bookkeeping" : {
"isdeleted" : false,
"isreadonly" : false,
"updates" : [
{
"event" : "addConfiguration",
"timestamp" : "2017-11-08T15:56:03.847-0600",
"value" : {
"name" : "notprovided",
"assigned" : "2017-11-08T15:56:03.847-0600"
}
},
{
"event" : "setVersion",
"timestamp" : "2017-11-08T15:56:03.848-0600",
"value" : {
"name" : "0",
"assigned" : "2017-11-08T15:56:03.848-0600"
}
},
{
"event" : "setCollection",
"timestamp" : "2017-11-08T15:56:03.848-0600",
"value" : {
"name" : "FEPurdueFSSRInterfaceConfiguration",
"assigned" : "2017-11-08T15:56:03.848-0600"
}
},
{
"event" : "addEntity",
"timestamp" : "2017-11-08T15:56:03.849-0600",
"value" : {
"name" : "OTSROOT",
"assigned" : "2017-11-08T15:56:03.849-0600"
}
},
{
"event" : "addConfiguration",
"timestamp" : "2017-11-08T15:56:06.790-0600",
"value" : {
"name" : "FTBFConfig_v0",
"assigned" : "2017-11-08T15:56:06.790-0600"
}
},
{
"event" : "addConfiguration",
"timestamp" : "2017-11-09T09:56:31.537-0600",
"value" : {
"name" : "FTBFConfig_v1",
"assigned" : "2017-11-09T09:56:31.537-0600"
}
},
{
"event" : "addConfiguration",
"timestamp" : "2017-11-09T10:06:00.514-0600",
"value" : {
"name" : "FTBFConfig_v2",
"assigned" : "2017-11-09T10:06:00.514-0600"
}
},
{
"event" : "addConfiguration",
"timestamp" : "2017-11-09T10:37:12.102-0600",
"value" : {
"name" : "FTBFConfig_v3",
"assigned" : "2017-11-09T10:37:12.102-0600"
}
},
{
"event" : "addConfiguration",
"timestamp" : "2017-11-15T11:30:10.943-0600",
"value" : {
"name" : "FTBFConfig_v4",
"assigned" : "2017-11-15T11:30:10.943-0600"
}
},
{
"event" : "addConfiguration",
"timestamp" : "2017-11-15T11:54:57.766-0600",
"value" : {
"name" : "FTBFConfig_v5",
"assigned" : "2017-11-15T11:54:57.766-0600"
}
},
{
"event" : "addConfiguration",
"timestamp" : "2017-11-15T11:57:50.402-0600",
"value" : {
"name" : "FTBFConfig_v6",
"assigned" : "2017-11-15T11:57:50.402-0600"
}
},
{
"event" : "addConfiguration",
"timestamp" : "2017-11-15T12:42:32.855-0600",
"value" : {
"name" : "FTBFConfig_v7",
"assigned" : "2017-11-15T12:42:32.855-0600"
}
},
{
"event" : "addConfiguration",
"timestamp" : "2017-11-15T13:01:03.884-0600",
"value" : {
"name" : "FTBFConfig_v8",
"assigned" : "2017-11-15T13:01:03.884-0600"
}
},
{
"event" : "addConfiguration",
"timestamp" : "2017-11-15T13:02:57.245-0600",
"value" : {
"name" : "FTBFConfig_v9",
"assigned" : "2017-11-15T13:02:57.244-0600"
}
},
{
"event" : "addConfiguration",
"timestamp" : "2017-11-15T13:04:24.819-0600",
"value" : {
"name" : "FTBFConfig_v10",
"assigned" : "2017-11-15T13:04:24.819-0600"
}
},
{
"event" : "addConfiguration",
"timestamp" : "2017-11-15T13:07:52.326-0600",
"value" : {
"name" : "FTBFConfig_v11",
"assigned" : "2017-11-15T13:07:52.326-0600"
}
},
{
"event" : "addConfiguration",
"timestamp" : "2017-11-15T13:11:59.803-0600",
"value" : {
"name" : "FTBFConfig_v12",
"assigned" : "2017-11-15T13:11:59.803-0600"
}
},
{
"event" : "addConfiguration",
"timestamp" : "2017-11-15T13:13:53.763-0600",
"value" : {
"name" : "FTBFConfig_v13",
"assigned" : "2017-11-15T13:13:53.763-0600"
}
},
{
"event" : "addConfiguration",
"timestamp" : "2017-11-15T13:27:32.130-0600",
"value" : {
"name" : "FTBFConfig_v14",
"assigned" : "2017-11-15T13:27:32.130-0600"
}
},
{
"event" : "addConfiguration",
"timestamp" : "2017-11-15T13:35:47.767-0600",
"value" : {
"name" : "FTBFConfig_v15",
"assigned" : "2017-11-15T13:35:47.767-0600"
}
},
{
"event" : "addConfiguration",
"timestamp" : "2017-11-15T13:36:52.374-0600",
"value" : {
"name" : "FTBFConfig_v16",
"assigned" : "2017-11-15T13:36:52.374-0600"
}
},
{
"event" : "addConfiguration",
"timestamp" : "2017-11-15T15:33:30.925-0600",
"value" : {
"name" : "FTBFConfig_v17",
"assigned" : "2017-11-15T15:33:30.925-0600"
}
},
{
"event" : "addConfiguration",
"timestamp" : "2017-11-15T15:35:34.551-0600",
"value" : {
"name" : "FTBFConfig_v18",
"assigned" : "2017-11-15T15:35:34.551-0600"
}
},
{
"event" : "addConfiguration",
"timestamp" : "2017-11-15T15:38:03.416-0600",
"value" : {
"name" : "FTBFConfig_v19",
"assigned" : "2017-11-15T15:38:03.416-0600"
}
},
{
"event" : "addConfiguration",
"timestamp" : "2017-11-15T16:26:31.376-0600",
"value" : {
"name" : "FTBFConfig_v20",
"assigned" : "2017-11-15T16:26:31.376-0600"
}
},
{
"event" : "addConfiguration",
"timestamp" : "2017-11-16T09:22:32.224-0600",
"value" : {
"name" : "FTBFConfig_v21",
"assigned" : "2017-11-16T09:22:32.224-0600"
}
},
{
"event" : "addConfiguration",
"timestamp" : "2017-11-17T10:23:28.456-0600",
"value" : {
"name" : "FTBFConfig_v22",
"assigned" : "2017-11-17T10:23:28.456-0600"
}
},
{
"event" : "addConfiguration",
"timestamp" : "2017-11-17T17:26:46.036-0600",
"value" : {
"name" : "FTBFConfig_v23",
"assigned" : "2017-11-17T17:26:46.036-0600"
}
},
{
"event" : "addConfiguration",
"timestamp" : "2017-11-17T17:58:26.608-0600",
"value" : {
"name" : "FTBFConfig_v24",
"assigned" : "2017-11-17T17:58:26.608-0600"
}
},
{
"event" : "addConfiguration",
"timestamp" : "2017-11-17T18:24:46.271-0600",
"value" : {
"name" : "FTBFConfig_v25",
"assigned" : "2017-11-17T18:24:46.271-0600"
}
},
{
"event" : "addConfiguration",
"timestamp" : "2017-11-17T18:32:24.046-0600",
"value" : {
"name" : "FTBFConfig_v26",
"assigned" : "2017-11-17T18:32:24.046-0600"
}
},
{
"event" : "addConfiguration",
"timestamp" : "2017-11-17T18:43:31.223-0600",
"value" : {
"name" : "FTBFConfig_v27",
"assigned" : "2017-11-17T18:43:31.222-0600"
}
},
{
"event" : "addConfiguration",
"timestamp" : "2017-11-17T18:48:33.268-0600",
"value" : {
"name" : "FTBFConfig_v28",
"assigned" : "2017-11-17T18:48:33.268-0600"
}
},
{
"event" : "addConfiguration",
"timestamp" : "2017-11-20T14:48:31.710-0600",
"value" : {
"name" : "FTBFConfig_v29",
"assigned" : "2017-11-20T14:48:31.709-0600"
}
},
{
"event" : "addConfiguration",
"timestamp" : "2017-11-20T15:39:56.776-0600",
"value" : {
"name" : "FTBFConfig_v30",
"assigned" : "2017-11-20T15:39:56.776-0600"
}
},
{
"event" : "addConfiguration",
"timestamp" : "2017-11-20T16:41:02.819-0600",
"value" : {
"name" : "FTBFConfig_v31",
"assigned" : "2017-11-20T16:41:02.819-0600"
}
},
{
"event" : "addConfiguration",
"timestamp" : "2017-11-20T18:55:35.752-0600",
"value" : {
"name" : "FTBFConfig_v32",
"assigned" : "2017-11-20T18:55:35.751-0600"
}
},
{
"event" : "addConfiguration",
"timestamp" : "2017-11-20T18:57:31.055-0600",
"value" : {
"name" : "FTBFConfig_v33",
"assigned" : "2017-11-20T18:57:31.055-0600"
}
},
{
"event" : "addConfiguration",
"timestamp" : "2017-11-29T17:50:40.519-0600",
"value" : {
"name" : "FTBFConfig_v34",
"assigned" : "2017-11-29T17:50:40.519-0600"
}
},
{
"event" : "addConfiguration",
"timestamp" : "2017-11-29T18:00:33.470-0600",
"value" : {
"name" : "FTBFConfig_v35",
"assigned" : "2017-11-29T18:00:33.470-0600"
}
},
{
"event" : "addConfiguration",
"timestamp" : "2017-11-29T18:35:12.179-0600",
"value" : {
"name" : "FTBFConfig_v36",
"assigned" : "2017-11-29T18:35:12.179-0600"
}
},
{
"event" : "addConfiguration",
"timestamp" : "2017-12-01T09:36:18.932-0600",
"value" : {
"name" : "FTBFConfig_v37",
"assigned" : "2017-12-01T09:36:18.931-0600"
}
},
{
"event" : "addConfiguration",
"timestamp" : "2017-12-01T09:52:01.948-0600",
"value" : {
"name" : "FTBFConfig_v38",
"assigned" : "2017-12-01T09:52:01.948-0600"
}
},
{
"event" : "addConfiguration",
"timestamp" : "2017-12-01T11:51:59.221-0600",
"value" : {
"name" : "FTBFConfig_v39",
"assigned" : "2017-12-01T11:51:59.221-0600"
}
},
{
"event" : "addConfiguration",
"timestamp" : "2017-12-01T12:18:21.331-0600",
"value" : {
"name" : "FTBFConfig_v40",
"assigned" : "2017-12-01T12:18:21.330-0600"
}
},
{
"event" : "addConfiguration",
"timestamp" : "2017-12-01T12:21:03.331-0600",
"value" : {
"name" : "FTBFConfig_v41",
"assigned" : "2017-12-01T12:21:03.331-0600"
}
},
{
"event" : "addConfiguration",
"timestamp" : "2017-12-01T12:43:22.768-0600",
"value" : {
"name" : "FTBFConfig_v42",
"assigned" : "2017-12-01T12:43:22.768-0600"
}
},
{
"event" : "addConfiguration",
"timestamp" : "2017-12-01T12:58:00.610-0600",
"value" : {
"name" : "FTBFConfig_v43",
"assigned" : "2017-12-01T12:58:00.610-0600"
}
},
{
"event" : "addConfiguration",
"timestamp" : "2017-12-01T13:00:53.186-0600",
"value" : {
"name" : "FTBFConfig_v44",
"assigned" : "2017-12-01T13:00:53.186-0600"
}
},
{
"event" : "addConfiguration",
"timestamp" : "2017-12-01T13:25:49.692-0600",
"value" : {
"name" : "FTBFConfig_v45",
"assigned" : "2017-12-01T13:25:49.692-0600"
}
},
{
"event" : "addConfiguration",
"timestamp" : "2017-12-01T13:35:44.479-0600",
"value" : {
"name" : "FTBFConfig_v46",
"assigned" : "2017-12-01T13:35:44.479-0600"
}
},
{
"event" : "addConfiguration",
"timestamp" : "2017-12-01T14:00:52.751-0600",
"value" : {
"name" : "FTBFConfig_v47",
"assigned" : "2017-12-01T14:00:52.751-0600"
}
},
{
"event" : "addConfiguration",
"timestamp" : "2017-12-01T14:04:00.112-0600",
"value" : {
"name" : "FTBFConfig_v48",
"assigned" : "2017-12-01T14:04:00.112-0600"
}
},
{
"event" : "addConfiguration",
"timestamp" : "2017-12-01T15:32:00.281-0600",
"value" : {
"name" : "FTBFConfig_v49",
"assigned" : "2017-12-01T15:32:00.280-0600"
}
},
{
"event" : "addConfiguration",
"timestamp" : "2017-12-01T15:37:32.966-0600",
"value" : {
"name" : "FTBFConfig_v52",
"assigned" : "2017-12-01T15:37:32.965-0600"
}
},
{
"event" : "addConfiguration",
"timestamp" : "2017-12-01T15:40:59.778-0600",
"value" : {
"name" : "FTBFConfig_v53",
"assigned" : "2017-12-01T15:40:59.778-0600"
}
},
{
"event" : "addConfiguration",
"timestamp" : "2017-12-01T15:52:50.113-0600",
"value" : {
"name" : "FTBFConfig_v54",
"assigned" : "2017-12-01T15:52:50.113-0600"
}
},
{
"event" : "addConfiguration",
"timestamp" : "2017-12-01T15:54:35.278-0600",
"value" : {
"name" : "FTBFConfig_v55",
"assigned" : "2017-12-01T15:54:35.278-0600"
}
},
{
"event" : "addConfiguration",
"timestamp" : "2017-12-01T15:55:34.866-0600",
"value" : {
"name" : "FTBFConfig_v56",
"assigned" : "2017-12-01T15:55:34.865-0600"
}
},
{
"event" : "addConfiguration",
"timestamp" : "2017-12-01T15:56:40.708-0600",
"value" : {
"name" : "FTBFConfig_v57",
"assigned" : "2017-12-01T15:56:40.707-0600"
}
},
{
"event" : "addConfiguration",
"timestamp" : "2017-12-01T15:57:38.746-0600",
"value" : {
"name" : "FTBFConfig_v58",
"assigned" : "2017-12-01T15:57:38.746-0600"
}
},
{
"event" : "addConfiguration",
"timestamp" : "2017-12-01T15:58:30.668-0600",
"value" : {
"name" : "FTBFConfig_v59",
"assigned" : "2017-12-01T15:58:30.668-0600"
}
},
{
"event" : "addConfiguration",
"timestamp" : "2017-12-01T15:59:31.892-0600",
"value" : {
"name" : "FTBFConfig_v60",
"assigned" : "2017-12-01T15:59:31.892-0600"
}
},
{
"event" : "addConfiguration",
"timestamp" : "2017-12-01T16:19:41.741-0600",
"value" : {
"name" : "FTBFConfig_v61",
"assigned" : "2017-12-01T16:19:41.741-0600"
}
},
{
"event" : "addConfiguration",
"timestamp" : "2017-12-01T16:22:04.193-0600",
"value" : {
"name" : "FTBFConfig_v62",
"assigned" : "2017-12-01T16:22:04.193-0600"
}
},
{
"event" : "addConfiguration",
"timestamp" : "2017-12-01T16:31:24.832-0600",
"value" : {
"name" : "FTBFConfig_v63",
"assigned" : "2017-12-01T16:31:24.832-0600"
}
},
{
"event" : "addConfiguration",
"timestamp" : "2017-12-01T17:06:32.167-0600",
"value" : {
"name" : "FTBFConfig_v64",
"assigned" : "2017-12-01T17:06:32.167-0600"
}
},
{
"event" : "addConfiguration",
"timestamp" : "2017-12-01T17:32:44.306-0600",
"value" : {
"name" : "FTBFConfig_v65",
"assigned" : "2017-12-01T17:32:44.306-0600"
}
},
{
"event" : "addConfiguration",
"timestamp" : "2017-12-01T20:38:50.713-0600",
"value" : {
"name" : "FTBFConfig_v66",
"assigned" : "2017-12-01T20:38:50.713-0600"
}
},
{
"event" : "addConfiguration",
"timestamp" : "2017-12-01T21:25:02.061-0600",
"value" : {
"name" : "FTBFConfig_v67",
"assigned" : "2017-12-01T21:25:02.061-0600"
}
},
{
"event" : "addConfiguration",
"timestamp" : "2017-12-01T21:43:01.764-0600",
"value" : {
"name" : "FTBFConfig_v68",
"assigned" : "2017-12-01T21:43:01.764-0600"
}
},
{
"event" : "addConfiguration",
"timestamp" : "2017-12-01T21:45:00.345-0600",
"value" : {
"name" : "FTBFConfig_v69",
"assigned" : "2017-12-01T21:45:00.345-0600"
}
},
{
"event" : "addConfiguration",
"timestamp" : "2017-12-01T21:59:19.628-0600",
"value" : {
"name" : "FTBFConfig_v70",
"assigned" : "2017-12-01T21:59:19.628-0600"
}
},
{
"event" : "addConfiguration",
"timestamp" : "2017-12-01T22:00:06.373-0600",
"value" : {
"name" : "FTBFConfigNim_v0",
"assigned" : "2017-12-01T22:00:06.373-0600"
}
},
{
"event" : "addConfiguration",
"timestamp" : "2017-12-01T22:13:08.127-0600",
"value" : {
"name" : "FTBFConfigNim_v1",
"assigned" : "2017-12-01T22:13:08.127-0600"
}
},
{
"event" : "addConfiguration",
"timestamp" : "2017-12-01T22:15:55.372-0600",
"value" : {
"name" : "FTBFConfigNim_v2",
"assigned" : "2017-12-01T22:15:55.371-0600"
}
},
{
"event" : "addConfiguration",
"timestamp" : "2017-12-01T22:17:03.937-0600",
"value" : {
"name" : "FTBFConfigNim_v3",
"assigned" : "2017-12-01T22:17:03.937-0600"
}
},
{
"event" : "addConfiguration",
"timestamp" : "2017-12-01T22:19:06.466-0600",
"value" : {
"name" : "FTBFConfigNim_v4",
"assigned" : "2017-12-01T22:19:06.466-0600"
}
},
{
"event" : "addConfiguration",
"timestamp" : "2017-12-01T22:21:57.242-0600",
"value" : {
"name" : "FTBFConfigNim_v5",
"assigned" : "2017-12-01T22:21:57.242-0600"
}
},
{
"event" : "addConfiguration",
"timestamp" : "2017-12-01T22:23:14.761-0600",
"value" : {
"name" : "FTBFConfigNim_v6",
"assigned" : "2017-12-01T22:23:14.761-0600"
}
},
{
"event" : "addConfiguration",
"timestamp" : "2017-12-01T22:25:17.229-0600",
"value" : {
"name" : "FTBFConfigNim_v7",
"assigned" : "2017-12-01T22:25:17.229-0600"
}
},
{
"event" : "addConfiguration",
"timestamp" : "2017-12-01T22:27:04.905-0600",
"value" : {
"name" : "FTBFConfigNim_v8",
"assigned" : "2017-12-01T22:27:04.904-0600"
}
},
{
"event" : "addConfiguration",
"timestamp" : "2017-12-01T22:29:29.042-0600",
"value" : {
"name" : "FTBFConfigNim_v9",
"assigned" : "2017-12-01T22:29:29.042-0600"
}
},
{
"event" : "addConfiguration",
"timestamp" : "2017-12-01T22:52:34.359-0600",
"value" : {
"name" : "FTBFConfigNim_v10",
"assigned" : "2017-12-01T22:52:34.359-0600"
}
},
{
"event" : "addConfiguration",
"timestamp" : "2017-12-01T22:57:29.038-0600",
"value" : {
"name" : "FTBFConfigNim_v11",
"assigned" : "2017-12-01T22:57:29.038-0600"
}
},
{
"event" : "addConfiguration",
"timestamp" : "2017-12-01T23:00:07.231-0600",
"value" : {
"name" : "FTBFConfigNim_v12",
"assigned" : "2017-12-01T23:00:07.231-0600"
}
},
{
"event" : "addConfiguration",
"timestamp" : "2017-12-01T23:52:35.375-0600",
"value" : {
"name" : "FTBFConfigNim_v13",
"assigned" : "2017-12-01T23:52:35.375-0600"
}
},
{
"event" : "addConfiguration",
"timestamp" : "2017-12-01T23:58:09.844-0600",
"value" : {
"name" : "FTBFConfigNim_v14",
"assigned" : "2017-12-01T23:58:09.844-0600"
}
},
{
"event" : "addConfiguration",
"timestamp" : "2017-12-02T00:00:34.053-0600",
"value" : {
"name" : "FTBFConfigNim_v15",
"assigned" : "2017-12-02T00:00:34.052-0600"
}
},
{
"event" : "addConfiguration",
"timestamp" : "2017-12-02T00:13:09.284-0600",
"value" : {
"name" : "FTBFConfigNim_v16",
"assigned" : "2017-12-02T00:13:09.284-0600"
}
},
{
"event" : "addConfiguration",
"timestamp" : "2017-12-02T00:28:28.182-0600",
"value" : {
"name" : "FTBFConfigNim_v17",
"assigned" : "2017-12-02T00:28:28.182-0600"
}
},
{
"event" : "addConfiguration",
"timestamp" : "2017-12-02T00:29:34.254-0600",
"value" : {
"name" : "FTBFConfigNim_v18",
"assigned" : "2017-12-02T00:29:34.254-0600"
}
},
{
"event" : "addConfiguration",
"timestamp" : "2017-12-02T00:31:13.096-0600",
"value" : {
"name" : "FTBFConfigNim_v19",
"assigned" : "2017-12-02T00:31:13.096-0600"
}
},
{
"event" : "addConfiguration",
"timestamp" : "2017-12-02T00:57:27.281-0600",
"value" : {
"name" : "FTBFConfigNim_v20",
"assigned" : "2017-12-02T00:57:27.281-0600"
}
},
{
"event" : "addConfiguration",
"timestamp" : "2017-12-02T10:58:01.848-0600",
"value" : {
"name" : "FTBFConfigNim_v21",
"assigned" : "2017-12-02T10:58:01.848-0600"
}
},
{
"event" : "addConfiguration",
"timestamp" : "2017-12-02T11:08:18.035-0600",
"value" : {
"name" : "FTBFConfigNim_v22",
"assigned" : "2017-12-02T11:08:18.035-0600"
}
},
{
"event" : "addConfiguration",
"timestamp" : "2017-12-02T11:12:39.657-0600",
"value" : {
"name" : "FTBFConfigNim_v23",
"assigned" : "2017-12-02T11:12:39.657-0600"
}
},
{
"event" : "addConfiguration",
"timestamp" : "2017-12-02T11:18:42.524-0600",
"value" : {
"name" : "FTBFConfigNim_v24",
"assigned" : "2017-12-02T11:18:42.524-0600"
}
},
{
"event" : "addConfiguration",
"timestamp" : "2017-12-02T11:27:05.722-0600",
"value" : {
"name" : "FTBFConfigNim_v25",
"assigned" : "2017-12-02T11:27:05.722-0600"
}
},
{
"event" : "addConfiguration",
"timestamp" : "2017-12-02T11:38:36.768-0600",
"value" : {
"name" : "FTBFConfigNim_v26",
"assigned" : "2017-12-02T11:38:36.768-0600"
}
},
{
"event" : "addConfiguration",
"timestamp" : "2017-12-02T11:49:07.972-0600",
"value" : {
"name" : "FTBFConfigNim_v27",
"assigned" : "2017-12-02T11:49:07.972-0600"
}
},
{
"event" : "addConfiguration",
"timestamp" : "2017-12-02T11:55:09.487-0600",
"value" : {
"name" : "FTBFConfigNim_v28",
"assigned" : "2017-12-02T11:55:09.486-0600"
}
},
{
"event" : "addConfiguration",
"timestamp" : "2017-12-02T12:06:26.269-0600",
"value" : {
"name" : "FTBFConfigNim_v29",
"assigned" : "2017-12-02T12:06:26.269-0600"
}
},
{
"event" : "addConfiguration",
"timestamp" : "2017-12-02T12:24:14.931-0600",
"value" : {
"name" : "FTBFConfig_v71",
"assigned" : "2017-12-02T12:24:14.931-0600"
}
},
{
"event" : "addConfiguration",
"timestamp" : "2017-12-02T12:43:35.812-0600",
"value" : {
"name" : "FTBFConfig_v72",
"assigned" : "2017-12-02T12:43:35.812-0600"
}
},
{
"event" : "addConfiguration",
"timestamp" : "2017-12-02T13:55:35.481-0600",
"value" : {
"name" : "FTBFConfig_v73",
"assigned" : "2017-12-02T13:55:35.481-0600"
}
},
{
"event" : "addConfiguration",
"timestamp" : "2017-12-02T14:12:18.669-0600",
"value" : {
"name" : "FTBFConfig_v75",
"assigned" : "2017-12-02T14:12:18.669-0600"
}
},
{
"event" : "addConfiguration",
"timestamp" : "2017-12-02T19:05:53.718-0600",
"value" : {
"name" : "FTBFConfig_v76",
"assigned" : "2017-12-02T19:05:53.718-0600"
}
},
{
"event" : "addConfiguration",
"timestamp" : "2017-12-02T19:12:13.554-0600",
"value" : {
"name" : "FTBFConfig_v77",
"assigned" : "2017-12-02T19:12:13.554-0600"
}
},
{
"event" : "addConfiguration",
"timestamp" : "2017-12-03T14:03:48.698-0600",
"value" : {
"name" : "FTBFConfig_v78",
"assigned" : "2017-12-03T14:03:48.698-0600"
}
},
{
"event" : "addConfiguration",
"timestamp" : "2017-12-03T14:09:06.962-0600",
"value" : {
"name" : "FTBFConfig_v79",
"assigned" : "2017-12-03T14:09:06.961-0600"
}
},
{
"event" : "addConfiguration",
"timestamp" : "2017-12-03T14:11:10.694-0600",
"value" : {
"name" : "FTBFConfig_v80",
"assigned" : "2017-12-03T14:11:10.694-0600"
}
},
{
"event" : "addConfiguration",
"timestamp" : "2017-12-03T14:22:33.754-0600",
"value" : {
"name" : "FTBFConfig_v81",
"assigned" : "2017-12-03T14:22:33.754-0600"
}
},
{
"event" : "addConfiguration",
"timestamp" : "2017-12-03T14:40:38.570-0600",
"value" : {
"name" : "FTBFConfig_v82",
"assigned" : "2017-12-03T14:40:38.569-0600"
}
},
{
"event" : "addConfiguration",
"timestamp" : "2017-12-03T14:45:05.921-0600",
"value" : {
"name" : "FTBFConfig_v83",
"assigned" : "2017-12-03T14:45:05.921-0600"
}
},
{
"event" : "addConfiguration",
"timestamp" : "2017-12-04T14:51:31.214-0600",
"value" : {
"name" : "FTBFConfig_v84",
"assigned" : "2017-12-04T14:51:31.213-0600"
}
},
{
"event" : "addConfiguration",
"timestamp" : "2017-12-04T14:55:44.407-0600",
"value" : {
"name" : "FTBFConfig_v85",
"assigned" : "2017-12-04T14:55:44.406-0600"
}
},
{
"event" : "addConfiguration",
"timestamp" : "2017-12-04T16:51:07.467-0600",
"value" : {
"name" : "FTBFConfig_v86",
"assigned" : "2017-12-04T16:51:07.467-0600"
}
},
{
"event" : "addConfiguration",
"timestamp" : "2017-12-04T16:56:48.107-0600",
"value" : {
"name" : "FTBFConfig_v87",
"assigned" : "2017-12-04T16:56:48.107-0600"
}
},
{
"event" : "addConfiguration",
"timestamp" : "2017-12-04T17:01:12.847-0600",
"value" : {
"name" : "FTBFConfig_v88",
"assigned" : "2017-12-04T17:01:12.847-0600"
}
},
{
"event" : "addConfiguration",
"timestamp" : "2017-12-04T17:03:57.962-0600",
"value" : {
"name" : "FTBFConfig_v89",
"assigned" : "2017-12-04T17:03:57.962-0600"
}
},
{
"event" : "addConfiguration",
"timestamp" : "2017-12-04T17:07:17.611-0600",
"value" : {
"name" : "FTBFConfig_v90",
"assigned" : "2017-12-04T17:07:17.611-0600"
}
},
{
"event" : "addConfiguration",
"timestamp" : "2017-12-04T17:09:26.734-0600",
"value" : {
"name" : "FTBFConfig_v91",
"assigned" : "2017-12-04T17:09:26.734-0600"
}
},
{
"event" : "addConfiguration",
"timestamp" : "2017-12-04T17:11:39.259-0600",
"value" : {
"name" : "FTBFConfig_v92",
"assigned" : "2017-12-04T17:11:39.259-0600"
}
},
{
"event" : "addConfiguration",
"timestamp" : "2017-12-04T21:05:21.797-0600",
"value" : {
"name" : "FTBFConfig_v93",
"assigned" : "2017-12-04T21:05:21.797-0600"
}
},
{
"event" : "addConfiguration",
"timestamp" : "2017-12-04T21:17:12.778-0600",
"value" : {
"name" : "FTBFConfig_v94",
"assigned" : "2017-12-04T21:17:12.778-0600"
}
},
{
"event" : "addConfiguration",
"timestamp" : "2017-12-04T21:41:18.419-0600",
"value" : {
"name" : "FTBFConfig_v95",
"assigned" : "2017-12-04T21:41:18.418-0600"
}
},
{
"event" : "addConfiguration",
"timestamp" : "2017-12-04T22:39:03.079-0600",
"value" : {
"name" : "FTBFConfig_v96",
"assigned" : "2017-12-04T22:39:03.079-0600"
}
},
{
"event" : "addConfiguration",
"timestamp" : "2017-12-04T23:01:13.585-0600",
"value" : {
"name" : "FTBFConfig_v97",
"assigned" : "2017-12-04T23:01:13.584-0600"
}
},
{
"event" : "addConfiguration",
"timestamp" : "2017-12-07T11:07:47.584-0600",
"value" : {
"name" : "FTBFConfig_v98",
"assigned" : "2017-12-07T11:07:47.584-0600"
}
},
{
"event" : "addConfiguration",
"timestamp" : "2017-12-07T11:50:00.245-0600",
"value" : {
"name" : "FTBFConfig_v99",
"assigned" : "2017-12-07T11:50:00.245-0600"
}
},
{
"event" : "addConfiguration",
"timestamp" : "2017-12-07T11:58:26.996-0600",
"value" : {
"name" : "FTBFConfig_v100",
"assigned" : "2017-12-07T11:58:26.996-0600"
}
},
{
"event" : "addConfiguration",
"timestamp" : "2017-12-08T13:30:49.166-0600",
"value" : {
"name" : "FTBFConfig_v101",
"assigned" : "2017-12-08T13:30:49.166-0600"
}
},
{
"event" : "addConfiguration",
"timestamp" : "2017-12-08T13:32:36.029-0600",
"value" : {
"name" : "FTBFConfig_v102",
"assigned" : "2017-12-08T13:32:36.029-0600"
}
},
{
"event" : "addConfiguration",
"timestamp" : "2017-12-12T11:03:05.850-0600",
"value" : {
"name" : "FTBFConfig_v103",
"assigned" : "2017-12-12T11:03:05.849-0600"
}
},
{
"event" : "addConfiguration",
"timestamp" : "2017-12-12T13:51:00.375-0600",
"value" : {
"name" : "FTBFConfig_v104",
"assigned" : "2017-12-12T13:51:00.375-0600"
}
},
{
"event" : "addConfiguration",
"timestamp" : "2017-12-12T15:25:06.333-0600",
"value" : {
"name" : "FTBFConfig_v105",
"assigned" : "2017-12-12T15:25:06.333-0600"
}
},
{
"event" : "addConfiguration",
"timestamp" : "2017-12-13T10:24:24.660-0600",
"value" : {
"name" : "FTBFConfig_v106",
"assigned" : "2017-12-13T10:24:24.660-0600"
}
},
{
"event" : "addConfiguration",
"timestamp" : "2017-12-13T10:27:03.391-0600",
"value" : {
"name" : "FTBFConfig_v107",
"assigned" : "2017-12-13T10:27:03.390-0600"
}
},
{
"event" : "addConfiguration",
"timestamp" : "2018-02-01T21:14:27.048-0600",
"value" : {
"name" : "FTBFConfig_v108",
"assigned" : "2018-02-01T21:14:27.047-0600"
}
},
{
"event" : "addConfiguration",
"timestamp" : "2018-02-01T21:21:04.166-0600",
"value" : {
"name" : "FTBFConfig_v109",
"assigned" : "2018-02-01T21:21:04.166-0600"
}
},
{
"event" : "addConfiguration",
"timestamp" : "2018-02-02T11:25:35.128-0600",
"value" : {
"name" : "FTBFConfig_v110",
"assigned" : "2018-02-02T11:25:35.127-0600"
}
},
{
"event" : "addConfiguration",
"timestamp" : "2018-02-02T11:37:13.985-0600",
"value" : {
"name" : "FTBFConfig_v111",
"assigned" : "2018-02-02T11:37:13.984-0600"
}
},
{
"event" : "addConfiguration",
"timestamp" : "2018-02-02T11:47:16.478-0600",
"value" : {
"name" : "FTBFConfig_v112",
"assigned" : "2018-02-02T11:47:16.478-0600"
}
},
{
"event" : "addConfiguration",
"timestamp" : "2018-02-02T11:53:37.730-0600",
"value" : {
"name" : "FTBFConfig_v113",
"assigned" : "2018-02-02T11:53:37.729-0600"
}
},
{
"event" : "addConfiguration",
"timestamp" : "2018-02-02T12:00:53.844-0600",
"value" : {
"name" : "FTBFConfig_v114",
"assigned" : "2018-02-02T12:00:53.844-0600"
}
},
{
"event" : "addConfiguration",
"timestamp" : "2018-02-02T12:27:15.318-0600",
"value" : {
"name" : "FTBFConfig_v115",
"assigned" : "2018-02-02T12:27:15.318-0600"
}
},
{
"event" : "addConfiguration",
"timestamp" : "2018-02-02T14:28:54.838-0600",
"value" : {
"name" : "FTBFConfig_v116",
"assigned" : "2018-02-02T14:28:54.838-0600"
}
},
{
"event" : "addConfiguration",
"timestamp" : "2018-02-02T14:30:21.203-0600",
"value" : {
"name" : "FTBFConfig_v117",
"assigned" : "2018-02-02T14:30:21.203-0600"
}
},
{
"event" : "addConfiguration",
"timestamp" : "2018-02-02T14:34:02.453-0600",
"value" : {
"name" : "FTBFConfig_v118",
"assigned" : "2018-02-02T14:34:02.452-0600"
}
},
{
"event" : "addConfiguration",
"timestamp" : "2018-02-02T14:36:29.052-0600",
"value" : {
"name" : "FTBFConfig_v119",
"assigned" : "2018-02-02T14:36:29.052-0600"
}
},
{
"event" : "addConfiguration",
"timestamp" : "2018-02-02T14:38:42.414-0600",
"value" : {
"name" : "FTBFConfig_v120",
"assigned" : "2018-02-02T14:38:42.414-0600"
}
},
{
"event" : "addConfiguration",
"timestamp" : "2018-02-02T14:41:51.712-0600",
"value" : {
"name" : "FTBFConfig_v121",
"assigned" : "2018-02-02T14:41:51.712-0600"
}
},
{
"event" : "addConfiguration",
"timestamp" : "2018-02-02T14:50:25.799-0600",
"value" : {
"name" : "FTBFConfig_v122",
"assigned" : "2018-02-02T14:50:25.799-0600"
}
},
{
"event" : "addConfiguration",
"timestamp" : "2018-02-02T14:52:58.675-0600",
"value" : {
"name" : "FTBFConfig_v123",
"assigned" : "2018-02-02T14:52:58.674-0600"
}
},
{
"event" : "addConfiguration",
"timestamp" : "2018-02-02T14:59:51.989-0600",
"value" : {
"name" : "FTBFConfig_v124",
"assigned" : "2018-02-02T14:59:51.989-0600"
}
},
{
"event" : "addConfiguration",
"timestamp" : "2018-02-02T15:04:10.109-0600",
"value" : {
"name" : "FTBFConfig_v125",
"assigned" : "2018-02-02T15:04:10.109-0600"
}
},
{
"event" : "addConfiguration",
"timestamp" : "2018-02-02T15:50:13.359-0600",
"value" : {
"name" : "FTBFConfig_v126",
"assigned" : "2018-02-02T15:50:13.359-0600"
}
},
{
"event" : "addConfiguration",
"timestamp" : "2018-02-02T15:51:32.818-0600",
"value" : {
"name" : "FTBFConfig_v127",
"assigned" : "2018-02-02T15:51:32.818-0600"
}
},
{
"event" : "addConfiguration",
"timestamp" : "2018-02-02T15:52:37.978-0600",
"value" : {
"name" : "FTBFConfig_v128",
"assigned" : "2018-02-02T15:52:37.978-0600"
}
},
{
"event" : "addConfiguration",
"timestamp" : "2018-02-02T16:02:46.900-0600",
"value" : {
"name" : "FTBFConfig_v129",
"assigned" : "2018-02-02T16:02:46.899-0600"
}
},
{
"event" : "addConfiguration",
"timestamp" : "2018-02-02T16:08:46.450-0600",
"value" : {
"name" : "FTBFConfig_v130",
"assigned" : "2018-02-02T16:08:46.449-0600"
}
},
{
"event" : "addConfiguration",
"timestamp" : "2018-02-02T16:11:32.297-0600",
"value" : {
"name" : "FTBFConfig_v131",
"assigned" : "2018-02-02T16:11:32.297-0600"
}
},
{
"event" : "addConfiguration",
"timestamp" : "2018-02-02T16:13:00.164-0600",
"value" : {
"name" : "FTBFConfig_v132",
"assigned" : "2018-02-02T16:13:00.164-0600"
}
},
{
"event" : "addConfiguration",
"timestamp" : "2018-02-02T16:14:30.789-0600",
"value" : {
"name" : "FTBFConfig_v133",
"assigned" : "2018-02-02T16:14:30.789-0600"
}
},
{
"event" : "addConfiguration",
"timestamp" : "2018-02-02T16:26:23.684-0600",
"value" : {
"name" : "FTBFConfig_v134",
"assigned" : "2018-02-02T16:26:23.684-0600"
}
},
{
"event" : "addConfiguration",
"timestamp" : "2018-02-02T16:27:10.788-0600",
"value" : {
"name" : "FTBFConfig_v135",
"assigned" : "2018-02-02T16:27:10.788-0600"
}
},
{
"event" : "addConfiguration",
"timestamp" : "2018-02-02T16:29:32.149-0600",
"value" : {
"name" : "FTBFConfig_v136",
"assigned" : "2018-02-02T16:29:32.149-0600"
}
},
{
"event" : "addConfiguration",
"timestamp" : "2018-02-02T16:31:42.771-0600",
"value" : {
"name" : "FTBFConfig_v137",
"assigned" : "2018-02-02T16:31:42.770-0600"
}
},
{
"event" : "addConfiguration",
"timestamp" : "2018-02-02T16:34:15.446-0600",
"value" : {
"name" : "FTBFConfig_v138",
"assigned" : "2018-02-02T16:34:15.446-0600"
}
},
{
"event" : "addConfiguration",
"timestamp" : "2018-02-02T17:39:31.495-0600",
"value" : {
"name" : "FTBFConfig_v139",
"assigned" : "2018-02-02T17:39:31.495-0600"
}
},
{
"event" : "addConfiguration",
"timestamp" : "2018-02-02T17:42:53.677-0600",
"value" : {
"name" : "FTBFConfig_v140",
"assigned" : "2018-02-02T17:42:53.677-0600"
}
},
{
"event" : "addConfiguration",
"timestamp" : "2018-02-02T17:47:38.903-0600",
"value" : {
"name" : "FTBFConfig_v141",
"assigned" : "2018-02-02T17:47:38.903-0600"
}
},
{
"event" : "addConfiguration",
"timestamp" : "2018-02-02T17:54:02.896-0600",
"value" : {
"name" : "FTBFConfig_v142",
"assigned" : "2018-02-02T17:54:02.896-0600"
}
}
],
"created" : "2017-11-08T15:56:03.846-0600"
},
"_id" : {
"$oid" : "2b879615450344f89d10e84f"
},
"collection" : "FEPurdueFSSRInterfaceConfiguration",
"aliases" : {
"active" : [

],
"history" : [

]
},
"runs" : [

],
"attachments" : [

],
"configtype" : "notprovided"
}