{
"document" : {
"data" : {
"NAME" : "OTDQM_HISTOS_CONSUMER_TABLE",
"COMMENT" : "No comment.",
"AUTHOR" : "admin",
"CREATION_TIME" : 1593642977,
"COL_TYPES" : {
"PROCESSOR_UID" : "STRING",
"FILE_PATH" : "STRING",
"RADIX_FILE_NAME" : "STRING",
"SAVE_FILE" : "STRING",
"CALIBRATION_NAME" : "STRING",
"TABLE_DIR" : "STRING",
"TABLE_NAME" : "STRING",
"COMMENT_DESCRIPTION" : "STRING",
"AUTHOR" : "STRING",
"RECORD_INSERTION_TIME" : "TIMESTAMP WITH TIMEZONE"
},
"DATA_SET" : [
{
"PROCESSOR_UID" : "VisualDataBufferOTDQMHistos",
"FILE_PATH" : "${OTSDAQ_DATA}/OtsHistos",
"RADIX_FILE_NAME" : "OTDQMHistos",
"SAVE_FILE" : "Yes",
"CALIBRATION_NAME" : "calibrationandpedenoise",
"TABLE_DIR" : "${PH2ACF_BASE_DIR}/settings",
"TABLE_NAME" : "D19CDescription.xml",
"COMMENT_DESCRIPTION" : "",
"AUTHOR" : "admin",
"RECORD_INSERTION_TIME" : "1593642977"
}
]
},
"metadata" : {

},
"search" : [

]
},
"comments" : [

],
"origin" : {
"source" : "template",
"name" : "notprovided",
"format" : "json",
"created" : "2020-07-21T14:27:46.496-0500",
"rawdata" : [

]
},
"version" : "1",
"entities" : [
{
"name" : "OTSROOT",
"assigned" : "2020-07-21T14:27:46.497-0500"
}
],
"configurations" : [
{
"name" : "notprovided",
"assigned" : "2020-07-21T14:27:46.497-0500"
},
{
"name" : "DefaultConfig_v1",
"assigned" : "2020-07-21T14:27:46.982-0500"
},
{
"name" : "DefaultConfig_v2",
"assigned" : "2020-07-21T14:44:16.683-0500"
},
{
"name" : "DefaultConfig_v3",
"assigned" : "2020-07-21T14:57:50.564-0500"
},
{
"name" : "DefaultConfig_v4",
"assigned" : "2020-07-28T10:52:34.502-0500"
},
{
"name" : "DefaultConfig_v5",
"assigned" : "2020-08-24T11:59:56.965-0500"
},
{
"name" : "DefaultConfig_v6",
"assigned" : "2020-08-24T16:05:13.530-0500"
},
{
"name" : "DefaultConfig_v7",
"assigned" : "2020-08-26T10:33:56.913-0500"
},
{
"name" : "DefaultConfig_v8",
"assigned" : "2020-08-26T10:45:54.710-0500"
},
{
"name" : "DefaultConfig_v9",
"assigned" : "2020-08-26T14:49:52.895-0500"
},
{
"name" : "DefaultConfig_v10",
"assigned" : "2020-08-26T14:52:00.519-0500"
},
{
"name" : "DefaultConfig_v11",
"assigned" : "2020-08-26T15:00:03.999-0500"
},
{
"name" : "DefaultConfig_v12",
"assigned" : "2020-08-26T16:18:15.734-0500"
},
{
"name" : "DefaultConfig_v13",
"assigned" : "2020-08-28T21:40:23.092-0500"
},
{
"name" : "DefaultConfig_v14",
"assigned" : "2020-08-31T15:19:59.017-0500"
},
{
"name" : "DefaultConfig_v15",
"assigned" : "2020-09-03T10:43:22.549-0500"
},
{
"name" : "DefaultConfig_v16",
"assigned" : "2020-09-03T10:49:03.577-0500"
},
{
"name" : "DefaultConfig_v17",
"assigned" : "2020-09-08T17:07:21.853-0500"
},
{
"name" : "DefaultConfig_v18",
"assigned" : "2020-09-11T16:02:29.436-0500"
},
{
"name" : "DefaultConfig_v19",
"assigned" : "2020-09-14T17:47:19.604-0500"
},
{
"name" : "DefaultConfig_v20",
"assigned" : "2020-09-14T18:00:23.897-0500"
},
{
"name" : "DefaultConfig_v21",
"assigned" : "2020-09-15T15:14:57.350-0500"
},
{
"name" : "DefaultConfig_v22",
"assigned" : "2020-09-15T15:18:54.449-0500"
},
{
"name" : "DefaultConfig_v23",
"assigned" : "2020-09-15T15:27:51.392-0500"
},
{
"name" : "DefaultConfig_v24",
"assigned" : "2020-09-15T15:52:12.869-0500"
},
{
"name" : "DefaultConfig_v25",
"assigned" : "2020-09-21T11:41:58.575-0500"
},
{
"name" : "DefaultConfig_v26",
"assigned" : "2020-09-21T11:54:29.349-0500"
},
{
"name" : "DefaultConfig_v27",
"assigned" : "2020-10-06T14:45:41.428-0500"
},
{
"name" : "DefaultConfig_v28",
"assigned" : "2020-10-06T15:04:19.965-0500"
},
{
"name" : "DefaultConfig_v29",
"assigned" : "2020-10-07T16:45:36.109-0500"
},
{
"name" : "DefaultConfig_v30",
"assigned" : "2020-10-07T17:03:30.255-0500"
},
{
"name" : "DefaultConfig_v31",
"assigned" : "2020-11-04T20:42:37.257-0600"
},
{
"name" : "DefaultConfig_v32",
"assigned" : "2020-11-11T11:26:54.857-0600"
},
{
"name" : "DefaultConfig_v33",
"assigned" : "2021-01-18T20:04:39.239-0600"
},
{
"name" : "DefaultConfig_v34",
"assigned" : "2021-01-18T20:05:19.699-0600"
}
],
"changelog" : "notprovided",
"bookkeeping" : {
"isdeleted" : false,
"isreadonly" : false,
"updates" : [
{
"event" : "addConfiguration",
"timestamp" : "2020-07-21T14:27:46.497-0500",
"value" : {
"name" : "notprovided",
"assigned" : "2020-07-21T14:27:46.497-0500"
}
},
{
"event" : "setVersion",
"timestamp" : "2020-07-21T14:27:46.497-0500",
"value" : {
"name" : "1",
"assigned" : "2020-07-21T14:27:46.497-0500"
}
},
{
"event" : "setCollection",
"timestamp" : "2020-07-21T14:27:46.497-0500",
"value" : {
"name" : "OTDQMHistosConsumerTable",
"assigned" : "2020-07-21T14:27:46.497-0500"
}
},
{
"event" : "addEntity",
"timestamp" : "2020-07-21T14:27:46.497-0500",
"value" : {
"name" : "OTSROOT",
"assigned" : "2020-07-21T14:27:46.497-0500"
}
},
{
"event" : "addConfiguration",
"timestamp" : "2020-07-21T14:27:46.982-0500",
"value" : {
"name" : "DefaultConfig_v1",
"assigned" : "2020-07-21T14:27:46.982-0500"
}
},
{
"event" : "addConfiguration",
"timestamp" : "2020-07-21T14:44:16.683-0500",
"value" : {
"name" : "DefaultConfig_v2",
"assigned" : "2020-07-21T14:44:16.683-0500"
}
},
{
"event" : "addConfiguration",
"timestamp" : "2020-07-21T14:57:50.564-0500",
"value" : {
"name" : "DefaultConfig_v3",
"assigned" : "2020-07-21T14:57:50.564-0500"
}
},
{
"event" : "addConfiguration",
"timestamp" : "2020-07-28T10:52:34.502-0500",
"value" : {
"name" : "DefaultConfig_v4",
"assigned" : "2020-07-28T10:52:34.502-0500"
}
},
{
"event" : "addConfiguration",
"timestamp" : "2020-08-24T11:59:56.965-0500",
"value" : {
"name" : "DefaultConfig_v5",
"assigned" : "2020-08-24T11:59:56.965-0500"
}
},
{
"event" : "addConfiguration",
"timestamp" : "2020-08-24T16:05:13.530-0500",
"value" : {
"name" : "DefaultConfig_v6",
"assigned" : "2020-08-24T16:05:13.530-0500"
}
},
{
"event" : "addConfiguration",
"timestamp" : "2020-08-26T10:33:56.913-0500",
"value" : {
"name" : "DefaultConfig_v7",
"assigned" : "2020-08-26T10:33:56.913-0500"
}
},
{
"event" : "addConfiguration",
"timestamp" : "2020-08-26T10:45:54.710-0500",
"value" : {
"name" : "DefaultConfig_v8",
"assigned" : "2020-08-26T10:45:54.710-0500"
}
},
{
"event" : "addConfiguration",
"timestamp" : "2020-08-26T14:49:52.895-0500",
"value" : {
"name" : "DefaultConfig_v9",
"assigned" : "2020-08-26T14:49:52.895-0500"
}
},
{
"event" : "addConfiguration",
"timestamp" : "2020-08-26T14:52:00.519-0500",
"value" : {
"name" : "DefaultConfig_v10",
"assigned" : "2020-08-26T14:52:00.519-0500"
}
},
{
"event" : "addConfiguration",
"timestamp" : "2020-08-26T15:00:03.999-0500",
"value" : {
"name" : "DefaultConfig_v11",
"assigned" : "2020-08-26T15:00:03.999-0500"
}
},
{
"event" : "addConfiguration",
"timestamp" : "2020-08-26T16:18:15.734-0500",
"value" : {
"name" : "DefaultConfig_v12",
"assigned" : "2020-08-26T16:18:15.734-0500"
}
},
{
"event" : "addConfiguration",
"timestamp" : "2020-08-28T21:40:23.092-0500",
"value" : {
"name" : "DefaultConfig_v13",
"assigned" : "2020-08-28T21:40:23.092-0500"
}
},
{
"event" : "addConfiguration",
"timestamp" : "2020-08-31T15:19:59.017-0500",
"value" : {
"name" : "DefaultConfig_v14",
"assigned" : "2020-08-31T15:19:59.017-0500"
}
},
{
"event" : "addConfiguration",
"timestamp" : "2020-09-03T10:43:22.549-0500",
"value" : {
"name" : "DefaultConfig_v15",
"assigned" : "2020-09-03T10:43:22.549-0500"
}
},
{
"event" : "addConfiguration",
"timestamp" : "2020-09-03T10:49:03.577-0500",
"value" : {
"name" : "DefaultConfig_v16",
"assigned" : "2020-09-03T10:49:03.577-0500"
}
},
{
"event" : "addConfiguration",
"timestamp" : "2020-09-08T17:07:21.853-0500",
"value" : {
"name" : "DefaultConfig_v17",
"assigned" : "2020-09-08T17:07:21.853-0500"
}
},
{
"event" : "addConfiguration",
"timestamp" : "2020-09-11T16:02:29.436-0500",
"value" : {
"name" : "DefaultConfig_v18",
"assigned" : "2020-09-11T16:02:29.436-0500"
}
},
{
"event" : "addConfiguration",
"timestamp" : "2020-09-14T17:47:19.604-0500",
"value" : {
"name" : "DefaultConfig_v19",
"assigned" : "2020-09-14T17:47:19.604-0500"
}
},
{
"event" : "addConfiguration",
"timestamp" : "2020-09-14T18:00:23.897-0500",
"value" : {
"name" : "DefaultConfig_v20",
"assigned" : "2020-09-14T18:00:23.897-0500"
}
},
{
"event" : "addConfiguration",
"timestamp" : "2020-09-15T15:14:57.350-0500",
"value" : {
"name" : "DefaultConfig_v21",
"assigned" : "2020-09-15T15:14:57.350-0500"
}
},
{
"event" : "addConfiguration",
"timestamp" : "2020-09-15T15:18:54.449-0500",
"value" : {
"name" : "DefaultConfig_v22",
"assigned" : "2020-09-15T15:18:54.449-0500"
}
},
{
"event" : "addConfiguration",
"timestamp" : "2020-09-15T15:27:51.392-0500",
"value" : {
"name" : "DefaultConfig_v23",
"assigned" : "2020-09-15T15:27:51.392-0500"
}
},
{
"event" : "addConfiguration",
"timestamp" : "2020-09-15T15:52:12.869-0500",
"value" : {
"name" : "DefaultConfig_v24",
"assigned" : "2020-09-15T15:52:12.869-0500"
}
},
{
"event" : "addConfiguration",
"timestamp" : "2020-09-21T11:41:58.575-0500",
"value" : {
"name" : "DefaultConfig_v25",
"assigned" : "2020-09-21T11:41:58.575-0500"
}
},
{
"event" : "addConfiguration",
"timestamp" : "2020-09-21T11:54:29.350-0500",
"value" : {
"name" : "DefaultConfig_v26",
"assigned" : "2020-09-21T11:54:29.349-0500"
}
},
{
"event" : "addConfiguration",
"timestamp" : "2020-10-06T14:45:41.428-0500",
"value" : {
"name" : "DefaultConfig_v27",
"assigned" : "2020-10-06T14:45:41.428-0500"
}
},
{
"event" : "addConfiguration",
"timestamp" : "2020-10-06T15:04:19.965-0500",
"value" : {
"name" : "DefaultConfig_v28",
"assigned" : "2020-10-06T15:04:19.965-0500"
}
},
{
"event" : "addConfiguration",
"timestamp" : "2020-10-07T16:45:36.109-0500",
"value" : {
"name" : "DefaultConfig_v29",
"assigned" : "2020-10-07T16:45:36.109-0500"
}
},
{
"event" : "addConfiguration",
"timestamp" : "2020-10-07T17:03:30.255-0500",
"value" : {
"name" : "DefaultConfig_v30",
"assigned" : "2020-10-07T17:03:30.255-0500"
}
},
{
"event" : "addConfiguration",
"timestamp" : "2020-11-04T20:42:37.257-0600",
"value" : {
"name" : "DefaultConfig_v31",
"assigned" : "2020-11-04T20:42:37.257-0600"
}
},
{
"event" : "addConfiguration",
"timestamp" : "2020-11-11T11:26:54.857-0600",
"value" : {
"name" : "DefaultConfig_v32",
"assigned" : "2020-11-11T11:26:54.857-0600"
}
},
{
"event" : "addConfiguration",
"timestamp" : "2021-01-18T20:04:39.239-0600",
"value" : {
"name" : "DefaultConfig_v33",
"assigned" : "2021-01-18T20:04:39.239-0600"
}
},
{
"event" : "addConfiguration",
"timestamp" : "2021-01-18T20:05:19.699-0600",
"value" : {
"name" : "DefaultConfig_v34",
"assigned" : "2021-01-18T20:05:19.699-0600"
}
}
],
"created" : "2020-07-21T14:27:46.497-0500"
},
"_id" : {
"$oid" : "f9558f759ee842399a94463f"
},
"collection" : "OTDQMHistosConsumerTable",
"aliases" : {
"active" : [

],
"history" : [

]
},
"runs" : [

],
"attachments" : [

],
"configtype" : "notprovided"
}