{
"document" : {
"data" : {
"NAME" : "UDP_DATA_LISTENER_PRODUCER_TABLE",
"COMMENT" : "UDP Listener records.",
"AUTHOR" : "admin",
"CREATION_TIME" : 1550871447,
"COL_TYPES" : {
"PROCESSOR_UID" : "VARCHAR2",
"BUFFER_SIZE" : "NUMBER",
"HOST_IP_ADDRESS" : "VARCHAR2",
"HOST_PORT" : "NUMBER",
"COMMENT_DESCRIPTION" : "VARCHAR2",
"AUTHOR" : "VARCHAR2",
"RECORD_INSERTION_TIME" : "TIMESTAMP WITH TIMEZONE"
},
"DATA_SET" : [
{
"PROCESSOR_UID" : "VisualDataBufferListener",
"BUFFER_SIZE" : "1000",
"HOST_IP_ADDRESS" : "127.0.0.1",
"HOST_PORT" : "50000",
"COMMENT_DESCRIPTION" : "No Comment",
"AUTHOR" : "admin",
"RECORD_INSERTION_TIME" : "1550871447"
},
{
"PROCESSOR_UID" : "OuterTrackerDataBuffer0Listener0",
"BUFFER_SIZE" : "1000",
"HOST_IP_ADDRESS" : "127.0.0.1",
"HOST_PORT" : "30002",
"COMMENT_DESCRIPTION" : "",
"AUTHOR" : "admin",
"RECORD_INSERTION_TIME" : "1550865608"
}
]
},
"metadata" : {

},
"search" : [

]
},
"comments" : [

],
"origin" : {
"source" : "template",
"name" : "notprovided",
"format" : "json",
"created" : "2019-02-22T16:11:42.906-0600",
"rawdata" : [

]
},
"version" : "1",
"entities" : [
{
"name" : "OTSROOT",
"assigned" : "2019-02-22T16:11:42.907-0600"
}
],
"tables" : [
{
"name" : "notprovided",
"assigned" : "2019-02-22T16:11:42.907-0600"
},
{
"name" : "DefaultConfig_v1",
"assigned" : "2019-02-22T16:11:43.167-0600"
}
],
"changelog" : "notprovided",
"bookkeeping" : {
"isdeleted" : false,
"isreadonly" : false,
"updates" : [
{
"event" : "addTable",
"timestamp" : "2019-02-22T16:11:42.907-0600",
"value" : {
"name" : "notprovided",
"assigned" : "2019-02-22T16:11:42.907-0600"
}
},
{
"event" : "setVersion",
"timestamp" : "2019-02-22T16:11:42.907-0600",
"value" : {
"name" : "1",
"assigned" : "2019-02-22T16:11:42.907-0600"
}
},
{
"event" : "setCollection",
"timestamp" : "2019-02-22T16:11:42.907-0600",
"value" : {
"name" : "UDPDataListenerProducerTable",
"assigned" : "2019-02-22T16:11:42.907-0600"
}
},
{
"event" : "addEntity",
"timestamp" : "2019-02-22T16:11:42.907-0600",
"value" : {
"name" : "OTSROOT",
"assigned" : "2019-02-22T16:11:42.907-0600"
}
},
{
"event" : "addTable",
"timestamp" : "2019-02-22T16:11:43.167-0600",
"value" : {
"name" : "DefaultConfig_v1",
"assigned" : "2019-02-22T16:11:43.167-0600"
}
},
{
"event" : "addConfiguration",
"timestamp" : "2019-07-22T11:27:30.534-0500",
"value" : {
"name" : "DefaultConfig_v2",
"assigned" : "2019-07-22T11:27:30.534-0500"
}
},
{
"event" : "addConfiguration",
"timestamp" : "2019-07-22T14:43:10.425-0500",
"value" : {
"name" : "DefaultConfig_v3",
"assigned" : "2019-07-22T14:43:10.425-0500"
}
},
{
"event" : "addConfiguration",
"timestamp" : "2019-07-22T14:47:01.591-0500",
"value" : {
"name" : "DefaultConfig_v4",
"assigned" : "2019-07-22T14:47:01.591-0500"
}
}
],
"created" : "2019-02-22T16:11:42.906-0600"
},
"_id" : {
"$oid" : "607468064c654b7cbbb0ca0e"
},
"collection" : "UDPDataListenerProducerTable",
"aliases" : {
"active" : [

],
"history" : [

]
},
"runs" : [

],
"attachments" : [

],
"configtype" : "notprovided",
"configurations" : [
{
"name" : "DefaultConfig_v2",
"assigned" : "2019-07-22T11:27:30.534-0500"
},
{
"name" : "DefaultConfig_v3",
"assigned" : "2019-07-22T14:43:10.425-0500"
},
{
"name" : "DefaultConfig_v4",
"assigned" : "2019-07-22T14:47:01.591-0500"
}
]
}