{
"ouid" : [
"607468064c654b7cbbb0ca0e",
"6be3560fe5ae49018b790d75",
"7cfdf1b5ca774e1d92aa6e23",
"f59183fbc9cc48b7b7df1a22"
],
"version" : {
"1" : [
"607468064c654b7cbbb0ca0e"
],
"2" : [
"6be3560fe5ae49018b790d75"
],
"3" : [
"7cfdf1b5ca774e1d92aa6e23"
],
"4" : [
"f59183fbc9cc48b7b7df1a22"
]
},
"configurations.name" : {
"notprovided" : [
"607468064c654b7cbbb0ca0e",
"6be3560fe5ae49018b790d75",
"7cfdf1b5ca774e1d92aa6e23",
"f59183fbc9cc48b7b7df1a22"
],
"DefaultConfig_v1" : [
"607468064c654b7cbbb0ca0e"
],
"DefaultConfig_v2" : [
"607468064c654b7cbbb0ca0e"
],
"DefaultConfig_v3" : [
"607468064c654b7cbbb0ca0e"
],
"DefaultConfig_v4" : [
"607468064c654b7cbbb0ca0e"
],
"DefaultConfig_v5" : [
"6be3560fe5ae49018b790d75"
],
"DefaultConfig_v6" : [
"6be3560fe5ae49018b790d75"
],
"DefaultConfig_v7" : [
"7cfdf1b5ca774e1d92aa6e23"
],
"DefaultConfig_v8" : [
"7cfdf1b5ca774e1d92aa6e23"
],
"DefaultConfig_v9" : [
"7cfdf1b5ca774e1d92aa6e23"
],
"DefaultConfig_v10" : [
"7cfdf1b5ca774e1d92aa6e23"
],
"DefaultConfig_v11" : [
"7cfdf1b5ca774e1d92aa6e23"
],
"DefaultConfig_v12" : [
"7cfdf1b5ca774e1d92aa6e23"
],
"DefaultConfig_v13" : [
"7cfdf1b5ca774e1d92aa6e23"
],
"DefaultConfig_v14" : [
"f59183fbc9cc48b7b7df1a22"
],
"DefaultConfig_v15" : [
"f59183fbc9cc48b7b7df1a22"
],
"DefaultConfig_v16" : [
"f59183fbc9cc48b7b7df1a22"
],
"DefaultConfig_v17" : [
"f59183fbc9cc48b7b7df1a22"
],
"DefaultConfig_v18" : [
"f59183fbc9cc48b7b7df1a22"
],
"DefaultConfig_v19" : [
"f59183fbc9cc48b7b7df1a22"
],
"DefaultConfig_v20" : [
"f59183fbc9cc48b7b7df1a22"
],
"DefaultConfig_v21" : [
"f59183fbc9cc48b7b7df1a22"
],
"DefaultConfig_v22" : [
"f59183fbc9cc48b7b7df1a22"
],
"DefaultConfig_v23" : [
"f59183fbc9cc48b7b7df1a22"
],
"DefaultConfig_v24" : [
"f59183fbc9cc48b7b7df1a22"
],
"DefaultConfig_v25" : [
"f59183fbc9cc48b7b7df1a22"
],
"DefaultConfig_v26" : [
"f59183fbc9cc48b7b7df1a22"
],
"DefaultConfig_v27" : [
"f59183fbc9cc48b7b7df1a22"
],
"DefaultConfig_v28" : [
"f59183fbc9cc48b7b7df1a22"
],
"DefaultConfig_v29" : [
"f59183fbc9cc48b7b7df1a22"
],
"DefaultConfig_v30" : [
"f59183fbc9cc48b7b7df1a22"
],
"DefaultConfig_v31" : [
"f59183fbc9cc48b7b7df1a22"
],
"DefaultConfig_v32" : [
"f59183fbc9cc48b7b7df1a22"
],
"DefaultConfig_v33" : [
"f59183fbc9cc48b7b7df1a22"
],
"DefaultConfig_v34" : [
"f59183fbc9cc48b7b7df1a22"
],
"DefaultConfig_v35" : [
"f59183fbc9cc48b7b7df1a22"
],
"DefaultConfig_v36" : [
"f59183fbc9cc48b7b7df1a22"
],
"DefaultConfig_v37" : [
"f59183fbc9cc48b7b7df1a22"
]
},
"entities.name" : {
"OTSROOT" : [
"607468064c654b7cbbb0ca0e",
"6be3560fe5ae49018b790d75",
"7cfdf1b5ca774e1d92aa6e23",
"f59183fbc9cc48b7b7df1a22"
]
},
"aliases.active.name" : {

},
"runs.name" : {

},
"configurations.assigned" : {
"notprovided" : [
"2019-02-22T16:11:42.907-0600",
"2019-07-22T15:05:40.927-0500",
"2019-07-23T09:04:43.110-0500",
"2019-11-20T16:23:19.584-0600"
],
"DefaultConfig_v1" : [
"2019-02-22T16:11:43.167-0600"
],
"DefaultConfig_v2" : [
"2019-07-22T11:27:30.534-0500"
],
"DefaultConfig_v3" : [
"2019-07-22T14:43:10.425-0500"
],
"DefaultConfig_v4" : [
"2019-07-22T14:47:01.591-0500"
],
"DefaultConfig_v5" : [
"2019-07-22T15:05:41.638-0500"
],
"DefaultConfig_v6" : [
"2019-07-23T09:00:32.124-0500"
],
"DefaultConfig_v7" : [
"2019-07-23T09:04:43.856-0500"
],
"DefaultConfig_v8" : [
"2019-07-23T09:48:11.961-0500"
],
"DefaultConfig_v9" : [
"2019-08-07T11:00:29.596-0500"
],
"DefaultConfig_v10" : [
"2019-11-20T15:25:38.750-0600"
],
"DefaultConfig_v11" : [
"2019-11-20T15:28:12.778-0600"
],
"DefaultConfig_v12" : [
"2019-11-20T15:58:30.108-0600"
],
"DefaultConfig_v13" : [
"2019-11-20T16:23:03.805-0600"
],
"DefaultConfig_v14" : [
"2019-11-20T16:24:45.958-0600"
],
"DefaultConfig_v15" : [
"2019-11-20T16:27:46.805-0600"
],
"DefaultConfig_v16" : [
"2019-11-20T16:42:11.370-0600"
],
"DefaultConfig_v17" : [
"2019-12-09T19:33:37.903-0600"
],
"DefaultConfig_v18" : [
"2019-12-10T14:21:53.874-0600"
],
"DefaultConfig_v19" : [
"2021-04-29T11:28:52.128-0500"
],
"DefaultConfig_v20" : [
"2021-04-29T11:36:30.143-0500"
],
"DefaultConfig_v21" : [
"2021-04-29T11:56:50.479-0500"
],
"DefaultConfig_v22" : [
"2021-04-29T12:03:12.100-0500"
],
"DefaultConfig_v23" : [
"2021-04-29T12:06:21.950-0500"
],
"DefaultConfig_v24" : [
"2021-04-29T13:06:39.610-0500"
],
"DefaultConfig_v25" : [
"2021-04-30T09:33:57.475-0500"
],
"DefaultConfig_v26" : [
"2021-04-30T09:34:33.024-0500"
],
"DefaultConfig_v27" : [
"2021-04-30T09:36:19.761-0500"
],
"DefaultConfig_v28" : [
"2021-04-30T11:59:06.452-0500"
],
"DefaultConfig_v29" : [
"2021-04-30T12:10:52.868-0500"
],
"DefaultConfig_v30" : [
"2021-04-30T12:11:39.174-0500"
],
"DefaultConfig_v31" : [
"2021-05-06T17:42:15.691-0500"
],
"DefaultConfig_v32" : [
"2021-05-10T10:42:47.568-0500"
],
"DefaultConfig_v33" : [
"2021-05-10T11:08:53.363-0500"
],
"DefaultConfig_v34" : [
"2021-05-12T15:51:23.433-0500"
],
"DefaultConfig_v35" : [
"2021-05-12T16:11:01.628-0500"
],
"DefaultConfig_v36" : [
"2021-05-14T15:34:24.996-0500"
],
"DefaultConfig_v37" : [
"2021-05-14T16:41:01.635-0500"
]
}
}