{
"ouid" : [
"40237cd605cf40a39dede6a8"
],
"version" : {
"2" : [
"40237cd605cf40a39dede6a8"
]
},
"configurations.name" : {
"notprovided" : [
"40237cd605cf40a39dede6a8"
],
"OTMiniModuleConfiguration_v2" : [
"40237cd605cf40a39dede6a8"
]
},
"entities.name" : {
"OTSROOT" : [
"40237cd605cf40a39dede6a8"
]
},
"aliases.active.name" : {

},
"runs.name" : {

}
}