{
"ouid" : [
"3eb1340574b04303a974aa65"
],
"version" : {
"0" : [
"3eb1340574b04303a974aa65"
]
},
"configurations.name" : {
"notprovided" : [
"3eb1340574b04303a974aa65"
],
"BurninBoxConfig_v0" : [
"3eb1340574b04303a974aa65"
],
"BurninBoxConfig_v1" : [
"3eb1340574b04303a974aa65"
],
"BurninBoxConfig_v2" : [
"3eb1340574b04303a974aa65"
],
"BurninBoxConfig_v3" : [
"3eb1340574b04303a974aa65"
],
"BurninBoxConfig_v4" : [
"3eb1340574b04303a974aa65"
],
"BurninBoxConfig_v5" : [
"3eb1340574b04303a974aa65"
],
"BurninBoxConfig_v6" : [
"3eb1340574b04303a974aa65"
],
"BurninBoxConfig_v7" : [
"3eb1340574b04303a974aa65"
],
"BurninBoxConfig_v8" : [
"3eb1340574b04303a974aa65"
],
"BurninBoxConfig_v9" : [
"3eb1340574b04303a974aa65"
],
"BurninBoxConfig_v10" : [
"3eb1340574b04303a974aa65"
],
"BurninBoxConfig_v11" : [
"3eb1340574b04303a974aa65"
],
"BurninBoxConfig_v12" : [
"3eb1340574b04303a974aa65"
],
"BurninBoxConfig_v13" : [
"3eb1340574b04303a974aa65"
],
"BurninBoxConfig_v14" : [
"3eb1340574b04303a974aa65"
],
"BurninBoxConfig_v15" : [
"3eb1340574b04303a974aa65"
],
"BurninBoxConfig_v16" : [
"3eb1340574b04303a974aa65"
],
"BurninBoxConfig_v17" : [
"3eb1340574b04303a974aa65"
],
"BurninBoxConfig_v18" : [
"3eb1340574b04303a974aa65"
],
"BurninBoxConfig_v19" : [
"3eb1340574b04303a974aa65"
],
"BurninBoxConfig_v20" : [
"3eb1340574b04303a974aa65"
],
"BurninBoxConfig_v21" : [
"3eb1340574b04303a974aa65"
],
"BurninBoxConfig_v22" : [
"3eb1340574b04303a974aa65"
],
"BurninBoxConfig_v23" : [
"3eb1340574b04303a974aa65"
],
"BurninBoxConfig_v24" : [
"3eb1340574b04303a974aa65"
],
"BurninBoxConfig_v25" : [
"3eb1340574b04303a974aa65"
],
"BurninBoxConfig_v26" : [
"3eb1340574b04303a974aa65"
],
"BurninBoxConfig_v27" : [
"3eb1340574b04303a974aa65"
],
"BurninBoxConfig_v28" : [
"3eb1340574b04303a974aa65"
],
"BurninBoxConfig_v29" : [
"3eb1340574b04303a974aa65"
],
"BurninBoxConfig_v30" : [
"3eb1340574b04303a974aa65"
],
"BurninBoxConfig_v31" : [
"3eb1340574b04303a974aa65"
],
"BurninBoxConfig_v32" : [
"3eb1340574b04303a974aa65"
],
"BurninBoxConfig_v33" : [
"3eb1340574b04303a974aa65"
],
"BurninBoxConfig_v34" : [
"3eb1340574b04303a974aa65"
],
"BurninBoxConfig_v35" : [
"3eb1340574b04303a974aa65"
],
"BurninBoxConfig_v36" : [
"3eb1340574b04303a974aa65"
],
"BurninBoxConfiguration_v0" : [
"3eb1340574b04303a974aa65"
],
"BurninBoxConfiguration_v1" : [
"3eb1340574b04303a974aa65"
],
"BurninBoxConfiguration_v2" : [
"3eb1340574b04303a974aa65"
],
"BurninBoxConfiguration_v3" : [
"3eb1340574b04303a974aa65"
],
"BurninBoxConfiguration_v4" : [
"3eb1340574b04303a974aa65"
],
"BurninBoxConfiguration_v5" : [
"3eb1340574b04303a974aa65"
],
"BurninBoxConfiguration_v6" : [
"3eb1340574b04303a974aa65"
],
"BurninBoxConfiguration_v7" : [
"3eb1340574b04303a974aa65"
],
"BurninBoxConfiguration_v8" : [
"3eb1340574b04303a974aa65"
],
"BurninBoxConfiguration_v9" : [
"3eb1340574b04303a974aa65"
],
"BurninBoxConfiguration_v10" : [
"3eb1340574b04303a974aa65"
],
"BurninBoxConfiguration_v11" : [
"3eb1340574b04303a974aa65"
],
"BurninBoxConfiguration_v12" : [
"3eb1340574b04303a974aa65"
],
"BurninBoxConfiguration_v13" : [
"3eb1340574b04303a974aa65"
],
"BurninBoxConfiguration_v14" : [
"3eb1340574b04303a974aa65"
],
"BurninBoxConfiguration_v15" : [
"3eb1340574b04303a974aa65"
],
"BurninBoxConfiguration_v16" : [
"3eb1340574b04303a974aa65"
],
"BurninBoxConfiguration_v17" : [
"3eb1340574b04303a974aa65"
],
"BurninBoxConfiguration_v18" : [
"3eb1340574b04303a974aa65"
],
"BurninBoxConfiguration_v19" : [
"3eb1340574b04303a974aa65"
],
"BurninBoxConfiguration_v20" : [
"3eb1340574b04303a974aa65"
],
"BurninBoxConfiguration_v21" : [
"3eb1340574b04303a974aa65"
],
"BurninBoxConfiguration_v22" : [
"3eb1340574b04303a974aa65"
],
"BurninBoxConfiguration_v23" : [
"3eb1340574b04303a974aa65"
],
"BurninBoxConfiguration_v24" : [
"3eb1340574b04303a974aa65"
],
"BurninBoxConfiguration_v25" : [
"3eb1340574b04303a974aa65"
],
"BurninBoxConfiguration_v26" : [
"3eb1340574b04303a974aa65"
],
"BurninBoxConfiguration_v27" : [
"3eb1340574b04303a974aa65"
],
"BurninBoxConfiguration_v28" : [
"3eb1340574b04303a974aa65"
],
"BurninBoxConfiguration_v29" : [
"3eb1340574b04303a974aa65"
],
"BurninBoxConfiguration_v30" : [
"3eb1340574b04303a974aa65"
],
"BurninBoxConfiguration_v31" : [
"3eb1340574b04303a974aa65"
],
"BurninBoxConfiguration_v32" : [
"3eb1340574b04303a974aa65"
],
"BurninBoxConfiguration_v33" : [
"3eb1340574b04303a974aa65"
],
"BurninBoxConfiguration_v34" : [
"3eb1340574b04303a974aa65"
],
"BurninBoxConfiguration_v35" : [
"3eb1340574b04303a974aa65"
],
"BurninBoxConfiguration_v36" : [
"3eb1340574b04303a974aa65"
],
"BurninBoxConfiguration_v37" : [
"3eb1340574b04303a974aa65"
],
"BurninBoxConfiguration_v38" : [
"3eb1340574b04303a974aa65"
],
"BurninBoxConfiguration_v39" : [
"3eb1340574b04303a974aa65"
],
"BurninBoxConfiguration_v40" : [
"3eb1340574b04303a974aa65"
],
"BurninBoxConfiguration_v41" : [
"3eb1340574b04303a974aa65"
],
"BurninBoxConfiguration_v42" : [
"3eb1340574b04303a974aa65"
],
"BurninBoxConfiguration_v43" : [
"3eb1340574b04303a974aa65"
],
"BurninBoxConfiguration_v44" : [
"3eb1340574b04303a974aa65"
],
"BurninBoxConfiguration_v45" : [
"3eb1340574b04303a974aa65"
],
"BurninBoxConfiguration_v46" : [
"3eb1340574b04303a974aa65"
],
"BurninBoxConfiguration_v47" : [
"3eb1340574b04303a974aa65"
],
"BurninBoxConfiguration_v48" : [
"3eb1340574b04303a974aa65"
],
"BurninBoxConfiguration_v49" : [
"3eb1340574b04303a974aa65"
],
"BurninBoxConfiguration_v50" : [
"3eb1340574b04303a974aa65"
],
"BurninBoxConfiguration_v51" : [
"3eb1340574b04303a974aa65"
],
"BurninBoxConfiguration_v52" : [
"3eb1340574b04303a974aa65"
],
"BurninBoxConfiguration_v53" : [
"3eb1340574b04303a974aa65"
],
"BurninBoxConfiguration_v54" : [
"3eb1340574b04303a974aa65"
],
"BurninBoxConfiguration_v55" : [
"3eb1340574b04303a974aa65"
],
"BurninBoxConfiguration_v56" : [
"3eb1340574b04303a974aa65"
],
"BurninBoxConfiguration_v57" : [
"3eb1340574b04303a974aa65"
],
"BurninBoxConfiguration_v58" : [
"3eb1340574b04303a974aa65"
],
"BurninBoxConfiguration_v59" : [
"3eb1340574b04303a974aa65"
],
"BurninBoxConfiguration_v60" : [
"3eb1340574b04303a974aa65"
],
"BurninBoxConfiguration_v61" : [
"3eb1340574b04303a974aa65"
],
"BurninBoxConfiguration_v62" : [
"3eb1340574b04303a974aa65"
],
"BurninBoxConfiguration_v63" : [
"3eb1340574b04303a974aa65"
],
"BurninBoxConfiguration_v64" : [
"3eb1340574b04303a974aa65"
],
"BurninBoxConfiguration_v65" : [
"3eb1340574b04303a974aa65"
],
"BurninBoxConfiguration_v66" : [
"3eb1340574b04303a974aa65"
],
"BurninBoxConfiguration_v67" : [
"3eb1340574b04303a974aa65"
],
"BurninBoxConfiguration_v68" : [
"3eb1340574b04303a974aa65"
],
"BurninBoxConfiguration_v69" : [
"3eb1340574b04303a974aa65"
],
"BurninBoxConfiguration_v70" : [
"3eb1340574b04303a974aa65"
],
"BurninBoxConfiguration_v71" : [
"3eb1340574b04303a974aa65"
],
"BurninBoxConfiguration_v72" : [
"3eb1340574b04303a974aa65"
],
"BurninBoxConfiguration_v73" : [
"3eb1340574b04303a974aa65"
],
"BurninBoxConfiguration_v74" : [
"3eb1340574b04303a974aa65"
],
"BurninBoxConfiguration_v75" : [
"3eb1340574b04303a974aa65"
],
"BurninBoxConfiguration_v76" : [
"3eb1340574b04303a974aa65"
],
"BurninBoxConfiguration_v77" : [
"3eb1340574b04303a974aa65"
],
"BurninBoxConfiguration_v78" : [
"3eb1340574b04303a974aa65"
],
"BurninBoxConfiguration_v79" : [
"3eb1340574b04303a974aa65"
],
"BurninBoxConfiguration_v80" : [
"3eb1340574b04303a974aa65"
],
"BurninBoxConfiguration_v81" : [
"3eb1340574b04303a974aa65"
],
"BurninBoxConfiguration_v82" : [
"3eb1340574b04303a974aa65"
],
"BurninBoxConfiguration_v83" : [
"3eb1340574b04303a974aa65"
],
"BurninBoxConfiguration_v84" : [
"3eb1340574b04303a974aa65"
],
"BurninBoxConfiguration_v85" : [
"3eb1340574b04303a974aa65"
],
"BurninBoxConfiguration_v86" : [
"3eb1340574b04303a974aa65"
],
"BurninBoxConfiguration_v87" : [
"3eb1340574b04303a974aa65"
],
"BurninBoxConfiguration_v88" : [
"3eb1340574b04303a974aa65"
],
"BurninBoxConfiguration_v89" : [
"3eb1340574b04303a974aa65"
],
"BurninBoxConfiguration_v90" : [
"3eb1340574b04303a974aa65"
],
"BurninBoxConfiguration_v91" : [
"3eb1340574b04303a974aa65"
],
"BurninBoxConfiguration_v92" : [
"3eb1340574b04303a974aa65"
],
"BurninBoxConfiguration_v93" : [
"3eb1340574b04303a974aa65"
],
"BurninBoxConfiguration_v94" : [
"3eb1340574b04303a974aa65"
],
"BurninBoxConfiguration_v95" : [
"3eb1340574b04303a974aa65"
],
"BurninBoxConfiguration_v96" : [
"3eb1340574b04303a974aa65"
],
"BurninBoxConfiguration_v97" : [
"3eb1340574b04303a974aa65"
],
"BurninBoxConfiguration_v98" : [
"3eb1340574b04303a974aa65"
],
"BurninBoxConfiguration_v99" : [
"3eb1340574b04303a974aa65"
],
"BurninBoxConfiguration_v100" : [
"3eb1340574b04303a974aa65"
],
"BurninBoxConfiguration_v101" : [
"3eb1340574b04303a974aa65"
],
"BurninBoxConfiguration_v102" : [
"3eb1340574b04303a974aa65"
],
"BurninBoxConfiguration_v103" : [
"3eb1340574b04303a974aa65"
],
"BurninBoxConfiguration_v104" : [
"3eb1340574b04303a974aa65"
],
"BurninBoxConfiguration_v105" : [
"3eb1340574b04303a974aa65"
],
"BurninBoxConfiguration_v106" : [
"3eb1340574b04303a974aa65"
],
"BurninBoxConfiguration_v107" : [
"3eb1340574b04303a974aa65"
],
"BurninBoxConfiguration_v108" : [
"3eb1340574b04303a974aa65"
],
"BurninBoxConfiguration_v109" : [
"3eb1340574b04303a974aa65"
],
"BurninBoxConfiguration_v110" : [
"3eb1340574b04303a974aa65"
],
"BurninBoxConfiguration_v111" : [
"3eb1340574b04303a974aa65"
],
"BurninBoxConfiguration_v112" : [
"3eb1340574b04303a974aa65"
],
"BurninBoxConfiguration_v113" : [
"3eb1340574b04303a974aa65"
],
"BurninBoxConfiguration_v114" : [
"3eb1340574b04303a974aa65"
],
"BurninBoxConfiguration_v115" : [
"3eb1340574b04303a974aa65"
],
"BurninBoxConfiguration_v116" : [
"3eb1340574b04303a974aa65"
],
"BurninBoxConfiguration_v117" : [
"3eb1340574b04303a974aa65"
],
"BurninBoxConfiguration_v118" : [
"3eb1340574b04303a974aa65"
],
"BurninBoxConfiguration_v119" : [
"3eb1340574b04303a974aa65"
],
"BurninBoxConfiguration_v120" : [
"3eb1340574b04303a974aa65"
],
"BurninBoxConfiguration_v121" : [
"3eb1340574b04303a974aa65"
],
"BurninBoxConfiguration_v122" : [
"3eb1340574b04303a974aa65"
],
"BurninBoxConfiguration_v123" : [
"3eb1340574b04303a974aa65"
],
"BurninBoxConfiguration_v124" : [
"3eb1340574b04303a974aa65"
],
"BurninBoxConfiguration_v125" : [
"3eb1340574b04303a974aa65"
],
"BurninBoxConfiguration_v126" : [
"3eb1340574b04303a974aa65"
],
"BurninBoxConfiguration_v127" : [
"3eb1340574b04303a974aa65"
],
"BurninBoxConfiguration_v128" : [
"3eb1340574b04303a974aa65"
],
"BurninBoxConfiguration_v129" : [
"3eb1340574b04303a974aa65"
],
"BurninBoxConfiguration_v130" : [
"3eb1340574b04303a974aa65"
],
"BurninBoxConfiguration_v131" : [
"3eb1340574b04303a974aa65"
],
"BurninBoxConfiguration_v132" : [
"3eb1340574b04303a974aa65"
],
"BurninBoxConfiguration_v133" : [
"3eb1340574b04303a974aa65"
],
"BurninBoxConfiguration_v134" : [
"3eb1340574b04303a974aa65"
],
"BurninBoxConfiguration_v135" : [
"3eb1340574b04303a974aa65"
],
"BurninBoxConfiguration_v136" : [
"3eb1340574b04303a974aa65"
],
"BurninBoxConfiguration_v137" : [
"3eb1340574b04303a974aa65"
],
"BurninBoxConfiguration_v138" : [
"3eb1340574b04303a974aa65"
],
"BurninBoxConfiguration_v139" : [
"3eb1340574b04303a974aa65"
],
"BurninBoxConfiguration_v140" : [
"3eb1340574b04303a974aa65"
],
"BurninBoxConfiguration_v141" : [
"3eb1340574b04303a974aa65"
],
"BurninBoxConfiguration_v142" : [
"3eb1340574b04303a974aa65"
],
"BurninBoxConfiguration_v143" : [
"3eb1340574b04303a974aa65"
],
"BurninBoxConfiguration_v144" : [
"3eb1340574b04303a974aa65"
],
"BurninBoxConfiguration_v145" : [
"3eb1340574b04303a974aa65"
],
"BurninBoxConfiguration_v146" : [
"3eb1340574b04303a974aa65"
],
"BurninBoxConfiguration_v147" : [
"3eb1340574b04303a974aa65"
],
"BurninBoxConfiguration_v148" : [
"3eb1340574b04303a974aa65"
],
"BurninBoxConfiguration_v149" : [
"3eb1340574b04303a974aa65"
],
"BurninBoxConfiguration_v150" : [
"3eb1340574b04303a974aa65"
],
"BurninBoxConfiguration_v151" : [
"3eb1340574b04303a974aa65"
],
"BurninBoxConfiguration_v152" : [
"3eb1340574b04303a974aa65"
],
"BurninBoxConfiguration_v153" : [
"3eb1340574b04303a974aa65"
],
"BurninBoxConfiguration_v154" : [
"3eb1340574b04303a974aa65"
],
"BurninBoxConfiguration_v155" : [
"3eb1340574b04303a974aa65"
],
"BurninBoxConfiguration_v156" : [
"3eb1340574b04303a974aa65"
],
"BurninBoxConfiguration_v157" : [
"3eb1340574b04303a974aa65"
],
"BurninBoxConfiguration_v158" : [
"3eb1340574b04303a974aa65"
],
"BurninBoxConfiguration_v159" : [
"3eb1340574b04303a974aa65"
],
"BurninBoxConfiguration_v160" : [
"3eb1340574b04303a974aa65"
],
"BurninBoxConfiguration_v161" : [
"3eb1340574b04303a974aa65"
],
"BurninBoxConfiguration_v162" : [
"3eb1340574b04303a974aa65"
],
"BurninBoxConfiguration_v163" : [
"3eb1340574b04303a974aa65"
],
"BurninBoxConfiguration_v164" : [
"3eb1340574b04303a974aa65"
],
"BurninBoxConfiguration_v165" : [
"3eb1340574b04303a974aa65"
],
"BurninBoxConfiguration_v166" : [
"3eb1340574b04303a974aa65"
]
},
"entities.name" : {
"OTSROOT" : [
"3eb1340574b04303a974aa65"
]
},
"aliases.active.name" : {

},
"runs.name" : {

},
"configurations.assigned" : {
"notprovided" : [
"2018-09-06T17:34:14.207-0500"
],
"BurninBoxConfig_v0" : [
"2018-09-06T17:34:14.700-0500"
],
"BurninBoxConfig_v1" : [
"2018-09-10T10:45:51.271-0500"
],
"BurninBoxConfig_v2" : [
"2018-09-10T11:24:18.686-0500"
],
"BurninBoxConfig_v3" : [
"2018-09-11T09:59:56.304-0500"
],
"BurninBoxConfig_v4" : [
"2018-09-11T10:01:19.395-0500"
],
"BurninBoxConfig_v5" : [
"2018-09-11T10:11:15.990-0500"
],
"BurninBoxConfig_v6" : [
"2018-09-12T12:16:43.733-0500"
],
"BurninBoxConfig_v7" : [
"2018-09-17T11:12:09.407-0500"
],
"BurninBoxConfig_v8" : [
"2018-09-17T13:53:33.417-0500"
],
"BurninBoxConfig_v9" : [
"2018-09-17T14:03:58.092-0500"
],
"BurninBoxConfig_v10" : [
"2018-09-18T15:31:02.442-0500"
],
"BurninBoxConfig_v11" : [
"2018-09-19T09:27:02.177-0500"
],
"BurninBoxConfig_v12" : [
"2018-09-19T10:08:02.069-0500"
],
"BurninBoxConfig_v13" : [
"2018-09-19T10:23:22.002-0500"
],
"BurninBoxConfig_v14" : [
"2018-09-19T11:22:21.395-0500"
],
"BurninBoxConfig_v15" : [
"2018-09-19T12:26:55.244-0500"
],
"BurninBoxConfig_v16" : [
"2018-09-20T14:22:27.289-0500"
],
"BurninBoxConfig_v17" : [
"2018-09-20T15:42:03.097-0500"
],
"BurninBoxConfig_v18" : [
"2018-09-21T11:16:29.159-0500"
],
"BurninBoxConfig_v19" : [
"2018-09-21T13:39:25.309-0500"
],
"BurninBoxConfig_v20" : [
"2018-09-21T13:39:49.240-0500"
],
"BurninBoxConfig_v21" : [
"2019-02-28T12:04:25.758-0600"
],
"BurninBoxConfig_v22" : [
"2019-02-28T12:05:08.191-0600"
],
"BurninBoxConfig_v23" : [
"2019-02-28T13:57:09.797-0600"
],
"BurninBoxConfig_v24" : [
"2019-07-19T15:24:15.928-0500"
],
"BurninBoxConfig_v25" : [
"2019-07-19T15:25:10.979-0500"
],
"BurninBoxConfig_v26" : [
"2019-07-24T14:34:10.459-0500"
],
"BurninBoxConfig_v27" : [
"2019-07-24T14:47:23.701-0500"
],
"BurninBoxConfig_v28" : [
"2019-07-24T14:48:41.194-0500"
],
"BurninBoxConfig_v29" : [
"2020-06-29T10:55:10.691-0500"
],
"BurninBoxConfig_v30" : [
"2020-06-29T11:05:39.985-0500"
],
"BurninBoxConfig_v31" : [
"2020-06-29T11:28:21.672-0500"
],
"BurninBoxConfig_v32" : [
"2020-07-24T10:58:17.913-0500"
],
"BurninBoxConfig_v33" : [
"2020-07-24T11:00:07.556-0500"
],
"BurninBoxConfig_v34" : [
"2020-07-24T11:56:06.268-0500"
],
"BurninBoxConfig_v35" : [
"2020-07-24T12:12:09.286-0500"
],
"BurninBoxConfig_v36" : [
"2020-07-24T12:16:35.787-0500"
],
"BurninBoxConfiguration_v0" : [
"2020-07-29T15:59:40.828-0500"
],
"BurninBoxConfiguration_v1" : [
"2020-07-30T11:42:27.460-0500"
],
"BurninBoxConfiguration_v2" : [
"2020-07-30T12:05:12.847-0500"
],
"BurninBoxConfiguration_v3" : [
"2020-09-02T11:30:04.552-0500"
],
"BurninBoxConfiguration_v4" : [
"2020-09-02T11:31:32.373-0500"
],
"BurninBoxConfiguration_v5" : [
"2020-09-02T15:08:51.330-0500"
],
"BurninBoxConfiguration_v6" : [
"2020-09-02T16:01:06.068-0500"
],
"BurninBoxConfiguration_v7" : [
"2020-09-02T16:05:19.482-0500"
],
"BurninBoxConfiguration_v8" : [
"2020-10-05T17:05:55.573-0500"
],
"BurninBoxConfiguration_v9" : [
"2020-10-05T17:09:48.615-0500"
],
"BurninBoxConfiguration_v10" : [
"2020-10-05T17:11:02.479-0500"
],
"BurninBoxConfiguration_v11" : [
"2020-10-05T17:39:04.128-0500"
],
"BurninBoxConfiguration_v12" : [
"2020-10-05T17:43:06.361-0500"
],
"BurninBoxConfiguration_v13" : [
"2020-10-09T14:43:40.302-0500"
],
"BurninBoxConfiguration_v14" : [
"2020-10-09T15:30:46.900-0500"
],
"BurninBoxConfiguration_v15" : [
"2020-10-12T10:14:43.790-0500"
],
"BurninBoxConfiguration_v16" : [
"2020-10-12T15:33:09.376-0500"
],
"BurninBoxConfiguration_v17" : [
"2020-10-19T16:16:02.921-0500"
],
"BurninBoxConfiguration_v18" : [
"2020-10-23T11:00:20.777-0500"
],
"BurninBoxConfiguration_v19" : [
"2020-10-26T11:51:21.761-0500"
],
"BurninBoxConfiguration_v20" : [
"2020-10-26T11:51:43.439-0500"
],
"BurninBoxConfiguration_v21" : [
"2020-10-26T11:56:42.871-0500"
],
"BurninBoxConfiguration_v22" : [
"2020-10-26T14:34:34.800-0500"
],
"BurninBoxConfiguration_v23" : [
"2020-10-26T14:53:01.721-0500"
],
"BurninBoxConfiguration_v24" : [
"2020-10-26T15:02:46.983-0500"
],
"BurninBoxConfiguration_v25" : [
"2020-10-27T17:42:10.787-0500"
],
"BurninBoxConfiguration_v26" : [
"2020-10-29T11:52:33.020-0500"
],
"BurninBoxConfiguration_v27" : [
"2020-10-29T11:54:26.743-0500"
],
"BurninBoxConfiguration_v28" : [
"2020-10-29T13:30:24.703-0500"
],
"BurninBoxConfiguration_v29" : [
"2020-10-29T13:45:56.097-0500"
],
"BurninBoxConfiguration_v30" : [
"2020-10-29T13:46:38.400-0500"
],
"BurninBoxConfiguration_v31" : [
"2020-10-29T13:48:03.013-0500"
],
"BurninBoxConfiguration_v32" : [
"2020-10-29T14:39:29.080-0500"
],
"BurninBoxConfiguration_v33" : [
"2021-06-30T16:17:52.045-0500"
],
"BurninBoxConfiguration_v34" : [
"2021-06-30T16:23:48.449-0500"
],
"BurninBoxConfiguration_v35" : [
"2021-07-08T14:06:14.298-0500"
],
"BurninBoxConfiguration_v36" : [
"2021-07-08T14:16:58.500-0500"
],
"BurninBoxConfiguration_v37" : [
"2021-07-08T16:20:45.088-0500"
],
"BurninBoxConfiguration_v38" : [
"2021-07-09T11:47:14.253-0500"
],
"BurninBoxConfiguration_v39" : [
"2021-07-09T11:48:46.356-0500"
],
"BurninBoxConfiguration_v40" : [
"2021-07-09T16:06:00.847-0500"
],
"BurninBoxConfiguration_v41" : [
"2021-07-12T11:04:55.825-0500"
],
"BurninBoxConfiguration_v42" : [
"2021-07-13T12:01:31.709-0500"
],
"BurninBoxConfiguration_v43" : [
"2021-07-13T12:22:06.180-0500"
],
"BurninBoxConfiguration_v44" : [
"2021-07-14T13:05:58.779-0500"
],
"BurninBoxConfiguration_v45" : [
"2021-07-14T14:26:04.964-0500"
],
"BurninBoxConfiguration_v46" : [
"2021-07-14T14:46:57.261-0500"
],
"BurninBoxConfiguration_v47" : [
"2021-07-14T15:24:34.151-0500"
],
"BurninBoxConfiguration_v48" : [
"2021-07-14T16:05:29.711-0500"
],
"BurninBoxConfiguration_v49" : [
"2021-07-14T16:15:41.401-0500"
],
"BurninBoxConfiguration_v50" : [
"2021-07-14T16:17:41.112-0500"
],
"BurninBoxConfiguration_v51" : [
"2021-07-15T11:50:34.157-0500"
],
"BurninBoxConfiguration_v52" : [
"2021-07-20T13:45:54.246-0500"
],
"BurninBoxConfiguration_v53" : [
"2021-07-20T16:41:42.481-0500"
],
"BurninBoxConfiguration_v54" : [
"2021-07-20T17:09:27.238-0500"
],
"BurninBoxConfiguration_v55" : [
"2021-07-20T17:28:40.402-0500"
],
"BurninBoxConfiguration_v56" : [
"2021-07-20T17:46:27.734-0500"
],
"BurninBoxConfiguration_v57" : [
"2021-07-21T11:50:02.252-0500"
],
"BurninBoxConfiguration_v58" : [
"2021-07-21T11:58:37.926-0500"
],
"BurninBoxConfiguration_v59" : [
"2021-07-21T11:59:33.699-0500"
],
"BurninBoxConfiguration_v60" : [
"2021-07-22T18:35:00.757-0500"
],
"BurninBoxConfiguration_v61" : [
"2021-07-23T12:33:57.048-0500"
],
"BurninBoxConfiguration_v62" : [
"2021-07-24T00:54:49.876-0500"
],
"BurninBoxConfiguration_v63" : [
"2021-07-24T12:12:51.413-0500"
],
"BurninBoxConfiguration_v64" : [
"2021-07-25T21:07:16.370-0500"
],
"BurninBoxConfiguration_v65" : [
"2021-07-26T07:43:12.273-0500"
],
"BurninBoxConfiguration_v66" : [
"2021-07-26T18:37:12.307-0500"
],
"BurninBoxConfiguration_v67" : [
"2021-07-27T08:25:41.084-0500"
],
"BurninBoxConfiguration_v68" : [
"2021-08-03T11:10:37.445-0500"
],
"BurninBoxConfiguration_v69" : [
"2021-08-04T12:21:57.889-0500"
],
"BurninBoxConfiguration_v70" : [
"2021-09-02T13:43:34.327-0500"
],
"BurninBoxConfiguration_v71" : [
"2021-09-02T14:03:37.197-0500"
],
"BurninBoxConfiguration_v72" : [
"2021-09-23T15:47:05.581-0500"
],
"BurninBoxConfiguration_v73" : [
"2021-09-23T15:47:42.511-0500"
],
"BurninBoxConfiguration_v74" : [
"2021-09-24T15:36:50.402-0500"
],
"BurninBoxConfiguration_v75" : [
"2021-09-24T15:53:23.406-0500"
],
"BurninBoxConfiguration_v76" : [
"2021-09-24T16:04:22.437-0500"
],
"BurninBoxConfiguration_v77" : [
"2021-09-24T16:28:07.209-0500"
],
"BurninBoxConfiguration_v78" : [
"2021-09-27T09:02:56.778-0500"
],
"BurninBoxConfiguration_v79" : [
"2021-09-27T14:22:25.054-0500"
],
"BurninBoxConfiguration_v80" : [
"2021-09-28T09:24:50.926-0500"
],
"BurninBoxConfiguration_v81" : [
"2021-09-30T09:14:51.278-0500"
],
"BurninBoxConfiguration_v82" : [
"2021-10-01T10:56:21.730-0500"
],
"BurninBoxConfiguration_v83" : [
"2021-10-01T11:01:41.352-0500"
],
"BurninBoxConfiguration_v84" : [
"2021-10-06T10:02:31.650-0500"
],
"BurninBoxConfiguration_v85" : [
"2021-10-07T16:32:40.783-0500"
],
"BurninBoxConfiguration_v86" : [
"2021-10-08T14:03:15.656-0500"
],
"BurninBoxConfiguration_v87" : [
"2021-10-11T16:00:56.637-0500"
],
"BurninBoxConfiguration_v88" : [
"2021-10-12T09:07:17.813-0500"
],
"BurninBoxConfiguration_v89" : [
"2021-10-12T11:11:23.525-0500"
],
"BurninBoxConfiguration_v90" : [
"2021-10-14T17:03:16.926-0500"
],
"BurninBoxConfiguration_v91" : [
"2021-10-15T10:48:31.649-0500"
],
"BurninBoxConfiguration_v92" : [
"2021-10-15T15:50:49.644-0500"
],
"BurninBoxConfiguration_v93" : [
"2021-11-03T16:30:20.466-0500"
],
"BurninBoxConfiguration_v94" : [
"2021-11-10T15:11:02.892-0600"
],
"BurninBoxConfiguration_v95" : [
"2022-04-19T14:35:56.753-0400"
],
"BurninBoxConfiguration_v96" : [
"2022-04-20T10:06:05.727-0400"
],
"BurninBoxConfiguration_v97" : [
"2022-04-20T11:23:52.454-0400"
],
"BurninBoxConfiguration_v98" : [
"2022-06-03T14:30:16.747-0500"
],
"BurninBoxConfiguration_v99" : [
"2022-06-03T14:34:09.610-0500"
],
"BurninBoxConfiguration_v100" : [
"2022-06-07T14:59:59.820-0500"
],
"BurninBoxConfiguration_v101" : [
"2022-06-07T15:05:54.072-0500"
],
"BurninBoxConfiguration_v102" : [
"2022-06-07T16:09:18.079-0500"
],
"BurninBoxConfiguration_v103" : [
"2022-06-10T10:17:26.340-0500"
],
"BurninBoxConfiguration_v104" : [
"2022-06-10T10:18:22.824-0500"
],
"BurninBoxConfiguration_v105" : [
"2022-06-13T14:13:01.555-0500"
],
"BurninBoxConfiguration_v106" : [
"2022-06-13T15:22:18.983-0500"
],
"BurninBoxConfiguration_v107" : [
"2022-06-21T15:37:15.109-0500"
],
"BurninBoxConfiguration_v108" : [
"2022-06-21T15:39:37.677-0500"
],
"BurninBoxConfiguration_v109" : [
"2022-06-30T12:02:32.153-0500"
],
"BurninBoxConfiguration_v110" : [
"2023-01-19T10:05:43.358-0600"
],
"BurninBoxConfiguration_v111" : [
"2023-01-19T10:08:20.258-0600"
],
"BurninBoxConfiguration_v112" : [
"2023-01-19T11:02:45.347-0600"
],
"BurninBoxConfiguration_v113" : [
"2023-01-20T11:51:31.354-0600"
],
"BurninBoxConfiguration_v114" : [
"2023-01-30T11:15:46.540-0600"
],
"BurninBoxConfiguration_v115" : [
"2023-03-01T10:10:34.331-0600"
],
"BurninBoxConfiguration_v116" : [
"2023-03-07T16:36:51.441-0600"
],
"BurninBoxConfiguration_v117" : [
"2023-03-09T15:31:32.279-0600"
],
"BurninBoxConfiguration_v118" : [
"2023-03-15T12:03:56.532-0500"
],
"BurninBoxConfiguration_v119" : [
"2023-03-16T14:10:41.406-0500"
],
"BurninBoxConfiguration_v120" : [
"2023-04-04T11:18:54.682-0500"
],
"BurninBoxConfiguration_v121" : [
"2023-04-04T11:19:17.771-0500"
],
"BurninBoxConfiguration_v122" : [
"2023-04-04T11:23:01.357-0500"
],
"BurninBoxConfiguration_v123" : [
"2023-04-04T13:48:52.284-0500"
],
"BurninBoxConfiguration_v124" : [
"2023-04-04T13:51:59.416-0500"
],
"BurninBoxConfiguration_v125" : [
"2023-04-04T14:31:01.204-0500"
],
"BurninBoxConfiguration_v126" : [
"2023-04-04T16:05:04.897-0500"
],
"BurninBoxConfiguration_v127" : [
"2023-04-07T10:09:32.822-0500"
],
"BurninBoxConfiguration_v128" : [
"2023-04-07T16:20:30.024-0500"
],
"BurninBoxConfiguration_v129" : [
"2023-04-14T10:53:44.338-0500"
],
"BurninBoxConfiguration_v130" : [
"2023-04-14T11:01:24.182-0500"
],
"BurninBoxConfiguration_v131" : [
"2023-04-14T11:05:26.240-0500"
],
"BurninBoxConfiguration_v132" : [
"2023-04-14T12:25:11.404-0500"
],
"BurninBoxConfiguration_v133" : [
"2023-04-14T14:03:27.293-0500"
],
"BurninBoxConfiguration_v134" : [
"2023-04-14T15:36:49.902-0500"
],
"BurninBoxConfiguration_v135" : [
"2023-04-14T15:57:04.579-0500"
],
"BurninBoxConfiguration_v136" : [
"2023-04-14T15:59:01.205-0500"
],
"BurninBoxConfiguration_v137" : [
"2023-04-14T16:18:33.068-0500"
],
"BurninBoxConfiguration_v138" : [
"2023-04-14T16:20:12.198-0500"
],
"BurninBoxConfiguration_v139" : [
"2023-04-17T15:51:49.312-0500"
],
"BurninBoxConfiguration_v140" : [
"2023-04-18T10:48:02.756-0500"
],
"BurninBoxConfiguration_v141" : [
"2023-04-18T12:02:41.821-0500"
],
"BurninBoxConfiguration_v142" : [
"2023-04-18T12:03:57.315-0500"
],
"BurninBoxConfiguration_v143" : [
"2023-04-18T13:48:32.309-0500"
],
"BurninBoxConfiguration_v144" : [
"2023-04-18T14:33:55.563-0500"
],
"BurninBoxConfiguration_v145" : [
"2023-04-18T16:14:32.028-0500"
],
"BurninBoxConfiguration_v146" : [
"2023-04-18T16:20:21.598-0500"
],
"BurninBoxConfiguration_v147" : [
"2023-04-21T15:02:48.491-0500"
],
"BurninBoxConfiguration_v148" : [
"2023-05-09T09:06:44.696-0500"
],
"BurninBoxConfiguration_v149" : [
"2023-05-11T08:26:02.811-0500"
],
"BurninBoxConfiguration_v150" : [
"2023-05-11T14:10:23.367-0500"
],
"BurninBoxConfiguration_v151" : [
"2023-05-11T14:11:00.396-0500"
],
"BurninBoxConfiguration_v152" : [
"2023-05-11T14:12:48.403-0500"
],
"BurninBoxConfiguration_v153" : [
"2023-05-19T11:54:18.248-0500"
],
"BurninBoxConfiguration_v154" : [
"2023-05-19T11:57:28.056-0500"
],
"BurninBoxConfiguration_v155" : [
"2023-05-19T13:22:54.234-0500"
],
"BurninBoxConfiguration_v156" : [
"2023-06-01T09:40:19.370-0500"
],
"BurninBoxConfiguration_v157" : [
"2023-06-01T09:58:10.497-0500"
],
"BurninBoxConfiguration_v158" : [
"2023-06-01T09:59:56.293-0500"
],
"BurninBoxConfiguration_v159" : [
"2023-06-01T10:20:02.651-0500"
],
"BurninBoxConfiguration_v160" : [
"2023-06-01T10:23:59.021-0500"
],
"BurninBoxConfiguration_v161" : [
"2023-06-01T10:27:31.895-0500"
],
"BurninBoxConfiguration_v162" : [
"2023-06-09T12:06:38.049-0500"
],
"BurninBoxConfiguration_v163" : [
"2023-06-09T12:17:07.227-0500"
],
"BurninBoxConfiguration_v164" : [
"2023-06-12T09:41:24.417-0500"
],
"BurninBoxConfiguration_v165" : [
"2023-06-12T11:53:37.764-0500"
],
"BurninBoxConfiguration_v166" : [
"2023-06-12T16:53:41.094-0500"
]
}
}