{
"ouid" : [
"80ba52e1a9ef4af0a42ef18c"
],
"version" : {
"1" : [
"80ba52e1a9ef4af0a42ef18c"
]
},
"configurations.name" : {
"notprovided" : [
"80ba52e1a9ef4af0a42ef18c"
],
"DefaultConfig_v1" : [
"80ba52e1a9ef4af0a42ef18c"
],
"DefaultConfig_v2" : [
"80ba52e1a9ef4af0a42ef18c"
],
"DefaultConfig_v3" : [
"80ba52e1a9ef4af0a42ef18c"
],
"DefaultConfig_v4" : [
"80ba52e1a9ef4af0a42ef18c"
]
},
"entities.name" : {
"OTSROOT" : [
"80ba52e1a9ef4af0a42ef18c"
]
},
"aliases.active.name" : {

},
"runs.name" : {

},
"configurations.assigned" : {
"notprovided" : [
"2020-07-21T14:27:46.320-0500"
],
"DefaultConfig_v1" : [
"2020-07-21T14:27:46.867-0500"
],
"DefaultConfig_v2" : [
"2020-07-21T14:44:16.526-0500"
],
"DefaultConfig_v3" : [
"2020-07-21T14:57:50.397-0500"
],
"DefaultConfig_v4" : [
"2020-07-28T10:52:34.290-0500"
]
}
}