{
"ouid" : [
"bdb28eaa743d430db87214af"
],
"version" : {
"1" : [
"bdb28eaa743d430db87214af"
]
},
"configurations.name" : {
"notprovided" : [
"bdb28eaa743d430db87214af"
],
"FTBFContext_v1" : [
"bdb28eaa743d430db87214af"
],
"FTBFContext_v2" : [
"bdb28eaa743d430db87214af"
],
"FTBFContext_v3" : [
"bdb28eaa743d430db87214af"
],
"FTBFContext_v4" : [
"bdb28eaa743d430db87214af"
],
"FTBFContext_v5" : [
"bdb28eaa743d430db87214af"
],
"FTBFContext_v6" : [
"bdb28eaa743d430db87214af"
],
"FTBFContext_v7" : [
"bdb28eaa743d430db87214af"
],
"FTBFContext_v8" : [
"bdb28eaa743d430db87214af"
],
"FTBFContext_v9" : [
"bdb28eaa743d430db87214af"
],
"FTBFContext_v10" : [
"bdb28eaa743d430db87214af"
],
"FTBFContext_v11" : [
"bdb28eaa743d430db87214af"
],
"FTBFContext_v12" : [
"bdb28eaa743d430db87214af"
],
"FTBFContext_v13" : [
"bdb28eaa743d430db87214af"
],
"FTBFContext_v14" : [
"bdb28eaa743d430db87214af"
],
"FTBFContext_v15" : [
"bdb28eaa743d430db87214af"
],
"FTBFContext_v16" : [
"bdb28eaa743d430db87214af"
],
"FTBFContext_v17" : [
"bdb28eaa743d430db87214af"
],
"FTBFContext_v18" : [
"bdb28eaa743d430db87214af"
],
"FTBFContext_v19" : [
"bdb28eaa743d430db87214af"
],
"FTBFContext_v20" : [
"bdb28eaa743d430db87214af"
],
"FTBFContext_v21" : [
"bdb28eaa743d430db87214af"
],
"FTBFContext_v22" : [
"bdb28eaa743d430db87214af"
],
"FTBFContext_v23" : [
"bdb28eaa743d430db87214af"
],
"FTBFContext_v24" : [
"bdb28eaa743d430db87214af"
],
"FTBFContext_v25" : [
"bdb28eaa743d430db87214af"
],
"FTBFContext_v26" : [
"bdb28eaa743d430db87214af"
],
"FTBFContext_v27" : [
"bdb28eaa743d430db87214af"
],
"FTBFContext_v28" : [
"bdb28eaa743d430db87214af"
],
"FTBFContext_v29" : [
"bdb28eaa743d430db87214af"
],
"FTBFContext_v30" : [
"bdb28eaa743d430db87214af"
],
"FTBFContext_v31" : [
"bdb28eaa743d430db87214af"
],
"FTBFContext_v32" : [
"bdb28eaa743d430db87214af"
],
"FTBFContext_v33" : [
"bdb28eaa743d430db87214af"
],
"FTBFContext_v34" : [
"bdb28eaa743d430db87214af"
],
"FTBFContext_v35" : [
"bdb28eaa743d430db87214af"
],
"FTBFContext_v36" : [
"bdb28eaa743d430db87214af"
],
"FTBFContext_v37" : [
"bdb28eaa743d430db87214af"
],
"FTBFContext_v38" : [
"bdb28eaa743d430db87214af"
],
"FTBFContext_v39" : [
"bdb28eaa743d430db87214af"
],
"FTBFContext_v40" : [
"bdb28eaa743d430db87214af"
],
"FTBFContext_v41" : [
"bdb28eaa743d430db87214af"
],
"FTBFContext_v42" : [
"bdb28eaa743d430db87214af"
],
"FTBFContext_v43" : [
"bdb28eaa743d430db87214af"
],
"FTBFContext_v44" : [
"bdb28eaa743d430db87214af"
],
"FTBFContext_v45" : [
"bdb28eaa743d430db87214af"
],
"FTBFContext_v46" : [
"bdb28eaa743d430db87214af"
],
"FTBFContext_v47" : [
"bdb28eaa743d430db87214af"
],
"FTBFContext_v48" : [
"bdb28eaa743d430db87214af"
],
"FTBFContext_v49" : [
"bdb28eaa743d430db87214af"
],
"FTBFContext_v50" : [
"bdb28eaa743d430db87214af"
],
"FTBFContext_v51" : [
"bdb28eaa743d430db87214af"
],
"FTBFContext_v52" : [
"bdb28eaa743d430db87214af"
],
"FTBFContext_v53" : [
"bdb28eaa743d430db87214af"
],
"FTBFContext_v54" : [
"bdb28eaa743d430db87214af"
]
},
"entities.name" : {
"OTSROOT" : [
"bdb28eaa743d430db87214af"
]
},
"aliases.active.name" : {

},
"runs.name" : {

},
"configurations.assigned" : {
"notprovided" : [
"2017-11-08T15:56:07.910-0600"
],
"FTBFContext_v1" : [
"2017-11-08T15:56:08.240-0600"
],
"FTBFContext_v2" : [
"2017-11-09T10:39:03.646-0600"
],
"FTBFContext_v3" : [
"2017-11-10T10:18:38.089-0600"
],
"FTBFContext_v4" : [
"2017-11-10T10:28:46.637-0600"
],
"FTBFContext_v5" : [
"2017-11-10T10:40:33.059-0600"
],
"FTBFContext_v6" : [
"2017-11-10T10:52:05.454-0600"
],
"FTBFContext_v7" : [
"2017-11-10T11:21:01.325-0600"
],
"FTBFContext_v8" : [
"2017-11-10T11:44:49.574-0600"
],
"FTBFContext_v9" : [
"2017-11-10T12:15:25.851-0600"
],
"FTBFContext_v10" : [
"2017-11-10T12:16:54.383-0600"
],
"FTBFContext_v11" : [
"2017-11-10T12:22:19.623-0600"
],
"FTBFContext_v12" : [
"2017-11-10T12:35:32.136-0600"
],
"FTBFContext_v13" : [
"2017-11-10T12:37:10.229-0600"
],
"FTBFContext_v14" : [
"2017-11-10T12:38:14.726-0600"
],
"FTBFContext_v15" : [
"2017-11-10T17:04:41.087-0600"
],
"FTBFContext_v16" : [
"2017-11-13T10:55:06.010-0600"
],
"FTBFContext_v17" : [
"2017-11-13T14:51:53.798-0600"
],
"FTBFContext_v18" : [
"2017-11-13T15:21:32.731-0600"
],
"FTBFContext_v19" : [
"2017-11-14T11:21:18.019-0600"
],
"FTBFContext_v20" : [
"2017-11-14T16:15:28.957-0600"
],
"FTBFContext_v21" : [
"2017-11-15T12:29:36.473-0600"
],
"FTBFContext_v22" : [
"2017-11-15T12:31:22.389-0600"
],
"FTBFContext_v23" : [
"2017-11-15T12:39:05.733-0600"
],
"FTBFContext_v24" : [
"2017-11-15T12:55:32.601-0600"
],
"FTBFContext_v25" : [
"2017-11-15T12:57:46.394-0600"
],
"FTBFContext_v26" : [
"2017-11-15T12:59:19.443-0600"
],
"FTBFContext_v27" : [
"2017-11-15T16:19:29.697-0600"
],
"FTBFContext_v28" : [
"2017-11-16T09:27:10.494-0600"
],
"FTBFContext_v29" : [
"2017-11-17T17:24:35.884-0600"
],
"FTBFContext_v30" : [
"2017-11-20T14:44:40.559-0600"
],
"FTBFContext_v31" : [
"2017-11-28T10:58:43.185-0600"
],
"FTBFContext_v32" : [
"2017-11-28T11:47:17.358-0600"
],
"FTBFContext_v33" : [
"2017-11-28T12:09:40.181-0600"
],
"FTBFContext_v34" : [
"2017-11-28T12:18:07.607-0600"
],
"FTBFContext_v35" : [
"2017-11-28T16:52:27.943-0600"
],
"FTBFContext_v36" : [
"2017-11-28T17:27:49.478-0600"
],
"FTBFContext_v37" : [
"2017-11-29T11:25:53.101-0600"
],
"FTBFContext_v38" : [
"2017-11-29T16:45:18.244-0600"
],
"FTBFContext_v39" : [
"2017-11-30T09:28:22.538-0600"
],
"FTBFContext_v40" : [
"2017-11-30T10:12:19.262-0600"
],
"FTBFContext_v41" : [
"2017-12-01T15:35:09.150-0600"
],
"FTBFContext_v42" : [
"2017-12-01T15:41:37.606-0600"
],
"FTBFContext_v43" : [
"2017-12-01T15:49:46.604-0600"
],
"FTBFContext_v44" : [
"2017-12-01T17:07:56.327-0600"
],
"FTBFContext_v45" : [
"2017-12-01T17:10:13.707-0600"
],
"FTBFContext_v46" : [
"2017-12-01T18:00:43.230-0600"
],
"FTBFContext_v47" : [
"2017-12-01T19:52:08.940-0600"
],
"FTBFContext_v48" : [
"2017-12-02T14:47:39.419-0600"
],
"FTBFContext_v49" : [
"2017-12-02T14:48:22.573-0600"
],
"FTBFContext_v50" : [
"2017-12-02T18:54:54.273-0600"
],
"FTBFContext_v51" : [
"2017-12-02T19:09:29.619-0600"
],
"FTBFContext_v52" : [
"2017-12-03T12:01:07.275-0600"
],
"FTBFContext_v53" : [
"2017-12-04T16:40:49.820-0600"
],
"FTBFContext_v54" : [
"2018-02-03T03:00:35.906-0600"
]
}
}