{
"document" : {
"data" : {
"NAME" : "FE_MIDDLEWARE_INTERFACE_TABLE",
"COMMENT" : "No comment.",
"AUTHOR" : "admin",
"CREATION_TIME" : 1686580879,
"COL_TYPES" : {
"INTERFACE_ID" : "STRING",
"INTERFACE_IP_ADDRESS" : "STRING",
"INTERFACE_PORT" : "NUMBER",
"CALIBRATION_NAME" : "STRING",
"CONFIGURATION_DIR" : "STRING",
"CONFIGURATION_NAME" : "STRING",
"COMMENT_DESCRIPTION" : "STRING",
"AUTHOR" : "STRING",
"RECORD_INSERTION_TIME" : "TIMESTAMP WITH TIMEZONE"
},
"DATA_SET" : [
{
"INTERFACE_ID" : "FETrackerInterface0",
"INTERFACE_IP_ADDRESS" : "localhost",
"INTERFACE_PORT" : "5000",
"CALIBRATION_NAME" : "psphysics",
"CONFIGURATION_DIR" : "/home/modtest/Programming/Ph2_ACF_Irene/settings",
"CONFIGURATION_NAME" : "PS_Module_v2_test.xml",
"COMMENT_DESCRIPTION" : "No Comment",
"AUTHOR" : "admin",
"RECORD_INSERTION_TIME" : "1686580879"
},
{
"INTERFACE_ID" : "FETrackerInterface1",
"INTERFACE_IP_ADDRESS" : "localhost.localdomain",
"INTERFACE_PORT" : "5000",
"CALIBRATION_NAME" : "calibrationandpedenoise",
"CONFIGURATION_DIR" : "settings",
"CONFIGURATION_NAME" : "D19CDescription_2CBC3_Feynman.xml",
"COMMENT_DESCRIPTION" : "No Comment",
"AUTHOR" : "admin",
"RECORD_INSERTION_TIME" : "1601935854"
}
]
},
"metadata" : {

},
"search" : [

]
},
"comments" : [

],
"origin" : {
"source" : "template",
"name" : "notprovided",
"format" : "json",
"created" : "2023-06-12T09:41:19.985-0500",
"rawdata" : [

]
},
"version" : "13",
"entities" : [
{
"name" : "OTSROOT",
"assigned" : "2023-06-12T09:41:19.987-0500"
}
],
"configurations" : [
{
"name" : "notprovided",
"assigned" : "2023-06-12T09:41:19.986-0500"
},
{
"name" : "BurninBoxConfiguration_v164",
"assigned" : "2023-06-12T09:41:24.016-0500"
}
],
"changelog" : "notprovided",
"bookkeeping" : {
"isdeleted" : false,
"isreadonly" : false,
"updates" : [
{
"event" : "addConfiguration",
"timestamp" : "2023-06-12T09:41:19.986-0500",
"value" : {
"name" : "notprovided",
"assigned" : "2023-06-12T09:41:19.986-0500"
}
},
{
"event" : "setVersion",
"timestamp" : "2023-06-12T09:41:19.986-0500",
"value" : {
"name" : "13",
"assigned" : "2023-06-12T09:41:19.986-0500"
}
},
{
"event" : "setCollection",
"timestamp" : "2023-06-12T09:41:19.987-0500",
"value" : {
"name" : "FEMiddlewareInterfaceTable",
"assigned" : "2023-06-12T09:41:19.987-0500"
}
},
{
"event" : "addEntity",
"timestamp" : "2023-06-12T09:41:19.987-0500",
"value" : {
"name" : "OTSROOT",
"assigned" : "2023-06-12T09:41:19.987-0500"
}
},
{
"event" : "addConfiguration",
"timestamp" : "2023-06-12T09:41:24.016-0500",
"value" : {
"name" : "BurninBoxConfiguration_v164",
"assigned" : "2023-06-12T09:41:24.016-0500"
}
}
],
"created" : "2023-06-12T09:41:19.985-0500"
},
"_id" : {
"$oid" : "31e38325704e48b79d3bed04"
},
"collection" : "FEMiddlewareInterfaceTable",
"aliases" : {
"active" : [

],
"history" : [

]
},
"runs" : [

],
"attachments" : [

],
"configtype" : "notprovided"
}