{
"document" : {
"data" : {
"NAME" : "FE_MIDDLEWARE_INTERFACE_TABLE",
"COMMENT" : "No comment.",
"AUTHOR" : "admin",
"CREATION_TIME" : 1685631486,
"COL_TYPES" : {
"INTERFACE_ID" : "STRING",
"INTERFACE_IP_ADDRESS" : "STRING",
"INTERFACE_PORT" : "NUMBER",
"CALIBRATION_NAME" : "STRING",
"CONFIGURATION_DIR" : "STRING",
"CONFIGURATION_NAME" : "STRING",
"COMMENT_DESCRIPTION" : "STRING",
"AUTHOR" : "STRING",
"RECORD_INSERTION_TIME" : "TIMESTAMP WITH TIMEZONE"
},
"DATA_SET" : [
{
"INTERFACE_ID" : "FETrackerInterface0",
"INTERFACE_IP_ADDRESS" : "localhost",
"INTERFACE_PORT" : "5000",
"CALIBRATION_NAME" : "psphysics",
"CONFIGURATION_DIR" : "${PH2ACF_BASE_DIR}/settings",
"CONFIGURATION_NAME" : "PS_Module_v2.xml",
"COMMENT_DESCRIPTION" : "No Comment",
"AUTHOR" : "admin",
"RECORD_INSERTION_TIME" : "1685631486"
},
{
"INTERFACE_ID" : "FETrackerInterface1",
"INTERFACE_IP_ADDRESS" : "localhost.localdomain",
"INTERFACE_PORT" : "5000",
"CALIBRATION_NAME" : "calibrationandpedenoise",
"CONFIGURATION_DIR" : "settings",
"CONFIGURATION_NAME" : "D19CDescription_2CBC3_Feynman.xml",
"COMMENT_DESCRIPTION" : "No Comment",
"AUTHOR" : "admin",
"RECORD_INSERTION_TIME" : "1601935854"
}
]
},
"metadata" : {

},
"search" : [

]
},
"comments" : [

],
"origin" : {
"source" : "template",
"name" : "notprovided",
"format" : "json",
"created" : "2023-06-01T09:58:06.030-0500",
"rawdata" : [

]
},
"version" : "11",
"entities" : [
{
"name" : "OTSROOT",
"assigned" : "2023-06-01T09:58:06.031-0500"
}
],
"configurations" : [
{
"name" : "notprovided",
"assigned" : "2023-06-01T09:58:06.030-0500"
},
{
"name" : "BurninBoxConfiguration_v157",
"assigned" : "2023-06-01T09:58:09.975-0500"
},
{
"name" : "BurninBoxConfiguration_v158",
"assigned" : "2023-06-01T09:59:55.852-0500"
},
{
"name" : "BurninBoxConfiguration_v159",
"assigned" : "2023-06-01T10:20:02.125-0500"
},
{
"name" : "BurninBoxConfiguration_v160",
"assigned" : "2023-06-01T10:23:58.543-0500"
},
{
"name" : "BurninBoxConfiguration_v161",
"assigned" : "2023-06-01T10:27:31.433-0500"
},
{
"name" : "BurninBoxConfiguration_v162",
"assigned" : "2023-06-09T12:06:37.553-0500"
}
],
"changelog" : "notprovided",
"bookkeeping" : {
"isdeleted" : false,
"isreadonly" : false,
"updates" : [
{
"event" : "addConfiguration",
"timestamp" : "2023-06-01T09:58:06.031-0500",
"value" : {
"name" : "notprovided",
"assigned" : "2023-06-01T09:58:06.030-0500"
}
},
{
"event" : "setVersion",
"timestamp" : "2023-06-01T09:58:06.031-0500",
"value" : {
"name" : "11",
"assigned" : "2023-06-01T09:58:06.031-0500"
}
},
{
"event" : "setCollection",
"timestamp" : "2023-06-01T09:58:06.031-0500",
"value" : {
"name" : "FEMiddlewareInterfaceTable",
"assigned" : "2023-06-01T09:58:06.031-0500"
}
},
{
"event" : "addEntity",
"timestamp" : "2023-06-01T09:58:06.031-0500",
"value" : {
"name" : "OTSROOT",
"assigned" : "2023-06-01T09:58:06.031-0500"
}
},
{
"event" : "addConfiguration",
"timestamp" : "2023-06-01T09:58:09.975-0500",
"value" : {
"name" : "BurninBoxConfiguration_v157",
"assigned" : "2023-06-01T09:58:09.975-0500"
}
},
{
"event" : "addConfiguration",
"timestamp" : "2023-06-01T09:59:55.852-0500",
"value" : {
"name" : "BurninBoxConfiguration_v158",
"assigned" : "2023-06-01T09:59:55.852-0500"
}
},
{
"event" : "addConfiguration",
"timestamp" : "2023-06-01T10:20:02.125-0500",
"value" : {
"name" : "BurninBoxConfiguration_v159",
"assigned" : "2023-06-01T10:20:02.125-0500"
}
},
{
"event" : "addConfiguration",
"timestamp" : "2023-06-01T10:23:58.543-0500",
"value" : {
"name" : "BurninBoxConfiguration_v160",
"assigned" : "2023-06-01T10:23:58.543-0500"
}
},
{
"event" : "addConfiguration",
"timestamp" : "2023-06-01T10:27:31.433-0500",
"value" : {
"name" : "BurninBoxConfiguration_v161",
"assigned" : "2023-06-01T10:27:31.433-0500"
}
},
{
"event" : "addConfiguration",
"timestamp" : "2023-06-09T12:06:37.553-0500",
"value" : {
"name" : "BurninBoxConfiguration_v162",
"assigned" : "2023-06-09T12:06:37.553-0500"
}
}
],
"created" : "2023-06-01T09:58:06.030-0500"
},
"_id" : {
"$oid" : "88fb82c3527a445b92b5844e"
},
"collection" : "FEMiddlewareInterfaceTable",
"aliases" : {
"active" : [

],
"history" : [

]
},
"runs" : [

],
"attachments" : [

],
"configtype" : "notprovided"
}