{
"document" : {
"data" : {
"NAME" : "ARTDAQ_PHYSICS_PARAMETER_CONFIGURATION",
"COMMENT" : "No comment.",
"AUTHOR" : "eflumerf",
"CREATION_TIME" : 1509387885,
"COL_TYPES" : {
"PHYSICS_PARAMETER_GROUP_ID" : "VARCHAR2",
"PHYSICS_PARAMETER_UID" : "VARCHAR2",
"STATUS" : "VARCHAR2",
"PHYSICS_PARAMETER_KEY" : "VARCHAR2",
"PHYSICS_PARAMETER_VALUE" : "VARCHAR2",
"COMMENT_DESCRIPTION" : "VARCHAR2",
"AUTHOR" : "VARCHAR2",
"RECORD_INSERTION_TIME" : "TIMESTAMP WITH TIMEZONE"
},
"DATA_SET" : [
{
"PHYSICS_PARAMETER_GROUP_ID" : "aggergator0PhysicsPGroup",
"PHYSICS_PARAMETER_UID" : "aggregatorPhysicsP0",
"STATUS" : "On",
"PHYSICS_PARAMETER_KEY" : "my_output_modules",
"PHYSICS_PARAMETER_VALUE" : "[ normalOutput ]",
"COMMENT_DESCRIPTION" : "No Comment",
"AUTHOR" : "DEFAULT",
"RECORD_INSERTION_TIME" : "0"
},
{
"PHYSICS_PARAMETER_GROUP_ID" : "builder0PhysicsPGroup",
"PHYSICS_PARAMETER_UID" : "builderPhysicsP0",
"STATUS" : "On",
"PHYSICS_PARAMETER_KEY" : "a1",
"PHYSICS_PARAMETER_VALUE" : "[ wireChambers ]",
"COMMENT_DESCRIPTION" : "No Comment",
"AUTHOR" : "eflumerf",
"RECORD_INSERTION_TIME" : "1509387885"
},
{
"PHYSICS_PARAMETER_GROUP_ID" : "builder0PhysicsPGroup",
"PHYSICS_PARAMETER_UID" : "builderPhysicsP1",
"STATUS" : "On",
"PHYSICS_PARAMETER_KEY" : "my_output_modules",
"PHYSICS_PARAMETER_VALUE" : "[ rootMPIOutput ]",
"COMMENT_DESCRIPTION" : "No Comment",
"AUTHOR" : "eflumerf",
"RECORD_INSERTION_TIME" : "1509115583"
}
]
},
"metadata" : {

},
"search" : [

]
},
"comments" : [

],
"origin" : {
"source" : "template",
"name" : "notprovided",
"format" : "json",
"created" : "2017-11-08T15:56:03.224-0600",
"rawdata" : [

]
},
"version" : "0",
"entities" : [
{
"name" : "OTSROOT",
"assigned" : "2017-11-08T15:56:03.226-0600"
}
],
"configurations" : [
{
"name" : "notprovided",
"assigned" : "2017-11-08T15:56:03.225-0600"
},
{
"name" : "FTBFConfig_v0",
"assigned" : "2017-11-08T15:56:05.954-0600"
},
{
"name" : "FTBFConfig_v1",
"assigned" : "2017-11-09T09:56:30.626-0600"
},
{
"name" : "FTBFConfig_v2",
"assigned" : "2017-11-09T10:05:59.597-0600"
},
{
"name" : "FTBFConfig_v3",
"assigned" : "2017-11-09T10:37:11.149-0600"
},
{
"name" : "FTBFConfig_v4",
"assigned" : "2017-11-15T11:30:09.942-0600"
},
{
"name" : "FTBFConfig_v5",
"assigned" : "2017-11-15T11:54:56.742-0600"
},
{
"name" : "FTBFConfig_v6",
"assigned" : "2017-11-15T11:57:49.365-0600"
},
{
"name" : "FTBFConfig_v7",
"assigned" : "2017-11-15T12:42:31.775-0600"
},
{
"name" : "FTBFConfig_v8",
"assigned" : "2017-11-15T13:01:02.827-0600"
},
{
"name" : "FTBFConfig_v9",
"assigned" : "2017-11-15T13:02:56.176-0600"
},
{
"name" : "FTBFConfig_v10",
"assigned" : "2017-11-15T13:04:23.759-0600"
},
{
"name" : "FTBFConfig_v11",
"assigned" : "2017-11-15T13:07:51.250-0600"
},
{
"name" : "FTBFConfig_v12",
"assigned" : "2017-11-15T13:11:58.708-0600"
},
{
"name" : "FTBFConfig_v13",
"assigned" : "2017-11-15T13:13:52.656-0600"
},
{
"name" : "FTBFConfig_v14",
"assigned" : "2017-11-15T13:27:28.284-0600"
},
{
"name" : "FTBFConfig_v15",
"assigned" : "2017-11-15T13:35:46.646-0600"
},
{
"name" : "FTBFConfig_v16",
"assigned" : "2017-11-15T13:36:51.258-0600"
},
{
"name" : "FTBFConfig_v17",
"assigned" : "2017-11-15T15:33:29.796-0600"
},
{
"name" : "FTBFConfig_v18",
"assigned" : "2017-11-15T15:35:33.421-0600"
},
{
"name" : "FTBFConfig_v19",
"assigned" : "2017-11-15T15:38:02.272-0600"
},
{
"name" : "FTBFConfig_v20",
"assigned" : "2017-11-15T16:26:30.067-0600"
},
{
"name" : "FTBFConfig_v21",
"assigned" : "2017-11-16T09:22:31.073-0600"
},
{
"name" : "FTBFConfig_v22",
"assigned" : "2017-11-17T10:23:27.287-0600"
},
{
"name" : "FTBFConfig_v23",
"assigned" : "2017-11-17T17:26:44.825-0600"
},
{
"name" : "FTBFConfig_v24",
"assigned" : "2017-11-17T17:58:25.320-0600"
},
{
"name" : "FTBFConfig_v25",
"assigned" : "2017-11-17T18:24:44.986-0600"
},
{
"name" : "FTBFConfig_v26",
"assigned" : "2017-11-17T18:32:22.336-0600"
},
{
"name" : "FTBFConfig_v27",
"assigned" : "2017-11-17T18:43:29.467-0600"
},
{
"name" : "FTBFConfig_v28",
"assigned" : "2017-11-17T18:48:31.512-0600"
},
{
"name" : "FTBFConfig_v29",
"assigned" : "2017-11-20T14:48:30.358-0600"
},
{
"name" : "FTBFConfig_v30",
"assigned" : "2017-11-20T15:39:55.494-0600"
},
{
"name" : "FTBFConfig_v31",
"assigned" : "2017-11-20T16:41:01.495-0600"
},
{
"name" : "FTBFConfig_v32",
"assigned" : "2017-11-20T18:55:34.416-0600"
},
{
"name" : "FTBFConfig_v33",
"assigned" : "2017-11-20T18:57:29.667-0600"
},
{
"name" : "FTBFConfig_v34",
"assigned" : "2017-11-29T17:50:39.178-0600"
},
{
"name" : "FTBFConfig_v35",
"assigned" : "2017-11-29T18:00:32.001-0600"
},
{
"name" : "FTBFConfig_v36",
"assigned" : "2017-11-29T18:35:10.855-0600"
},
{
"name" : "FTBFConfig_v37",
"assigned" : "2017-12-01T09:36:17.107-0600"
},
{
"name" : "FTBFConfig_v38",
"assigned" : "2017-12-01T09:52:00.519-0600"
},
{
"name" : "FTBFConfig_v39",
"assigned" : "2017-12-01T11:51:57.771-0600"
},
{
"name" : "FTBFConfig_v40",
"assigned" : "2017-12-01T12:18:19.727-0600"
},
{
"name" : "FTBFConfig_v41",
"assigned" : "2017-12-01T12:21:01.865-0600"
},
{
"name" : "FTBFConfig_v42",
"assigned" : "2017-12-01T12:43:21.062-0600"
},
{
"name" : "FTBFConfig_v43",
"assigned" : "2017-12-01T12:57:58.455-0600"
},
{
"name" : "FTBFConfig_v44",
"assigned" : "2017-12-01T13:00:51.465-0600"
},
{
"name" : "FTBFConfig_v45",
"assigned" : "2017-12-01T13:25:48.158-0600"
},
{
"name" : "FTBFConfig_v46",
"assigned" : "2017-12-01T13:35:42.930-0600"
},
{
"name" : "FTBFConfig_v47",
"assigned" : "2017-12-01T14:00:51.225-0600"
},
{
"name" : "FTBFConfig_v48",
"assigned" : "2017-12-01T14:03:58.552-0600"
},
{
"name" : "FTBFConfig_v49",
"assigned" : "2017-12-01T15:31:58.703-0600"
},
{
"name" : "FTBFConfig_v52",
"assigned" : "2017-12-01T15:37:30.523-0600"
},
{
"name" : "FTBFConfig_v53",
"assigned" : "2017-12-01T15:40:58.218-0600"
},
{
"name" : "FTBFConfig_v54",
"assigned" : "2017-12-01T15:52:48.532-0600"
},
{
"name" : "FTBFConfig_v55",
"assigned" : "2017-12-01T15:54:33.682-0600"
},
{
"name" : "FTBFConfig_v56",
"assigned" : "2017-12-01T15:55:33.236-0600"
},
{
"name" : "FTBFConfig_v57",
"assigned" : "2017-12-01T15:56:39.068-0600"
},
{
"name" : "FTBFConfig_v58",
"assigned" : "2017-12-01T15:57:37.125-0600"
},
{
"name" : "FTBFConfig_v59",
"assigned" : "2017-12-01T15:58:29.031-0600"
},
{
"name" : "FTBFConfig_v60",
"assigned" : "2017-12-01T15:59:30.230-0600"
},
{
"name" : "FTBFConfig_v61",
"assigned" : "2017-12-01T16:19:39.985-0600"
},
{
"name" : "FTBFConfig_v62",
"assigned" : "2017-12-01T16:22:02.528-0600"
},
{
"name" : "FTBFConfig_v63",
"assigned" : "2017-12-01T16:31:23.158-0600"
},
{
"name" : "FTBFConfig_v64",
"assigned" : "2017-12-01T17:06:30.350-0600"
},
{
"name" : "FTBFConfig_v65",
"assigned" : "2017-12-01T17:32:42.491-0600"
},
{
"name" : "FTBFConfig_v66",
"assigned" : "2017-12-01T20:38:48.880-0600"
},
{
"name" : "FTBFConfig_v67",
"assigned" : "2017-12-01T21:25:00.315-0600"
},
{
"name" : "FTBFConfig_v68",
"assigned" : "2017-12-01T21:42:59.984-0600"
},
{
"name" : "FTBFConfig_v69",
"assigned" : "2017-12-01T21:44:58.609-0600"
},
{
"name" : "FTBFConfig_v70",
"assigned" : "2017-12-01T21:59:17.844-0600"
},
{
"name" : "FTBFConfigNim_v0",
"assigned" : "2017-12-01T22:00:04.548-0600"
},
{
"name" : "FTBFConfigNim_v1",
"assigned" : "2017-12-01T22:13:06.309-0600"
},
{
"name" : "FTBFConfigNim_v2",
"assigned" : "2017-12-01T22:15:53.538-0600"
},
{
"name" : "FTBFConfigNim_v3",
"assigned" : "2017-12-01T22:17:01.673-0600"
},
{
"name" : "FTBFConfigNim_v4",
"assigned" : "2017-12-01T22:19:04.629-0600"
},
{
"name" : "FTBFConfigNim_v5",
"assigned" : "2017-12-01T22:21:55.369-0600"
},
{
"name" : "FTBFConfigNim_v6",
"assigned" : "2017-12-01T22:23:11.516-0600"
},
{
"name" : "FTBFConfigNim_v7",
"assigned" : "2017-12-01T22:25:15.316-0600"
},
{
"name" : "FTBFConfigNim_v8",
"assigned" : "2017-12-01T22:27:02.962-0600"
},
{
"name" : "FTBFConfigNim_v9",
"assigned" : "2017-12-01T22:29:27.122-0600"
},
{
"name" : "FTBFConfigNim_v10",
"assigned" : "2017-12-01T22:52:32.244-0600"
},
{
"name" : "FTBFConfigNim_v11",
"assigned" : "2017-12-01T22:57:27.058-0600"
},
{
"name" : "FTBFConfigNim_v12",
"assigned" : "2017-12-01T23:00:05.308-0600"
},
{
"name" : "FTBFConfigNim_v13",
"assigned" : "2017-12-01T23:52:33.426-0600"
},
{
"name" : "FTBFConfigNim_v14",
"assigned" : "2017-12-01T23:58:07.843-0600"
},
{
"name" : "FTBFConfigNim_v15",
"assigned" : "2017-12-02T00:00:32.103-0600"
},
{
"name" : "FTBFConfigNim_v16",
"assigned" : "2017-12-02T00:13:07.252-0600"
},
{
"name" : "FTBFConfigNim_v17",
"assigned" : "2017-12-02T00:28:26.210-0600"
},
{
"name" : "FTBFConfigNim_v18",
"assigned" : "2017-12-02T00:29:32.269-0600"
},
{
"name" : "FTBFConfigNim_v19",
"assigned" : "2017-12-02T00:31:09.519-0600"
},
{
"name" : "FTBFConfigNim_v20",
"assigned" : "2017-12-02T00:57:25.252-0600"
},
{
"name" : "FTBFConfigNim_v21",
"assigned" : "2017-12-02T10:57:59.827-0600"
},
{
"name" : "FTBFConfigNim_v22",
"assigned" : "2017-12-02T11:08:15.997-0600"
},
{
"name" : "FTBFConfigNim_v23",
"assigned" : "2017-12-02T11:12:37.566-0600"
},
{
"name" : "FTBFConfigNim_v24",
"assigned" : "2017-12-02T11:18:40.473-0600"
},
{
"name" : "FTBFConfigNim_v25",
"assigned" : "2017-12-02T11:27:03.636-0600"
},
{
"name" : "FTBFConfigNim_v26",
"assigned" : "2017-12-02T11:38:34.689-0600"
},
{
"name" : "FTBFConfigNim_v27",
"assigned" : "2017-12-02T11:49:05.864-0600"
},
{
"name" : "FTBFConfigNim_v28",
"assigned" : "2017-12-02T11:55:07.310-0600"
},
{
"name" : "FTBFConfigNim_v29",
"assigned" : "2017-12-02T12:06:24.147-0600"
},
{
"name" : "FTBFConfig_v71",
"assigned" : "2017-12-02T12:24:12.801-0600"
},
{
"name" : "FTBFConfig_v72",
"assigned" : "2017-12-02T12:43:33.650-0600"
},
{
"name" : "FTBFConfig_v73",
"assigned" : "2017-12-02T13:55:33.276-0600"
},
{
"name" : "FTBFConfig_v74",
"assigned" : "2017-12-02T14:09:05.604-0600"
},
{
"name" : "FTBFConfig_v75",
"assigned" : "2017-12-02T14:12:16.402-0600"
},
{
"name" : "FTBFConfig_v76",
"assigned" : "2017-12-02T19:05:51.482-0600"
},
{
"name" : "FTBFConfig_v77",
"assigned" : "2017-12-02T19:12:11.363-0600"
},
{
"name" : "FTBFConfig_v78",
"assigned" : "2017-12-03T14:03:46.495-0600"
},
{
"name" : "FTBFConfig_v79",
"assigned" : "2017-12-03T14:09:04.717-0600"
},
{
"name" : "FTBFConfig_v80",
"assigned" : "2017-12-03T14:11:08.466-0600"
},
{
"name" : "FTBFConfig_v81",
"assigned" : "2017-12-03T14:22:31.513-0600"
},
{
"name" : "FTBFConfig_v82",
"assigned" : "2017-12-03T14:40:36.293-0600"
},
{
"name" : "FTBFConfig_v83",
"assigned" : "2017-12-03T14:45:03.655-0600"
},
{
"name" : "FTBFConfig_v84",
"assigned" : "2017-12-04T14:51:29.009-0600"
},
{
"name" : "FTBFConfig_v85",
"assigned" : "2017-12-04T14:55:42.172-0600"
},
{
"name" : "FTBFConfig_v86",
"assigned" : "2017-12-04T16:51:05.171-0600"
},
{
"name" : "FTBFConfig_v87",
"assigned" : "2017-12-04T16:56:45.798-0600"
},
{
"name" : "FTBFConfig_v88",
"assigned" : "2017-12-04T17:01:10.525-0600"
},
{
"name" : "FTBFConfig_v89",
"assigned" : "2017-12-04T17:03:55.631-0600"
},
{
"name" : "FTBFConfig_v90",
"assigned" : "2017-12-04T17:07:15.256-0600"
},
{
"name" : "FTBFConfig_v91",
"assigned" : "2017-12-04T17:09:24.384-0600"
},
{
"name" : "FTBFConfig_v92",
"assigned" : "2017-12-04T17:11:36.874-0600"
},
{
"name" : "FTBFConfig_v93",
"assigned" : "2017-12-04T21:05:19.471-0600"
},
{
"name" : "FTBFConfig_v94",
"assigned" : "2017-12-04T21:17:10.373-0600"
},
{
"name" : "FTBFConfig_v95",
"assigned" : "2017-12-04T21:41:16.058-0600"
},
{
"name" : "FTBFConfig_v96",
"assigned" : "2017-12-04T22:39:00.684-0600"
},
{
"name" : "FTBFConfig_v97",
"assigned" : "2017-12-04T23:01:11.195-0600"
},
{
"name" : "FTBFConfig_v98",
"assigned" : "2017-12-07T11:07:45.212-0600"
},
{
"name" : "FTBFConfig_v99",
"assigned" : "2017-12-07T11:49:57.885-0600"
},
{
"name" : "FTBFConfig_v100",
"assigned" : "2017-12-07T11:58:24.600-0600"
},
{
"name" : "FTBFConfig_v101",
"assigned" : "2017-12-08T13:30:46.754-0600"
},
{
"name" : "FTBFConfig_v102",
"assigned" : "2017-12-08T13:32:33.615-0600"
},
{
"name" : "FTBFConfig_v103",
"assigned" : "2017-12-12T11:03:03.408-0600"
},
{
"name" : "FTBFConfig_v104",
"assigned" : "2017-12-12T13:50:57.790-0600"
},
{
"name" : "FTBFConfig_v105",
"assigned" : "2017-12-12T15:25:03.837-0600"
},
{
"name" : "FTBFConfig_v106",
"assigned" : "2017-12-13T10:24:22.187-0600"
},
{
"name" : "FTBFConfig_v107",
"assigned" : "2017-12-13T10:27:00.947-0600"
},
{
"name" : "FTBFConfig_v108",
"assigned" : "2018-02-01T21:14:24.422-0600"
},
{
"name" : "FTBFConfig_v109",
"assigned" : "2018-02-01T21:21:01.528-0600"
},
{
"name" : "FTBFConfig_v110",
"assigned" : "2018-02-02T11:25:32.495-0600"
},
{
"name" : "FTBFConfig_v111",
"assigned" : "2018-02-02T11:37:11.315-0600"
},
{
"name" : "FTBFConfig_v112",
"assigned" : "2018-02-02T11:47:13.791-0600"
},
{
"name" : "FTBFConfig_v113",
"assigned" : "2018-02-02T11:53:35.042-0600"
},
{
"name" : "FTBFConfig_v114",
"assigned" : "2018-02-02T12:00:51.149-0600"
},
{
"name" : "FTBFConfig_v115",
"assigned" : "2018-02-02T12:27:12.625-0600"
},
{
"name" : "FTBFConfig_v116",
"assigned" : "2018-02-02T14:28:52.147-0600"
},
{
"name" : "FTBFConfig_v117",
"assigned" : "2018-02-02T14:30:18.473-0600"
},
{
"name" : "FTBFConfig_v118",
"assigned" : "2018-02-02T14:33:59.680-0600"
},
{
"name" : "FTBFConfig_v119",
"assigned" : "2018-02-02T14:36:26.304-0600"
},
{
"name" : "FTBFConfig_v120",
"assigned" : "2018-02-02T14:38:39.659-0600"
},
{
"name" : "FTBFConfig_v121",
"assigned" : "2018-02-02T14:41:48.978-0600"
},
{
"name" : "FTBFConfig_v122",
"assigned" : "2018-02-02T14:50:23.059-0600"
},
{
"name" : "FTBFConfig_v123",
"assigned" : "2018-02-02T14:52:55.862-0600"
},
{
"name" : "FTBFConfig_v124",
"assigned" : "2018-02-02T14:59:49.214-0600"
},
{
"name" : "FTBFConfig_v125",
"assigned" : "2018-02-02T15:04:07.315-0600"
},
{
"name" : "FTBFConfig_v126",
"assigned" : "2018-02-02T15:50:10.502-0600"
},
{
"name" : "FTBFConfig_v127",
"assigned" : "2018-02-02T15:51:30.007-0600"
},
{
"name" : "FTBFConfig_v128",
"assigned" : "2018-02-02T15:52:35.157-0600"
},
{
"name" : "FTBFConfig_v129",
"assigned" : "2018-02-02T16:02:44.058-0600"
},
{
"name" : "FTBFConfig_v130",
"assigned" : "2018-02-02T16:08:43.590-0600"
},
{
"name" : "FTBFConfig_v131",
"assigned" : "2018-02-02T16:11:29.405-0600"
},
{
"name" : "FTBFConfig_v132",
"assigned" : "2018-02-02T16:12:57.283-0600"
},
{
"name" : "FTBFConfig_v133",
"assigned" : "2018-02-02T16:14:27.878-0600"
},
{
"name" : "FTBFConfig_v134",
"assigned" : "2018-02-02T16:26:20.753-0600"
},
{
"name" : "FTBFConfig_v135",
"assigned" : "2018-02-02T16:27:07.877-0600"
},
{
"name" : "FTBFConfig_v136",
"assigned" : "2018-02-02T16:29:29.234-0600"
},
{
"name" : "FTBFConfig_v137",
"assigned" : "2018-02-02T16:31:39.827-0600"
},
{
"name" : "FTBFConfig_v138",
"assigned" : "2018-02-02T16:34:12.480-0600"
},
{
"name" : "FTBFConfig_v139",
"assigned" : "2018-02-02T17:39:28.534-0600"
},
{
"name" : "FTBFConfig_v140",
"assigned" : "2018-02-02T17:42:50.709-0600"
},
{
"name" : "FTBFConfig_v141",
"assigned" : "2018-02-02T17:47:35.878-0600"
},
{
"name" : "FTBFConfig_v142",
"assigned" : "2018-02-02T17:53:59.913-0600"
}
],
"changelog" : "notprovided",
"bookkeeping" : {
"isdeleted" : false,
"isreadonly" : false,
"updates" : [
{
"event" : "addConfiguration",
"timestamp" : "2017-11-08T15:56:03.225-0600",
"value" : {
"name" : "notprovided",
"assigned" : "2017-11-08T15:56:03.225-0600"
}
},
{
"event" : "setVersion",
"timestamp" : "2017-11-08T15:56:03.226-0600",
"value" : {
"name" : "0",
"assigned" : "2017-11-08T15:56:03.226-0600"
}
},
{
"event" : "setCollection",
"timestamp" : "2017-11-08T15:56:03.226-0600",
"value" : {
"name" : "ARTDAQPhysicsParameterConfiguration",
"assigned" : "2017-11-08T15:56:03.226-0600"
}
},
{
"event" : "addEntity",
"timestamp" : "2017-11-08T15:56:03.226-0600",
"value" : {
"name" : "OTSROOT",
"assigned" : "2017-11-08T15:56:03.226-0600"
}
},
{
"event" : "addConfiguration",
"timestamp" : "2017-11-08T15:56:05.954-0600",
"value" : {
"name" : "FTBFConfig_v0",
"assigned" : "2017-11-08T15:56:05.954-0600"
}
},
{
"event" : "addConfiguration",
"timestamp" : "2017-11-09T09:56:30.626-0600",
"value" : {
"name" : "FTBFConfig_v1",
"assigned" : "2017-11-09T09:56:30.626-0600"
}
},
{
"event" : "addConfiguration",
"timestamp" : "2017-11-09T10:05:59.597-0600",
"value" : {
"name" : "FTBFConfig_v2",
"assigned" : "2017-11-09T10:05:59.597-0600"
}
},
{
"event" : "addConfiguration",
"timestamp" : "2017-11-09T10:37:11.149-0600",
"value" : {
"name" : "FTBFConfig_v3",
"assigned" : "2017-11-09T10:37:11.149-0600"
}
},
{
"event" : "addConfiguration",
"timestamp" : "2017-11-15T11:30:09.942-0600",
"value" : {
"name" : "FTBFConfig_v4",
"assigned" : "2017-11-15T11:30:09.942-0600"
}
},
{
"event" : "addConfiguration",
"timestamp" : "2017-11-15T11:54:56.742-0600",
"value" : {
"name" : "FTBFConfig_v5",
"assigned" : "2017-11-15T11:54:56.742-0600"
}
},
{
"event" : "addConfiguration",
"timestamp" : "2017-11-15T11:57:49.365-0600",
"value" : {
"name" : "FTBFConfig_v6",
"assigned" : "2017-11-15T11:57:49.365-0600"
}
},
{
"event" : "addConfiguration",
"timestamp" : "2017-11-15T12:42:31.775-0600",
"value" : {
"name" : "FTBFConfig_v7",
"assigned" : "2017-11-15T12:42:31.775-0600"
}
},
{
"event" : "addConfiguration",
"timestamp" : "2017-11-15T13:01:02.827-0600",
"value" : {
"name" : "FTBFConfig_v8",
"assigned" : "2017-11-15T13:01:02.827-0600"
}
},
{
"event" : "addConfiguration",
"timestamp" : "2017-11-15T13:02:56.176-0600",
"value" : {
"name" : "FTBFConfig_v9",
"assigned" : "2017-11-15T13:02:56.176-0600"
}
},
{
"event" : "addConfiguration",
"timestamp" : "2017-11-15T13:04:23.759-0600",
"value" : {
"name" : "FTBFConfig_v10",
"assigned" : "2017-11-15T13:04:23.759-0600"
}
},
{
"event" : "addConfiguration",
"timestamp" : "2017-11-15T13:07:51.250-0600",
"value" : {
"name" : "FTBFConfig_v11",
"assigned" : "2017-11-15T13:07:51.250-0600"
}
},
{
"event" : "addConfiguration",
"timestamp" : "2017-11-15T13:11:58.708-0600",
"value" : {
"name" : "FTBFConfig_v12",
"assigned" : "2017-11-15T13:11:58.708-0600"
}
},
{
"event" : "addConfiguration",
"timestamp" : "2017-11-15T13:13:52.656-0600",
"value" : {
"name" : "FTBFConfig_v13",
"assigned" : "2017-11-15T13:13:52.656-0600"
}
},
{
"event" : "addConfiguration",
"timestamp" : "2017-11-15T13:27:28.284-0600",
"value" : {
"name" : "FTBFConfig_v14",
"assigned" : "2017-11-15T13:27:28.284-0600"
}
},
{
"event" : "addConfiguration",
"timestamp" : "2017-11-15T13:35:46.646-0600",
"value" : {
"name" : "FTBFConfig_v15",
"assigned" : "2017-11-15T13:35:46.646-0600"
}
},
{
"event" : "addConfiguration",
"timestamp" : "2017-11-15T13:36:51.258-0600",
"value" : {
"name" : "FTBFConfig_v16",
"assigned" : "2017-11-15T13:36:51.258-0600"
}
},
{
"event" : "addConfiguration",
"timestamp" : "2017-11-15T15:33:29.796-0600",
"value" : {
"name" : "FTBFConfig_v17",
"assigned" : "2017-11-15T15:33:29.796-0600"
}
},
{
"event" : "addConfiguration",
"timestamp" : "2017-11-15T15:35:33.421-0600",
"value" : {
"name" : "FTBFConfig_v18",
"assigned" : "2017-11-15T15:35:33.421-0600"
}
},
{
"event" : "addConfiguration",
"timestamp" : "2017-11-15T15:38:02.272-0600",
"value" : {
"name" : "FTBFConfig_v19",
"assigned" : "2017-11-15T15:38:02.272-0600"
}
},
{
"event" : "addConfiguration",
"timestamp" : "2017-11-15T16:26:30.067-0600",
"value" : {
"name" : "FTBFConfig_v20",
"assigned" : "2017-11-15T16:26:30.067-0600"
}
},
{
"event" : "addConfiguration",
"timestamp" : "2017-11-16T09:22:31.073-0600",
"value" : {
"name" : "FTBFConfig_v21",
"assigned" : "2017-11-16T09:22:31.073-0600"
}
},
{
"event" : "addConfiguration",
"timestamp" : "2017-11-17T10:23:27.287-0600",
"value" : {
"name" : "FTBFConfig_v22",
"assigned" : "2017-11-17T10:23:27.287-0600"
}
},
{
"event" : "addConfiguration",
"timestamp" : "2017-11-17T17:26:44.825-0600",
"value" : {
"name" : "FTBFConfig_v23",
"assigned" : "2017-11-17T17:26:44.825-0600"
}
},
{
"event" : "addConfiguration",
"timestamp" : "2017-11-17T17:58:25.320-0600",
"value" : {
"name" : "FTBFConfig_v24",
"assigned" : "2017-11-17T17:58:25.320-0600"
}
},
{
"event" : "addConfiguration",
"timestamp" : "2017-11-17T18:24:44.986-0600",
"value" : {
"name" : "FTBFConfig_v25",
"assigned" : "2017-11-17T18:24:44.986-0600"
}
},
{
"event" : "addConfiguration",
"timestamp" : "2017-11-17T18:32:22.336-0600",
"value" : {
"name" : "FTBFConfig_v26",
"assigned" : "2017-11-17T18:32:22.336-0600"
}
},
{
"event" : "addConfiguration",
"timestamp" : "2017-11-17T18:43:29.467-0600",
"value" : {
"name" : "FTBFConfig_v27",
"assigned" : "2017-11-17T18:43:29.467-0600"
}
},
{
"event" : "addConfiguration",
"timestamp" : "2017-11-17T18:48:31.512-0600",
"value" : {
"name" : "FTBFConfig_v28",
"assigned" : "2017-11-17T18:48:31.512-0600"
}
},
{
"event" : "addConfiguration",
"timestamp" : "2017-11-20T14:48:30.358-0600",
"value" : {
"name" : "FTBFConfig_v29",
"assigned" : "2017-11-20T14:48:30.358-0600"
}
},
{
"event" : "addConfiguration",
"timestamp" : "2017-11-20T15:39:55.494-0600",
"value" : {
"name" : "FTBFConfig_v30",
"assigned" : "2017-11-20T15:39:55.494-0600"
}
},
{
"event" : "addConfiguration",
"timestamp" : "2017-11-20T16:41:01.495-0600",
"value" : {
"name" : "FTBFConfig_v31",
"assigned" : "2017-11-20T16:41:01.495-0600"
}
},
{
"event" : "addConfiguration",
"timestamp" : "2017-11-20T18:55:34.416-0600",
"value" : {
"name" : "FTBFConfig_v32",
"assigned" : "2017-11-20T18:55:34.416-0600"
}
},
{
"event" : "addConfiguration",
"timestamp" : "2017-11-20T18:57:29.667-0600",
"value" : {
"name" : "FTBFConfig_v33",
"assigned" : "2017-11-20T18:57:29.667-0600"
}
},
{
"event" : "addConfiguration",
"timestamp" : "2017-11-29T17:50:39.178-0600",
"value" : {
"name" : "FTBFConfig_v34",
"assigned" : "2017-11-29T17:50:39.178-0600"
}
},
{
"event" : "addConfiguration",
"timestamp" : "2017-11-29T18:00:32.001-0600",
"value" : {
"name" : "FTBFConfig_v35",
"assigned" : "2017-11-29T18:00:32.001-0600"
}
},
{
"event" : "addConfiguration",
"timestamp" : "2017-11-29T18:35:10.855-0600",
"value" : {
"name" : "FTBFConfig_v36",
"assigned" : "2017-11-29T18:35:10.855-0600"
}
},
{
"event" : "addConfiguration",
"timestamp" : "2017-12-01T09:36:17.107-0600",
"value" : {
"name" : "FTBFConfig_v37",
"assigned" : "2017-12-01T09:36:17.107-0600"
}
},
{
"event" : "addConfiguration",
"timestamp" : "2017-12-01T09:52:00.519-0600",
"value" : {
"name" : "FTBFConfig_v38",
"assigned" : "2017-12-01T09:52:00.519-0600"
}
},
{
"event" : "addConfiguration",
"timestamp" : "2017-12-01T11:51:57.771-0600",
"value" : {
"name" : "FTBFConfig_v39",
"assigned" : "2017-12-01T11:51:57.771-0600"
}
},
{
"event" : "addConfiguration",
"timestamp" : "2017-12-01T12:18:19.727-0600",
"value" : {
"name" : "FTBFConfig_v40",
"assigned" : "2017-12-01T12:18:19.727-0600"
}
},
{
"event" : "addConfiguration",
"timestamp" : "2017-12-01T12:21:01.865-0600",
"value" : {
"name" : "FTBFConfig_v41",
"assigned" : "2017-12-01T12:21:01.865-0600"
}
},
{
"event" : "addConfiguration",
"timestamp" : "2017-12-01T12:43:21.062-0600",
"value" : {
"name" : "FTBFConfig_v42",
"assigned" : "2017-12-01T12:43:21.062-0600"
}
},
{
"event" : "addConfiguration",
"timestamp" : "2017-12-01T12:57:58.455-0600",
"value" : {
"name" : "FTBFConfig_v43",
"assigned" : "2017-12-01T12:57:58.455-0600"
}
},
{
"event" : "addConfiguration",
"timestamp" : "2017-12-01T13:00:51.465-0600",
"value" : {
"name" : "FTBFConfig_v44",
"assigned" : "2017-12-01T13:00:51.465-0600"
}
},
{
"event" : "addConfiguration",
"timestamp" : "2017-12-01T13:25:48.158-0600",
"value" : {
"name" : "FTBFConfig_v45",
"assigned" : "2017-12-01T13:25:48.158-0600"
}
},
{
"event" : "addConfiguration",
"timestamp" : "2017-12-01T13:35:42.930-0600",
"value" : {
"name" : "FTBFConfig_v46",
"assigned" : "2017-12-01T13:35:42.930-0600"
}
},
{
"event" : "addConfiguration",
"timestamp" : "2017-12-01T14:00:51.225-0600",
"value" : {
"name" : "FTBFConfig_v47",
"assigned" : "2017-12-01T14:00:51.225-0600"
}
},
{
"event" : "addConfiguration",
"timestamp" : "2017-12-01T14:03:58.552-0600",
"value" : {
"name" : "FTBFConfig_v48",
"assigned" : "2017-12-01T14:03:58.552-0600"
}
},
{
"event" : "addConfiguration",
"timestamp" : "2017-12-01T15:31:58.703-0600",
"value" : {
"name" : "FTBFConfig_v49",
"assigned" : "2017-12-01T15:31:58.703-0600"
}
},
{
"event" : "addConfiguration",
"timestamp" : "2017-12-01T15:37:30.523-0600",
"value" : {
"name" : "FTBFConfig_v52",
"assigned" : "2017-12-01T15:37:30.523-0600"
}
},
{
"event" : "addConfiguration",
"timestamp" : "2017-12-01T15:40:58.218-0600",
"value" : {
"name" : "FTBFConfig_v53",
"assigned" : "2017-12-01T15:40:58.218-0600"
}
},
{
"event" : "addConfiguration",
"timestamp" : "2017-12-01T15:52:48.532-0600",
"value" : {
"name" : "FTBFConfig_v54",
"assigned" : "2017-12-01T15:52:48.532-0600"
}
},
{
"event" : "addConfiguration",
"timestamp" : "2017-12-01T15:54:33.682-0600",
"value" : {
"name" : "FTBFConfig_v55",
"assigned" : "2017-12-01T15:54:33.682-0600"
}
},
{
"event" : "addConfiguration",
"timestamp" : "2017-12-01T15:55:33.236-0600",
"value" : {
"name" : "FTBFConfig_v56",
"assigned" : "2017-12-01T15:55:33.236-0600"
}
},
{
"event" : "addConfiguration",
"timestamp" : "2017-12-01T15:56:39.068-0600",
"value" : {
"name" : "FTBFConfig_v57",
"assigned" : "2017-12-01T15:56:39.068-0600"
}
},
{
"event" : "addConfiguration",
"timestamp" : "2017-12-01T15:57:37.125-0600",
"value" : {
"name" : "FTBFConfig_v58",
"assigned" : "2017-12-01T15:57:37.125-0600"
}
},
{
"event" : "addConfiguration",
"timestamp" : "2017-12-01T15:58:29.031-0600",
"value" : {
"name" : "FTBFConfig_v59",
"assigned" : "2017-12-01T15:58:29.031-0600"
}
},
{
"event" : "addConfiguration",
"timestamp" : "2017-12-01T15:59:30.231-0600",
"value" : {
"name" : "FTBFConfig_v60",
"assigned" : "2017-12-01T15:59:30.230-0600"
}
},
{
"event" : "addConfiguration",
"timestamp" : "2017-12-01T16:19:39.985-0600",
"value" : {
"name" : "FTBFConfig_v61",
"assigned" : "2017-12-01T16:19:39.985-0600"
}
},
{
"event" : "addConfiguration",
"timestamp" : "2017-12-01T16:22:02.528-0600",
"value" : {
"name" : "FTBFConfig_v62",
"assigned" : "2017-12-01T16:22:02.528-0600"
}
},
{
"event" : "addConfiguration",
"timestamp" : "2017-12-01T16:31:23.158-0600",
"value" : {
"name" : "FTBFConfig_v63",
"assigned" : "2017-12-01T16:31:23.158-0600"
}
},
{
"event" : "addConfiguration",
"timestamp" : "2017-12-01T17:06:30.350-0600",
"value" : {
"name" : "FTBFConfig_v64",
"assigned" : "2017-12-01T17:06:30.350-0600"
}
},
{
"event" : "addConfiguration",
"timestamp" : "2017-12-01T17:32:42.491-0600",
"value" : {
"name" : "FTBFConfig_v65",
"assigned" : "2017-12-01T17:32:42.491-0600"
}
},
{
"event" : "addConfiguration",
"timestamp" : "2017-12-01T20:38:48.880-0600",
"value" : {
"name" : "FTBFConfig_v66",
"assigned" : "2017-12-01T20:38:48.880-0600"
}
},
{
"event" : "addConfiguration",
"timestamp" : "2017-12-01T21:25:00.315-0600",
"value" : {
"name" : "FTBFConfig_v67",
"assigned" : "2017-12-01T21:25:00.315-0600"
}
},
{
"event" : "addConfiguration",
"timestamp" : "2017-12-01T21:42:59.984-0600",
"value" : {
"name" : "FTBFConfig_v68",
"assigned" : "2017-12-01T21:42:59.984-0600"
}
},
{
"event" : "addConfiguration",
"timestamp" : "2017-12-01T21:44:58.609-0600",
"value" : {
"name" : "FTBFConfig_v69",
"assigned" : "2017-12-01T21:44:58.609-0600"
}
},
{
"event" : "addConfiguration",
"timestamp" : "2017-12-01T21:59:17.844-0600",
"value" : {
"name" : "FTBFConfig_v70",
"assigned" : "2017-12-01T21:59:17.844-0600"
}
},
{
"event" : "addConfiguration",
"timestamp" : "2017-12-01T22:00:04.548-0600",
"value" : {
"name" : "FTBFConfigNim_v0",
"assigned" : "2017-12-01T22:00:04.548-0600"
}
},
{
"event" : "addConfiguration",
"timestamp" : "2017-12-01T22:13:06.309-0600",
"value" : {
"name" : "FTBFConfigNim_v1",
"assigned" : "2017-12-01T22:13:06.309-0600"
}
},
{
"event" : "addConfiguration",
"timestamp" : "2017-12-01T22:15:53.539-0600",
"value" : {
"name" : "FTBFConfigNim_v2",
"assigned" : "2017-12-01T22:15:53.538-0600"
}
},
{
"event" : "addConfiguration",
"timestamp" : "2017-12-01T22:17:01.673-0600",
"value" : {
"name" : "FTBFConfigNim_v3",
"assigned" : "2017-12-01T22:17:01.673-0600"
}
},
{
"event" : "addConfiguration",
"timestamp" : "2017-12-01T22:19:04.629-0600",
"value" : {
"name" : "FTBFConfigNim_v4",
"assigned" : "2017-12-01T22:19:04.629-0600"
}
},
{
"event" : "addConfiguration",
"timestamp" : "2017-12-01T22:21:55.369-0600",
"value" : {
"name" : "FTBFConfigNim_v5",
"assigned" : "2017-12-01T22:21:55.369-0600"
}
},
{
"event" : "addConfiguration",
"timestamp" : "2017-12-01T22:23:11.517-0600",
"value" : {
"name" : "FTBFConfigNim_v6",
"assigned" : "2017-12-01T22:23:11.516-0600"
}
},
{
"event" : "addConfiguration",
"timestamp" : "2017-12-01T22:25:15.316-0600",
"value" : {
"name" : "FTBFConfigNim_v7",
"assigned" : "2017-12-01T22:25:15.316-0600"
}
},
{
"event" : "addConfiguration",
"timestamp" : "2017-12-01T22:27:02.962-0600",
"value" : {
"name" : "FTBFConfigNim_v8",
"assigned" : "2017-12-01T22:27:02.962-0600"
}
},
{
"event" : "addConfiguration",
"timestamp" : "2017-12-01T22:29:27.123-0600",
"value" : {
"name" : "FTBFConfigNim_v9",
"assigned" : "2017-12-01T22:29:27.122-0600"
}
},
{
"event" : "addConfiguration",
"timestamp" : "2017-12-01T22:52:32.244-0600",
"value" : {
"name" : "FTBFConfigNim_v10",
"assigned" : "2017-12-01T22:52:32.244-0600"
}
},
{
"event" : "addConfiguration",
"timestamp" : "2017-12-01T22:57:27.058-0600",
"value" : {
"name" : "FTBFConfigNim_v11",
"assigned" : "2017-12-01T22:57:27.058-0600"
}
},
{
"event" : "addConfiguration",
"timestamp" : "2017-12-01T23:00:05.308-0600",
"value" : {
"name" : "FTBFConfigNim_v12",
"assigned" : "2017-12-01T23:00:05.308-0600"
}
},
{
"event" : "addConfiguration",
"timestamp" : "2017-12-01T23:52:33.426-0600",
"value" : {
"name" : "FTBFConfigNim_v13",
"assigned" : "2017-12-01T23:52:33.426-0600"
}
},
{
"event" : "addConfiguration",
"timestamp" : "2017-12-01T23:58:07.843-0600",
"value" : {
"name" : "FTBFConfigNim_v14",
"assigned" : "2017-12-01T23:58:07.843-0600"
}
},
{
"event" : "addConfiguration",
"timestamp" : "2017-12-02T00:00:32.103-0600",
"value" : {
"name" : "FTBFConfigNim_v15",
"assigned" : "2017-12-02T00:00:32.103-0600"
}
},
{
"event" : "addConfiguration",
"timestamp" : "2017-12-02T00:13:07.252-0600",
"value" : {
"name" : "FTBFConfigNim_v16",
"assigned" : "2017-12-02T00:13:07.252-0600"
}
},
{
"event" : "addConfiguration",
"timestamp" : "2017-12-02T00:28:26.210-0600",
"value" : {
"name" : "FTBFConfigNim_v17",
"assigned" : "2017-12-02T00:28:26.210-0600"
}
},
{
"event" : "addConfiguration",
"timestamp" : "2017-12-02T00:29:32.269-0600",
"value" : {
"name" : "FTBFConfigNim_v18",
"assigned" : "2017-12-02T00:29:32.269-0600"
}
},
{
"event" : "addConfiguration",
"timestamp" : "2017-12-02T00:31:09.519-0600",
"value" : {
"name" : "FTBFConfigNim_v19",
"assigned" : "2017-12-02T00:31:09.519-0600"
}
},
{
"event" : "addConfiguration",
"timestamp" : "2017-12-02T00:57:25.252-0600",
"value" : {
"name" : "FTBFConfigNim_v20",
"assigned" : "2017-12-02T00:57:25.252-0600"
}
},
{
"event" : "addConfiguration",
"timestamp" : "2017-12-02T10:57:59.828-0600",
"value" : {
"name" : "FTBFConfigNim_v21",
"assigned" : "2017-12-02T10:57:59.827-0600"
}
},
{
"event" : "addConfiguration",
"timestamp" : "2017-12-02T11:08:15.997-0600",
"value" : {
"name" : "FTBFConfigNim_v22",
"assigned" : "2017-12-02T11:08:15.997-0600"
}
},
{
"event" : "addConfiguration",
"timestamp" : "2017-12-02T11:12:37.566-0600",
"value" : {
"name" : "FTBFConfigNim_v23",
"assigned" : "2017-12-02T11:12:37.566-0600"
}
},
{
"event" : "addConfiguration",
"timestamp" : "2017-12-02T11:18:40.473-0600",
"value" : {
"name" : "FTBFConfigNim_v24",
"assigned" : "2017-12-02T11:18:40.473-0600"
}
},
{
"event" : "addConfiguration",
"timestamp" : "2017-12-02T11:27:03.636-0600",
"value" : {
"name" : "FTBFConfigNim_v25",
"assigned" : "2017-12-02T11:27:03.636-0600"
}
},
{
"event" : "addConfiguration",
"timestamp" : "2017-12-02T11:38:34.689-0600",
"value" : {
"name" : "FTBFConfigNim_v26",
"assigned" : "2017-12-02T11:38:34.689-0600"
}
},
{
"event" : "addConfiguration",
"timestamp" : "2017-12-02T11:49:05.864-0600",
"value" : {
"name" : "FTBFConfigNim_v27",
"assigned" : "2017-12-02T11:49:05.864-0600"
}
},
{
"event" : "addConfiguration",
"timestamp" : "2017-12-02T11:55:07.310-0600",
"value" : {
"name" : "FTBFConfigNim_v28",
"assigned" : "2017-12-02T11:55:07.310-0600"
}
},
{
"event" : "addConfiguration",
"timestamp" : "2017-12-02T12:06:24.147-0600",
"value" : {
"name" : "FTBFConfigNim_v29",
"assigned" : "2017-12-02T12:06:24.147-0600"
}
},
{
"event" : "addConfiguration",
"timestamp" : "2017-12-02T12:24:12.801-0600",
"value" : {
"name" : "FTBFConfig_v71",
"assigned" : "2017-12-02T12:24:12.801-0600"
}
},
{
"event" : "addConfiguration",
"timestamp" : "2017-12-02T12:43:33.650-0600",
"value" : {
"name" : "FTBFConfig_v72",
"assigned" : "2017-12-02T12:43:33.650-0600"
}
},
{
"event" : "addConfiguration",
"timestamp" : "2017-12-02T13:55:33.276-0600",
"value" : {
"name" : "FTBFConfig_v73",
"assigned" : "2017-12-02T13:55:33.276-0600"
}
},
{
"event" : "addConfiguration",
"timestamp" : "2017-12-02T14:09:05.605-0600",
"value" : {
"name" : "FTBFConfig_v74",
"assigned" : "2017-12-02T14:09:05.604-0600"
}
},
{
"event" : "addConfiguration",
"timestamp" : "2017-12-02T14:12:16.402-0600",
"value" : {
"name" : "FTBFConfig_v75",
"assigned" : "2017-12-02T14:12:16.402-0600"
}
},
{
"event" : "addConfiguration",
"timestamp" : "2017-12-02T19:05:51.482-0600",
"value" : {
"name" : "FTBFConfig_v76",
"assigned" : "2017-12-02T19:05:51.482-0600"
}
},
{
"event" : "addConfiguration",
"timestamp" : "2017-12-02T19:12:11.363-0600",
"value" : {
"name" : "FTBFConfig_v77",
"assigned" : "2017-12-02T19:12:11.363-0600"
}
},
{
"event" : "addConfiguration",
"timestamp" : "2017-12-03T14:03:46.495-0600",
"value" : {
"name" : "FTBFConfig_v78",
"assigned" : "2017-12-03T14:03:46.495-0600"
}
},
{
"event" : "addConfiguration",
"timestamp" : "2017-12-03T14:09:04.717-0600",
"value" : {
"name" : "FTBFConfig_v79",
"assigned" : "2017-12-03T14:09:04.717-0600"
}
},
{
"event" : "addConfiguration",
"timestamp" : "2017-12-03T14:11:08.466-0600",
"value" : {
"name" : "FTBFConfig_v80",
"assigned" : "2017-12-03T14:11:08.466-0600"
}
},
{
"event" : "addConfiguration",
"timestamp" : "2017-12-03T14:22:31.514-0600",
"value" : {
"name" : "FTBFConfig_v81",
"assigned" : "2017-12-03T14:22:31.513-0600"
}
},
{
"event" : "addConfiguration",
"timestamp" : "2017-12-03T14:40:36.293-0600",
"value" : {
"name" : "FTBFConfig_v82",
"assigned" : "2017-12-03T14:40:36.293-0600"
}
},
{
"event" : "addConfiguration",
"timestamp" : "2017-12-03T14:45:03.655-0600",
"value" : {
"name" : "FTBFConfig_v83",
"assigned" : "2017-12-03T14:45:03.655-0600"
}
},
{
"event" : "addConfiguration",
"timestamp" : "2017-12-04T14:51:29.009-0600",
"value" : {
"name" : "FTBFConfig_v84",
"assigned" : "2017-12-04T14:51:29.009-0600"
}
},
{
"event" : "addConfiguration",
"timestamp" : "2017-12-04T14:55:42.172-0600",
"value" : {
"name" : "FTBFConfig_v85",
"assigned" : "2017-12-04T14:55:42.172-0600"
}
},
{
"event" : "addConfiguration",
"timestamp" : "2017-12-04T16:51:05.171-0600",
"value" : {
"name" : "FTBFConfig_v86",
"assigned" : "2017-12-04T16:51:05.171-0600"
}
},
{
"event" : "addConfiguration",
"timestamp" : "2017-12-04T16:56:45.798-0600",
"value" : {
"name" : "FTBFConfig_v87",
"assigned" : "2017-12-04T16:56:45.798-0600"
}
},
{
"event" : "addConfiguration",
"timestamp" : "2017-12-04T17:01:10.525-0600",
"value" : {
"name" : "FTBFConfig_v88",
"assigned" : "2017-12-04T17:01:10.525-0600"
}
},
{
"event" : "addConfiguration",
"timestamp" : "2017-12-04T17:03:55.631-0600",
"value" : {
"name" : "FTBFConfig_v89",
"assigned" : "2017-12-04T17:03:55.631-0600"
}
},
{
"event" : "addConfiguration",
"timestamp" : "2017-12-04T17:07:15.256-0600",
"value" : {
"name" : "FTBFConfig_v90",
"assigned" : "2017-12-04T17:07:15.256-0600"
}
},
{
"event" : "addConfiguration",
"timestamp" : "2017-12-04T17:09:24.384-0600",
"value" : {
"name" : "FTBFConfig_v91",
"assigned" : "2017-12-04T17:09:24.384-0600"
}
},
{
"event" : "addConfiguration",
"timestamp" : "2017-12-04T17:11:36.875-0600",
"value" : {
"name" : "FTBFConfig_v92",
"assigned" : "2017-12-04T17:11:36.874-0600"
}
},
{
"event" : "addConfiguration",
"timestamp" : "2017-12-04T21:05:19.471-0600",
"value" : {
"name" : "FTBFConfig_v93",
"assigned" : "2017-12-04T21:05:19.471-0600"
}
},
{
"event" : "addConfiguration",
"timestamp" : "2017-12-04T21:17:10.373-0600",
"value" : {
"name" : "FTBFConfig_v94",
"assigned" : "2017-12-04T21:17:10.373-0600"
}
},
{
"event" : "addConfiguration",
"timestamp" : "2017-12-04T21:41:16.058-0600",
"value" : {
"name" : "FTBFConfig_v95",
"assigned" : "2017-12-04T21:41:16.058-0600"
}
},
{
"event" : "addConfiguration",
"timestamp" : "2017-12-04T22:39:00.684-0600",
"value" : {
"name" : "FTBFConfig_v96",
"assigned" : "2017-12-04T22:39:00.684-0600"
}
},
{
"event" : "addConfiguration",
"timestamp" : "2017-12-04T23:01:11.195-0600",
"value" : {
"name" : "FTBFConfig_v97",
"assigned" : "2017-12-04T23:01:11.195-0600"
}
},
{
"event" : "addConfiguration",
"timestamp" : "2017-12-07T11:07:45.212-0600",
"value" : {
"name" : "FTBFConfig_v98",
"assigned" : "2017-12-07T11:07:45.212-0600"
}
},
{
"event" : "addConfiguration",
"timestamp" : "2017-12-07T11:49:57.885-0600",
"value" : {
"name" : "FTBFConfig_v99",
"assigned" : "2017-12-07T11:49:57.885-0600"
}
},
{
"event" : "addConfiguration",
"timestamp" : "2017-12-07T11:58:24.600-0600",
"value" : {
"name" : "FTBFConfig_v100",
"assigned" : "2017-12-07T11:58:24.600-0600"
}
},
{
"event" : "addConfiguration",
"timestamp" : "2017-12-08T13:30:46.754-0600",
"value" : {
"name" : "FTBFConfig_v101",
"assigned" : "2017-12-08T13:30:46.754-0600"
}
},
{
"event" : "addConfiguration",
"timestamp" : "2017-12-08T13:32:33.616-0600",
"value" : {
"name" : "FTBFConfig_v102",
"assigned" : "2017-12-08T13:32:33.615-0600"
}
},
{
"event" : "addConfiguration",
"timestamp" : "2017-12-12T11:03:03.409-0600",
"value" : {
"name" : "FTBFConfig_v103",
"assigned" : "2017-12-12T11:03:03.408-0600"
}
},
{
"event" : "addConfiguration",
"timestamp" : "2017-12-12T13:50:57.790-0600",
"value" : {
"name" : "FTBFConfig_v104",
"assigned" : "2017-12-12T13:50:57.790-0600"
}
},
{
"event" : "addConfiguration",
"timestamp" : "2017-12-12T15:25:03.837-0600",
"value" : {
"name" : "FTBFConfig_v105",
"assigned" : "2017-12-12T15:25:03.837-0600"
}
},
{
"event" : "addConfiguration",
"timestamp" : "2017-12-13T10:24:22.187-0600",
"value" : {
"name" : "FTBFConfig_v106",
"assigned" : "2017-12-13T10:24:22.187-0600"
}
},
{
"event" : "addConfiguration",
"timestamp" : "2017-12-13T10:27:00.947-0600",
"value" : {
"name" : "FTBFConfig_v107",
"assigned" : "2017-12-13T10:27:00.947-0600"
}
},
{
"event" : "addConfiguration",
"timestamp" : "2018-02-01T21:14:24.422-0600",
"value" : {
"name" : "FTBFConfig_v108",
"assigned" : "2018-02-01T21:14:24.422-0600"
}
},
{
"event" : "addConfiguration",
"timestamp" : "2018-02-01T21:21:01.528-0600",
"value" : {
"name" : "FTBFConfig_v109",
"assigned" : "2018-02-01T21:21:01.528-0600"
}
},
{
"event" : "addConfiguration",
"timestamp" : "2018-02-02T11:25:32.495-0600",
"value" : {
"name" : "FTBFConfig_v110",
"assigned" : "2018-02-02T11:25:32.495-0600"
}
},
{
"event" : "addConfiguration",
"timestamp" : "2018-02-02T11:37:11.315-0600",
"value" : {
"name" : "FTBFConfig_v111",
"assigned" : "2018-02-02T11:37:11.315-0600"
}
},
{
"event" : "addConfiguration",
"timestamp" : "2018-02-02T11:47:13.791-0600",
"value" : {
"name" : "FTBFConfig_v112",
"assigned" : "2018-02-02T11:47:13.791-0600"
}
},
{
"event" : "addConfiguration",
"timestamp" : "2018-02-02T11:53:35.043-0600",
"value" : {
"name" : "FTBFConfig_v113",
"assigned" : "2018-02-02T11:53:35.042-0600"
}
},
{
"event" : "addConfiguration",
"timestamp" : "2018-02-02T12:00:51.150-0600",
"value" : {
"name" : "FTBFConfig_v114",
"assigned" : "2018-02-02T12:00:51.149-0600"
}
},
{
"event" : "addConfiguration",
"timestamp" : "2018-02-02T12:27:12.625-0600",
"value" : {
"name" : "FTBFConfig_v115",
"assigned" : "2018-02-02T12:27:12.625-0600"
}
},
{
"event" : "addConfiguration",
"timestamp" : "2018-02-02T14:28:52.147-0600",
"value" : {
"name" : "FTBFConfig_v116",
"assigned" : "2018-02-02T14:28:52.147-0600"
}
},
{
"event" : "addConfiguration",
"timestamp" : "2018-02-02T14:30:18.474-0600",
"value" : {
"name" : "FTBFConfig_v117",
"assigned" : "2018-02-02T14:30:18.473-0600"
}
},
{
"event" : "addConfiguration",
"timestamp" : "2018-02-02T14:33:59.680-0600",
"value" : {
"name" : "FTBFConfig_v118",
"assigned" : "2018-02-02T14:33:59.680-0600"
}
},
{
"event" : "addConfiguration",
"timestamp" : "2018-02-02T14:36:26.304-0600",
"value" : {
"name" : "FTBFConfig_v119",
"assigned" : "2018-02-02T14:36:26.304-0600"
}
},
{
"event" : "addConfiguration",
"timestamp" : "2018-02-02T14:38:39.659-0600",
"value" : {
"name" : "FTBFConfig_v120",
"assigned" : "2018-02-02T14:38:39.659-0600"
}
},
{
"event" : "addConfiguration",
"timestamp" : "2018-02-02T14:41:48.978-0600",
"value" : {
"name" : "FTBFConfig_v121",
"assigned" : "2018-02-02T14:41:48.978-0600"
}
},
{
"event" : "addConfiguration",
"timestamp" : "2018-02-02T14:50:23.059-0600",
"value" : {
"name" : "FTBFConfig_v122",
"assigned" : "2018-02-02T14:50:23.059-0600"
}
},
{
"event" : "addConfiguration",
"timestamp" : "2018-02-02T14:52:55.863-0600",
"value" : {
"name" : "FTBFConfig_v123",
"assigned" : "2018-02-02T14:52:55.862-0600"
}
},
{
"event" : "addConfiguration",
"timestamp" : "2018-02-02T14:59:49.214-0600",
"value" : {
"name" : "FTBFConfig_v124",
"assigned" : "2018-02-02T14:59:49.214-0600"
}
},
{
"event" : "addConfiguration",
"timestamp" : "2018-02-02T15:04:07.316-0600",
"value" : {
"name" : "FTBFConfig_v125",
"assigned" : "2018-02-02T15:04:07.315-0600"
}
},
{
"event" : "addConfiguration",
"timestamp" : "2018-02-02T15:50:10.502-0600",
"value" : {
"name" : "FTBFConfig_v126",
"assigned" : "2018-02-02T15:50:10.502-0600"
}
},
{
"event" : "addConfiguration",
"timestamp" : "2018-02-02T15:51:30.007-0600",
"value" : {
"name" : "FTBFConfig_v127",
"assigned" : "2018-02-02T15:51:30.007-0600"
}
},
{
"event" : "addConfiguration",
"timestamp" : "2018-02-02T15:52:35.157-0600",
"value" : {
"name" : "FTBFConfig_v128",
"assigned" : "2018-02-02T15:52:35.157-0600"
}
},
{
"event" : "addConfiguration",
"timestamp" : "2018-02-02T16:02:44.058-0600",
"value" : {
"name" : "FTBFConfig_v129",
"assigned" : "2018-02-02T16:02:44.058-0600"
}
},
{
"event" : "addConfiguration",
"timestamp" : "2018-02-02T16:08:43.590-0600",
"value" : {
"name" : "FTBFConfig_v130",
"assigned" : "2018-02-02T16:08:43.590-0600"
}
},
{
"event" : "addConfiguration",
"timestamp" : "2018-02-02T16:11:29.406-0600",
"value" : {
"name" : "FTBFConfig_v131",
"assigned" : "2018-02-02T16:11:29.405-0600"
}
},
{
"event" : "addConfiguration",
"timestamp" : "2018-02-02T16:12:57.283-0600",
"value" : {
"name" : "FTBFConfig_v132",
"assigned" : "2018-02-02T16:12:57.283-0600"
}
},
{
"event" : "addConfiguration",
"timestamp" : "2018-02-02T16:14:27.879-0600",
"value" : {
"name" : "FTBFConfig_v133",
"assigned" : "2018-02-02T16:14:27.878-0600"
}
},
{
"event" : "addConfiguration",
"timestamp" : "2018-02-02T16:26:20.753-0600",
"value" : {
"name" : "FTBFConfig_v134",
"assigned" : "2018-02-02T16:26:20.753-0600"
}
},
{
"event" : "addConfiguration",
"timestamp" : "2018-02-02T16:27:07.877-0600",
"value" : {
"name" : "FTBFConfig_v135",
"assigned" : "2018-02-02T16:27:07.877-0600"
}
},
{
"event" : "addConfiguration",
"timestamp" : "2018-02-02T16:29:29.234-0600",
"value" : {
"name" : "FTBFConfig_v136",
"assigned" : "2018-02-02T16:29:29.234-0600"
}
},
{
"event" : "addConfiguration",
"timestamp" : "2018-02-02T16:31:39.827-0600",
"value" : {
"name" : "FTBFConfig_v137",
"assigned" : "2018-02-02T16:31:39.827-0600"
}
},
{
"event" : "addConfiguration",
"timestamp" : "2018-02-02T16:34:12.480-0600",
"value" : {
"name" : "FTBFConfig_v138",
"assigned" : "2018-02-02T16:34:12.480-0600"
}
},
{
"event" : "addConfiguration",
"timestamp" : "2018-02-02T17:39:28.534-0600",
"value" : {
"name" : "FTBFConfig_v139",
"assigned" : "2018-02-02T17:39:28.534-0600"
}
},
{
"event" : "addConfiguration",
"timestamp" : "2018-02-02T17:42:50.709-0600",
"value" : {
"name" : "FTBFConfig_v140",
"assigned" : "2018-02-02T17:42:50.709-0600"
}
},
{
"event" : "addConfiguration",
"timestamp" : "2018-02-02T17:47:35.878-0600",
"value" : {
"name" : "FTBFConfig_v141",
"assigned" : "2018-02-02T17:47:35.878-0600"
}
},
{
"event" : "addConfiguration",
"timestamp" : "2018-02-02T17:53:59.914-0600",
"value" : {
"name" : "FTBFConfig_v142",
"assigned" : "2018-02-02T17:53:59.913-0600"
}
}
],
"created" : "2017-11-08T15:56:03.224-0600"
},
"_id" : {
"$oid" : "704a5b7291144d498000797f"
},
"collection" : "ARTDAQPhysicsParameterConfiguration",
"aliases" : {
"active" : [

],
"history" : [

]
},
"runs" : [

],
"attachments" : [

],
"configtype" : "notprovided"
}