{
"ouid" : [
"704a5b7291144d498000797f"
],
"version" : {
"0" : [
"704a5b7291144d498000797f"
]
},
"configurations.name" : {
"notprovided" : [
"704a5b7291144d498000797f"
],
"FTBFConfig_v0" : [
"704a5b7291144d498000797f"
],
"FTBFConfig_v1" : [
"704a5b7291144d498000797f"
],
"FTBFConfig_v2" : [
"704a5b7291144d498000797f"
],
"FTBFConfig_v3" : [
"704a5b7291144d498000797f"
],
"FTBFConfig_v4" : [
"704a5b7291144d498000797f"
],
"FTBFConfig_v5" : [
"704a5b7291144d498000797f"
],
"FTBFConfig_v6" : [
"704a5b7291144d498000797f"
],
"FTBFConfig_v7" : [
"704a5b7291144d498000797f"
],
"FTBFConfig_v8" : [
"704a5b7291144d498000797f"
],
"FTBFConfig_v9" : [
"704a5b7291144d498000797f"
],
"FTBFConfig_v10" : [
"704a5b7291144d498000797f"
],
"FTBFConfig_v11" : [
"704a5b7291144d498000797f"
],
"FTBFConfig_v12" : [
"704a5b7291144d498000797f"
],
"FTBFConfig_v13" : [
"704a5b7291144d498000797f"
],
"FTBFConfig_v14" : [
"704a5b7291144d498000797f"
],
"FTBFConfig_v15" : [
"704a5b7291144d498000797f"
],
"FTBFConfig_v16" : [
"704a5b7291144d498000797f"
],
"FTBFConfig_v17" : [
"704a5b7291144d498000797f"
],
"FTBFConfig_v18" : [
"704a5b7291144d498000797f"
],
"FTBFConfig_v19" : [
"704a5b7291144d498000797f"
],
"FTBFConfig_v20" : [
"704a5b7291144d498000797f"
],
"FTBFConfig_v21" : [
"704a5b7291144d498000797f"
],
"FTBFConfig_v22" : [
"704a5b7291144d498000797f"
],
"FTBFConfig_v23" : [
"704a5b7291144d498000797f"
],
"FTBFConfig_v24" : [
"704a5b7291144d498000797f"
],
"FTBFConfig_v25" : [
"704a5b7291144d498000797f"
],
"FTBFConfig_v26" : [
"704a5b7291144d498000797f"
],
"FTBFConfig_v27" : [
"704a5b7291144d498000797f"
],
"FTBFConfig_v28" : [
"704a5b7291144d498000797f"
],
"FTBFConfig_v29" : [
"704a5b7291144d498000797f"
],
"FTBFConfig_v30" : [
"704a5b7291144d498000797f"
],
"FTBFConfig_v31" : [
"704a5b7291144d498000797f"
],
"FTBFConfig_v32" : [
"704a5b7291144d498000797f"
],
"FTBFConfig_v33" : [
"704a5b7291144d498000797f"
],
"FTBFConfig_v34" : [
"704a5b7291144d498000797f"
],
"FTBFConfig_v35" : [
"704a5b7291144d498000797f"
],
"FTBFConfig_v36" : [
"704a5b7291144d498000797f"
],
"FTBFConfig_v37" : [
"704a5b7291144d498000797f"
],
"FTBFConfig_v38" : [
"704a5b7291144d498000797f"
],
"FTBFConfig_v39" : [
"704a5b7291144d498000797f"
],
"FTBFConfig_v40" : [
"704a5b7291144d498000797f"
],
"FTBFConfig_v41" : [
"704a5b7291144d498000797f"
],
"FTBFConfig_v42" : [
"704a5b7291144d498000797f"
],
"FTBFConfig_v43" : [
"704a5b7291144d498000797f"
],
"FTBFConfig_v44" : [
"704a5b7291144d498000797f"
],
"FTBFConfig_v45" : [
"704a5b7291144d498000797f"
],
"FTBFConfig_v46" : [
"704a5b7291144d498000797f"
],
"FTBFConfig_v47" : [
"704a5b7291144d498000797f"
],
"FTBFConfig_v48" : [
"704a5b7291144d498000797f"
],
"FTBFConfig_v49" : [
"704a5b7291144d498000797f"
],
"FTBFConfig_v52" : [
"704a5b7291144d498000797f"
],
"FTBFConfig_v53" : [
"704a5b7291144d498000797f"
],
"FTBFConfig_v54" : [
"704a5b7291144d498000797f"
],
"FTBFConfig_v55" : [
"704a5b7291144d498000797f"
],
"FTBFConfig_v56" : [
"704a5b7291144d498000797f"
],
"FTBFConfig_v57" : [
"704a5b7291144d498000797f"
],
"FTBFConfig_v58" : [
"704a5b7291144d498000797f"
],
"FTBFConfig_v59" : [
"704a5b7291144d498000797f"
],
"FTBFConfig_v60" : [
"704a5b7291144d498000797f"
],
"FTBFConfig_v61" : [
"704a5b7291144d498000797f"
],
"FTBFConfig_v62" : [
"704a5b7291144d498000797f"
],
"FTBFConfig_v63" : [
"704a5b7291144d498000797f"
],
"FTBFConfig_v64" : [
"704a5b7291144d498000797f"
],
"FTBFConfig_v65" : [
"704a5b7291144d498000797f"
],
"FTBFConfig_v66" : [
"704a5b7291144d498000797f"
],
"FTBFConfig_v67" : [
"704a5b7291144d498000797f"
],
"FTBFConfig_v68" : [
"704a5b7291144d498000797f"
],
"FTBFConfig_v69" : [
"704a5b7291144d498000797f"
],
"FTBFConfig_v70" : [
"704a5b7291144d498000797f"
],
"FTBFConfigNim_v0" : [
"704a5b7291144d498000797f"
],
"FTBFConfigNim_v1" : [
"704a5b7291144d498000797f"
],
"FTBFConfigNim_v2" : [
"704a5b7291144d498000797f"
],
"FTBFConfigNim_v3" : [
"704a5b7291144d498000797f"
],
"FTBFConfigNim_v4" : [
"704a5b7291144d498000797f"
],
"FTBFConfigNim_v5" : [
"704a5b7291144d498000797f"
],
"FTBFConfigNim_v6" : [
"704a5b7291144d498000797f"
],
"FTBFConfigNim_v7" : [
"704a5b7291144d498000797f"
],
"FTBFConfigNim_v8" : [
"704a5b7291144d498000797f"
],
"FTBFConfigNim_v9" : [
"704a5b7291144d498000797f"
],
"FTBFConfigNim_v10" : [
"704a5b7291144d498000797f"
],
"FTBFConfigNim_v11" : [
"704a5b7291144d498000797f"
],
"FTBFConfigNim_v12" : [
"704a5b7291144d498000797f"
],
"FTBFConfigNim_v13" : [
"704a5b7291144d498000797f"
],
"FTBFConfigNim_v14" : [
"704a5b7291144d498000797f"
],
"FTBFConfigNim_v15" : [
"704a5b7291144d498000797f"
],
"FTBFConfigNim_v16" : [
"704a5b7291144d498000797f"
],
"FTBFConfigNim_v17" : [
"704a5b7291144d498000797f"
],
"FTBFConfigNim_v18" : [
"704a5b7291144d498000797f"
],
"FTBFConfigNim_v19" : [
"704a5b7291144d498000797f"
],
"FTBFConfigNim_v20" : [
"704a5b7291144d498000797f"
],
"FTBFConfigNim_v21" : [
"704a5b7291144d498000797f"
],
"FTBFConfigNim_v22" : [
"704a5b7291144d498000797f"
],
"FTBFConfigNim_v23" : [
"704a5b7291144d498000797f"
],
"FTBFConfigNim_v24" : [
"704a5b7291144d498000797f"
],
"FTBFConfigNim_v25" : [
"704a5b7291144d498000797f"
],
"FTBFConfigNim_v26" : [
"704a5b7291144d498000797f"
],
"FTBFConfigNim_v27" : [
"704a5b7291144d498000797f"
],
"FTBFConfigNim_v28" : [
"704a5b7291144d498000797f"
],
"FTBFConfigNim_v29" : [
"704a5b7291144d498000797f"
],
"FTBFConfig_v71" : [
"704a5b7291144d498000797f"
],
"FTBFConfig_v72" : [
"704a5b7291144d498000797f"
],
"FTBFConfig_v73" : [
"704a5b7291144d498000797f"
],
"FTBFConfig_v74" : [
"704a5b7291144d498000797f"
],
"FTBFConfig_v75" : [
"704a5b7291144d498000797f"
],
"FTBFConfig_v76" : [
"704a5b7291144d498000797f"
],
"FTBFConfig_v77" : [
"704a5b7291144d498000797f"
],
"FTBFConfig_v78" : [
"704a5b7291144d498000797f"
],
"FTBFConfig_v79" : [
"704a5b7291144d498000797f"
],
"FTBFConfig_v80" : [
"704a5b7291144d498000797f"
],
"FTBFConfig_v81" : [
"704a5b7291144d498000797f"
],
"FTBFConfig_v82" : [
"704a5b7291144d498000797f"
],
"FTBFConfig_v83" : [
"704a5b7291144d498000797f"
],
"FTBFConfig_v84" : [
"704a5b7291144d498000797f"
],
"FTBFConfig_v85" : [
"704a5b7291144d498000797f"
],
"FTBFConfig_v86" : [
"704a5b7291144d498000797f"
],
"FTBFConfig_v87" : [
"704a5b7291144d498000797f"
],
"FTBFConfig_v88" : [
"704a5b7291144d498000797f"
],
"FTBFConfig_v89" : [
"704a5b7291144d498000797f"
],
"FTBFConfig_v90" : [
"704a5b7291144d498000797f"
],
"FTBFConfig_v91" : [
"704a5b7291144d498000797f"
],
"FTBFConfig_v92" : [
"704a5b7291144d498000797f"
],
"FTBFConfig_v93" : [
"704a5b7291144d498000797f"
],
"FTBFConfig_v94" : [
"704a5b7291144d498000797f"
],
"FTBFConfig_v95" : [
"704a5b7291144d498000797f"
],
"FTBFConfig_v96" : [
"704a5b7291144d498000797f"
],
"FTBFConfig_v97" : [
"704a5b7291144d498000797f"
],
"FTBFConfig_v98" : [
"704a5b7291144d498000797f"
],
"FTBFConfig_v99" : [
"704a5b7291144d498000797f"
],
"FTBFConfig_v100" : [
"704a5b7291144d498000797f"
],
"FTBFConfig_v101" : [
"704a5b7291144d498000797f"
],
"FTBFConfig_v102" : [
"704a5b7291144d498000797f"
],
"FTBFConfig_v103" : [
"704a5b7291144d498000797f"
],
"FTBFConfig_v104" : [
"704a5b7291144d498000797f"
],
"FTBFConfig_v105" : [
"704a5b7291144d498000797f"
],
"FTBFConfig_v106" : [
"704a5b7291144d498000797f"
],
"FTBFConfig_v107" : [
"704a5b7291144d498000797f"
],
"FTBFConfig_v108" : [
"704a5b7291144d498000797f"
],
"FTBFConfig_v109" : [
"704a5b7291144d498000797f"
],
"FTBFConfig_v110" : [
"704a5b7291144d498000797f"
],
"FTBFConfig_v111" : [
"704a5b7291144d498000797f"
],
"FTBFConfig_v112" : [
"704a5b7291144d498000797f"
],
"FTBFConfig_v113" : [
"704a5b7291144d498000797f"
],
"FTBFConfig_v114" : [
"704a5b7291144d498000797f"
],
"FTBFConfig_v115" : [
"704a5b7291144d498000797f"
],
"FTBFConfig_v116" : [
"704a5b7291144d498000797f"
],
"FTBFConfig_v117" : [
"704a5b7291144d498000797f"
],
"FTBFConfig_v118" : [
"704a5b7291144d498000797f"
],
"FTBFConfig_v119" : [
"704a5b7291144d498000797f"
],
"FTBFConfig_v120" : [
"704a5b7291144d498000797f"
],
"FTBFConfig_v121" : [
"704a5b7291144d498000797f"
],
"FTBFConfig_v122" : [
"704a5b7291144d498000797f"
],
"FTBFConfig_v123" : [
"704a5b7291144d498000797f"
],
"FTBFConfig_v124" : [
"704a5b7291144d498000797f"
],
"FTBFConfig_v125" : [
"704a5b7291144d498000797f"
],
"FTBFConfig_v126" : [
"704a5b7291144d498000797f"
],
"FTBFConfig_v127" : [
"704a5b7291144d498000797f"
],
"FTBFConfig_v128" : [
"704a5b7291144d498000797f"
],
"FTBFConfig_v129" : [
"704a5b7291144d498000797f"
],
"FTBFConfig_v130" : [
"704a5b7291144d498000797f"
],
"FTBFConfig_v131" : [
"704a5b7291144d498000797f"
],
"FTBFConfig_v132" : [
"704a5b7291144d498000797f"
],
"FTBFConfig_v133" : [
"704a5b7291144d498000797f"
],
"FTBFConfig_v134" : [
"704a5b7291144d498000797f"
],
"FTBFConfig_v135" : [
"704a5b7291144d498000797f"
],
"FTBFConfig_v136" : [
"704a5b7291144d498000797f"
],
"FTBFConfig_v137" : [
"704a5b7291144d498000797f"
],
"FTBFConfig_v138" : [
"704a5b7291144d498000797f"
],
"FTBFConfig_v139" : [
"704a5b7291144d498000797f"
],
"FTBFConfig_v140" : [
"704a5b7291144d498000797f"
],
"FTBFConfig_v141" : [
"704a5b7291144d498000797f"
],
"FTBFConfig_v142" : [
"704a5b7291144d498000797f"
]
},
"entities.name" : {
"OTSROOT" : [
"704a5b7291144d498000797f"
]
},
"aliases.active.name" : {

},
"runs.name" : {

},
"configurations.assigned" : {
"notprovided" : [
"2017-11-08T15:56:03.225-0600"
],
"FTBFConfig_v0" : [
"2017-11-08T15:56:05.954-0600"
],
"FTBFConfig_v1" : [
"2017-11-09T09:56:30.626-0600"
],
"FTBFConfig_v2" : [
"2017-11-09T10:05:59.597-0600"
],
"FTBFConfig_v3" : [
"2017-11-09T10:37:11.149-0600"
],
"FTBFConfig_v4" : [
"2017-11-15T11:30:09.942-0600"
],
"FTBFConfig_v5" : [
"2017-11-15T11:54:56.742-0600"
],
"FTBFConfig_v6" : [
"2017-11-15T11:57:49.365-0600"
],
"FTBFConfig_v7" : [
"2017-11-15T12:42:31.775-0600"
],
"FTBFConfig_v8" : [
"2017-11-15T13:01:02.827-0600"
],
"FTBFConfig_v9" : [
"2017-11-15T13:02:56.176-0600"
],
"FTBFConfig_v10" : [
"2017-11-15T13:04:23.759-0600"
],
"FTBFConfig_v11" : [
"2017-11-15T13:07:51.250-0600"
],
"FTBFConfig_v12" : [
"2017-11-15T13:11:58.708-0600"
],
"FTBFConfig_v13" : [
"2017-11-15T13:13:52.656-0600"
],
"FTBFConfig_v14" : [
"2017-11-15T13:27:28.284-0600"
],
"FTBFConfig_v15" : [
"2017-11-15T13:35:46.646-0600"
],
"FTBFConfig_v16" : [
"2017-11-15T13:36:51.258-0600"
],
"FTBFConfig_v17" : [
"2017-11-15T15:33:29.796-0600"
],
"FTBFConfig_v18" : [
"2017-11-15T15:35:33.421-0600"
],
"FTBFConfig_v19" : [
"2017-11-15T15:38:02.272-0600"
],
"FTBFConfig_v20" : [
"2017-11-15T16:26:30.067-0600"
],
"FTBFConfig_v21" : [
"2017-11-16T09:22:31.073-0600"
],
"FTBFConfig_v22" : [
"2017-11-17T10:23:27.287-0600"
],
"FTBFConfig_v23" : [
"2017-11-17T17:26:44.825-0600"
],
"FTBFConfig_v24" : [
"2017-11-17T17:58:25.320-0600"
],
"FTBFConfig_v25" : [
"2017-11-17T18:24:44.986-0600"
],
"FTBFConfig_v26" : [
"2017-11-17T18:32:22.336-0600"
],
"FTBFConfig_v27" : [
"2017-11-17T18:43:29.467-0600"
],
"FTBFConfig_v28" : [
"2017-11-17T18:48:31.512-0600"
],
"FTBFConfig_v29" : [
"2017-11-20T14:48:30.358-0600"
],
"FTBFConfig_v30" : [
"2017-11-20T15:39:55.494-0600"
],
"FTBFConfig_v31" : [
"2017-11-20T16:41:01.495-0600"
],
"FTBFConfig_v32" : [
"2017-11-20T18:55:34.416-0600"
],
"FTBFConfig_v33" : [
"2017-11-20T18:57:29.667-0600"
],
"FTBFConfig_v34" : [
"2017-11-29T17:50:39.178-0600"
],
"FTBFConfig_v35" : [
"2017-11-29T18:00:32.001-0600"
],
"FTBFConfig_v36" : [
"2017-11-29T18:35:10.855-0600"
],
"FTBFConfig_v37" : [
"2017-12-01T09:36:17.107-0600"
],
"FTBFConfig_v38" : [
"2017-12-01T09:52:00.519-0600"
],
"FTBFConfig_v39" : [
"2017-12-01T11:51:57.771-0600"
],
"FTBFConfig_v40" : [
"2017-12-01T12:18:19.727-0600"
],
"FTBFConfig_v41" : [
"2017-12-01T12:21:01.865-0600"
],
"FTBFConfig_v42" : [
"2017-12-01T12:43:21.062-0600"
],
"FTBFConfig_v43" : [
"2017-12-01T12:57:58.455-0600"
],
"FTBFConfig_v44" : [
"2017-12-01T13:00:51.465-0600"
],
"FTBFConfig_v45" : [
"2017-12-01T13:25:48.158-0600"
],
"FTBFConfig_v46" : [
"2017-12-01T13:35:42.930-0600"
],
"FTBFConfig_v47" : [
"2017-12-01T14:00:51.225-0600"
],
"FTBFConfig_v48" : [
"2017-12-01T14:03:58.552-0600"
],
"FTBFConfig_v49" : [
"2017-12-01T15:31:58.703-0600"
],
"FTBFConfig_v52" : [
"2017-12-01T15:37:30.523-0600"
],
"FTBFConfig_v53" : [
"2017-12-01T15:40:58.218-0600"
],
"FTBFConfig_v54" : [
"2017-12-01T15:52:48.532-0600"
],
"FTBFConfig_v55" : [
"2017-12-01T15:54:33.682-0600"
],
"FTBFConfig_v56" : [
"2017-12-01T15:55:33.236-0600"
],
"FTBFConfig_v57" : [
"2017-12-01T15:56:39.068-0600"
],
"FTBFConfig_v58" : [
"2017-12-01T15:57:37.125-0600"
],
"FTBFConfig_v59" : [
"2017-12-01T15:58:29.031-0600"
],
"FTBFConfig_v60" : [
"2017-12-01T15:59:30.230-0600"
],
"FTBFConfig_v61" : [
"2017-12-01T16:19:39.985-0600"
],
"FTBFConfig_v62" : [
"2017-12-01T16:22:02.528-0600"
],
"FTBFConfig_v63" : [
"2017-12-01T16:31:23.158-0600"
],
"FTBFConfig_v64" : [
"2017-12-01T17:06:30.350-0600"
],
"FTBFConfig_v65" : [
"2017-12-01T17:32:42.491-0600"
],
"FTBFConfig_v66" : [
"2017-12-01T20:38:48.880-0600"
],
"FTBFConfig_v67" : [
"2017-12-01T21:25:00.315-0600"
],
"FTBFConfig_v68" : [
"2017-12-01T21:42:59.984-0600"
],
"FTBFConfig_v69" : [
"2017-12-01T21:44:58.609-0600"
],
"FTBFConfig_v70" : [
"2017-12-01T21:59:17.844-0600"
],
"FTBFConfigNim_v0" : [
"2017-12-01T22:00:04.548-0600"
],
"FTBFConfigNim_v1" : [
"2017-12-01T22:13:06.309-0600"
],
"FTBFConfigNim_v2" : [
"2017-12-01T22:15:53.538-0600"
],
"FTBFConfigNim_v3" : [
"2017-12-01T22:17:01.673-0600"
],
"FTBFConfigNim_v4" : [
"2017-12-01T22:19:04.629-0600"
],
"FTBFConfigNim_v5" : [
"2017-12-01T22:21:55.369-0600"
],
"FTBFConfigNim_v6" : [
"2017-12-01T22:23:11.516-0600"
],
"FTBFConfigNim_v7" : [
"2017-12-01T22:25:15.316-0600"
],
"FTBFConfigNim_v8" : [
"2017-12-01T22:27:02.962-0600"
],
"FTBFConfigNim_v9" : [
"2017-12-01T22:29:27.122-0600"
],
"FTBFConfigNim_v10" : [
"2017-12-01T22:52:32.244-0600"
],
"FTBFConfigNim_v11" : [
"2017-12-01T22:57:27.058-0600"
],
"FTBFConfigNim_v12" : [
"2017-12-01T23:00:05.308-0600"
],
"FTBFConfigNim_v13" : [
"2017-12-01T23:52:33.426-0600"
],
"FTBFConfigNim_v14" : [
"2017-12-01T23:58:07.843-0600"
],
"FTBFConfigNim_v15" : [
"2017-12-02T00:00:32.103-0600"
],
"FTBFConfigNim_v16" : [
"2017-12-02T00:13:07.252-0600"
],
"FTBFConfigNim_v17" : [
"2017-12-02T00:28:26.210-0600"
],
"FTBFConfigNim_v18" : [
"2017-12-02T00:29:32.269-0600"
],
"FTBFConfigNim_v19" : [
"2017-12-02T00:31:09.519-0600"
],
"FTBFConfigNim_v20" : [
"2017-12-02T00:57:25.252-0600"
],
"FTBFConfigNim_v21" : [
"2017-12-02T10:57:59.827-0600"
],
"FTBFConfigNim_v22" : [
"2017-12-02T11:08:15.997-0600"
],
"FTBFConfigNim_v23" : [
"2017-12-02T11:12:37.566-0600"
],
"FTBFConfigNim_v24" : [
"2017-12-02T11:18:40.473-0600"
],
"FTBFConfigNim_v25" : [
"2017-12-02T11:27:03.636-0600"
],
"FTBFConfigNim_v26" : [
"2017-12-02T11:38:34.689-0600"
],
"FTBFConfigNim_v27" : [
"2017-12-02T11:49:05.864-0600"
],
"FTBFConfigNim_v28" : [
"2017-12-02T11:55:07.310-0600"
],
"FTBFConfigNim_v29" : [
"2017-12-02T12:06:24.147-0600"
],
"FTBFConfig_v71" : [
"2017-12-02T12:24:12.801-0600"
],
"FTBFConfig_v72" : [
"2017-12-02T12:43:33.650-0600"
],
"FTBFConfig_v73" : [
"2017-12-02T13:55:33.276-0600"
],
"FTBFConfig_v74" : [
"2017-12-02T14:09:05.604-0600"
],
"FTBFConfig_v75" : [
"2017-12-02T14:12:16.402-0600"
],
"FTBFConfig_v76" : [
"2017-12-02T19:05:51.482-0600"
],
"FTBFConfig_v77" : [
"2017-12-02T19:12:11.363-0600"
],
"FTBFConfig_v78" : [
"2017-12-03T14:03:46.495-0600"
],
"FTBFConfig_v79" : [
"2017-12-03T14:09:04.717-0600"
],
"FTBFConfig_v80" : [
"2017-12-03T14:11:08.466-0600"
],
"FTBFConfig_v81" : [
"2017-12-03T14:22:31.513-0600"
],
"FTBFConfig_v82" : [
"2017-12-03T14:40:36.293-0600"
],
"FTBFConfig_v83" : [
"2017-12-03T14:45:03.655-0600"
],
"FTBFConfig_v84" : [
"2017-12-04T14:51:29.009-0600"
],
"FTBFConfig_v85" : [
"2017-12-04T14:55:42.172-0600"
],
"FTBFConfig_v86" : [
"2017-12-04T16:51:05.171-0600"
],
"FTBFConfig_v87" : [
"2017-12-04T16:56:45.798-0600"
],
"FTBFConfig_v88" : [
"2017-12-04T17:01:10.525-0600"
],
"FTBFConfig_v89" : [
"2017-12-04T17:03:55.631-0600"
],
"FTBFConfig_v90" : [
"2017-12-04T17:07:15.256-0600"
],
"FTBFConfig_v91" : [
"2017-12-04T17:09:24.384-0600"
],
"FTBFConfig_v92" : [
"2017-12-04T17:11:36.874-0600"
],
"FTBFConfig_v93" : [
"2017-12-04T21:05:19.471-0600"
],
"FTBFConfig_v94" : [
"2017-12-04T21:17:10.373-0600"
],
"FTBFConfig_v95" : [
"2017-12-04T21:41:16.058-0600"
],
"FTBFConfig_v96" : [
"2017-12-04T22:39:00.684-0600"
],
"FTBFConfig_v97" : [
"2017-12-04T23:01:11.195-0600"
],
"FTBFConfig_v98" : [
"2017-12-07T11:07:45.212-0600"
],
"FTBFConfig_v99" : [
"2017-12-07T11:49:57.885-0600"
],
"FTBFConfig_v100" : [
"2017-12-07T11:58:24.600-0600"
],
"FTBFConfig_v101" : [
"2017-12-08T13:30:46.754-0600"
],
"FTBFConfig_v102" : [
"2017-12-08T13:32:33.615-0600"
],
"FTBFConfig_v103" : [
"2017-12-12T11:03:03.408-0600"
],
"FTBFConfig_v104" : [
"2017-12-12T13:50:57.790-0600"
],
"FTBFConfig_v105" : [
"2017-12-12T15:25:03.837-0600"
],
"FTBFConfig_v106" : [
"2017-12-13T10:24:22.187-0600"
],
"FTBFConfig_v107" : [
"2017-12-13T10:27:00.947-0600"
],
"FTBFConfig_v108" : [
"2018-02-01T21:14:24.422-0600"
],
"FTBFConfig_v109" : [
"2018-02-01T21:21:01.528-0600"
],
"FTBFConfig_v110" : [
"2018-02-02T11:25:32.495-0600"
],
"FTBFConfig_v111" : [
"2018-02-02T11:37:11.315-0600"
],
"FTBFConfig_v112" : [
"2018-02-02T11:47:13.791-0600"
],
"FTBFConfig_v113" : [
"2018-02-02T11:53:35.042-0600"
],
"FTBFConfig_v114" : [
"2018-02-02T12:00:51.149-0600"
],
"FTBFConfig_v115" : [
"2018-02-02T12:27:12.625-0600"
],
"FTBFConfig_v116" : [
"2018-02-02T14:28:52.147-0600"
],
"FTBFConfig_v117" : [
"2018-02-02T14:30:18.473-0600"
],
"FTBFConfig_v118" : [
"2018-02-02T14:33:59.680-0600"
],
"FTBFConfig_v119" : [
"2018-02-02T14:36:26.304-0600"
],
"FTBFConfig_v120" : [
"2018-02-02T14:38:39.659-0600"
],
"FTBFConfig_v121" : [
"2018-02-02T14:41:48.978-0600"
],
"FTBFConfig_v122" : [
"2018-02-02T14:50:23.059-0600"
],
"FTBFConfig_v123" : [
"2018-02-02T14:52:55.862-0600"
],
"FTBFConfig_v124" : [
"2018-02-02T14:59:49.214-0600"
],
"FTBFConfig_v125" : [
"2018-02-02T15:04:07.315-0600"
],
"FTBFConfig_v126" : [
"2018-02-02T15:50:10.502-0600"
],
"FTBFConfig_v127" : [
"2018-02-02T15:51:30.007-0600"
],
"FTBFConfig_v128" : [
"2018-02-02T15:52:35.157-0600"
],
"FTBFConfig_v129" : [
"2018-02-02T16:02:44.058-0600"
],
"FTBFConfig_v130" : [
"2018-02-02T16:08:43.590-0600"
],
"FTBFConfig_v131" : [
"2018-02-02T16:11:29.405-0600"
],
"FTBFConfig_v132" : [
"2018-02-02T16:12:57.283-0600"
],
"FTBFConfig_v133" : [
"2018-02-02T16:14:27.878-0600"
],
"FTBFConfig_v134" : [
"2018-02-02T16:26:20.753-0600"
],
"FTBFConfig_v135" : [
"2018-02-02T16:27:07.877-0600"
],
"FTBFConfig_v136" : [
"2018-02-02T16:29:29.234-0600"
],
"FTBFConfig_v137" : [
"2018-02-02T16:31:39.827-0600"
],
"FTBFConfig_v138" : [
"2018-02-02T16:34:12.480-0600"
],
"FTBFConfig_v139" : [
"2018-02-02T17:39:28.534-0600"
],
"FTBFConfig_v140" : [
"2018-02-02T17:42:50.709-0600"
],
"FTBFConfig_v141" : [
"2018-02-02T17:47:35.878-0600"
],
"FTBFConfig_v142" : [
"2018-02-02T17:53:59.913-0600"
]
}
}