{
"ouid" : [
"194185c171c64d71b89d7867"
],
"version" : {
"0" : [
"194185c171c64d71b89d7867"
]
},
"configurations.name" : {
"notprovided" : [
"194185c171c64d71b89d7867"
],
"FTBFConfig_v0" : [
"194185c171c64d71b89d7867"
],
"FTBFConfig_v1" : [
"194185c171c64d71b89d7867"
],
"FTBFConfig_v2" : [
"194185c171c64d71b89d7867"
],
"FTBFConfig_v3" : [
"194185c171c64d71b89d7867"
],
"FTBFConfig_v4" : [
"194185c171c64d71b89d7867"
],
"FTBFConfig_v5" : [
"194185c171c64d71b89d7867"
],
"FTBFConfig_v6" : [
"194185c171c64d71b89d7867"
],
"FTBFConfig_v7" : [
"194185c171c64d71b89d7867"
],
"FTBFConfig_v8" : [
"194185c171c64d71b89d7867"
],
"FTBFConfig_v9" : [
"194185c171c64d71b89d7867"
],
"FTBFConfig_v10" : [
"194185c171c64d71b89d7867"
],
"FTBFConfig_v11" : [
"194185c171c64d71b89d7867"
],
"FTBFConfig_v12" : [
"194185c171c64d71b89d7867"
],
"FTBFConfig_v13" : [
"194185c171c64d71b89d7867"
],
"FTBFConfig_v14" : [
"194185c171c64d71b89d7867"
],
"FTBFConfig_v15" : [
"194185c171c64d71b89d7867"
],
"FTBFConfig_v16" : [
"194185c171c64d71b89d7867"
],
"FTBFConfig_v17" : [
"194185c171c64d71b89d7867"
],
"FTBFConfig_v18" : [
"194185c171c64d71b89d7867"
],
"FTBFConfig_v19" : [
"194185c171c64d71b89d7867"
],
"FTBFConfig_v20" : [
"194185c171c64d71b89d7867"
],
"FTBFConfig_v21" : [
"194185c171c64d71b89d7867"
],
"FTBFConfig_v22" : [
"194185c171c64d71b89d7867"
],
"FTBFConfig_v23" : [
"194185c171c64d71b89d7867"
],
"FTBFConfig_v24" : [
"194185c171c64d71b89d7867"
],
"FTBFConfig_v25" : [
"194185c171c64d71b89d7867"
],
"FTBFConfig_v26" : [
"194185c171c64d71b89d7867"
],
"FTBFConfig_v27" : [
"194185c171c64d71b89d7867"
],
"FTBFConfig_v28" : [
"194185c171c64d71b89d7867"
],
"FTBFConfig_v29" : [
"194185c171c64d71b89d7867"
],
"FTBFConfig_v30" : [
"194185c171c64d71b89d7867"
],
"FTBFConfig_v31" : [
"194185c171c64d71b89d7867"
],
"FTBFConfig_v32" : [
"194185c171c64d71b89d7867"
],
"FTBFConfig_v33" : [
"194185c171c64d71b89d7867"
],
"FTBFConfig_v34" : [
"194185c171c64d71b89d7867"
],
"FTBFConfig_v35" : [
"194185c171c64d71b89d7867"
],
"FTBFConfig_v36" : [
"194185c171c64d71b89d7867"
],
"FTBFConfig_v37" : [
"194185c171c64d71b89d7867"
],
"FTBFConfig_v38" : [
"194185c171c64d71b89d7867"
],
"FTBFConfig_v39" : [
"194185c171c64d71b89d7867"
],
"FTBFConfig_v40" : [
"194185c171c64d71b89d7867"
],
"FTBFConfig_v41" : [
"194185c171c64d71b89d7867"
],
"FTBFConfig_v42" : [
"194185c171c64d71b89d7867"
],
"FTBFConfig_v43" : [
"194185c171c64d71b89d7867"
],
"FTBFConfig_v44" : [
"194185c171c64d71b89d7867"
],
"FTBFConfig_v45" : [
"194185c171c64d71b89d7867"
],
"FTBFConfig_v46" : [
"194185c171c64d71b89d7867"
],
"FTBFConfig_v47" : [
"194185c171c64d71b89d7867"
],
"FTBFConfig_v48" : [
"194185c171c64d71b89d7867"
],
"FTBFConfig_v49" : [
"194185c171c64d71b89d7867"
],
"FTBFConfig_v52" : [
"194185c171c64d71b89d7867"
],
"FTBFConfig_v53" : [
"194185c171c64d71b89d7867"
],
"FTBFConfig_v54" : [
"194185c171c64d71b89d7867"
],
"FTBFConfig_v55" : [
"194185c171c64d71b89d7867"
],
"FTBFConfig_v56" : [
"194185c171c64d71b89d7867"
],
"FTBFConfig_v57" : [
"194185c171c64d71b89d7867"
],
"FTBFConfig_v58" : [
"194185c171c64d71b89d7867"
],
"FTBFConfig_v59" : [
"194185c171c64d71b89d7867"
],
"FTBFConfig_v60" : [
"194185c171c64d71b89d7867"
],
"FTBFConfig_v61" : [
"194185c171c64d71b89d7867"
],
"FTBFConfig_v62" : [
"194185c171c64d71b89d7867"
],
"FTBFConfig_v63" : [
"194185c171c64d71b89d7867"
],
"FTBFConfig_v64" : [
"194185c171c64d71b89d7867"
],
"FTBFConfig_v65" : [
"194185c171c64d71b89d7867"
],
"FTBFConfig_v66" : [
"194185c171c64d71b89d7867"
],
"FTBFConfig_v67" : [
"194185c171c64d71b89d7867"
],
"FTBFConfig_v68" : [
"194185c171c64d71b89d7867"
],
"FTBFConfig_v69" : [
"194185c171c64d71b89d7867"
],
"FTBFConfig_v70" : [
"194185c171c64d71b89d7867"
],
"FTBFConfigNim_v0" : [
"194185c171c64d71b89d7867"
],
"FTBFConfigNim_v1" : [
"194185c171c64d71b89d7867"
],
"FTBFConfigNim_v2" : [
"194185c171c64d71b89d7867"
],
"FTBFConfigNim_v3" : [
"194185c171c64d71b89d7867"
],
"FTBFConfigNim_v4" : [
"194185c171c64d71b89d7867"
],
"FTBFConfigNim_v5" : [
"194185c171c64d71b89d7867"
],
"FTBFConfigNim_v6" : [
"194185c171c64d71b89d7867"
],
"FTBFConfigNim_v7" : [
"194185c171c64d71b89d7867"
],
"FTBFConfigNim_v8" : [
"194185c171c64d71b89d7867"
],
"FTBFConfigNim_v9" : [
"194185c171c64d71b89d7867"
],
"FTBFConfigNim_v10" : [
"194185c171c64d71b89d7867"
],
"FTBFConfigNim_v11" : [
"194185c171c64d71b89d7867"
],
"FTBFConfigNim_v12" : [
"194185c171c64d71b89d7867"
],
"FTBFConfigNim_v13" : [
"194185c171c64d71b89d7867"
],
"FTBFConfigNim_v14" : [
"194185c171c64d71b89d7867"
],
"FTBFConfigNim_v15" : [
"194185c171c64d71b89d7867"
],
"FTBFConfigNim_v16" : [
"194185c171c64d71b89d7867"
],
"FTBFConfigNim_v17" : [
"194185c171c64d71b89d7867"
],
"FTBFConfigNim_v18" : [
"194185c171c64d71b89d7867"
],
"FTBFConfigNim_v19" : [
"194185c171c64d71b89d7867"
],
"FTBFConfigNim_v20" : [
"194185c171c64d71b89d7867"
],
"FTBFConfigNim_v21" : [
"194185c171c64d71b89d7867"
],
"FTBFConfigNim_v22" : [
"194185c171c64d71b89d7867"
],
"FTBFConfigNim_v23" : [
"194185c171c64d71b89d7867"
],
"FTBFConfigNim_v24" : [
"194185c171c64d71b89d7867"
],
"FTBFConfigNim_v25" : [
"194185c171c64d71b89d7867"
],
"FTBFConfigNim_v26" : [
"194185c171c64d71b89d7867"
],
"FTBFConfigNim_v27" : [
"194185c171c64d71b89d7867"
],
"FTBFConfigNim_v28" : [
"194185c171c64d71b89d7867"
],
"FTBFConfigNim_v29" : [
"194185c171c64d71b89d7867"
],
"FTBFConfig_v71" : [
"194185c171c64d71b89d7867"
],
"FTBFConfig_v72" : [
"194185c171c64d71b89d7867"
],
"FTBFConfig_v73" : [
"194185c171c64d71b89d7867"
],
"FTBFConfig_v75" : [
"194185c171c64d71b89d7867"
],
"FTBFConfig_v76" : [
"194185c171c64d71b89d7867"
],
"FTBFConfig_v77" : [
"194185c171c64d71b89d7867"
],
"FTBFConfig_v78" : [
"194185c171c64d71b89d7867"
],
"FTBFConfig_v79" : [
"194185c171c64d71b89d7867"
],
"FTBFConfig_v80" : [
"194185c171c64d71b89d7867"
],
"FTBFConfig_v81" : [
"194185c171c64d71b89d7867"
],
"FTBFConfig_v82" : [
"194185c171c64d71b89d7867"
],
"FTBFConfig_v83" : [
"194185c171c64d71b89d7867"
],
"FTBFConfig_v84" : [
"194185c171c64d71b89d7867"
],
"FTBFConfig_v85" : [
"194185c171c64d71b89d7867"
],
"FTBFConfig_v86" : [
"194185c171c64d71b89d7867"
],
"FTBFConfig_v87" : [
"194185c171c64d71b89d7867"
],
"FTBFConfig_v88" : [
"194185c171c64d71b89d7867"
],
"FTBFConfig_v89" : [
"194185c171c64d71b89d7867"
],
"FTBFConfig_v90" : [
"194185c171c64d71b89d7867"
],
"FTBFConfig_v91" : [
"194185c171c64d71b89d7867"
],
"FTBFConfig_v92" : [
"194185c171c64d71b89d7867"
],
"FTBFConfig_v93" : [
"194185c171c64d71b89d7867"
],
"FTBFConfig_v94" : [
"194185c171c64d71b89d7867"
],
"FTBFConfig_v95" : [
"194185c171c64d71b89d7867"
],
"FTBFConfig_v96" : [
"194185c171c64d71b89d7867"
],
"FTBFConfig_v97" : [
"194185c171c64d71b89d7867"
],
"FTBFConfig_v98" : [
"194185c171c64d71b89d7867"
],
"FTBFConfig_v99" : [
"194185c171c64d71b89d7867"
],
"FTBFConfig_v100" : [
"194185c171c64d71b89d7867"
],
"FTBFConfig_v101" : [
"194185c171c64d71b89d7867"
],
"FTBFConfig_v102" : [
"194185c171c64d71b89d7867"
],
"FTBFConfig_v103" : [
"194185c171c64d71b89d7867"
],
"FTBFConfig_v104" : [
"194185c171c64d71b89d7867"
],
"FTBFConfig_v105" : [
"194185c171c64d71b89d7867"
],
"FTBFConfig_v106" : [
"194185c171c64d71b89d7867"
],
"FTBFConfig_v107" : [
"194185c171c64d71b89d7867"
],
"FTBFConfig_v108" : [
"194185c171c64d71b89d7867"
],
"FTBFConfig_v109" : [
"194185c171c64d71b89d7867"
],
"FTBFConfig_v110" : [
"194185c171c64d71b89d7867"
],
"FTBFConfig_v111" : [
"194185c171c64d71b89d7867"
],
"FTBFConfig_v112" : [
"194185c171c64d71b89d7867"
],
"FTBFConfig_v113" : [
"194185c171c64d71b89d7867"
],
"FTBFConfig_v114" : [
"194185c171c64d71b89d7867"
],
"FTBFConfig_v115" : [
"194185c171c64d71b89d7867"
],
"FTBFConfig_v116" : [
"194185c171c64d71b89d7867"
],
"FTBFConfig_v117" : [
"194185c171c64d71b89d7867"
],
"FTBFConfig_v118" : [
"194185c171c64d71b89d7867"
],
"FTBFConfig_v119" : [
"194185c171c64d71b89d7867"
],
"FTBFConfig_v120" : [
"194185c171c64d71b89d7867"
],
"FTBFConfig_v121" : [
"194185c171c64d71b89d7867"
],
"FTBFConfig_v122" : [
"194185c171c64d71b89d7867"
],
"FTBFConfig_v123" : [
"194185c171c64d71b89d7867"
],
"FTBFConfig_v124" : [
"194185c171c64d71b89d7867"
],
"FTBFConfig_v125" : [
"194185c171c64d71b89d7867"
],
"FTBFConfig_v126" : [
"194185c171c64d71b89d7867"
],
"FTBFConfig_v127" : [
"194185c171c64d71b89d7867"
],
"FTBFConfig_v128" : [
"194185c171c64d71b89d7867"
],
"FTBFConfig_v129" : [
"194185c171c64d71b89d7867"
],
"FTBFConfig_v130" : [
"194185c171c64d71b89d7867"
],
"FTBFConfig_v131" : [
"194185c171c64d71b89d7867"
],
"FTBFConfig_v132" : [
"194185c171c64d71b89d7867"
],
"FTBFConfig_v133" : [
"194185c171c64d71b89d7867"
],
"FTBFConfig_v134" : [
"194185c171c64d71b89d7867"
],
"FTBFConfig_v135" : [
"194185c171c64d71b89d7867"
],
"FTBFConfig_v136" : [
"194185c171c64d71b89d7867"
],
"FTBFConfig_v137" : [
"194185c171c64d71b89d7867"
],
"FTBFConfig_v138" : [
"194185c171c64d71b89d7867"
],
"FTBFConfig_v139" : [
"194185c171c64d71b89d7867"
],
"FTBFConfig_v140" : [
"194185c171c64d71b89d7867"
],
"FTBFConfig_v141" : [
"194185c171c64d71b89d7867"
],
"FTBFConfig_v142" : [
"194185c171c64d71b89d7867"
]
},
"entities.name" : {
"OTSROOT" : [
"194185c171c64d71b89d7867"
]
},
"aliases.active.name" : {

},
"runs.name" : {

},
"configurations.assigned" : {
"notprovided" : [
"2017-11-08T15:56:04.280-0600"
],
"FTBFConfig_v0" : [
"2017-11-08T15:56:07.257-0600"
],
"FTBFConfig_v1" : [
"2017-11-09T09:56:32.123-0600"
],
"FTBFConfig_v2" : [
"2017-11-09T10:06:01.107-0600"
],
"FTBFConfig_v3" : [
"2017-11-09T10:37:12.698-0600"
],
"FTBFConfig_v4" : [
"2017-11-15T11:30:11.559-0600"
],
"FTBFConfig_v5" : [
"2017-11-15T11:54:58.421-0600"
],
"FTBFConfig_v6" : [
"2017-11-15T11:57:51.037-0600"
],
"FTBFConfig_v7" : [
"2017-11-15T12:42:33.499-0600"
],
"FTBFConfig_v8" : [
"2017-11-15T13:01:04.533-0600"
],
"FTBFConfig_v9" : [
"2017-11-15T13:02:57.921-0600"
],
"FTBFConfig_v10" : [
"2017-11-15T13:04:25.495-0600"
],
"FTBFConfig_v11" : [
"2017-11-15T13:07:53.047-0600"
],
"FTBFConfig_v12" : [
"2017-11-15T13:12:00.485-0600"
],
"FTBFConfig_v13" : [
"2017-11-15T13:13:54.447-0600"
],
"FTBFConfig_v14" : [
"2017-11-15T13:27:35.053-0600"
],
"FTBFConfig_v15" : [
"2017-11-15T13:35:48.462-0600"
],
"FTBFConfig_v16" : [
"2017-11-15T13:36:53.072-0600"
],
"FTBFConfig_v17" : [
"2017-11-15T15:33:31.657-0600"
],
"FTBFConfig_v18" : [
"2017-11-15T15:35:35.276-0600"
],
"FTBFConfig_v19" : [
"2017-11-15T15:38:04.137-0600"
],
"FTBFConfig_v20" : [
"2017-11-15T16:26:32.148-0600"
],
"FTBFConfig_v21" : [
"2017-11-16T09:22:32.987-0600"
],
"FTBFConfig_v22" : [
"2017-11-17T10:23:29.190-0600"
],
"FTBFConfig_v23" : [
"2017-11-17T17:26:46.838-0600"
],
"FTBFConfig_v24" : [
"2017-11-17T17:58:27.383-0600"
],
"FTBFConfig_v25" : [
"2017-11-17T18:24:47.096-0600"
],
"FTBFConfig_v26" : [
"2017-11-17T18:32:25.140-0600"
],
"FTBFConfig_v27" : [
"2017-11-17T18:43:32.244-0600"
],
"FTBFConfig_v28" : [
"2017-11-17T18:48:34.378-0600"
],
"FTBFConfig_v29" : [
"2017-11-20T14:48:32.537-0600"
],
"FTBFConfig_v30" : [
"2017-11-20T15:39:57.568-0600"
],
"FTBFConfig_v31" : [
"2017-11-20T16:41:03.621-0600"
],
"FTBFConfig_v32" : [
"2017-11-20T18:55:36.569-0600"
],
"FTBFConfig_v33" : [
"2017-11-20T18:57:31.896-0600"
],
"FTBFConfig_v34" : [
"2017-11-29T17:50:41.353-0600"
],
"FTBFConfig_v35" : [
"2017-11-29T18:00:34.395-0600"
],
"FTBFConfig_v36" : [
"2017-11-29T18:35:13.023-0600"
],
"FTBFConfig_v37" : [
"2017-12-01T09:36:19.935-0600"
],
"FTBFConfig_v38" : [
"2017-12-01T09:52:02.857-0600"
],
"FTBFConfig_v39" : [
"2017-12-01T11:52:00.132-0600"
],
"FTBFConfig_v40" : [
"2017-12-01T12:18:22.254-0600"
],
"FTBFConfig_v41" : [
"2017-12-01T12:21:04.233-0600"
],
"FTBFConfig_v42" : [
"2017-12-01T12:43:23.704-0600"
],
"FTBFConfig_v43" : [
"2017-12-01T12:58:01.653-0600"
],
"FTBFConfig_v44" : [
"2017-12-01T13:00:54.173-0600"
],
"FTBFConfig_v45" : [
"2017-12-01T13:25:50.779-0600"
],
"FTBFConfig_v46" : [
"2017-12-01T13:35:45.626-0600"
],
"FTBFConfig_v47" : [
"2017-12-01T14:00:53.725-0600"
],
"FTBFConfig_v48" : [
"2017-12-01T14:04:01.077-0600"
],
"FTBFConfig_v49" : [
"2017-12-01T15:32:01.266-0600"
],
"FTBFConfig_v52" : [
"2017-12-01T15:37:34.468-0600"
],
"FTBFConfig_v53" : [
"2017-12-01T15:41:00.797-0600"
],
"FTBFConfig_v54" : [
"2017-12-01T15:52:51.094-0600"
],
"FTBFConfig_v55" : [
"2017-12-01T15:54:36.294-0600"
],
"FTBFConfig_v56" : [
"2017-12-01T15:55:35.873-0600"
],
"FTBFConfig_v57" : [
"2017-12-01T15:56:41.717-0600"
],
"FTBFConfig_v58" : [
"2017-12-01T15:57:39.828-0600"
],
"FTBFConfig_v59" : [
"2017-12-01T15:58:31.681-0600"
],
"FTBFConfig_v60" : [
"2017-12-01T15:59:32.939-0600"
],
"FTBFConfig_v61" : [
"2017-12-01T16:19:42.801-0600"
],
"FTBFConfig_v62" : [
"2017-12-01T16:22:05.230-0600"
],
"FTBFConfig_v63" : [
"2017-12-01T16:31:25.892-0600"
],
"FTBFConfig_v64" : [
"2017-12-01T17:06:33.262-0600"
],
"FTBFConfig_v65" : [
"2017-12-01T17:32:45.451-0600"
],
"FTBFConfig_v66" : [
"2017-12-01T20:38:51.791-0600"
],
"FTBFConfig_v67" : [
"2017-12-01T21:25:03.150-0600"
],
"FTBFConfig_v68" : [
"2017-12-01T21:43:02.869-0600"
],
"FTBFConfig_v69" : [
"2017-12-01T21:45:01.462-0600"
],
"FTBFConfig_v70" : [
"2017-12-01T21:59:20.770-0600"
],
"FTBFConfigNim_v0" : [
"2017-12-01T22:00:07.490-0600"
],
"FTBFConfigNim_v1" : [
"2017-12-01T22:13:09.315-0600"
],
"FTBFConfigNim_v2" : [
"2017-12-01T22:15:56.500-0600"
],
"FTBFConfigNim_v3" : [
"2017-12-01T22:17:05.086-0600"
],
"FTBFConfigNim_v4" : [
"2017-12-01T22:19:07.613-0600"
],
"FTBFConfigNim_v5" : [
"2017-12-01T22:21:58.393-0600"
],
"FTBFConfigNim_v6" : [
"2017-12-01T22:23:16.910-0600"
],
"FTBFConfigNim_v7" : [
"2017-12-01T22:25:18.394-0600"
],
"FTBFConfigNim_v8" : [
"2017-12-01T22:27:06.086-0600"
],
"FTBFConfigNim_v9" : [
"2017-12-01T22:29:30.289-0600"
],
"FTBFConfigNim_v10" : [
"2017-12-01T22:52:35.649-0600"
],
"FTBFConfigNim_v11" : [
"2017-12-01T22:57:30.229-0600"
],
"FTBFConfigNim_v12" : [
"2017-12-01T23:00:08.427-0600"
],
"FTBFConfigNim_v13" : [
"2017-12-01T23:52:36.582-0600"
],
"FTBFConfigNim_v14" : [
"2017-12-01T23:58:11.059-0600"
],
"FTBFConfigNim_v15" : [
"2017-12-02T00:00:35.268-0600"
],
"FTBFConfigNim_v16" : [
"2017-12-02T00:13:10.507-0600"
],
"FTBFConfigNim_v17" : [
"2017-12-02T00:28:29.403-0600"
],
"FTBFConfigNim_v18" : [
"2017-12-02T00:29:35.493-0600"
],
"FTBFConfigNim_v19" : [
"2017-12-02T00:31:14.352-0600"
],
"FTBFConfigNim_v20" : [
"2017-12-02T00:57:28.541-0600"
],
"FTBFConfigNim_v21" : [
"2017-12-02T10:58:03.106-0600"
],
"FTBFConfigNim_v22" : [
"2017-12-02T11:08:19.277-0600"
],
"FTBFConfigNim_v23" : [
"2017-12-02T11:12:40.914-0600"
],
"FTBFConfigNim_v24" : [
"2017-12-02T11:18:43.795-0600"
],
"FTBFConfigNim_v25" : [
"2017-12-02T11:27:07.002-0600"
],
"FTBFConfigNim_v26" : [
"2017-12-02T11:38:38.061-0600"
],
"FTBFConfigNim_v27" : [
"2017-12-02T11:49:09.288-0600"
],
"FTBFConfigNim_v28" : [
"2017-12-02T11:55:10.794-0600"
],
"FTBFConfigNim_v29" : [
"2017-12-02T12:06:27.614-0600"
],
"FTBFConfig_v71" : [
"2017-12-02T12:24:16.246-0600"
],
"FTBFConfig_v72" : [
"2017-12-02T12:43:37.165-0600"
],
"FTBFConfig_v73" : [
"2017-12-02T13:55:36.855-0600"
],
"FTBFConfig_v75" : [
"2017-12-02T14:12:20.045-0600"
],
"FTBFConfig_v76" : [
"2017-12-02T19:05:55.058-0600"
],
"FTBFConfig_v77" : [
"2017-12-02T19:12:14.888-0600"
],
"FTBFConfig_v78" : [
"2017-12-03T14:03:50.040-0600"
],
"FTBFConfig_v79" : [
"2017-12-03T14:09:08.333-0600"
],
"FTBFConfig_v80" : [
"2017-12-03T14:11:12.121-0600"
],
"FTBFConfig_v81" : [
"2017-12-03T14:22:35.117-0600"
],
"FTBFConfig_v82" : [
"2017-12-03T14:40:39.955-0600"
],
"FTBFConfig_v83" : [
"2017-12-03T14:45:07.297-0600"
],
"FTBFConfig_v84" : [
"2017-12-04T14:51:32.569-0600"
],
"FTBFConfig_v85" : [
"2017-12-04T14:55:45.799-0600"
],
"FTBFConfig_v86" : [
"2017-12-04T16:51:08.859-0600"
],
"FTBFConfig_v87" : [
"2017-12-04T16:56:49.492-0600"
],
"FTBFConfig_v88" : [
"2017-12-04T17:01:14.263-0600"
],
"FTBFConfig_v89" : [
"2017-12-04T17:03:59.383-0600"
],
"FTBFConfig_v90" : [
"2017-12-04T17:07:19.052-0600"
],
"FTBFConfig_v91" : [
"2017-12-04T17:09:28.201-0600"
],
"FTBFConfig_v92" : [
"2017-12-04T17:11:40.717-0600"
],
"FTBFConfig_v93" : [
"2017-12-04T21:05:23.218-0600"
],
"FTBFConfig_v94" : [
"2017-12-04T21:17:14.250-0600"
],
"FTBFConfig_v95" : [
"2017-12-04T21:41:19.860-0600"
],
"FTBFConfig_v96" : [
"2017-12-04T22:39:04.532-0600"
],
"FTBFConfig_v97" : [
"2017-12-04T23:01:15.049-0600"
],
"FTBFConfig_v98" : [
"2017-12-07T11:07:49.045-0600"
],
"FTBFConfig_v99" : [
"2017-12-07T11:50:01.699-0600"
],
"FTBFConfig_v100" : [
"2017-12-07T11:58:28.451-0600"
],
"FTBFConfig_v101" : [
"2017-12-08T13:30:50.636-0600"
],
"FTBFConfig_v102" : [
"2017-12-08T13:32:37.527-0600"
],
"FTBFConfig_v103" : [
"2017-12-12T11:03:07.337-0600"
],
"FTBFConfig_v104" : [
"2017-12-12T13:51:01.925-0600"
],
"FTBFConfig_v105" : [
"2017-12-12T15:25:07.890-0600"
],
"FTBFConfig_v106" : [
"2017-12-13T10:24:26.194-0600"
],
"FTBFConfig_v107" : [
"2017-12-13T10:27:04.878-0600"
],
"FTBFConfig_v108" : [
"2018-02-01T21:14:28.641-0600"
],
"FTBFConfig_v109" : [
"2018-02-01T21:21:05.770-0600"
],
"FTBFConfig_v110" : [
"2018-02-02T11:25:36.763-0600"
],
"FTBFConfig_v111" : [
"2018-02-02T11:37:15.601-0600"
],
"FTBFConfig_v112" : [
"2018-02-02T11:47:18.110-0600"
],
"FTBFConfig_v113" : [
"2018-02-02T11:53:39.359-0600"
],
"FTBFConfig_v114" : [
"2018-02-02T12:00:55.485-0600"
],
"FTBFConfig_v115" : [
"2018-02-02T12:27:16.955-0600"
],
"FTBFConfig_v116" : [
"2018-02-02T14:28:56.479-0600"
],
"FTBFConfig_v117" : [
"2018-02-02T14:30:22.854-0600"
],
"FTBFConfig_v118" : [
"2018-02-02T14:34:04.104-0600"
],
"FTBFConfig_v119" : [
"2018-02-02T14:36:30.708-0600"
],
"FTBFConfig_v120" : [
"2018-02-02T14:38:44.127-0600"
],
"FTBFConfig_v121" : [
"2018-02-02T14:41:53.393-0600"
],
"FTBFConfig_v122" : [
"2018-02-02T14:50:27.483-0600"
],
"FTBFConfig_v123" : [
"2018-02-02T14:53:00.364-0600"
],
"FTBFConfig_v124" : [
"2018-02-02T14:59:53.682-0600"
],
"FTBFConfig_v125" : [
"2018-02-02T15:04:11.808-0600"
],
"FTBFConfig_v126" : [
"2018-02-02T15:50:15.137-0600"
],
"FTBFConfig_v127" : [
"2018-02-02T15:51:34.534-0600"
],
"FTBFConfig_v128" : [
"2018-02-02T15:52:39.698-0600"
],
"FTBFConfig_v129" : [
"2018-02-02T16:02:48.630-0600"
],
"FTBFConfig_v130" : [
"2018-02-02T16:08:48.187-0600"
],
"FTBFConfig_v131" : [
"2018-02-02T16:11:34.042-0600"
],
"FTBFConfig_v132" : [
"2018-02-02T16:13:01.927-0600"
],
"FTBFConfig_v133" : [
"2018-02-02T16:14:32.574-0600"
],
"FTBFConfig_v134" : [
"2018-02-02T16:26:25.439-0600"
],
"FTBFConfig_v135" : [
"2018-02-02T16:27:12.567-0600"
],
"FTBFConfig_v136" : [
"2018-02-02T16:29:33.927-0600"
],
"FTBFConfig_v137" : [
"2018-02-02T16:31:44.585-0600"
],
"FTBFConfig_v138" : [
"2018-02-02T16:34:17.236-0600"
],
"FTBFConfig_v139" : [
"2018-02-02T17:39:33.293-0600"
],
"FTBFConfig_v140" : [
"2018-02-02T17:42:55.497-0600"
],
"FTBFConfig_v141" : [
"2018-02-02T17:47:40.716-0600"
],
"FTBFConfig_v142" : [
"2018-02-02T17:54:04.712-0600"
]
}
}