{
"ouid" : [
"41f8e27eaca84359b2b2cbbd"
],
"version" : {
"2" : [
"41f8e27eaca84359b2b2cbbd"
]
},
"configurations.name" : {
"notprovided" : [
"41f8e27eaca84359b2b2cbbd"
],
"OTMiniModuleConfiguration_v2" : [
"41f8e27eaca84359b2b2cbbd"
]
},
"entities.name" : {
"OTSROOT" : [
"41f8e27eaca84359b2b2cbbd"
]
},
"aliases.active.name" : {

},
"runs.name" : {

}
}