{
"document" : {
"data" : {
"NAME" : "FE_TO_DETECTOR_CONFIGURATION",
"COMMENT" : "FE (FSSR) detector top-level records",
"AUTHOR" : "admin",
"CREATION_TIME" : 1509658009,
"COL_TYPES" : {
"FE_INTERFACE_GROUP_ID" : "VARCHAR2",
"DETECTOR_UID" : "VARCHAR2",
"FE_WRITER_CHANNEL" : "NUMBER",
"FE_WRITER_DETECTOR_ADDRESS" : "NUMBER",
"LINK_TO_DETECTOR_TABLE" : "VARCHAR2",
"LINK_TO_DETECTOR_UID" : "VARCHAR2",
"COMMENT_DESCRIPTION" : "VARCHAR2",
"AUTHOR" : "VARCHAR2",
"RECORD_INSERTION_TIME" : "TIMESTAMP WITH TIMEZONE"
},
"DATA_SET" : [
{
"FE_INTERFACE_GROUP_ID" : "PurdueFSSR0",
"DETECTOR_UID" : "FSSR_STA0_MOD0_ROC0",
"FE_WRITER_CHANNEL" : "0",
"FE_WRITER_DETECTOR_ADDRESS" : "9",
"LINK_TO_DETECTOR_TABLE" : "DetectorConfiguration",
"LINK_TO_DETECTOR_UID" : "FSSR_STA0_MOD0_ROC0",
"COMMENT_DESCRIPTION" : "No Comment",
"AUTHOR" : "admin",
"RECORD_INSERTION_TIME" : "1509658009"
},
{
"FE_INTERFACE_GROUP_ID" : "PurdueFSSR0",
"DETECTOR_UID" : "FSSR_STA0_MOD0_ROC1",
"FE_WRITER_CHANNEL" : "0",
"FE_WRITER_DETECTOR_ADDRESS" : "10",
"LINK_TO_DETECTOR_TABLE" : "DetectorConfiguration",
"LINK_TO_DETECTOR_UID" : "FSSR_STA0_MOD0_ROC1",
"COMMENT_DESCRIPTION" : "No Comment",
"AUTHOR" : "admin",
"RECORD_INSERTION_TIME" : "1509658009"
},
{
"FE_INTERFACE_GROUP_ID" : "PurdueFSSR0",
"DETECTOR_UID" : "FSSR_STA0_MOD0_ROC2",
"FE_WRITER_CHANNEL" : "0",
"FE_WRITER_DETECTOR_ADDRESS" : "11",
"LINK_TO_DETECTOR_TABLE" : "DetectorConfiguration",
"LINK_TO_DETECTOR_UID" : "FSSR_STA0_MOD0_ROC2",
"COMMENT_DESCRIPTION" : "No Comment",
"AUTHOR" : "admin",
"RECORD_INSERTION_TIME" : "1509658009"
},
{
"FE_INTERFACE_GROUP_ID" : "PurdueFSSR0",
"DETECTOR_UID" : "FSSR_STA0_MOD0_ROC3",
"FE_WRITER_CHANNEL" : "0",
"FE_WRITER_DETECTOR_ADDRESS" : "12",
"LINK_TO_DETECTOR_TABLE" : "DetectorConfiguration",
"LINK_TO_DETECTOR_UID" : "FSSR_STA0_MOD0_ROC3",
"COMMENT_DESCRIPTION" : "No Comment",
"AUTHOR" : "admin",
"RECORD_INSERTION_TIME" : "1509658009"
},
{
"FE_INTERFACE_GROUP_ID" : "PurdueFSSR0",
"DETECTOR_UID" : "FSSR_STA0_MOD0_ROC4",
"FE_WRITER_CHANNEL" : "0",
"FE_WRITER_DETECTOR_ADDRESS" : "13",
"LINK_TO_DETECTOR_TABLE" : "DetectorConfiguration",
"LINK_TO_DETECTOR_UID" : "FSSR_STA0_MOD0_ROC4",
"COMMENT_DESCRIPTION" : "No Comment",
"AUTHOR" : "admin",
"RECORD_INSERTION_TIME" : "1509658009"
},
{
"FE_INTERFACE_GROUP_ID" : "PurdueFSSR0",
"DETECTOR_UID" : "FSSR_STA0_MOD1_ROC0",
"FE_WRITER_CHANNEL" : "1",
"FE_WRITER_DETECTOR_ADDRESS" : "9",
"LINK_TO_DETECTOR_TABLE" : "DetectorConfiguration",
"LINK_TO_DETECTOR_UID" : "FSSR_STA0_MOD1_ROC0",
"COMMENT_DESCRIPTION" : "No Comment",
"AUTHOR" : "admin",
"RECORD_INSERTION_TIME" : "1509658009"
},
{
"FE_INTERFACE_GROUP_ID" : "PurdueFSSR0",
"DETECTOR_UID" : "FSSR_STA0_MOD1_ROC1",
"FE_WRITER_CHANNEL" : "1",
"FE_WRITER_DETECTOR_ADDRESS" : "10",
"LINK_TO_DETECTOR_TABLE" : "DetectorConfiguration",
"LINK_TO_DETECTOR_UID" : "FSSR_STA0_MOD1_ROC1",
"COMMENT_DESCRIPTION" : "No Comment",
"AUTHOR" : "admin",
"RECORD_INSERTION_TIME" : "1509658009"
},
{
"FE_INTERFACE_GROUP_ID" : "PurdueFSSR0",
"DETECTOR_UID" : "FSSR_STA0_MOD1_ROC2",
"FE_WRITER_CHANNEL" : "1",
"FE_WRITER_DETECTOR_ADDRESS" : "11",
"LINK_TO_DETECTOR_TABLE" : "DetectorConfiguration",
"LINK_TO_DETECTOR_UID" : "FSSR_STA0_MOD1_ROC2",
"COMMENT_DESCRIPTION" : "No Comment",
"AUTHOR" : "admin",
"RECORD_INSERTION_TIME" : "1509658009"
},
{
"FE_INTERFACE_GROUP_ID" : "PurdueFSSR0",
"DETECTOR_UID" : "FSSR_STA0_MOD1_ROC3",
"FE_WRITER_CHANNEL" : "1",
"FE_WRITER_DETECTOR_ADDRESS" : "12",
"LINK_TO_DETECTOR_TABLE" : "DetectorConfiguration",
"LINK_TO_DETECTOR_UID" : "FSSR_STA0_MOD1_ROC3",
"COMMENT_DESCRIPTION" : "No Comment",
"AUTHOR" : "admin",
"RECORD_INSERTION_TIME" : "1509658009"
},
{
"FE_INTERFACE_GROUP_ID" : "PurdueFSSR0",
"DETECTOR_UID" : "FSSR_STA0_MOD1_ROC4",
"FE_WRITER_CHANNEL" : "1",
"FE_WRITER_DETECTOR_ADDRESS" : "13",
"LINK_TO_DETECTOR_TABLE" : "DetectorConfiguration",
"LINK_TO_DETECTOR_UID" : "FSSR_STA0_MOD1_ROC4",
"COMMENT_DESCRIPTION" : "No Comment",
"AUTHOR" : "admin",
"RECORD_INSERTION_TIME" : "1509658009"
},
{
"FE_INTERFACE_GROUP_ID" : "PurdueFSSR0",
"DETECTOR_UID" : "FSSR_STA0_MOD2_ROC0",
"FE_WRITER_CHANNEL" : "2",
"FE_WRITER_DETECTOR_ADDRESS" : "9",
"LINK_TO_DETECTOR_TABLE" : "DetectorConfiguration",
"LINK_TO_DETECTOR_UID" : "FSSR_STA0_MOD2_ROC0",
"COMMENT_DESCRIPTION" : "No Comment",
"AUTHOR" : "admin",
"RECORD_INSERTION_TIME" : "1509658009"
},
{
"FE_INTERFACE_GROUP_ID" : "PurdueFSSR0",
"DETECTOR_UID" : "FSSR_STA0_MOD2_ROC1",
"FE_WRITER_CHANNEL" : "2",
"FE_WRITER_DETECTOR_ADDRESS" : "10",
"LINK_TO_DETECTOR_TABLE" : "DetectorConfiguration",
"LINK_TO_DETECTOR_UID" : "FSSR_STA0_MOD2_ROC1",
"COMMENT_DESCRIPTION" : "No Comment",
"AUTHOR" : "admin",
"RECORD_INSERTION_TIME" : "1509658009"
},
{
"FE_INTERFACE_GROUP_ID" : "PurdueFSSR0",
"DETECTOR_UID" : "FSSR_STA0_MOD2_ROC2",
"FE_WRITER_CHANNEL" : "2",
"FE_WRITER_DETECTOR_ADDRESS" : "11",
"LINK_TO_DETECTOR_TABLE" : "DetectorConfiguration",
"LINK_TO_DETECTOR_UID" : "FSSR_STA0_MOD2_ROC2",
"COMMENT_DESCRIPTION" : "No Comment",
"AUTHOR" : "admin",
"RECORD_INSERTION_TIME" : "1509658009"
},
{
"FE_INTERFACE_GROUP_ID" : "PurdueFSSR0",
"DETECTOR_UID" : "FSSR_STA0_MOD2_ROC3",
"FE_WRITER_CHANNEL" : "2",
"FE_WRITER_DETECTOR_ADDRESS" : "12",
"LINK_TO_DETECTOR_TABLE" : "DetectorConfiguration",
"LINK_TO_DETECTOR_UID" : "FSSR_STA0_MOD2_ROC3",
"COMMENT_DESCRIPTION" : "No Comment",
"AUTHOR" : "admin",
"RECORD_INSERTION_TIME" : "1509658009"
},
{
"FE_INTERFACE_GROUP_ID" : "PurdueFSSR0",
"DETECTOR_UID" : "FSSR_STA0_MOD2_ROC4",
"FE_WRITER_CHANNEL" : "2",
"FE_WRITER_DETECTOR_ADDRESS" : "13",
"LINK_TO_DETECTOR_TABLE" : "DetectorConfiguration",
"LINK_TO_DETECTOR_UID" : "FSSR_STA0_MOD2_ROC4",
"COMMENT_DESCRIPTION" : "No Comment",
"AUTHOR" : "admin",
"RECORD_INSERTION_TIME" : "1509658009"
},
{
"FE_INTERFACE_GROUP_ID" : "PurdueFSSR0",
"DETECTOR_UID" : "FSSR_STA0_MOD3_ROC0",
"FE_WRITER_CHANNEL" : "3",
"FE_WRITER_DETECTOR_ADDRESS" : "9",
"LINK_TO_DETECTOR_TABLE" : "DetectorConfiguration",
"LINK_TO_DETECTOR_UID" : "FSSR_STA0_MOD3_ROC0",
"COMMENT_DESCRIPTION" : "No Comment",
"AUTHOR" : "admin",
"RECORD_INSERTION_TIME" : "1509658009"
},
{
"FE_INTERFACE_GROUP_ID" : "PurdueFSSR0",
"DETECTOR_UID" : "FSSR_STA0_MOD3_ROC1",
"FE_WRITER_CHANNEL" : "3",
"FE_WRITER_DETECTOR_ADDRESS" : "10",
"LINK_TO_DETECTOR_TABLE" : "DetectorConfiguration",
"LINK_TO_DETECTOR_UID" : "FSSR_STA0_MOD3_ROC1",
"COMMENT_DESCRIPTION" : "No Comment",
"AUTHOR" : "admin",
"RECORD_INSERTION_TIME" : "1509658009"
},
{
"FE_INTERFACE_GROUP_ID" : "PurdueFSSR0",
"DETECTOR_UID" : "FSSR_STA0_MOD3_ROC2",
"FE_WRITER_CHANNEL" : "3",
"FE_WRITER_DETECTOR_ADDRESS" : "11",
"LINK_TO_DETECTOR_TABLE" : "DetectorConfiguration",
"LINK_TO_DETECTOR_UID" : "FSSR_STA0_MOD3_ROC2",
"COMMENT_DESCRIPTION" : "No Comment",
"AUTHOR" : "admin",
"RECORD_INSERTION_TIME" : "1509658009"
},
{
"FE_INTERFACE_GROUP_ID" : "PurdueFSSR0",
"DETECTOR_UID" : "FSSR_STA0_MOD3_ROC3",
"FE_WRITER_CHANNEL" : "3",
"FE_WRITER_DETECTOR_ADDRESS" : "12",
"LINK_TO_DETECTOR_TABLE" : "DetectorConfiguration",
"LINK_TO_DETECTOR_UID" : "FSSR_STA0_MOD3_ROC3",
"COMMENT_DESCRIPTION" : "No Comment",
"AUTHOR" : "admin",
"RECORD_INSERTION_TIME" : "1509658009"
},
{
"FE_INTERFACE_GROUP_ID" : "PurdueFSSR0",
"DETECTOR_UID" : "FSSR_STA0_MOD3_ROC4",
"FE_WRITER_CHANNEL" : "3",
"FE_WRITER_DETECTOR_ADDRESS" : "13",
"LINK_TO_DETECTOR_TABLE" : "DetectorConfiguration",
"LINK_TO_DETECTOR_UID" : "FSSR_STA0_MOD3_ROC4",
"COMMENT_DESCRIPTION" : "No Comment",
"AUTHOR" : "admin",
"RECORD_INSERTION_TIME" : "1509658009"
},
{
"FE_INTERFACE_GROUP_ID" : "PurdueFSSR1",
"DETECTOR_UID" : "FSSR_STA1_MOD0_ROC0",
"FE_WRITER_CHANNEL" : "0",
"FE_WRITER_DETECTOR_ADDRESS" : "9",
"LINK_TO_DETECTOR_TABLE" : "DetectorConfiguration",
"LINK_TO_DETECTOR_UID" : "FSSR_STA1_MOD0_ROC0",
"COMMENT_DESCRIPTION" : "No Comment",
"AUTHOR" : "admin",
"RECORD_INSERTION_TIME" : "1509658009"
},
{
"FE_INTERFACE_GROUP_ID" : "PurdueFSSR1",
"DETECTOR_UID" : "FSSR_STA1_MOD0_ROC1",
"FE_WRITER_CHANNEL" : "0",
"FE_WRITER_DETECTOR_ADDRESS" : "10",
"LINK_TO_DETECTOR_TABLE" : "DetectorConfiguration",
"LINK_TO_DETECTOR_UID" : "FSSR_STA1_MOD0_ROC1",
"COMMENT_DESCRIPTION" : "No Comment",
"AUTHOR" : "admin",
"RECORD_INSERTION_TIME" : "1509658009"
},
{
"FE_INTERFACE_GROUP_ID" : "PurdueFSSR1",
"DETECTOR_UID" : "FSSR_STA1_MOD0_ROC2",
"FE_WRITER_CHANNEL" : "0",
"FE_WRITER_DETECTOR_ADDRESS" : "11",
"LINK_TO_DETECTOR_TABLE" : "DetectorConfiguration",
"LINK_TO_DETECTOR_UID" : "FSSR_STA1_MOD0_ROC2",
"COMMENT_DESCRIPTION" : "No Comment",
"AUTHOR" : "admin",
"RECORD_INSERTION_TIME" : "1509658009"
},
{
"FE_INTERFACE_GROUP_ID" : "PurdueFSSR1",
"DETECTOR_UID" : "FSSR_STA1_MOD0_ROC3",
"FE_WRITER_CHANNEL" : "0",
"FE_WRITER_DETECTOR_ADDRESS" : "12",
"LINK_TO_DETECTOR_TABLE" : "DetectorConfiguration",
"LINK_TO_DETECTOR_UID" : "FSSR_STA1_MOD0_ROC3",
"COMMENT_DESCRIPTION" : "No Comment",
"AUTHOR" : "admin",
"RECORD_INSERTION_TIME" : "1509658009"
},
{
"FE_INTERFACE_GROUP_ID" : "PurdueFSSR1",
"DETECTOR_UID" : "FSSR_STA1_MOD0_ROC4",
"FE_WRITER_CHANNEL" : "0",
"FE_WRITER_DETECTOR_ADDRESS" : "13",
"LINK_TO_DETECTOR_TABLE" : "DetectorConfiguration",
"LINK_TO_DETECTOR_UID" : "FSSR_STA1_MOD0_ROC4",
"COMMENT_DESCRIPTION" : "No Comment",
"AUTHOR" : "admin",
"RECORD_INSERTION_TIME" : "1509658009"
},
{
"FE_INTERFACE_GROUP_ID" : "PurdueFSSR1",
"DETECTOR_UID" : "FSSR_STA1_MOD1_ROC0",
"FE_WRITER_CHANNEL" : "1",
"FE_WRITER_DETECTOR_ADDRESS" : "9",
"LINK_TO_DETECTOR_TABLE" : "DetectorConfiguration",
"LINK_TO_DETECTOR_UID" : "FSSR_STA1_MOD1_ROC0",
"COMMENT_DESCRIPTION" : "No Comment",
"AUTHOR" : "admin",
"RECORD_INSERTION_TIME" : "1509658009"
},
{
"FE_INTERFACE_GROUP_ID" : "PurdueFSSR1",
"DETECTOR_UID" : "FSSR_STA1_MOD1_ROC1",
"FE_WRITER_CHANNEL" : "1",
"FE_WRITER_DETECTOR_ADDRESS" : "10",
"LINK_TO_DETECTOR_TABLE" : "DetectorConfiguration",
"LINK_TO_DETECTOR_UID" : "FSSR_STA1_MOD1_ROC1",
"COMMENT_DESCRIPTION" : "No Comment",
"AUTHOR" : "admin",
"RECORD_INSERTION_TIME" : "1509658009"
},
{
"FE_INTERFACE_GROUP_ID" : "PurdueFSSR1",
"DETECTOR_UID" : "FSSR_STA1_MOD1_ROC2",
"FE_WRITER_CHANNEL" : "1",
"FE_WRITER_DETECTOR_ADDRESS" : "11",
"LINK_TO_DETECTOR_TABLE" : "DetectorConfiguration",
"LINK_TO_DETECTOR_UID" : "FSSR_STA1_MOD1_ROC2",
"COMMENT_DESCRIPTION" : "No Comment",
"AUTHOR" : "admin",
"RECORD_INSERTION_TIME" : "1509658009"
},
{
"FE_INTERFACE_GROUP_ID" : "PurdueFSSR1",
"DETECTOR_UID" : "FSSR_STA1_MOD1_ROC3",
"FE_WRITER_CHANNEL" : "1",
"FE_WRITER_DETECTOR_ADDRESS" : "12",
"LINK_TO_DETECTOR_TABLE" : "DetectorConfiguration",
"LINK_TO_DETECTOR_UID" : "FSSR_STA1_MOD1_ROC3",
"COMMENT_DESCRIPTION" : "No Comment",
"AUTHOR" : "admin",
"RECORD_INSERTION_TIME" : "1509658009"
},
{
"FE_INTERFACE_GROUP_ID" : "PurdueFSSR1",
"DETECTOR_UID" : "FSSR_STA1_MOD1_ROC4",
"FE_WRITER_CHANNEL" : "1",
"FE_WRITER_DETECTOR_ADDRESS" : "13",
"LINK_TO_DETECTOR_TABLE" : "DetectorConfiguration",
"LINK_TO_DETECTOR_UID" : "FSSR_STA1_MOD1_ROC4",
"COMMENT_DESCRIPTION" : "No Comment",
"AUTHOR" : "admin",
"RECORD_INSERTION_TIME" : "1509658009"
},
{
"FE_INTERFACE_GROUP_ID" : "PurdueFSSR1",
"DETECTOR_UID" : "FSSR_STA1_MOD2_ROC0",
"FE_WRITER_CHANNEL" : "2",
"FE_WRITER_DETECTOR_ADDRESS" : "9",
"LINK_TO_DETECTOR_TABLE" : "DetectorConfiguration",
"LINK_TO_DETECTOR_UID" : "FSSR_STA1_MOD2_ROC0",
"COMMENT_DESCRIPTION" : "No Comment",
"AUTHOR" : "admin",
"RECORD_INSERTION_TIME" : "1509658009"
},
{
"FE_INTERFACE_GROUP_ID" : "PurdueFSSR1",
"DETECTOR_UID" : "FSSR_STA1_MOD2_ROC1",
"FE_WRITER_CHANNEL" : "2",
"FE_WRITER_DETECTOR_ADDRESS" : "10",
"LINK_TO_DETECTOR_TABLE" : "DetectorConfiguration",
"LINK_TO_DETECTOR_UID" : "FSSR_STA1_MOD2_ROC1",
"COMMENT_DESCRIPTION" : "No Comment",
"AUTHOR" : "admin",
"RECORD_INSERTION_TIME" : "1509658009"
},
{
"FE_INTERFACE_GROUP_ID" : "PurdueFSSR1",
"DETECTOR_UID" : "FSSR_STA1_MOD2_ROC2",
"FE_WRITER_CHANNEL" : "2",
"FE_WRITER_DETECTOR_ADDRESS" : "11",
"LINK_TO_DETECTOR_TABLE" : "DetectorConfiguration",
"LINK_TO_DETECTOR_UID" : "FSSR_STA1_MOD2_ROC2",
"COMMENT_DESCRIPTION" : "No Comment",
"AUTHOR" : "admin",
"RECORD_INSERTION_TIME" : "1509658009"
},
{
"FE_INTERFACE_GROUP_ID" : "PurdueFSSR1",
"DETECTOR_UID" : "FSSR_STA1_MOD2_ROC3",
"FE_WRITER_CHANNEL" : "2",
"FE_WRITER_DETECTOR_ADDRESS" : "12",
"LINK_TO_DETECTOR_TABLE" : "DetectorConfiguration",
"LINK_TO_DETECTOR_UID" : "FSSR_STA1_MOD2_ROC3",
"COMMENT_DESCRIPTION" : "No Comment",
"AUTHOR" : "admin",
"RECORD_INSERTION_TIME" : "1509658009"
},
{
"FE_INTERFACE_GROUP_ID" : "PurdueFSSR1",
"DETECTOR_UID" : "FSSR_STA1_MOD2_ROC4",
"FE_WRITER_CHANNEL" : "2",
"FE_WRITER_DETECTOR_ADDRESS" : "13",
"LINK_TO_DETECTOR_TABLE" : "DetectorConfiguration",
"LINK_TO_DETECTOR_UID" : "FSSR_STA1_MOD2_ROC4",
"COMMENT_DESCRIPTION" : "No Comment",
"AUTHOR" : "admin",
"RECORD_INSERTION_TIME" : "1509658009"
},
{
"FE_INTERFACE_GROUP_ID" : "PurdueFSSR1",
"DETECTOR_UID" : "FSSR_STA1_MOD3_ROC0",
"FE_WRITER_CHANNEL" : "3",
"FE_WRITER_DETECTOR_ADDRESS" : "9",
"LINK_TO_DETECTOR_TABLE" : "DetectorConfiguration",
"LINK_TO_DETECTOR_UID" : "FSSR_STA1_MOD3_ROC0",
"COMMENT_DESCRIPTION" : "No Comment",
"AUTHOR" : "admin",
"RECORD_INSERTION_TIME" : "1509658009"
},
{
"FE_INTERFACE_GROUP_ID" : "PurdueFSSR1",
"DETECTOR_UID" : "FSSR_STA1_MOD3_ROC1",
"FE_WRITER_CHANNEL" : "3",
"FE_WRITER_DETECTOR_ADDRESS" : "10",
"LINK_TO_DETECTOR_TABLE" : "DetectorConfiguration",
"LINK_TO_DETECTOR_UID" : "FSSR_STA1_MOD3_ROC1",
"COMMENT_DESCRIPTION" : "No Comment",
"AUTHOR" : "admin",
"RECORD_INSERTION_TIME" : "1509658009"
},
{
"FE_INTERFACE_GROUP_ID" : "PurdueFSSR1",
"DETECTOR_UID" : "FSSR_STA1_MOD3_ROC2",
"FE_WRITER_CHANNEL" : "3",
"FE_WRITER_DETECTOR_ADDRESS" : "11",
"LINK_TO_DETECTOR_TABLE" : "DetectorConfiguration",
"LINK_TO_DETECTOR_UID" : "FSSR_STA1_MOD3_ROC2",
"COMMENT_DESCRIPTION" : "No Comment",
"AUTHOR" : "admin",
"RECORD_INSERTION_TIME" : "1509658009"
},
{
"FE_INTERFACE_GROUP_ID" : "PurdueFSSR1",
"DETECTOR_UID" : "FSSR_STA1_MOD3_ROC3",
"FE_WRITER_CHANNEL" : "3",
"FE_WRITER_DETECTOR_ADDRESS" : "12",
"LINK_TO_DETECTOR_TABLE" : "DetectorConfiguration",
"LINK_TO_DETECTOR_UID" : "FSSR_STA1_MOD3_ROC3",
"COMMENT_DESCRIPTION" : "No Comment",
"AUTHOR" : "admin",
"RECORD_INSERTION_TIME" : "1509658009"
},
{
"FE_INTERFACE_GROUP_ID" : "PurdueFSSR1",
"DETECTOR_UID" : "FSSR_STA1_MOD3_ROC4",
"FE_WRITER_CHANNEL" : "3",
"FE_WRITER_DETECTOR_ADDRESS" : "13",
"LINK_TO_DETECTOR_TABLE" : "DetectorConfiguration",
"LINK_TO_DETECTOR_UID" : "FSSR_STA1_MOD3_ROC4",
"COMMENT_DESCRIPTION" : "No Comment",
"AUTHOR" : "admin",
"RECORD_INSERTION_TIME" : "1509658009"
},
{
"FE_INTERFACE_GROUP_ID" : "PurdueFSSR2",
"DETECTOR_UID" : "FSSR_STA2_MOD0_ROC0",
"FE_WRITER_CHANNEL" : "0",
"FE_WRITER_DETECTOR_ADDRESS" : "9",
"LINK_TO_DETECTOR_TABLE" : "DetectorConfiguration",
"LINK_TO_DETECTOR_UID" : "FSSR_STA2_MOD0_ROC0",
"COMMENT_DESCRIPTION" : "No Comment",
"AUTHOR" : "admin",
"RECORD_INSERTION_TIME" : "1509658009"
},
{
"FE_INTERFACE_GROUP_ID" : "PurdueFSSR2",
"DETECTOR_UID" : "FSSR_STA2_MOD0_ROC1",
"FE_WRITER_CHANNEL" : "0",
"FE_WRITER_DETECTOR_ADDRESS" : "10",
"LINK_TO_DETECTOR_TABLE" : "DetectorConfiguration",
"LINK_TO_DETECTOR_UID" : "FSSR_STA2_MOD0_ROC1",
"COMMENT_DESCRIPTION" : "No Comment",
"AUTHOR" : "admin",
"RECORD_INSERTION_TIME" : "1509658009"
},
{
"FE_INTERFACE_GROUP_ID" : "PurdueFSSR2",
"DETECTOR_UID" : "FSSR_STA2_MOD0_ROC2",
"FE_WRITER_CHANNEL" : "0",
"FE_WRITER_DETECTOR_ADDRESS" : "11",
"LINK_TO_DETECTOR_TABLE" : "DetectorConfiguration",
"LINK_TO_DETECTOR_UID" : "FSSR_STA2_MOD0_ROC2",
"COMMENT_DESCRIPTION" : "No Comment",
"AUTHOR" : "admin",
"RECORD_INSERTION_TIME" : "1509658009"
},
{
"FE_INTERFACE_GROUP_ID" : "PurdueFSSR2",
"DETECTOR_UID" : "FSSR_STA2_MOD0_ROC3",
"FE_WRITER_CHANNEL" : "0",
"FE_WRITER_DETECTOR_ADDRESS" : "12",
"LINK_TO_DETECTOR_TABLE" : "DetectorConfiguration",
"LINK_TO_DETECTOR_UID" : "FSSR_STA2_MOD0_ROC3",
"COMMENT_DESCRIPTION" : "No Comment",
"AUTHOR" : "admin",
"RECORD_INSERTION_TIME" : "1509658009"
},
{
"FE_INTERFACE_GROUP_ID" : "PurdueFSSR2",
"DETECTOR_UID" : "FSSR_STA2_MOD0_ROC4",
"FE_WRITER_CHANNEL" : "0",
"FE_WRITER_DETECTOR_ADDRESS" : "13",
"LINK_TO_DETECTOR_TABLE" : "DetectorConfiguration",
"LINK_TO_DETECTOR_UID" : "FSSR_STA2_MOD0_ROC4",
"COMMENT_DESCRIPTION" : "No Comment",
"AUTHOR" : "admin",
"RECORD_INSERTION_TIME" : "1509658009"
},
{
"FE_INTERFACE_GROUP_ID" : "PurdueFSSR2",
"DETECTOR_UID" : "FSSR_STA2_MOD1_ROC0",
"FE_WRITER_CHANNEL" : "1",
"FE_WRITER_DETECTOR_ADDRESS" : "9",
"LINK_TO_DETECTOR_TABLE" : "DetectorConfiguration",
"LINK_TO_DETECTOR_UID" : "FSSR_STA2_MOD1_ROC0",
"COMMENT_DESCRIPTION" : "No Comment",
"AUTHOR" : "admin",
"RECORD_INSERTION_TIME" : "1509658009"
},
{
"FE_INTERFACE_GROUP_ID" : "PurdueFSSR2",
"DETECTOR_UID" : "FSSR_STA2_MOD1_ROC1",
"FE_WRITER_CHANNEL" : "1",
"FE_WRITER_DETECTOR_ADDRESS" : "10",
"LINK_TO_DETECTOR_TABLE" : "DetectorConfiguration",
"LINK_TO_DETECTOR_UID" : "FSSR_STA2_MOD1_ROC1",
"COMMENT_DESCRIPTION" : "No Comment",
"AUTHOR" : "admin",
"RECORD_INSERTION_TIME" : "1509658009"
},
{
"FE_INTERFACE_GROUP_ID" : "PurdueFSSR2",
"DETECTOR_UID" : "FSSR_STA2_MOD1_ROC2",
"FE_WRITER_CHANNEL" : "1",
"FE_WRITER_DETECTOR_ADDRESS" : "11",
"LINK_TO_DETECTOR_TABLE" : "DetectorConfiguration",
"LINK_TO_DETECTOR_UID" : "FSSR_STA2_MOD1_ROC2",
"COMMENT_DESCRIPTION" : "No Comment",
"AUTHOR" : "admin",
"RECORD_INSERTION_TIME" : "1509658009"
},
{
"FE_INTERFACE_GROUP_ID" : "PurdueFSSR2",
"DETECTOR_UID" : "FSSR_STA2_MOD1_ROC3",
"FE_WRITER_CHANNEL" : "1",
"FE_WRITER_DETECTOR_ADDRESS" : "12",
"LINK_TO_DETECTOR_TABLE" : "DetectorConfiguration",
"LINK_TO_DETECTOR_UID" : "FSSR_STA2_MOD1_ROC3",
"COMMENT_DESCRIPTION" : "No Comment",
"AUTHOR" : "admin",
"RECORD_INSERTION_TIME" : "1509658009"
},
{
"FE_INTERFACE_GROUP_ID" : "PurdueFSSR2",
"DETECTOR_UID" : "FSSR_STA2_MOD1_ROC4",
"FE_WRITER_CHANNEL" : "1",
"FE_WRITER_DETECTOR_ADDRESS" : "13",
"LINK_TO_DETECTOR_TABLE" : "DetectorConfiguration",
"LINK_TO_DETECTOR_UID" : "FSSR_STA2_MOD1_ROC4",
"COMMENT_DESCRIPTION" : "No Comment",
"AUTHOR" : "admin",
"RECORD_INSERTION_TIME" : "1509658009"
},
{
"FE_INTERFACE_GROUP_ID" : "PurdueFSSR2",
"DETECTOR_UID" : "FSSR_STA2_MOD2_ROC0",
"FE_WRITER_CHANNEL" : "2",
"FE_WRITER_DETECTOR_ADDRESS" : "9",
"LINK_TO_DETECTOR_TABLE" : "DetectorConfiguration",
"LINK_TO_DETECTOR_UID" : "FSSR_STA2_MOD2_ROC0",
"COMMENT_DESCRIPTION" : "No Comment",
"AUTHOR" : "admin",
"RECORD_INSERTION_TIME" : "1509658009"
},
{
"FE_INTERFACE_GROUP_ID" : "PurdueFSSR2",
"DETECTOR_UID" : "FSSR_STA2_MOD2_ROC1",
"FE_WRITER_CHANNEL" : "2",
"FE_WRITER_DETECTOR_ADDRESS" : "10",
"LINK_TO_DETECTOR_TABLE" : "DetectorConfiguration",
"LINK_TO_DETECTOR_UID" : "FSSR_STA2_MOD2_ROC1",
"COMMENT_DESCRIPTION" : "No Comment",
"AUTHOR" : "admin",
"RECORD_INSERTION_TIME" : "1509658009"
},
{
"FE_INTERFACE_GROUP_ID" : "PurdueFSSR2",
"DETECTOR_UID" : "FSSR_STA2_MOD2_ROC2",
"FE_WRITER_CHANNEL" : "2",
"FE_WRITER_DETECTOR_ADDRESS" : "11",
"LINK_TO_DETECTOR_TABLE" : "DetectorConfiguration",
"LINK_TO_DETECTOR_UID" : "FSSR_STA2_MOD2_ROC2",
"COMMENT_DESCRIPTION" : "No Comment",
"AUTHOR" : "admin",
"RECORD_INSERTION_TIME" : "1509658009"
},
{
"FE_INTERFACE_GROUP_ID" : "PurdueFSSR2",
"DETECTOR_UID" : "FSSR_STA2_MOD2_ROC3",
"FE_WRITER_CHANNEL" : "2",
"FE_WRITER_DETECTOR_ADDRESS" : "12",
"LINK_TO_DETECTOR_TABLE" : "DetectorConfiguration",
"LINK_TO_DETECTOR_UID" : "FSSR_STA2_MOD2_ROC3",
"COMMENT_DESCRIPTION" : "No Comment",
"AUTHOR" : "admin",
"RECORD_INSERTION_TIME" : "1509658009"
},
{
"FE_INTERFACE_GROUP_ID" : "PurdueFSSR2",
"DETECTOR_UID" : "FSSR_STA2_MOD2_ROC4",
"FE_WRITER_CHANNEL" : "2",
"FE_WRITER_DETECTOR_ADDRESS" : "13",
"LINK_TO_DETECTOR_TABLE" : "DetectorConfiguration",
"LINK_TO_DETECTOR_UID" : "FSSR_STA2_MOD2_ROC4",
"COMMENT_DESCRIPTION" : "No Comment",
"AUTHOR" : "admin",
"RECORD_INSERTION_TIME" : "1509658009"
},
{
"FE_INTERFACE_GROUP_ID" : "PurdueFSSR2",
"DETECTOR_UID" : "FSSR_STA2_MOD3_ROC0",
"FE_WRITER_CHANNEL" : "3",
"FE_WRITER_DETECTOR_ADDRESS" : "9",
"LINK_TO_DETECTOR_TABLE" : "DetectorConfiguration",
"LINK_TO_DETECTOR_UID" : "FSSR_STA2_MOD3_ROC0",
"COMMENT_DESCRIPTION" : "No Comment",
"AUTHOR" : "admin",
"RECORD_INSERTION_TIME" : "1509658009"
},
{
"FE_INTERFACE_GROUP_ID" : "PurdueFSSR2",
"DETECTOR_UID" : "FSSR_STA2_MOD3_ROC1",
"FE_WRITER_CHANNEL" : "3",
"FE_WRITER_DETECTOR_ADDRESS" : "10",
"LINK_TO_DETECTOR_TABLE" : "DetectorConfiguration",
"LINK_TO_DETECTOR_UID" : "FSSR_STA2_MOD3_ROC1",
"COMMENT_DESCRIPTION" : "No Comment",
"AUTHOR" : "admin",
"RECORD_INSERTION_TIME" : "1509658009"
},
{
"FE_INTERFACE_GROUP_ID" : "PurdueFSSR2",
"DETECTOR_UID" : "FSSR_STA2_MOD3_ROC2",
"FE_WRITER_CHANNEL" : "3",
"FE_WRITER_DETECTOR_ADDRESS" : "11",
"LINK_TO_DETECTOR_TABLE" : "DetectorConfiguration",
"LINK_TO_DETECTOR_UID" : "FSSR_STA2_MOD3_ROC2",
"COMMENT_DESCRIPTION" : "No Comment",
"AUTHOR" : "admin",
"RECORD_INSERTION_TIME" : "1509658009"
},
{
"FE_INTERFACE_GROUP_ID" : "PurdueFSSR2",
"DETECTOR_UID" : "FSSR_STA2_MOD3_ROC3",
"FE_WRITER_CHANNEL" : "3",
"FE_WRITER_DETECTOR_ADDRESS" : "12",
"LINK_TO_DETECTOR_TABLE" : "DetectorConfiguration",
"LINK_TO_DETECTOR_UID" : "FSSR_STA2_MOD3_ROC3",
"COMMENT_DESCRIPTION" : "No Comment",
"AUTHOR" : "admin",
"RECORD_INSERTION_TIME" : "1509658009"
},
{
"FE_INTERFACE_GROUP_ID" : "PurdueFSSR2",
"DETECTOR_UID" : "FSSR_STA2_MOD3_ROC4",
"FE_WRITER_CHANNEL" : "3",
"FE_WRITER_DETECTOR_ADDRESS" : "13",
"LINK_TO_DETECTOR_TABLE" : "DetectorConfiguration",
"LINK_TO_DETECTOR_UID" : "FSSR_STA2_MOD3_ROC4",
"COMMENT_DESCRIPTION" : "No Comment",
"AUTHOR" : "admin",
"RECORD_INSERTION_TIME" : "1509658009"
},
{
"FE_INTERFACE_GROUP_ID" : "PurdueFSSR2",
"DETECTOR_UID" : "FSSR_STA2_MOD4_ROC0",
"FE_WRITER_CHANNEL" : "4",
"FE_WRITER_DETECTOR_ADDRESS" : "9",
"LINK_TO_DETECTOR_TABLE" : "DetectorConfiguration",
"LINK_TO_DETECTOR_UID" : "FSSR_STA2_MOD4_ROC0",
"COMMENT_DESCRIPTION" : "No Comment",
"AUTHOR" : "admin",
"RECORD_INSERTION_TIME" : "1509658009"
},
{
"FE_INTERFACE_GROUP_ID" : "PurdueFSSR2",
"DETECTOR_UID" : "FSSR_STA2_MOD4_ROC1",
"FE_WRITER_CHANNEL" : "4",
"FE_WRITER_DETECTOR_ADDRESS" : "10",
"LINK_TO_DETECTOR_TABLE" : "DetectorConfiguration",
"LINK_TO_DETECTOR_UID" : "FSSR_STA2_MOD4_ROC1",
"COMMENT_DESCRIPTION" : "No Comment",
"AUTHOR" : "admin",
"RECORD_INSERTION_TIME" : "1509658009"
},
{
"FE_INTERFACE_GROUP_ID" : "PurdueFSSR2",
"DETECTOR_UID" : "FSSR_STA2_MOD4_ROC2",
"FE_WRITER_CHANNEL" : "4",
"FE_WRITER_DETECTOR_ADDRESS" : "11",
"LINK_TO_DETECTOR_TABLE" : "DetectorConfiguration",
"LINK_TO_DETECTOR_UID" : "FSSR_STA2_MOD4_ROC2",
"COMMENT_DESCRIPTION" : "No Comment",
"AUTHOR" : "admin",
"RECORD_INSERTION_TIME" : "1509658009"
},
{
"FE_INTERFACE_GROUP_ID" : "PurdueFSSR2",
"DETECTOR_UID" : "FSSR_STA2_MOD4_ROC3",
"FE_WRITER_CHANNEL" : "4",
"FE_WRITER_DETECTOR_ADDRESS" : "12",
"LINK_TO_DETECTOR_TABLE" : "DetectorConfiguration",
"LINK_TO_DETECTOR_UID" : "FSSR_STA2_MOD4_ROC3",
"COMMENT_DESCRIPTION" : "No Comment",
"AUTHOR" : "admin",
"RECORD_INSERTION_TIME" : "1509658009"
},
{
"FE_INTERFACE_GROUP_ID" : "PurdueFSSR2",
"DETECTOR_UID" : "FSSR_STA2_MOD4_ROC4",
"FE_WRITER_CHANNEL" : "4",
"FE_WRITER_DETECTOR_ADDRESS" : "13",
"LINK_TO_DETECTOR_TABLE" : "DetectorConfiguration",
"LINK_TO_DETECTOR_UID" : "FSSR_STA2_MOD4_ROC4",
"COMMENT_DESCRIPTION" : "No Comment",
"AUTHOR" : "admin",
"RECORD_INSERTION_TIME" : "1509658009"
},
{
"FE_INTERFACE_GROUP_ID" : "PurdueFSSR2",
"DETECTOR_UID" : "FSSR_STA2_MOD5_ROC0",
"FE_WRITER_CHANNEL" : "5",
"FE_WRITER_DETECTOR_ADDRESS" : "9",
"LINK_TO_DETECTOR_TABLE" : "DetectorConfiguration",
"LINK_TO_DETECTOR_UID" : "FSSR_STA2_MOD5_ROC0",
"COMMENT_DESCRIPTION" : "No Comment",
"AUTHOR" : "admin",
"RECORD_INSERTION_TIME" : "1509658009"
},
{
"FE_INTERFACE_GROUP_ID" : "PurdueFSSR2",
"DETECTOR_UID" : "FSSR_STA2_MOD5_ROC1",
"FE_WRITER_CHANNEL" : "5",
"FE_WRITER_DETECTOR_ADDRESS" : "10",
"LINK_TO_DETECTOR_TABLE" : "DetectorConfiguration",
"LINK_TO_DETECTOR_UID" : "FSSR_STA2_MOD5_ROC1",
"COMMENT_DESCRIPTION" : "No Comment",
"AUTHOR" : "admin",
"RECORD_INSERTION_TIME" : "1509658009"
},
{
"FE_INTERFACE_GROUP_ID" : "PurdueFSSR2",
"DETECTOR_UID" : "FSSR_STA2_MOD5_ROC2",
"FE_WRITER_CHANNEL" : "5",
"FE_WRITER_DETECTOR_ADDRESS" : "11",
"LINK_TO_DETECTOR_TABLE" : "DetectorConfiguration",
"LINK_TO_DETECTOR_UID" : "FSSR_STA2_MOD5_ROC2",
"COMMENT_DESCRIPTION" : "No Comment",
"AUTHOR" : "admin",
"RECORD_INSERTION_TIME" : "1509658009"
},
{
"FE_INTERFACE_GROUP_ID" : "PurdueFSSR2",
"DETECTOR_UID" : "FSSR_STA2_MOD5_ROC3",
"FE_WRITER_CHANNEL" : "5",
"FE_WRITER_DETECTOR_ADDRESS" : "12",
"LINK_TO_DETECTOR_TABLE" : "DetectorConfiguration",
"LINK_TO_DETECTOR_UID" : "FSSR_STA2_MOD5_ROC3",
"COMMENT_DESCRIPTION" : "No Comment",
"AUTHOR" : "admin",
"RECORD_INSERTION_TIME" : "1509658009"
},
{
"FE_INTERFACE_GROUP_ID" : "PurdueFSSR2",
"DETECTOR_UID" : "FSSR_STA2_MOD5_ROC4",
"FE_WRITER_CHANNEL" : "5",
"FE_WRITER_DETECTOR_ADDRESS" : "13",
"LINK_TO_DETECTOR_TABLE" : "DetectorConfiguration",
"LINK_TO_DETECTOR_UID" : "FSSR_STA2_MOD5_ROC4",
"COMMENT_DESCRIPTION" : "No Comment",
"AUTHOR" : "admin",
"RECORD_INSERTION_TIME" : "1509658009"
}
]
},
"metadata" : {

},
"search" : [

]
},
"comments" : [

],
"origin" : {
"source" : "template",
"name" : "notprovided",
"format" : "json",
"created" : "2017-11-08T15:56:04.011-0600",
"rawdata" : [

]
},
"version" : "0",
"entities" : [
{
"name" : "OTSROOT",
"assigned" : "2017-11-08T15:56:04.024-0600"
}
],
"configurations" : [
{
"name" : "notprovided",
"assigned" : "2017-11-08T15:56:04.017-0600"
},
{
"name" : "FTBFConfig_v0",
"assigned" : "2017-11-08T15:56:06.994-0600"
},
{
"name" : "FTBFConfig_v1",
"assigned" : "2017-11-09T09:56:31.793-0600"
},
{
"name" : "FTBFConfig_v2",
"assigned" : "2017-11-09T10:06:00.779-0600"
},
{
"name" : "FTBFConfig_v3",
"assigned" : "2017-11-09T10:37:12.370-0600"
},
{
"name" : "FTBFConfig_v4",
"assigned" : "2017-11-15T11:30:11.214-0600"
},
{
"name" : "FTBFConfig_v5",
"assigned" : "2017-11-15T11:54:58.054-0600"
},
{
"name" : "FTBFConfig_v6",
"assigned" : "2017-11-15T11:57:50.683-0600"
},
{
"name" : "FTBFConfig_v7",
"assigned" : "2017-11-15T12:42:33.139-0600"
},
{
"name" : "FTBFConfig_v8",
"assigned" : "2017-11-15T13:01:04.171-0600"
},
{
"name" : "FTBFConfig_v9",
"assigned" : "2017-11-15T13:02:57.535-0600"
},
{
"name" : "FTBFConfig_v10",
"assigned" : "2017-11-15T13:04:25.127-0600"
},
{
"name" : "FTBFConfig_v11",
"assigned" : "2017-11-15T13:07:52.637-0600"
},
{
"name" : "FTBFConfig_v12",
"assigned" : "2017-11-15T13:12:00.107-0600"
},
{
"name" : "FTBFConfig_v13",
"assigned" : "2017-11-15T13:13:54.068-0600"
},
{
"name" : "FTBFConfig_v14",
"assigned" : "2017-11-15T13:27:33.583-0600"
},
{
"name" : "FTBFConfig_v15",
"assigned" : "2017-11-15T13:35:48.082-0600"
},
{
"name" : "FTBFConfig_v16",
"assigned" : "2017-11-15T13:36:52.686-0600"
},
{
"name" : "FTBFConfig_v17",
"assigned" : "2017-11-15T15:33:31.252-0600"
},
{
"name" : "FTBFConfig_v18",
"assigned" : "2017-11-15T15:35:34.871-0600"
},
{
"name" : "FTBFConfig_v19",
"assigned" : "2017-11-15T15:38:03.740-0600"
},
{
"name" : "FTBFConfig_v20",
"assigned" : "2017-11-15T16:26:31.718-0600"
},
{
"name" : "FTBFConfig_v21",
"assigned" : "2017-11-16T09:22:32.563-0600"
},
{
"name" : "FTBFConfig_v22",
"assigned" : "2017-11-17T10:23:28.785-0600"
},
{
"name" : "FTBFConfig_v23",
"assigned" : "2017-11-17T17:26:46.414-0600"
},
{
"name" : "FTBFConfig_v24",
"assigned" : "2017-11-17T17:58:26.965-0600"
},
{
"name" : "FTBFConfig_v25",
"assigned" : "2017-11-17T18:24:46.657-0600"
},
{
"name" : "FTBFConfig_v26",
"assigned" : "2017-11-17T18:32:24.551-0600"
},
{
"name" : "FTBFConfig_v27",
"assigned" : "2017-11-17T18:43:31.662-0600"
},
{
"name" : "FTBFConfig_v28",
"assigned" : "2017-11-17T18:48:33.799-0600"
},
{
"name" : "FTBFConfig_v29",
"assigned" : "2017-11-20T14:48:32.081-0600"
},
{
"name" : "FTBFConfig_v30",
"assigned" : "2017-11-20T15:39:57.135-0600"
},
{
"name" : "FTBFConfig_v31",
"assigned" : "2017-11-20T16:41:03.182-0600"
},
{
"name" : "FTBFConfig_v32",
"assigned" : "2017-11-20T18:55:36.132-0600"
},
{
"name" : "FTBFConfig_v33",
"assigned" : "2017-11-20T18:57:31.448-0600"
},
{
"name" : "FTBFConfig_v34",
"assigned" : "2017-11-29T17:50:40.904-0600"
},
{
"name" : "FTBFConfig_v35",
"assigned" : "2017-11-29T18:00:33.945-0600"
},
{
"name" : "FTBFConfig_v36",
"assigned" : "2017-11-29T18:35:12.575-0600"
},
{
"name" : "FTBFConfig_v37",
"assigned" : "2017-12-01T09:36:19.448-0600"
},
{
"name" : "FTBFConfig_v38",
"assigned" : "2017-12-01T09:52:02.365-0600"
},
{
"name" : "FTBFConfig_v39",
"assigned" : "2017-12-01T11:51:59.634-0600"
},
{
"name" : "FTBFConfig_v40",
"assigned" : "2017-12-01T12:18:21.762-0600"
},
{
"name" : "FTBFConfig_v41",
"assigned" : "2017-12-01T12:21:03.749-0600"
},
{
"name" : "FTBFConfig_v42",
"assigned" : "2017-12-01T12:43:23.204-0600"
},
{
"name" : "FTBFConfig_v43",
"assigned" : "2017-12-01T12:58:01.111-0600"
},
{
"name" : "FTBFConfig_v44",
"assigned" : "2017-12-01T13:00:53.650-0600"
},
{
"name" : "FTBFConfig_v45",
"assigned" : "2017-12-01T13:25:50.195-0600"
},
{
"name" : "FTBFConfig_v46",
"assigned" : "2017-12-01T13:35:45.042-0600"
},
{
"name" : "FTBFConfig_v47",
"assigned" : "2017-12-01T14:00:53.203-0600"
},
{
"name" : "FTBFConfig_v48",
"assigned" : "2017-12-01T14:04:00.563-0600"
},
{
"name" : "FTBFConfig_v49",
"assigned" : "2017-12-01T15:32:00.741-0600"
},
{
"name" : "FTBFConfig_v52",
"assigned" : "2017-12-01T15:37:33.664-0600"
},
{
"name" : "FTBFConfig_v53",
"assigned" : "2017-12-01T15:41:00.265-0600"
},
{
"name" : "FTBFConfig_v54",
"assigned" : "2017-12-01T15:52:50.566-0600"
},
{
"name" : "FTBFConfig_v55",
"assigned" : "2017-12-01T15:54:35.747-0600"
},
{
"name" : "FTBFConfig_v56",
"assigned" : "2017-12-01T15:55:35.334-0600"
},
{
"name" : "FTBFConfig_v57",
"assigned" : "2017-12-01T15:56:41.184-0600"
},
{
"name" : "FTBFConfig_v58",
"assigned" : "2017-12-01T15:57:39.289-0600"
},
{
"name" : "FTBFConfig_v59",
"assigned" : "2017-12-01T15:58:31.144-0600"
},
{
"name" : "FTBFConfig_v60",
"assigned" : "2017-12-01T15:59:32.394-0600"
},
{
"name" : "FTBFConfig_v61",
"assigned" : "2017-12-01T16:19:42.252-0600"
},
{
"name" : "FTBFConfig_v62",
"assigned" : "2017-12-01T16:22:04.680-0600"
},
{
"name" : "FTBFConfig_v63",
"assigned" : "2017-12-01T16:31:25.337-0600"
},
{
"name" : "FTBFConfig_v64",
"assigned" : "2017-12-01T17:06:32.691-0600"
},
{
"name" : "FTBFConfig_v65",
"assigned" : "2017-12-01T17:32:44.891-0600"
},
{
"name" : "FTBFConfig_v66",
"assigned" : "2017-12-01T20:38:51.219-0600"
},
{
"name" : "FTBFConfig_v67",
"assigned" : "2017-12-01T21:25:02.573-0600"
},
{
"name" : "FTBFConfig_v68",
"assigned" : "2017-12-01T21:43:02.284-0600"
},
{
"name" : "FTBFConfig_v69",
"assigned" : "2017-12-01T21:45:00.854-0600"
},
{
"name" : "FTBFConfig_v70",
"assigned" : "2017-12-01T21:59:20.180-0600"
},
{
"name" : "FTBFConfigNim_v0",
"assigned" : "2017-12-01T22:00:06.899-0600"
},
{
"name" : "FTBFConfigNim_v1",
"assigned" : "2017-12-01T22:13:08.693-0600"
},
{
"name" : "FTBFConfigNim_v2",
"assigned" : "2017-12-01T22:15:55.901-0600"
},
{
"name" : "FTBFConfigNim_v3",
"assigned" : "2017-12-01T22:17:04.478-0600"
},
{
"name" : "FTBFConfigNim_v4",
"assigned" : "2017-12-01T22:19:07.008-0600"
},
{
"name" : "FTBFConfigNim_v5",
"assigned" : "2017-12-01T22:21:57.788-0600"
},
{
"name" : "FTBFConfigNim_v6",
"assigned" : "2017-12-01T22:23:16.290-0600"
},
{
"name" : "FTBFConfigNim_v7",
"assigned" : "2017-12-01T22:25:17.780-0600"
},
{
"name" : "FTBFConfigNim_v8",
"assigned" : "2017-12-01T22:27:05.461-0600"
},
{
"name" : "FTBFConfigNim_v9",
"assigned" : "2017-12-01T22:29:29.600-0600"
},
{
"name" : "FTBFConfigNim_v10",
"assigned" : "2017-12-01T22:52:34.937-0600"
},
{
"name" : "FTBFConfigNim_v11",
"assigned" : "2017-12-01T22:57:29.603-0600"
},
{
"name" : "FTBFConfigNim_v12",
"assigned" : "2017-12-01T23:00:07.796-0600"
},
{
"name" : "FTBFConfigNim_v13",
"assigned" : "2017-12-01T23:52:35.949-0600"
},
{
"name" : "FTBFConfigNim_v14",
"assigned" : "2017-12-01T23:58:10.434-0600"
},
{
"name" : "FTBFConfigNim_v15",
"assigned" : "2017-12-02T00:00:34.628-0600"
},
{
"name" : "FTBFConfigNim_v16",
"assigned" : "2017-12-02T00:13:09.863-0600"
},
{
"name" : "FTBFConfigNim_v17",
"assigned" : "2017-12-02T00:28:28.762-0600"
},
{
"name" : "FTBFConfigNim_v18",
"assigned" : "2017-12-02T00:29:34.848-0600"
},
{
"name" : "FTBFConfigNim_v19",
"assigned" : "2017-12-02T00:31:13.703-0600"
},
{
"name" : "FTBFConfigNim_v20",
"assigned" : "2017-12-02T00:57:27.877-0600"
},
{
"name" : "FTBFConfigNim_v21",
"assigned" : "2017-12-02T10:58:02.435-0600"
},
{
"name" : "FTBFConfigNim_v22",
"assigned" : "2017-12-02T11:08:18.624-0600"
},
{
"name" : "FTBFConfigNim_v23",
"assigned" : "2017-12-02T11:12:40.254-0600"
},
{
"name" : "FTBFConfigNim_v24",
"assigned" : "2017-12-02T11:18:43.129-0600"
},
{
"name" : "FTBFConfigNim_v25",
"assigned" : "2017-12-02T11:27:06.331-0600"
},
{
"name" : "FTBFConfigNim_v26",
"assigned" : "2017-12-02T11:38:37.381-0600"
},
{
"name" : "FTBFConfigNim_v27",
"assigned" : "2017-12-02T11:49:08.594-0600"
},
{
"name" : "FTBFConfigNim_v28",
"assigned" : "2017-12-02T11:55:10.109-0600"
},
{
"name" : "FTBFConfigNim_v29",
"assigned" : "2017-12-02T12:06:26.924-0600"
},
{
"name" : "FTBFConfig_v71",
"assigned" : "2017-12-02T12:24:15.558-0600"
},
{
"name" : "FTBFConfig_v72",
"assigned" : "2017-12-02T12:43:36.456-0600"
},
{
"name" : "FTBFConfig_v73",
"assigned" : "2017-12-02T13:55:36.139-0600"
},
{
"name" : "FTBFConfig_v75",
"assigned" : "2017-12-02T14:12:19.325-0600"
},
{
"name" : "FTBFConfig_v76",
"assigned" : "2017-12-02T19:05:54.346-0600"
},
{
"name" : "FTBFConfig_v77",
"assigned" : "2017-12-02T19:12:14.175-0600"
},
{
"name" : "FTBFConfig_v78",
"assigned" : "2017-12-03T14:03:49.322-0600"
},
{
"name" : "FTBFConfig_v79",
"assigned" : "2017-12-03T14:09:07.589-0600"
},
{
"name" : "FTBFConfig_v80",
"assigned" : "2017-12-03T14:11:11.394-0600"
},
{
"name" : "FTBFConfig_v81",
"assigned" : "2017-12-03T14:22:34.387-0600"
},
{
"name" : "FTBFConfig_v82",
"assigned" : "2017-12-03T14:40:39.222-0600"
},
{
"name" : "FTBFConfig_v83",
"assigned" : "2017-12-03T14:45:06.560-0600"
},
{
"name" : "FTBFConfig_v84",
"assigned" : "2017-12-04T14:51:31.844-0600"
},
{
"name" : "FTBFConfig_v85",
"assigned" : "2017-12-04T14:55:45.042-0600"
},
{
"name" : "FTBFConfig_v86",
"assigned" : "2017-12-04T16:51:08.115-0600"
},
{
"name" : "FTBFConfig_v87",
"assigned" : "2017-12-04T16:56:48.750-0600"
},
{
"name" : "FTBFConfig_v88",
"assigned" : "2017-12-04T17:01:13.508-0600"
},
{
"name" : "FTBFConfig_v89",
"assigned" : "2017-12-04T17:03:58.625-0600"
},
{
"name" : "FTBFConfig_v90",
"assigned" : "2017-12-04T17:07:18.276-0600"
},
{
"name" : "FTBFConfig_v91",
"assigned" : "2017-12-04T17:09:27.426-0600"
},
{
"name" : "FTBFConfig_v92",
"assigned" : "2017-12-04T17:11:39.932-0600"
},
{
"name" : "FTBFConfig_v93",
"assigned" : "2017-12-04T21:05:22.461-0600"
},
{
"name" : "FTBFConfig_v94",
"assigned" : "2017-12-04T21:17:13.461-0600"
},
{
"name" : "FTBFConfig_v95",
"assigned" : "2017-12-04T21:41:19.091-0600"
},
{
"name" : "FTBFConfig_v96",
"assigned" : "2017-12-04T22:39:03.760-0600"
},
{
"name" : "FTBFConfig_v97",
"assigned" : "2017-12-04T23:01:14.258-0600"
},
{
"name" : "FTBFConfig_v98",
"assigned" : "2017-12-07T11:07:48.264-0600"
},
{
"name" : "FTBFConfig_v99",
"assigned" : "2017-12-07T11:50:00.923-0600"
},
{
"name" : "FTBFConfig_v100",
"assigned" : "2017-12-07T11:58:27.676-0600"
},
{
"name" : "FTBFConfig_v101",
"assigned" : "2017-12-08T13:30:49.855-0600"
},
{
"name" : "FTBFConfig_v102",
"assigned" : "2017-12-08T13:32:36.720-0600"
},
{
"name" : "FTBFConfig_v103",
"assigned" : "2017-12-12T11:03:06.544-0600"
},
{
"name" : "FTBFConfig_v104",
"assigned" : "2017-12-12T13:51:01.103-0600"
},
{
"name" : "FTBFConfig_v105",
"assigned" : "2017-12-12T15:25:07.071-0600"
},
{
"name" : "FTBFConfig_v106",
"assigned" : "2017-12-13T10:24:25.370-0600"
},
{
"name" : "FTBFConfig_v107",
"assigned" : "2017-12-13T10:27:04.086-0600"
},
{
"name" : "FTBFConfig_v108",
"assigned" : "2018-02-01T21:14:27.795-0600"
},
{
"name" : "FTBFConfig_v109",
"assigned" : "2018-02-01T21:21:04.921-0600"
},
{
"name" : "FTBFConfig_v110",
"assigned" : "2018-02-02T11:25:35.913-0600"
},
{
"name" : "FTBFConfig_v111",
"assigned" : "2018-02-02T11:37:14.745-0600"
},
{
"name" : "FTBFConfig_v112",
"assigned" : "2018-02-02T11:47:17.242-0600"
},
{
"name" : "FTBFConfig_v113",
"assigned" : "2018-02-02T11:53:38.496-0600"
},
{
"name" : "FTBFConfig_v114",
"assigned" : "2018-02-02T12:00:54.618-0600"
},
{
"name" : "FTBFConfig_v115",
"assigned" : "2018-02-02T12:27:16.089-0600"
},
{
"name" : "FTBFConfig_v116",
"assigned" : "2018-02-02T14:28:55.611-0600"
},
{
"name" : "FTBFConfig_v117",
"assigned" : "2018-02-02T14:30:21.980-0600"
},
{
"name" : "FTBFConfig_v118",
"assigned" : "2018-02-02T14:34:03.230-0600"
},
{
"name" : "FTBFConfig_v119",
"assigned" : "2018-02-02T14:36:29.833-0600"
},
{
"name" : "FTBFConfig_v120",
"assigned" : "2018-02-02T14:38:43.247-0600"
},
{
"name" : "FTBFConfig_v121",
"assigned" : "2018-02-02T14:41:52.498-0600"
},
{
"name" : "FTBFConfig_v122",
"assigned" : "2018-02-02T14:50:26.599-0600"
},
{
"name" : "FTBFConfig_v123",
"assigned" : "2018-02-02T14:52:59.473-0600"
},
{
"name" : "FTBFConfig_v124",
"assigned" : "2018-02-02T14:59:52.787-0600"
},
{
"name" : "FTBFConfig_v125",
"assigned" : "2018-02-02T15:04:10.911-0600"
},
{
"name" : "FTBFConfig_v126",
"assigned" : "2018-02-02T15:50:14.239-0600"
},
{
"name" : "FTBFConfig_v127",
"assigned" : "2018-02-02T15:51:33.630-0600"
},
{
"name" : "FTBFConfig_v128",
"assigned" : "2018-02-02T15:52:38.790-0600"
},
{
"name" : "FTBFConfig_v129",
"assigned" : "2018-02-02T16:02:47.716-0600"
},
{
"name" : "FTBFConfig_v130",
"assigned" : "2018-02-02T16:08:47.271-0600"
},
{
"name" : "FTBFConfig_v131",
"assigned" : "2018-02-02T16:11:33.122-0600"
},
{
"name" : "FTBFConfig_v132",
"assigned" : "2018-02-02T16:13:00.992-0600"
},
{
"name" : "FTBFConfig_v133",
"assigned" : "2018-02-02T16:14:31.618-0600"
},
{
"name" : "FTBFConfig_v134",
"assigned" : "2018-02-02T16:26:24.513-0600"
},
{
"name" : "FTBFConfig_v135",
"assigned" : "2018-02-02T16:27:11.628-0600"
},
{
"name" : "FTBFConfig_v136",
"assigned" : "2018-02-02T16:29:32.990-0600"
},
{
"name" : "FTBFConfig_v137",
"assigned" : "2018-02-02T16:31:43.612-0600"
},
{
"name" : "FTBFConfig_v138",
"assigned" : "2018-02-02T16:34:16.292-0600"
},
{
"name" : "FTBFConfig_v139",
"assigned" : "2018-02-02T17:39:32.345-0600"
},
{
"name" : "FTBFConfig_v140",
"assigned" : "2018-02-02T17:42:54.546-0600"
},
{
"name" : "FTBFConfig_v141",
"assigned" : "2018-02-02T17:47:39.762-0600"
},
{
"name" : "FTBFConfig_v142",
"assigned" : "2018-02-02T17:54:03.756-0600"
}
],
"changelog" : "notprovided",
"bookkeeping" : {
"isdeleted" : false,
"isreadonly" : false,
"updates" : [
{
"event" : "addConfiguration",
"timestamp" : "2017-11-08T15:56:04.017-0600",
"value" : {
"name" : "notprovided",
"assigned" : "2017-11-08T15:56:04.017-0600"
}
},
{
"event" : "setVersion",
"timestamp" : "2017-11-08T15:56:04.019-0600",
"value" : {
"name" : "0",
"assigned" : "2017-11-08T15:56:04.019-0600"
}
},
{
"event" : "setCollection",
"timestamp" : "2017-11-08T15:56:04.022-0600",
"value" : {
"name" : "FEToDetectorConfiguration",
"assigned" : "2017-11-08T15:56:04.022-0600"
}
},
{
"event" : "addEntity",
"timestamp" : "2017-11-08T15:56:04.024-0600",
"value" : {
"name" : "OTSROOT",
"assigned" : "2017-11-08T15:56:04.024-0600"
}
},
{
"event" : "addConfiguration",
"timestamp" : "2017-11-08T15:56:06.994-0600",
"value" : {
"name" : "FTBFConfig_v0",
"assigned" : "2017-11-08T15:56:06.994-0600"
}
},
{
"event" : "addConfiguration",
"timestamp" : "2017-11-09T09:56:31.793-0600",
"value" : {
"name" : "FTBFConfig_v1",
"assigned" : "2017-11-09T09:56:31.793-0600"
}
},
{
"event" : "addConfiguration",
"timestamp" : "2017-11-09T10:06:00.779-0600",
"value" : {
"name" : "FTBFConfig_v2",
"assigned" : "2017-11-09T10:06:00.779-0600"
}
},
{
"event" : "addConfiguration",
"timestamp" : "2017-11-09T10:37:12.370-0600",
"value" : {
"name" : "FTBFConfig_v3",
"assigned" : "2017-11-09T10:37:12.370-0600"
}
},
{
"event" : "addConfiguration",
"timestamp" : "2017-11-15T11:30:11.214-0600",
"value" : {
"name" : "FTBFConfig_v4",
"assigned" : "2017-11-15T11:30:11.214-0600"
}
},
{
"event" : "addConfiguration",
"timestamp" : "2017-11-15T11:54:58.054-0600",
"value" : {
"name" : "FTBFConfig_v5",
"assigned" : "2017-11-15T11:54:58.054-0600"
}
},
{
"event" : "addConfiguration",
"timestamp" : "2017-11-15T11:57:50.683-0600",
"value" : {
"name" : "FTBFConfig_v6",
"assigned" : "2017-11-15T11:57:50.683-0600"
}
},
{
"event" : "addConfiguration",
"timestamp" : "2017-11-15T12:42:33.139-0600",
"value" : {
"name" : "FTBFConfig_v7",
"assigned" : "2017-11-15T12:42:33.139-0600"
}
},
{
"event" : "addConfiguration",
"timestamp" : "2017-11-15T13:01:04.171-0600",
"value" : {
"name" : "FTBFConfig_v8",
"assigned" : "2017-11-15T13:01:04.171-0600"
}
},
{
"event" : "addConfiguration",
"timestamp" : "2017-11-15T13:02:57.535-0600",
"value" : {
"name" : "FTBFConfig_v9",
"assigned" : "2017-11-15T13:02:57.535-0600"
}
},
{
"event" : "addConfiguration",
"timestamp" : "2017-11-15T13:04:25.127-0600",
"value" : {
"name" : "FTBFConfig_v10",
"assigned" : "2017-11-15T13:04:25.127-0600"
}
},
{
"event" : "addConfiguration",
"timestamp" : "2017-11-15T13:07:52.637-0600",
"value" : {
"name" : "FTBFConfig_v11",
"assigned" : "2017-11-15T13:07:52.637-0600"
}
},
{
"event" : "addConfiguration",
"timestamp" : "2017-11-15T13:12:00.107-0600",
"value" : {
"name" : "FTBFConfig_v12",
"assigned" : "2017-11-15T13:12:00.107-0600"
}
},
{
"event" : "addConfiguration",
"timestamp" : "2017-11-15T13:13:54.068-0600",
"value" : {
"name" : "FTBFConfig_v13",
"assigned" : "2017-11-15T13:13:54.068-0600"
}
},
{
"event" : "addConfiguration",
"timestamp" : "2017-11-15T13:27:33.583-0600",
"value" : {
"name" : "FTBFConfig_v14",
"assigned" : "2017-11-15T13:27:33.583-0600"
}
},
{
"event" : "addConfiguration",
"timestamp" : "2017-11-15T13:35:48.082-0600",
"value" : {
"name" : "FTBFConfig_v15",
"assigned" : "2017-11-15T13:35:48.082-0600"
}
},
{
"event" : "addConfiguration",
"timestamp" : "2017-11-15T13:36:52.686-0600",
"value" : {
"name" : "FTBFConfig_v16",
"assigned" : "2017-11-15T13:36:52.686-0600"
}
},
{
"event" : "addConfiguration",
"timestamp" : "2017-11-15T15:33:31.252-0600",
"value" : {
"name" : "FTBFConfig_v17",
"assigned" : "2017-11-15T15:33:31.252-0600"
}
},
{
"event" : "addConfiguration",
"timestamp" : "2017-11-15T15:35:34.871-0600",
"value" : {
"name" : "FTBFConfig_v18",
"assigned" : "2017-11-15T15:35:34.871-0600"
}
},
{
"event" : "addConfiguration",
"timestamp" : "2017-11-15T15:38:03.740-0600",
"value" : {
"name" : "FTBFConfig_v19",
"assigned" : "2017-11-15T15:38:03.740-0600"
}
},
{
"event" : "addConfiguration",
"timestamp" : "2017-11-15T16:26:31.718-0600",
"value" : {
"name" : "FTBFConfig_v20",
"assigned" : "2017-11-15T16:26:31.718-0600"
}
},
{
"event" : "addConfiguration",
"timestamp" : "2017-11-16T09:22:32.563-0600",
"value" : {
"name" : "FTBFConfig_v21",
"assigned" : "2017-11-16T09:22:32.563-0600"
}
},
{
"event" : "addConfiguration",
"timestamp" : "2017-11-17T10:23:28.785-0600",
"value" : {
"name" : "FTBFConfig_v22",
"assigned" : "2017-11-17T10:23:28.785-0600"
}
},
{
"event" : "addConfiguration",
"timestamp" : "2017-11-17T17:26:46.414-0600",
"value" : {
"name" : "FTBFConfig_v23",
"assigned" : "2017-11-17T17:26:46.414-0600"
}
},
{
"event" : "addConfiguration",
"timestamp" : "2017-11-17T17:58:26.965-0600",
"value" : {
"name" : "FTBFConfig_v24",
"assigned" : "2017-11-17T17:58:26.965-0600"
}
},
{
"event" : "addConfiguration",
"timestamp" : "2017-11-17T18:24:46.657-0600",
"value" : {
"name" : "FTBFConfig_v25",
"assigned" : "2017-11-17T18:24:46.657-0600"
}
},
{
"event" : "addConfiguration",
"timestamp" : "2017-11-17T18:32:24.551-0600",
"value" : {
"name" : "FTBFConfig_v26",
"assigned" : "2017-11-17T18:32:24.551-0600"
}
},
{
"event" : "addConfiguration",
"timestamp" : "2017-11-17T18:43:31.662-0600",
"value" : {
"name" : "FTBFConfig_v27",
"assigned" : "2017-11-17T18:43:31.662-0600"
}
},
{
"event" : "addConfiguration",
"timestamp" : "2017-11-17T18:48:33.799-0600",
"value" : {
"name" : "FTBFConfig_v28",
"assigned" : "2017-11-17T18:48:33.799-0600"
}
},
{
"event" : "addConfiguration",
"timestamp" : "2017-11-20T14:48:32.081-0600",
"value" : {
"name" : "FTBFConfig_v29",
"assigned" : "2017-11-20T14:48:32.081-0600"
}
},
{
"event" : "addConfiguration",
"timestamp" : "2017-11-20T15:39:57.135-0600",
"value" : {
"name" : "FTBFConfig_v30",
"assigned" : "2017-11-20T15:39:57.135-0600"
}
},
{
"event" : "addConfiguration",
"timestamp" : "2017-11-20T16:41:03.182-0600",
"value" : {
"name" : "FTBFConfig_v31",
"assigned" : "2017-11-20T16:41:03.182-0600"
}
},
{
"event" : "addConfiguration",
"timestamp" : "2017-11-20T18:55:36.132-0600",
"value" : {
"name" : "FTBFConfig_v32",
"assigned" : "2017-11-20T18:55:36.132-0600"
}
},
{
"event" : "addConfiguration",
"timestamp" : "2017-11-20T18:57:31.448-0600",
"value" : {
"name" : "FTBFConfig_v33",
"assigned" : "2017-11-20T18:57:31.448-0600"
}
},
{
"event" : "addConfiguration",
"timestamp" : "2017-11-29T17:50:40.904-0600",
"value" : {
"name" : "FTBFConfig_v34",
"assigned" : "2017-11-29T17:50:40.904-0600"
}
},
{
"event" : "addConfiguration",
"timestamp" : "2017-11-29T18:00:33.945-0600",
"value" : {
"name" : "FTBFConfig_v35",
"assigned" : "2017-11-29T18:00:33.945-0600"
}
},
{
"event" : "addConfiguration",
"timestamp" : "2017-11-29T18:35:12.575-0600",
"value" : {
"name" : "FTBFConfig_v36",
"assigned" : "2017-11-29T18:35:12.575-0600"
}
},
{
"event" : "addConfiguration",
"timestamp" : "2017-12-01T09:36:19.448-0600",
"value" : {
"name" : "FTBFConfig_v37",
"assigned" : "2017-12-01T09:36:19.448-0600"
}
},
{
"event" : "addConfiguration",
"timestamp" : "2017-12-01T09:52:02.365-0600",
"value" : {
"name" : "FTBFConfig_v38",
"assigned" : "2017-12-01T09:52:02.365-0600"
}
},
{
"event" : "addConfiguration",
"timestamp" : "2017-12-01T11:51:59.635-0600",
"value" : {
"name" : "FTBFConfig_v39",
"assigned" : "2017-12-01T11:51:59.634-0600"
}
},
{
"event" : "addConfiguration",
"timestamp" : "2017-12-01T12:18:21.762-0600",
"value" : {
"name" : "FTBFConfig_v40",
"assigned" : "2017-12-01T12:18:21.762-0600"
}
},
{
"event" : "addConfiguration",
"timestamp" : "2017-12-01T12:21:03.749-0600",
"value" : {
"name" : "FTBFConfig_v41",
"assigned" : "2017-12-01T12:21:03.749-0600"
}
},
{
"event" : "addConfiguration",
"timestamp" : "2017-12-01T12:43:23.204-0600",
"value" : {
"name" : "FTBFConfig_v42",
"assigned" : "2017-12-01T12:43:23.204-0600"
}
},
{
"event" : "addConfiguration",
"timestamp" : "2017-12-01T12:58:01.111-0600",
"value" : {
"name" : "FTBFConfig_v43",
"assigned" : "2017-12-01T12:58:01.111-0600"
}
},
{
"event" : "addConfiguration",
"timestamp" : "2017-12-01T13:00:53.650-0600",
"value" : {
"name" : "FTBFConfig_v44",
"assigned" : "2017-12-01T13:00:53.650-0600"
}
},
{
"event" : "addConfiguration",
"timestamp" : "2017-12-01T13:25:50.195-0600",
"value" : {
"name" : "FTBFConfig_v45",
"assigned" : "2017-12-01T13:25:50.195-0600"
}
},
{
"event" : "addConfiguration",
"timestamp" : "2017-12-01T13:35:45.042-0600",
"value" : {
"name" : "FTBFConfig_v46",
"assigned" : "2017-12-01T13:35:45.042-0600"
}
},
{
"event" : "addConfiguration",
"timestamp" : "2017-12-01T14:00:53.203-0600",
"value" : {
"name" : "FTBFConfig_v47",
"assigned" : "2017-12-01T14:00:53.203-0600"
}
},
{
"event" : "addConfiguration",
"timestamp" : "2017-12-01T14:04:00.563-0600",
"value" : {
"name" : "FTBFConfig_v48",
"assigned" : "2017-12-01T14:04:00.563-0600"
}
},
{
"event" : "addConfiguration",
"timestamp" : "2017-12-01T15:32:00.741-0600",
"value" : {
"name" : "FTBFConfig_v49",
"assigned" : "2017-12-01T15:32:00.741-0600"
}
},
{
"event" : "addConfiguration",
"timestamp" : "2017-12-01T15:37:33.664-0600",
"value" : {
"name" : "FTBFConfig_v52",
"assigned" : "2017-12-01T15:37:33.664-0600"
}
},
{
"event" : "addConfiguration",
"timestamp" : "2017-12-01T15:41:00.265-0600",
"value" : {
"name" : "FTBFConfig_v53",
"assigned" : "2017-12-01T15:41:00.265-0600"
}
},
{
"event" : "addConfiguration",
"timestamp" : "2017-12-01T15:52:50.566-0600",
"value" : {
"name" : "FTBFConfig_v54",
"assigned" : "2017-12-01T15:52:50.566-0600"
}
},
{
"event" : "addConfiguration",
"timestamp" : "2017-12-01T15:54:35.747-0600",
"value" : {
"name" : "FTBFConfig_v55",
"assigned" : "2017-12-01T15:54:35.747-0600"
}
},
{
"event" : "addConfiguration",
"timestamp" : "2017-12-01T15:55:35.334-0600",
"value" : {
"name" : "FTBFConfig_v56",
"assigned" : "2017-12-01T15:55:35.334-0600"
}
},
{
"event" : "addConfiguration",
"timestamp" : "2017-12-01T15:56:41.184-0600",
"value" : {
"name" : "FTBFConfig_v57",
"assigned" : "2017-12-01T15:56:41.184-0600"
}
},
{
"event" : "addConfiguration",
"timestamp" : "2017-12-01T15:57:39.289-0600",
"value" : {
"name" : "FTBFConfig_v58",
"assigned" : "2017-12-01T15:57:39.289-0600"
}
},
{
"event" : "addConfiguration",
"timestamp" : "2017-12-01T15:58:31.144-0600",
"value" : {
"name" : "FTBFConfig_v59",
"assigned" : "2017-12-01T15:58:31.144-0600"
}
},
{
"event" : "addConfiguration",
"timestamp" : "2017-12-01T15:59:32.395-0600",
"value" : {
"name" : "FTBFConfig_v60",
"assigned" : "2017-12-01T15:59:32.394-0600"
}
},
{
"event" : "addConfiguration",
"timestamp" : "2017-12-01T16:19:42.252-0600",
"value" : {
"name" : "FTBFConfig_v61",
"assigned" : "2017-12-01T16:19:42.252-0600"
}
},
{
"event" : "addConfiguration",
"timestamp" : "2017-12-01T16:22:04.680-0600",
"value" : {
"name" : "FTBFConfig_v62",
"assigned" : "2017-12-01T16:22:04.680-0600"
}
},
{
"event" : "addConfiguration",
"timestamp" : "2017-12-01T16:31:25.337-0600",
"value" : {
"name" : "FTBFConfig_v63",
"assigned" : "2017-12-01T16:31:25.337-0600"
}
},
{
"event" : "addConfiguration",
"timestamp" : "2017-12-01T17:06:32.691-0600",
"value" : {
"name" : "FTBFConfig_v64",
"assigned" : "2017-12-01T17:06:32.691-0600"
}
},
{
"event" : "addConfiguration",
"timestamp" : "2017-12-01T17:32:44.891-0600",
"value" : {
"name" : "FTBFConfig_v65",
"assigned" : "2017-12-01T17:32:44.891-0600"
}
},
{
"event" : "addConfiguration",
"timestamp" : "2017-12-01T20:38:51.219-0600",
"value" : {
"name" : "FTBFConfig_v66",
"assigned" : "2017-12-01T20:38:51.219-0600"
}
},
{
"event" : "addConfiguration",
"timestamp" : "2017-12-01T21:25:02.573-0600",
"value" : {
"name" : "FTBFConfig_v67",
"assigned" : "2017-12-01T21:25:02.573-0600"
}
},
{
"event" : "addConfiguration",
"timestamp" : "2017-12-01T21:43:02.284-0600",
"value" : {
"name" : "FTBFConfig_v68",
"assigned" : "2017-12-01T21:43:02.284-0600"
}
},
{
"event" : "addConfiguration",
"timestamp" : "2017-12-01T21:45:00.854-0600",
"value" : {
"name" : "FTBFConfig_v69",
"assigned" : "2017-12-01T21:45:00.854-0600"
}
},
{
"event" : "addConfiguration",
"timestamp" : "2017-12-01T21:59:20.180-0600",
"value" : {
"name" : "FTBFConfig_v70",
"assigned" : "2017-12-01T21:59:20.180-0600"
}
},
{
"event" : "addConfiguration",
"timestamp" : "2017-12-01T22:00:06.899-0600",
"value" : {
"name" : "FTBFConfigNim_v0",
"assigned" : "2017-12-01T22:00:06.899-0600"
}
},
{
"event" : "addConfiguration",
"timestamp" : "2017-12-01T22:13:08.693-0600",
"value" : {
"name" : "FTBFConfigNim_v1",
"assigned" : "2017-12-01T22:13:08.693-0600"
}
},
{
"event" : "addConfiguration",
"timestamp" : "2017-12-01T22:15:55.901-0600",
"value" : {
"name" : "FTBFConfigNim_v2",
"assigned" : "2017-12-01T22:15:55.901-0600"
}
},
{
"event" : "addConfiguration",
"timestamp" : "2017-12-01T22:17:04.478-0600",
"value" : {
"name" : "FTBFConfigNim_v3",
"assigned" : "2017-12-01T22:17:04.478-0600"
}
},
{
"event" : "addConfiguration",
"timestamp" : "2017-12-01T22:19:07.008-0600",
"value" : {
"name" : "FTBFConfigNim_v4",
"assigned" : "2017-12-01T22:19:07.008-0600"
}
},
{
"event" : "addConfiguration",
"timestamp" : "2017-12-01T22:21:57.788-0600",
"value" : {
"name" : "FTBFConfigNim_v5",
"assigned" : "2017-12-01T22:21:57.788-0600"
}
},
{
"event" : "addConfiguration",
"timestamp" : "2017-12-01T22:23:16.290-0600",
"value" : {
"name" : "FTBFConfigNim_v6",
"assigned" : "2017-12-01T22:23:16.290-0600"
}
},
{
"event" : "addConfiguration",
"timestamp" : "2017-12-01T22:25:17.780-0600",
"value" : {
"name" : "FTBFConfigNim_v7",
"assigned" : "2017-12-01T22:25:17.780-0600"
}
},
{
"event" : "addConfiguration",
"timestamp" : "2017-12-01T22:27:05.461-0600",
"value" : {
"name" : "FTBFConfigNim_v8",
"assigned" : "2017-12-01T22:27:05.461-0600"
}
},
{
"event" : "addConfiguration",
"timestamp" : "2017-12-01T22:29:29.600-0600",
"value" : {
"name" : "FTBFConfigNim_v9",
"assigned" : "2017-12-01T22:29:29.600-0600"
}
},
{
"event" : "addConfiguration",
"timestamp" : "2017-12-01T22:52:34.937-0600",
"value" : {
"name" : "FTBFConfigNim_v10",
"assigned" : "2017-12-01T22:52:34.937-0600"
}
},
{
"event" : "addConfiguration",
"timestamp" : "2017-12-01T22:57:29.604-0600",
"value" : {
"name" : "FTBFConfigNim_v11",
"assigned" : "2017-12-01T22:57:29.603-0600"
}
},
{
"event" : "addConfiguration",
"timestamp" : "2017-12-01T23:00:07.797-0600",
"value" : {
"name" : "FTBFConfigNim_v12",
"assigned" : "2017-12-01T23:00:07.796-0600"
}
},
{
"event" : "addConfiguration",
"timestamp" : "2017-12-01T23:52:35.949-0600",
"value" : {
"name" : "FTBFConfigNim_v13",
"assigned" : "2017-12-01T23:52:35.949-0600"
}
},
{
"event" : "addConfiguration",
"timestamp" : "2017-12-01T23:58:10.434-0600",
"value" : {
"name" : "FTBFConfigNim_v14",
"assigned" : "2017-12-01T23:58:10.434-0600"
}
},
{
"event" : "addConfiguration",
"timestamp" : "2017-12-02T00:00:34.628-0600",
"value" : {
"name" : "FTBFConfigNim_v15",
"assigned" : "2017-12-02T00:00:34.628-0600"
}
},
{
"event" : "addConfiguration",
"timestamp" : "2017-12-02T00:13:09.863-0600",
"value" : {
"name" : "FTBFConfigNim_v16",
"assigned" : "2017-12-02T00:13:09.863-0600"
}
},
{
"event" : "addConfiguration",
"timestamp" : "2017-12-02T00:28:28.762-0600",
"value" : {
"name" : "FTBFConfigNim_v17",
"assigned" : "2017-12-02T00:28:28.762-0600"
}
},
{
"event" : "addConfiguration",
"timestamp" : "2017-12-02T00:29:34.848-0600",
"value" : {
"name" : "FTBFConfigNim_v18",
"assigned" : "2017-12-02T00:29:34.848-0600"
}
},
{
"event" : "addConfiguration",
"timestamp" : "2017-12-02T00:31:13.703-0600",
"value" : {
"name" : "FTBFConfigNim_v19",
"assigned" : "2017-12-02T00:31:13.703-0600"
}
},
{
"event" : "addConfiguration",
"timestamp" : "2017-12-02T00:57:27.878-0600",
"value" : {
"name" : "FTBFConfigNim_v20",
"assigned" : "2017-12-02T00:57:27.877-0600"
}
},
{
"event" : "addConfiguration",
"timestamp" : "2017-12-02T10:58:02.435-0600",
"value" : {
"name" : "FTBFConfigNim_v21",
"assigned" : "2017-12-02T10:58:02.435-0600"
}
},
{
"event" : "addConfiguration",
"timestamp" : "2017-12-02T11:08:18.624-0600",
"value" : {
"name" : "FTBFConfigNim_v22",
"assigned" : "2017-12-02T11:08:18.624-0600"
}
},
{
"event" : "addConfiguration",
"timestamp" : "2017-12-02T11:12:40.254-0600",
"value" : {
"name" : "FTBFConfigNim_v23",
"assigned" : "2017-12-02T11:12:40.254-0600"
}
},
{
"event" : "addConfiguration",
"timestamp" : "2017-12-02T11:18:43.130-0600",
"value" : {
"name" : "FTBFConfigNim_v24",
"assigned" : "2017-12-02T11:18:43.129-0600"
}
},
{
"event" : "addConfiguration",
"timestamp" : "2017-12-02T11:27:06.331-0600",
"value" : {
"name" : "FTBFConfigNim_v25",
"assigned" : "2017-12-02T11:27:06.331-0600"
}
},
{
"event" : "addConfiguration",
"timestamp" : "2017-12-02T11:38:37.381-0600",
"value" : {
"name" : "FTBFConfigNim_v26",
"assigned" : "2017-12-02T11:38:37.381-0600"
}
},
{
"event" : "addConfiguration",
"timestamp" : "2017-12-02T11:49:08.594-0600",
"value" : {
"name" : "FTBFConfigNim_v27",
"assigned" : "2017-12-02T11:49:08.594-0600"
}
},
{
"event" : "addConfiguration",
"timestamp" : "2017-12-02T11:55:10.109-0600",
"value" : {
"name" : "FTBFConfigNim_v28",
"assigned" : "2017-12-02T11:55:10.109-0600"
}
},
{
"event" : "addConfiguration",
"timestamp" : "2017-12-02T12:06:26.924-0600",
"value" : {
"name" : "FTBFConfigNim_v29",
"assigned" : "2017-12-02T12:06:26.924-0600"
}
},
{
"event" : "addConfiguration",
"timestamp" : "2017-12-02T12:24:15.558-0600",
"value" : {
"name" : "FTBFConfig_v71",
"assigned" : "2017-12-02T12:24:15.558-0600"
}
},
{
"event" : "addConfiguration",
"timestamp" : "2017-12-02T12:43:36.456-0600",
"value" : {
"name" : "FTBFConfig_v72",
"assigned" : "2017-12-02T12:43:36.456-0600"
}
},
{
"event" : "addConfiguration",
"timestamp" : "2017-12-02T13:55:36.139-0600",
"value" : {
"name" : "FTBFConfig_v73",
"assigned" : "2017-12-02T13:55:36.139-0600"
}
},
{
"event" : "addConfiguration",
"timestamp" : "2017-12-02T14:12:19.325-0600",
"value" : {
"name" : "FTBFConfig_v75",
"assigned" : "2017-12-02T14:12:19.325-0600"
}
},
{
"event" : "addConfiguration",
"timestamp" : "2017-12-02T19:05:54.346-0600",
"value" : {
"name" : "FTBFConfig_v76",
"assigned" : "2017-12-02T19:05:54.346-0600"
}
},
{
"event" : "addConfiguration",
"timestamp" : "2017-12-02T19:12:14.175-0600",
"value" : {
"name" : "FTBFConfig_v77",
"assigned" : "2017-12-02T19:12:14.175-0600"
}
},
{
"event" : "addConfiguration",
"timestamp" : "2017-12-03T14:03:49.322-0600",
"value" : {
"name" : "FTBFConfig_v78",
"assigned" : "2017-12-03T14:03:49.322-0600"
}
},
{
"event" : "addConfiguration",
"timestamp" : "2017-12-03T14:09:07.589-0600",
"value" : {
"name" : "FTBFConfig_v79",
"assigned" : "2017-12-03T14:09:07.589-0600"
}
},
{
"event" : "addConfiguration",
"timestamp" : "2017-12-03T14:11:11.394-0600",
"value" : {
"name" : "FTBFConfig_v80",
"assigned" : "2017-12-03T14:11:11.394-0600"
}
},
{
"event" : "addConfiguration",
"timestamp" : "2017-12-03T14:22:34.387-0600",
"value" : {
"name" : "FTBFConfig_v81",
"assigned" : "2017-12-03T14:22:34.387-0600"
}
},
{
"event" : "addConfiguration",
"timestamp" : "2017-12-03T14:40:39.222-0600",
"value" : {
"name" : "FTBFConfig_v82",
"assigned" : "2017-12-03T14:40:39.222-0600"
}
},
{
"event" : "addConfiguration",
"timestamp" : "2017-12-03T14:45:06.560-0600",
"value" : {
"name" : "FTBFConfig_v83",
"assigned" : "2017-12-03T14:45:06.560-0600"
}
},
{
"event" : "addConfiguration",
"timestamp" : "2017-12-04T14:51:31.845-0600",
"value" : {
"name" : "FTBFConfig_v84",
"assigned" : "2017-12-04T14:51:31.844-0600"
}
},
{
"event" : "addConfiguration",
"timestamp" : "2017-12-04T14:55:45.042-0600",
"value" : {
"name" : "FTBFConfig_v85",
"assigned" : "2017-12-04T14:55:45.042-0600"
}
},
{
"event" : "addConfiguration",
"timestamp" : "2017-12-04T16:51:08.116-0600",
"value" : {
"name" : "FTBFConfig_v86",
"assigned" : "2017-12-04T16:51:08.115-0600"
}
},
{
"event" : "addConfiguration",
"timestamp" : "2017-12-04T16:56:48.750-0600",
"value" : {
"name" : "FTBFConfig_v87",
"assigned" : "2017-12-04T16:56:48.750-0600"
}
},
{
"event" : "addConfiguration",
"timestamp" : "2017-12-04T17:01:13.508-0600",
"value" : {
"name" : "FTBFConfig_v88",
"assigned" : "2017-12-04T17:01:13.508-0600"
}
},
{
"event" : "addConfiguration",
"timestamp" : "2017-12-04T17:03:58.625-0600",
"value" : {
"name" : "FTBFConfig_v89",
"assigned" : "2017-12-04T17:03:58.625-0600"
}
},
{
"event" : "addConfiguration",
"timestamp" : "2017-12-04T17:07:18.276-0600",
"value" : {
"name" : "FTBFConfig_v90",
"assigned" : "2017-12-04T17:07:18.276-0600"
}
},
{
"event" : "addConfiguration",
"timestamp" : "2017-12-04T17:09:27.426-0600",
"value" : {
"name" : "FTBFConfig_v91",
"assigned" : "2017-12-04T17:09:27.426-0600"
}
},
{
"event" : "addConfiguration",
"timestamp" : "2017-12-04T17:11:39.933-0600",
"value" : {
"name" : "FTBFConfig_v92",
"assigned" : "2017-12-04T17:11:39.932-0600"
}
},
{
"event" : "addConfiguration",
"timestamp" : "2017-12-04T21:05:22.461-0600",
"value" : {
"name" : "FTBFConfig_v93",
"assigned" : "2017-12-04T21:05:22.461-0600"
}
},
{
"event" : "addConfiguration",
"timestamp" : "2017-12-04T21:17:13.461-0600",
"value" : {
"name" : "FTBFConfig_v94",
"assigned" : "2017-12-04T21:17:13.461-0600"
}
},
{
"event" : "addConfiguration",
"timestamp" : "2017-12-04T21:41:19.091-0600",
"value" : {
"name" : "FTBFConfig_v95",
"assigned" : "2017-12-04T21:41:19.091-0600"
}
},
{
"event" : "addConfiguration",
"timestamp" : "2017-12-04T22:39:03.760-0600",
"value" : {
"name" : "FTBFConfig_v96",
"assigned" : "2017-12-04T22:39:03.760-0600"
}
},
{
"event" : "addConfiguration",
"timestamp" : "2017-12-04T23:01:14.258-0600",
"value" : {
"name" : "FTBFConfig_v97",
"assigned" : "2017-12-04T23:01:14.258-0600"
}
},
{
"event" : "addConfiguration",
"timestamp" : "2017-12-07T11:07:48.264-0600",
"value" : {
"name" : "FTBFConfig_v98",
"assigned" : "2017-12-07T11:07:48.264-0600"
}
},
{
"event" : "addConfiguration",
"timestamp" : "2017-12-07T11:50:00.923-0600",
"value" : {
"name" : "FTBFConfig_v99",
"assigned" : "2017-12-07T11:50:00.923-0600"
}
},
{
"event" : "addConfiguration",
"timestamp" : "2017-12-07T11:58:27.676-0600",
"value" : {
"name" : "FTBFConfig_v100",
"assigned" : "2017-12-07T11:58:27.676-0600"
}
},
{
"event" : "addConfiguration",
"timestamp" : "2017-12-08T13:30:49.855-0600",
"value" : {
"name" : "FTBFConfig_v101",
"assigned" : "2017-12-08T13:30:49.855-0600"
}
},
{
"event" : "addConfiguration",
"timestamp" : "2017-12-08T13:32:36.721-0600",
"value" : {
"name" : "FTBFConfig_v102",
"assigned" : "2017-12-08T13:32:36.720-0600"
}
},
{
"event" : "addConfiguration",
"timestamp" : "2017-12-12T11:03:06.545-0600",
"value" : {
"name" : "FTBFConfig_v103",
"assigned" : "2017-12-12T11:03:06.544-0600"
}
},
{
"event" : "addConfiguration",
"timestamp" : "2017-12-12T13:51:01.103-0600",
"value" : {
"name" : "FTBFConfig_v104",
"assigned" : "2017-12-12T13:51:01.103-0600"
}
},
{
"event" : "addConfiguration",
"timestamp" : "2017-12-12T15:25:07.071-0600",
"value" : {
"name" : "FTBFConfig_v105",
"assigned" : "2017-12-12T15:25:07.071-0600"
}
},
{
"event" : "addConfiguration",
"timestamp" : "2017-12-13T10:24:25.370-0600",
"value" : {
"name" : "FTBFConfig_v106",
"assigned" : "2017-12-13T10:24:25.370-0600"
}
},
{
"event" : "addConfiguration",
"timestamp" : "2017-12-13T10:27:04.087-0600",
"value" : {
"name" : "FTBFConfig_v107",
"assigned" : "2017-12-13T10:27:04.086-0600"
}
},
{
"event" : "addConfiguration",
"timestamp" : "2018-02-01T21:14:27.795-0600",
"value" : {
"name" : "FTBFConfig_v108",
"assigned" : "2018-02-01T21:14:27.795-0600"
}
},
{
"event" : "addConfiguration",
"timestamp" : "2018-02-01T21:21:04.921-0600",
"value" : {
"name" : "FTBFConfig_v109",
"assigned" : "2018-02-01T21:21:04.921-0600"
}
},
{
"event" : "addConfiguration",
"timestamp" : "2018-02-02T11:25:35.914-0600",
"value" : {
"name" : "FTBFConfig_v110",
"assigned" : "2018-02-02T11:25:35.913-0600"
}
},
{
"event" : "addConfiguration",
"timestamp" : "2018-02-02T11:37:14.745-0600",
"value" : {
"name" : "FTBFConfig_v111",
"assigned" : "2018-02-02T11:37:14.745-0600"
}
},
{
"event" : "addConfiguration",
"timestamp" : "2018-02-02T11:47:17.242-0600",
"value" : {
"name" : "FTBFConfig_v112",
"assigned" : "2018-02-02T11:47:17.242-0600"
}
},
{
"event" : "addConfiguration",
"timestamp" : "2018-02-02T11:53:38.496-0600",
"value" : {
"name" : "FTBFConfig_v113",
"assigned" : "2018-02-02T11:53:38.496-0600"
}
},
{
"event" : "addConfiguration",
"timestamp" : "2018-02-02T12:00:54.618-0600",
"value" : {
"name" : "FTBFConfig_v114",
"assigned" : "2018-02-02T12:00:54.618-0600"
}
},
{
"event" : "addConfiguration",
"timestamp" : "2018-02-02T12:27:16.089-0600",
"value" : {
"name" : "FTBFConfig_v115",
"assigned" : "2018-02-02T12:27:16.089-0600"
}
},
{
"event" : "addConfiguration",
"timestamp" : "2018-02-02T14:28:55.611-0600",
"value" : {
"name" : "FTBFConfig_v116",
"assigned" : "2018-02-02T14:28:55.611-0600"
}
},
{
"event" : "addConfiguration",
"timestamp" : "2018-02-02T14:30:21.980-0600",
"value" : {
"name" : "FTBFConfig_v117",
"assigned" : "2018-02-02T14:30:21.980-0600"
}
},
{
"event" : "addConfiguration",
"timestamp" : "2018-02-02T14:34:03.230-0600",
"value" : {
"name" : "FTBFConfig_v118",
"assigned" : "2018-02-02T14:34:03.230-0600"
}
},
{
"event" : "addConfiguration",
"timestamp" : "2018-02-02T14:36:29.833-0600",
"value" : {
"name" : "FTBFConfig_v119",
"assigned" : "2018-02-02T14:36:29.833-0600"
}
},
{
"event" : "addConfiguration",
"timestamp" : "2018-02-02T14:38:43.247-0600",
"value" : {
"name" : "FTBFConfig_v120",
"assigned" : "2018-02-02T14:38:43.247-0600"
}
},
{
"event" : "addConfiguration",
"timestamp" : "2018-02-02T14:41:52.498-0600",
"value" : {
"name" : "FTBFConfig_v121",
"assigned" : "2018-02-02T14:41:52.498-0600"
}
},
{
"event" : "addConfiguration",
"timestamp" : "2018-02-02T14:50:26.600-0600",
"value" : {
"name" : "FTBFConfig_v122",
"assigned" : "2018-02-02T14:50:26.599-0600"
}
},
{
"event" : "addConfiguration",
"timestamp" : "2018-02-02T14:52:59.474-0600",
"value" : {
"name" : "FTBFConfig_v123",
"assigned" : "2018-02-02T14:52:59.473-0600"
}
},
{
"event" : "addConfiguration",
"timestamp" : "2018-02-02T14:59:52.788-0600",
"value" : {
"name" : "FTBFConfig_v124",
"assigned" : "2018-02-02T14:59:52.787-0600"
}
},
{
"event" : "addConfiguration",
"timestamp" : "2018-02-02T15:04:10.912-0600",
"value" : {
"name" : "FTBFConfig_v125",
"assigned" : "2018-02-02T15:04:10.911-0600"
}
},
{
"event" : "addConfiguration",
"timestamp" : "2018-02-02T15:50:14.239-0600",
"value" : {
"name" : "FTBFConfig_v126",
"assigned" : "2018-02-02T15:50:14.239-0600"
}
},
{
"event" : "addConfiguration",
"timestamp" : "2018-02-02T15:51:33.631-0600",
"value" : {
"name" : "FTBFConfig_v127",
"assigned" : "2018-02-02T15:51:33.630-0600"
}
},
{
"event" : "addConfiguration",
"timestamp" : "2018-02-02T15:52:38.791-0600",
"value" : {
"name" : "FTBFConfig_v128",
"assigned" : "2018-02-02T15:52:38.790-0600"
}
},
{
"event" : "addConfiguration",
"timestamp" : "2018-02-02T16:02:47.716-0600",
"value" : {
"name" : "FTBFConfig_v129",
"assigned" : "2018-02-02T16:02:47.716-0600"
}
},
{
"event" : "addConfiguration",
"timestamp" : "2018-02-02T16:08:47.271-0600",
"value" : {
"name" : "FTBFConfig_v130",
"assigned" : "2018-02-02T16:08:47.271-0600"
}
},
{
"event" : "addConfiguration",
"timestamp" : "2018-02-02T16:11:33.122-0600",
"value" : {
"name" : "FTBFConfig_v131",
"assigned" : "2018-02-02T16:11:33.122-0600"
}
},
{
"event" : "addConfiguration",
"timestamp" : "2018-02-02T16:13:00.992-0600",
"value" : {
"name" : "FTBFConfig_v132",
"assigned" : "2018-02-02T16:13:00.992-0600"
}
},
{
"event" : "addConfiguration",
"timestamp" : "2018-02-02T16:14:31.618-0600",
"value" : {
"name" : "FTBFConfig_v133",
"assigned" : "2018-02-02T16:14:31.618-0600"
}
},
{
"event" : "addConfiguration",
"timestamp" : "2018-02-02T16:26:24.513-0600",
"value" : {
"name" : "FTBFConfig_v134",
"assigned" : "2018-02-02T16:26:24.513-0600"
}
},
{
"event" : "addConfiguration",
"timestamp" : "2018-02-02T16:27:11.628-0600",
"value" : {
"name" : "FTBFConfig_v135",
"assigned" : "2018-02-02T16:27:11.628-0600"
}
},
{
"event" : "addConfiguration",
"timestamp" : "2018-02-02T16:29:32.991-0600",
"value" : {
"name" : "FTBFConfig_v136",
"assigned" : "2018-02-02T16:29:32.990-0600"
}
},
{
"event" : "addConfiguration",
"timestamp" : "2018-02-02T16:31:43.612-0600",
"value" : {
"name" : "FTBFConfig_v137",
"assigned" : "2018-02-02T16:31:43.612-0600"
}
},
{
"event" : "addConfiguration",
"timestamp" : "2018-02-02T16:34:16.292-0600",
"value" : {
"name" : "FTBFConfig_v138",
"assigned" : "2018-02-02T16:34:16.292-0600"
}
},
{
"event" : "addConfiguration",
"timestamp" : "2018-02-02T17:39:32.345-0600",
"value" : {
"name" : "FTBFConfig_v139",
"assigned" : "2018-02-02T17:39:32.345-0600"
}
},
{
"event" : "addConfiguration",
"timestamp" : "2018-02-02T17:42:54.546-0600",
"value" : {
"name" : "FTBFConfig_v140",
"assigned" : "2018-02-02T17:42:54.546-0600"
}
},
{
"event" : "addConfiguration",
"timestamp" : "2018-02-02T17:47:39.762-0600",
"value" : {
"name" : "FTBFConfig_v141",
"assigned" : "2018-02-02T17:47:39.762-0600"
}
},
{
"event" : "addConfiguration",
"timestamp" : "2018-02-02T17:54:03.756-0600",
"value" : {
"name" : "FTBFConfig_v142",
"assigned" : "2018-02-02T17:54:03.756-0600"
}
}
],
"created" : "2017-11-08T15:56:04.011-0600"
},
"_id" : {
"$oid" : "fa68348eff4741128af0e905"
},
"collection" : "FEToDetectorConfiguration",
"aliases" : {
"active" : [

],
"history" : [

]
},
"runs" : [

],
"attachments" : [

],
"configtype" : "notprovided"
}