{
"ouid" : [
"fa68348eff4741128af0e905"
],
"version" : {
"0" : [
"fa68348eff4741128af0e905"
]
},
"configurations.name" : {
"notprovided" : [
"fa68348eff4741128af0e905"
],
"FTBFConfig_v0" : [
"fa68348eff4741128af0e905"
],
"FTBFConfig_v1" : [
"fa68348eff4741128af0e905"
],
"FTBFConfig_v2" : [
"fa68348eff4741128af0e905"
],
"FTBFConfig_v3" : [
"fa68348eff4741128af0e905"
],
"FTBFConfig_v4" : [
"fa68348eff4741128af0e905"
],
"FTBFConfig_v5" : [
"fa68348eff4741128af0e905"
],
"FTBFConfig_v6" : [
"fa68348eff4741128af0e905"
],
"FTBFConfig_v7" : [
"fa68348eff4741128af0e905"
],
"FTBFConfig_v8" : [
"fa68348eff4741128af0e905"
],
"FTBFConfig_v9" : [
"fa68348eff4741128af0e905"
],
"FTBFConfig_v10" : [
"fa68348eff4741128af0e905"
],
"FTBFConfig_v11" : [
"fa68348eff4741128af0e905"
],
"FTBFConfig_v12" : [
"fa68348eff4741128af0e905"
],
"FTBFConfig_v13" : [
"fa68348eff4741128af0e905"
],
"FTBFConfig_v14" : [
"fa68348eff4741128af0e905"
],
"FTBFConfig_v15" : [
"fa68348eff4741128af0e905"
],
"FTBFConfig_v16" : [
"fa68348eff4741128af0e905"
],
"FTBFConfig_v17" : [
"fa68348eff4741128af0e905"
],
"FTBFConfig_v18" : [
"fa68348eff4741128af0e905"
],
"FTBFConfig_v19" : [
"fa68348eff4741128af0e905"
],
"FTBFConfig_v20" : [
"fa68348eff4741128af0e905"
],
"FTBFConfig_v21" : [
"fa68348eff4741128af0e905"
],
"FTBFConfig_v22" : [
"fa68348eff4741128af0e905"
],
"FTBFConfig_v23" : [
"fa68348eff4741128af0e905"
],
"FTBFConfig_v24" : [
"fa68348eff4741128af0e905"
],
"FTBFConfig_v25" : [
"fa68348eff4741128af0e905"
],
"FTBFConfig_v26" : [
"fa68348eff4741128af0e905"
],
"FTBFConfig_v27" : [
"fa68348eff4741128af0e905"
],
"FTBFConfig_v28" : [
"fa68348eff4741128af0e905"
],
"FTBFConfig_v29" : [
"fa68348eff4741128af0e905"
],
"FTBFConfig_v30" : [
"fa68348eff4741128af0e905"
],
"FTBFConfig_v31" : [
"fa68348eff4741128af0e905"
],
"FTBFConfig_v32" : [
"fa68348eff4741128af0e905"
],
"FTBFConfig_v33" : [
"fa68348eff4741128af0e905"
],
"FTBFConfig_v34" : [
"fa68348eff4741128af0e905"
],
"FTBFConfig_v35" : [
"fa68348eff4741128af0e905"
],
"FTBFConfig_v36" : [
"fa68348eff4741128af0e905"
],
"FTBFConfig_v37" : [
"fa68348eff4741128af0e905"
],
"FTBFConfig_v38" : [
"fa68348eff4741128af0e905"
],
"FTBFConfig_v39" : [
"fa68348eff4741128af0e905"
],
"FTBFConfig_v40" : [
"fa68348eff4741128af0e905"
],
"FTBFConfig_v41" : [
"fa68348eff4741128af0e905"
],
"FTBFConfig_v42" : [
"fa68348eff4741128af0e905"
],
"FTBFConfig_v43" : [
"fa68348eff4741128af0e905"
],
"FTBFConfig_v44" : [
"fa68348eff4741128af0e905"
],
"FTBFConfig_v45" : [
"fa68348eff4741128af0e905"
],
"FTBFConfig_v46" : [
"fa68348eff4741128af0e905"
],
"FTBFConfig_v47" : [
"fa68348eff4741128af0e905"
],
"FTBFConfig_v48" : [
"fa68348eff4741128af0e905"
],
"FTBFConfig_v49" : [
"fa68348eff4741128af0e905"
],
"FTBFConfig_v52" : [
"fa68348eff4741128af0e905"
],
"FTBFConfig_v53" : [
"fa68348eff4741128af0e905"
],
"FTBFConfig_v54" : [
"fa68348eff4741128af0e905"
],
"FTBFConfig_v55" : [
"fa68348eff4741128af0e905"
],
"FTBFConfig_v56" : [
"fa68348eff4741128af0e905"
],
"FTBFConfig_v57" : [
"fa68348eff4741128af0e905"
],
"FTBFConfig_v58" : [
"fa68348eff4741128af0e905"
],
"FTBFConfig_v59" : [
"fa68348eff4741128af0e905"
],
"FTBFConfig_v60" : [
"fa68348eff4741128af0e905"
],
"FTBFConfig_v61" : [
"fa68348eff4741128af0e905"
],
"FTBFConfig_v62" : [
"fa68348eff4741128af0e905"
],
"FTBFConfig_v63" : [
"fa68348eff4741128af0e905"
],
"FTBFConfig_v64" : [
"fa68348eff4741128af0e905"
],
"FTBFConfig_v65" : [
"fa68348eff4741128af0e905"
],
"FTBFConfig_v66" : [
"fa68348eff4741128af0e905"
],
"FTBFConfig_v67" : [
"fa68348eff4741128af0e905"
],
"FTBFConfig_v68" : [
"fa68348eff4741128af0e905"
],
"FTBFConfig_v69" : [
"fa68348eff4741128af0e905"
],
"FTBFConfig_v70" : [
"fa68348eff4741128af0e905"
],
"FTBFConfigNim_v0" : [
"fa68348eff4741128af0e905"
],
"FTBFConfigNim_v1" : [
"fa68348eff4741128af0e905"
],
"FTBFConfigNim_v2" : [
"fa68348eff4741128af0e905"
],
"FTBFConfigNim_v3" : [
"fa68348eff4741128af0e905"
],
"FTBFConfigNim_v4" : [
"fa68348eff4741128af0e905"
],
"FTBFConfigNim_v5" : [
"fa68348eff4741128af0e905"
],
"FTBFConfigNim_v6" : [
"fa68348eff4741128af0e905"
],
"FTBFConfigNim_v7" : [
"fa68348eff4741128af0e905"
],
"FTBFConfigNim_v8" : [
"fa68348eff4741128af0e905"
],
"FTBFConfigNim_v9" : [
"fa68348eff4741128af0e905"
],
"FTBFConfigNim_v10" : [
"fa68348eff4741128af0e905"
],
"FTBFConfigNim_v11" : [
"fa68348eff4741128af0e905"
],
"FTBFConfigNim_v12" : [
"fa68348eff4741128af0e905"
],
"FTBFConfigNim_v13" : [
"fa68348eff4741128af0e905"
],
"FTBFConfigNim_v14" : [
"fa68348eff4741128af0e905"
],
"FTBFConfigNim_v15" : [
"fa68348eff4741128af0e905"
],
"FTBFConfigNim_v16" : [
"fa68348eff4741128af0e905"
],
"FTBFConfigNim_v17" : [
"fa68348eff4741128af0e905"
],
"FTBFConfigNim_v18" : [
"fa68348eff4741128af0e905"
],
"FTBFConfigNim_v19" : [
"fa68348eff4741128af0e905"
],
"FTBFConfigNim_v20" : [
"fa68348eff4741128af0e905"
],
"FTBFConfigNim_v21" : [
"fa68348eff4741128af0e905"
],
"FTBFConfigNim_v22" : [
"fa68348eff4741128af0e905"
],
"FTBFConfigNim_v23" : [
"fa68348eff4741128af0e905"
],
"FTBFConfigNim_v24" : [
"fa68348eff4741128af0e905"
],
"FTBFConfigNim_v25" : [
"fa68348eff4741128af0e905"
],
"FTBFConfigNim_v26" : [
"fa68348eff4741128af0e905"
],
"FTBFConfigNim_v27" : [
"fa68348eff4741128af0e905"
],
"FTBFConfigNim_v28" : [
"fa68348eff4741128af0e905"
],
"FTBFConfigNim_v29" : [
"fa68348eff4741128af0e905"
],
"FTBFConfig_v71" : [
"fa68348eff4741128af0e905"
],
"FTBFConfig_v72" : [
"fa68348eff4741128af0e905"
],
"FTBFConfig_v73" : [
"fa68348eff4741128af0e905"
],
"FTBFConfig_v75" : [
"fa68348eff4741128af0e905"
],
"FTBFConfig_v76" : [
"fa68348eff4741128af0e905"
],
"FTBFConfig_v77" : [
"fa68348eff4741128af0e905"
],
"FTBFConfig_v78" : [
"fa68348eff4741128af0e905"
],
"FTBFConfig_v79" : [
"fa68348eff4741128af0e905"
],
"FTBFConfig_v80" : [
"fa68348eff4741128af0e905"
],
"FTBFConfig_v81" : [
"fa68348eff4741128af0e905"
],
"FTBFConfig_v82" : [
"fa68348eff4741128af0e905"
],
"FTBFConfig_v83" : [
"fa68348eff4741128af0e905"
],
"FTBFConfig_v84" : [
"fa68348eff4741128af0e905"
],
"FTBFConfig_v85" : [
"fa68348eff4741128af0e905"
],
"FTBFConfig_v86" : [
"fa68348eff4741128af0e905"
],
"FTBFConfig_v87" : [
"fa68348eff4741128af0e905"
],
"FTBFConfig_v88" : [
"fa68348eff4741128af0e905"
],
"FTBFConfig_v89" : [
"fa68348eff4741128af0e905"
],
"FTBFConfig_v90" : [
"fa68348eff4741128af0e905"
],
"FTBFConfig_v91" : [
"fa68348eff4741128af0e905"
],
"FTBFConfig_v92" : [
"fa68348eff4741128af0e905"
],
"FTBFConfig_v93" : [
"fa68348eff4741128af0e905"
],
"FTBFConfig_v94" : [
"fa68348eff4741128af0e905"
],
"FTBFConfig_v95" : [
"fa68348eff4741128af0e905"
],
"FTBFConfig_v96" : [
"fa68348eff4741128af0e905"
],
"FTBFConfig_v97" : [
"fa68348eff4741128af0e905"
],
"FTBFConfig_v98" : [
"fa68348eff4741128af0e905"
],
"FTBFConfig_v99" : [
"fa68348eff4741128af0e905"
],
"FTBFConfig_v100" : [
"fa68348eff4741128af0e905"
],
"FTBFConfig_v101" : [
"fa68348eff4741128af0e905"
],
"FTBFConfig_v102" : [
"fa68348eff4741128af0e905"
],
"FTBFConfig_v103" : [
"fa68348eff4741128af0e905"
],
"FTBFConfig_v104" : [
"fa68348eff4741128af0e905"
],
"FTBFConfig_v105" : [
"fa68348eff4741128af0e905"
],
"FTBFConfig_v106" : [
"fa68348eff4741128af0e905"
],
"FTBFConfig_v107" : [
"fa68348eff4741128af0e905"
],
"FTBFConfig_v108" : [
"fa68348eff4741128af0e905"
],
"FTBFConfig_v109" : [
"fa68348eff4741128af0e905"
],
"FTBFConfig_v110" : [
"fa68348eff4741128af0e905"
],
"FTBFConfig_v111" : [
"fa68348eff4741128af0e905"
],
"FTBFConfig_v112" : [
"fa68348eff4741128af0e905"
],
"FTBFConfig_v113" : [
"fa68348eff4741128af0e905"
],
"FTBFConfig_v114" : [
"fa68348eff4741128af0e905"
],
"FTBFConfig_v115" : [
"fa68348eff4741128af0e905"
],
"FTBFConfig_v116" : [
"fa68348eff4741128af0e905"
],
"FTBFConfig_v117" : [
"fa68348eff4741128af0e905"
],
"FTBFConfig_v118" : [
"fa68348eff4741128af0e905"
],
"FTBFConfig_v119" : [
"fa68348eff4741128af0e905"
],
"FTBFConfig_v120" : [
"fa68348eff4741128af0e905"
],
"FTBFConfig_v121" : [
"fa68348eff4741128af0e905"
],
"FTBFConfig_v122" : [
"fa68348eff4741128af0e905"
],
"FTBFConfig_v123" : [
"fa68348eff4741128af0e905"
],
"FTBFConfig_v124" : [
"fa68348eff4741128af0e905"
],
"FTBFConfig_v125" : [
"fa68348eff4741128af0e905"
],
"FTBFConfig_v126" : [
"fa68348eff4741128af0e905"
],
"FTBFConfig_v127" : [
"fa68348eff4741128af0e905"
],
"FTBFConfig_v128" : [
"fa68348eff4741128af0e905"
],
"FTBFConfig_v129" : [
"fa68348eff4741128af0e905"
],
"FTBFConfig_v130" : [
"fa68348eff4741128af0e905"
],
"FTBFConfig_v131" : [
"fa68348eff4741128af0e905"
],
"FTBFConfig_v132" : [
"fa68348eff4741128af0e905"
],
"FTBFConfig_v133" : [
"fa68348eff4741128af0e905"
],
"FTBFConfig_v134" : [
"fa68348eff4741128af0e905"
],
"FTBFConfig_v135" : [
"fa68348eff4741128af0e905"
],
"FTBFConfig_v136" : [
"fa68348eff4741128af0e905"
],
"FTBFConfig_v137" : [
"fa68348eff4741128af0e905"
],
"FTBFConfig_v138" : [
"fa68348eff4741128af0e905"
],
"FTBFConfig_v139" : [
"fa68348eff4741128af0e905"
],
"FTBFConfig_v140" : [
"fa68348eff4741128af0e905"
],
"FTBFConfig_v141" : [
"fa68348eff4741128af0e905"
],
"FTBFConfig_v142" : [
"fa68348eff4741128af0e905"
]
},
"entities.name" : {
"OTSROOT" : [
"fa68348eff4741128af0e905"
]
},
"aliases.active.name" : {

},
"runs.name" : {

},
"configurations.assigned" : {
"notprovided" : [
"2017-11-08T15:56:04.017-0600"
],
"FTBFConfig_v0" : [
"2017-11-08T15:56:06.994-0600"
],
"FTBFConfig_v1" : [
"2017-11-09T09:56:31.793-0600"
],
"FTBFConfig_v2" : [
"2017-11-09T10:06:00.779-0600"
],
"FTBFConfig_v3" : [
"2017-11-09T10:37:12.370-0600"
],
"FTBFConfig_v4" : [
"2017-11-15T11:30:11.214-0600"
],
"FTBFConfig_v5" : [
"2017-11-15T11:54:58.054-0600"
],
"FTBFConfig_v6" : [
"2017-11-15T11:57:50.683-0600"
],
"FTBFConfig_v7" : [
"2017-11-15T12:42:33.139-0600"
],
"FTBFConfig_v8" : [
"2017-11-15T13:01:04.171-0600"
],
"FTBFConfig_v9" : [
"2017-11-15T13:02:57.535-0600"
],
"FTBFConfig_v10" : [
"2017-11-15T13:04:25.127-0600"
],
"FTBFConfig_v11" : [
"2017-11-15T13:07:52.637-0600"
],
"FTBFConfig_v12" : [
"2017-11-15T13:12:00.107-0600"
],
"FTBFConfig_v13" : [
"2017-11-15T13:13:54.068-0600"
],
"FTBFConfig_v14" : [
"2017-11-15T13:27:33.583-0600"
],
"FTBFConfig_v15" : [
"2017-11-15T13:35:48.082-0600"
],
"FTBFConfig_v16" : [
"2017-11-15T13:36:52.686-0600"
],
"FTBFConfig_v17" : [
"2017-11-15T15:33:31.252-0600"
],
"FTBFConfig_v18" : [
"2017-11-15T15:35:34.871-0600"
],
"FTBFConfig_v19" : [
"2017-11-15T15:38:03.740-0600"
],
"FTBFConfig_v20" : [
"2017-11-15T16:26:31.718-0600"
],
"FTBFConfig_v21" : [
"2017-11-16T09:22:32.563-0600"
],
"FTBFConfig_v22" : [
"2017-11-17T10:23:28.785-0600"
],
"FTBFConfig_v23" : [
"2017-11-17T17:26:46.414-0600"
],
"FTBFConfig_v24" : [
"2017-11-17T17:58:26.965-0600"
],
"FTBFConfig_v25" : [
"2017-11-17T18:24:46.657-0600"
],
"FTBFConfig_v26" : [
"2017-11-17T18:32:24.551-0600"
],
"FTBFConfig_v27" : [
"2017-11-17T18:43:31.662-0600"
],
"FTBFConfig_v28" : [
"2017-11-17T18:48:33.799-0600"
],
"FTBFConfig_v29" : [
"2017-11-20T14:48:32.081-0600"
],
"FTBFConfig_v30" : [
"2017-11-20T15:39:57.135-0600"
],
"FTBFConfig_v31" : [
"2017-11-20T16:41:03.182-0600"
],
"FTBFConfig_v32" : [
"2017-11-20T18:55:36.132-0600"
],
"FTBFConfig_v33" : [
"2017-11-20T18:57:31.448-0600"
],
"FTBFConfig_v34" : [
"2017-11-29T17:50:40.904-0600"
],
"FTBFConfig_v35" : [
"2017-11-29T18:00:33.945-0600"
],
"FTBFConfig_v36" : [
"2017-11-29T18:35:12.575-0600"
],
"FTBFConfig_v37" : [
"2017-12-01T09:36:19.448-0600"
],
"FTBFConfig_v38" : [
"2017-12-01T09:52:02.365-0600"
],
"FTBFConfig_v39" : [
"2017-12-01T11:51:59.634-0600"
],
"FTBFConfig_v40" : [
"2017-12-01T12:18:21.762-0600"
],
"FTBFConfig_v41" : [
"2017-12-01T12:21:03.749-0600"
],
"FTBFConfig_v42" : [
"2017-12-01T12:43:23.204-0600"
],
"FTBFConfig_v43" : [
"2017-12-01T12:58:01.111-0600"
],
"FTBFConfig_v44" : [
"2017-12-01T13:00:53.650-0600"
],
"FTBFConfig_v45" : [
"2017-12-01T13:25:50.195-0600"
],
"FTBFConfig_v46" : [
"2017-12-01T13:35:45.042-0600"
],
"FTBFConfig_v47" : [
"2017-12-01T14:00:53.203-0600"
],
"FTBFConfig_v48" : [
"2017-12-01T14:04:00.563-0600"
],
"FTBFConfig_v49" : [
"2017-12-01T15:32:00.741-0600"
],
"FTBFConfig_v52" : [
"2017-12-01T15:37:33.664-0600"
],
"FTBFConfig_v53" : [
"2017-12-01T15:41:00.265-0600"
],
"FTBFConfig_v54" : [
"2017-12-01T15:52:50.566-0600"
],
"FTBFConfig_v55" : [
"2017-12-01T15:54:35.747-0600"
],
"FTBFConfig_v56" : [
"2017-12-01T15:55:35.334-0600"
],
"FTBFConfig_v57" : [
"2017-12-01T15:56:41.184-0600"
],
"FTBFConfig_v58" : [
"2017-12-01T15:57:39.289-0600"
],
"FTBFConfig_v59" : [
"2017-12-01T15:58:31.144-0600"
],
"FTBFConfig_v60" : [
"2017-12-01T15:59:32.394-0600"
],
"FTBFConfig_v61" : [
"2017-12-01T16:19:42.252-0600"
],
"FTBFConfig_v62" : [
"2017-12-01T16:22:04.680-0600"
],
"FTBFConfig_v63" : [
"2017-12-01T16:31:25.337-0600"
],
"FTBFConfig_v64" : [
"2017-12-01T17:06:32.691-0600"
],
"FTBFConfig_v65" : [
"2017-12-01T17:32:44.891-0600"
],
"FTBFConfig_v66" : [
"2017-12-01T20:38:51.219-0600"
],
"FTBFConfig_v67" : [
"2017-12-01T21:25:02.573-0600"
],
"FTBFConfig_v68" : [
"2017-12-01T21:43:02.284-0600"
],
"FTBFConfig_v69" : [
"2017-12-01T21:45:00.854-0600"
],
"FTBFConfig_v70" : [
"2017-12-01T21:59:20.180-0600"
],
"FTBFConfigNim_v0" : [
"2017-12-01T22:00:06.899-0600"
],
"FTBFConfigNim_v1" : [
"2017-12-01T22:13:08.693-0600"
],
"FTBFConfigNim_v2" : [
"2017-12-01T22:15:55.901-0600"
],
"FTBFConfigNim_v3" : [
"2017-12-01T22:17:04.478-0600"
],
"FTBFConfigNim_v4" : [
"2017-12-01T22:19:07.008-0600"
],
"FTBFConfigNim_v5" : [
"2017-12-01T22:21:57.788-0600"
],
"FTBFConfigNim_v6" : [
"2017-12-01T22:23:16.290-0600"
],
"FTBFConfigNim_v7" : [
"2017-12-01T22:25:17.780-0600"
],
"FTBFConfigNim_v8" : [
"2017-12-01T22:27:05.461-0600"
],
"FTBFConfigNim_v9" : [
"2017-12-01T22:29:29.600-0600"
],
"FTBFConfigNim_v10" : [
"2017-12-01T22:52:34.937-0600"
],
"FTBFConfigNim_v11" : [
"2017-12-01T22:57:29.603-0600"
],
"FTBFConfigNim_v12" : [
"2017-12-01T23:00:07.796-0600"
],
"FTBFConfigNim_v13" : [
"2017-12-01T23:52:35.949-0600"
],
"FTBFConfigNim_v14" : [
"2017-12-01T23:58:10.434-0600"
],
"FTBFConfigNim_v15" : [
"2017-12-02T00:00:34.628-0600"
],
"FTBFConfigNim_v16" : [
"2017-12-02T00:13:09.863-0600"
],
"FTBFConfigNim_v17" : [
"2017-12-02T00:28:28.762-0600"
],
"FTBFConfigNim_v18" : [
"2017-12-02T00:29:34.848-0600"
],
"FTBFConfigNim_v19" : [
"2017-12-02T00:31:13.703-0600"
],
"FTBFConfigNim_v20" : [
"2017-12-02T00:57:27.877-0600"
],
"FTBFConfigNim_v21" : [
"2017-12-02T10:58:02.435-0600"
],
"FTBFConfigNim_v22" : [
"2017-12-02T11:08:18.624-0600"
],
"FTBFConfigNim_v23" : [
"2017-12-02T11:12:40.254-0600"
],
"FTBFConfigNim_v24" : [
"2017-12-02T11:18:43.129-0600"
],
"FTBFConfigNim_v25" : [
"2017-12-02T11:27:06.331-0600"
],
"FTBFConfigNim_v26" : [
"2017-12-02T11:38:37.381-0600"
],
"FTBFConfigNim_v27" : [
"2017-12-02T11:49:08.594-0600"
],
"FTBFConfigNim_v28" : [
"2017-12-02T11:55:10.109-0600"
],
"FTBFConfigNim_v29" : [
"2017-12-02T12:06:26.924-0600"
],
"FTBFConfig_v71" : [
"2017-12-02T12:24:15.558-0600"
],
"FTBFConfig_v72" : [
"2017-12-02T12:43:36.456-0600"
],
"FTBFConfig_v73" : [
"2017-12-02T13:55:36.139-0600"
],
"FTBFConfig_v75" : [
"2017-12-02T14:12:19.325-0600"
],
"FTBFConfig_v76" : [
"2017-12-02T19:05:54.346-0600"
],
"FTBFConfig_v77" : [
"2017-12-02T19:12:14.175-0600"
],
"FTBFConfig_v78" : [
"2017-12-03T14:03:49.322-0600"
],
"FTBFConfig_v79" : [
"2017-12-03T14:09:07.589-0600"
],
"FTBFConfig_v80" : [
"2017-12-03T14:11:11.394-0600"
],
"FTBFConfig_v81" : [
"2017-12-03T14:22:34.387-0600"
],
"FTBFConfig_v82" : [
"2017-12-03T14:40:39.222-0600"
],
"FTBFConfig_v83" : [
"2017-12-03T14:45:06.560-0600"
],
"FTBFConfig_v84" : [
"2017-12-04T14:51:31.844-0600"
],
"FTBFConfig_v85" : [
"2017-12-04T14:55:45.042-0600"
],
"FTBFConfig_v86" : [
"2017-12-04T16:51:08.115-0600"
],
"FTBFConfig_v87" : [
"2017-12-04T16:56:48.750-0600"
],
"FTBFConfig_v88" : [
"2017-12-04T17:01:13.508-0600"
],
"FTBFConfig_v89" : [
"2017-12-04T17:03:58.625-0600"
],
"FTBFConfig_v90" : [
"2017-12-04T17:07:18.276-0600"
],
"FTBFConfig_v91" : [
"2017-12-04T17:09:27.426-0600"
],
"FTBFConfig_v92" : [
"2017-12-04T17:11:39.932-0600"
],
"FTBFConfig_v93" : [
"2017-12-04T21:05:22.461-0600"
],
"FTBFConfig_v94" : [
"2017-12-04T21:17:13.461-0600"
],
"FTBFConfig_v95" : [
"2017-12-04T21:41:19.091-0600"
],
"FTBFConfig_v96" : [
"2017-12-04T22:39:03.760-0600"
],
"FTBFConfig_v97" : [
"2017-12-04T23:01:14.258-0600"
],
"FTBFConfig_v98" : [
"2017-12-07T11:07:48.264-0600"
],
"FTBFConfig_v99" : [
"2017-12-07T11:50:00.923-0600"
],
"FTBFConfig_v100" : [
"2017-12-07T11:58:27.676-0600"
],
"FTBFConfig_v101" : [
"2017-12-08T13:30:49.855-0600"
],
"FTBFConfig_v102" : [
"2017-12-08T13:32:36.720-0600"
],
"FTBFConfig_v103" : [
"2017-12-12T11:03:06.544-0600"
],
"FTBFConfig_v104" : [
"2017-12-12T13:51:01.103-0600"
],
"FTBFConfig_v105" : [
"2017-12-12T15:25:07.071-0600"
],
"FTBFConfig_v106" : [
"2017-12-13T10:24:25.370-0600"
],
"FTBFConfig_v107" : [
"2017-12-13T10:27:04.086-0600"
],
"FTBFConfig_v108" : [
"2018-02-01T21:14:27.795-0600"
],
"FTBFConfig_v109" : [
"2018-02-01T21:21:04.921-0600"
],
"FTBFConfig_v110" : [
"2018-02-02T11:25:35.913-0600"
],
"FTBFConfig_v111" : [
"2018-02-02T11:37:14.745-0600"
],
"FTBFConfig_v112" : [
"2018-02-02T11:47:17.242-0600"
],
"FTBFConfig_v113" : [
"2018-02-02T11:53:38.496-0600"
],
"FTBFConfig_v114" : [
"2018-02-02T12:00:54.618-0600"
],
"FTBFConfig_v115" : [
"2018-02-02T12:27:16.089-0600"
],
"FTBFConfig_v116" : [
"2018-02-02T14:28:55.611-0600"
],
"FTBFConfig_v117" : [
"2018-02-02T14:30:21.980-0600"
],
"FTBFConfig_v118" : [
"2018-02-02T14:34:03.230-0600"
],
"FTBFConfig_v119" : [
"2018-02-02T14:36:29.833-0600"
],
"FTBFConfig_v120" : [
"2018-02-02T14:38:43.247-0600"
],
"FTBFConfig_v121" : [
"2018-02-02T14:41:52.498-0600"
],
"FTBFConfig_v122" : [
"2018-02-02T14:50:26.599-0600"
],
"FTBFConfig_v123" : [
"2018-02-02T14:52:59.473-0600"
],
"FTBFConfig_v124" : [
"2018-02-02T14:59:52.787-0600"
],
"FTBFConfig_v125" : [
"2018-02-02T15:04:10.911-0600"
],
"FTBFConfig_v126" : [
"2018-02-02T15:50:14.239-0600"
],
"FTBFConfig_v127" : [
"2018-02-02T15:51:33.630-0600"
],
"FTBFConfig_v128" : [
"2018-02-02T15:52:38.790-0600"
],
"FTBFConfig_v129" : [
"2018-02-02T16:02:47.716-0600"
],
"FTBFConfig_v130" : [
"2018-02-02T16:08:47.271-0600"
],
"FTBFConfig_v131" : [
"2018-02-02T16:11:33.122-0600"
],
"FTBFConfig_v132" : [
"2018-02-02T16:13:00.992-0600"
],
"FTBFConfig_v133" : [
"2018-02-02T16:14:31.618-0600"
],
"FTBFConfig_v134" : [
"2018-02-02T16:26:24.513-0600"
],
"FTBFConfig_v135" : [
"2018-02-02T16:27:11.628-0600"
],
"FTBFConfig_v136" : [
"2018-02-02T16:29:32.990-0600"
],
"FTBFConfig_v137" : [
"2018-02-02T16:31:43.612-0600"
],
"FTBFConfig_v138" : [
"2018-02-02T16:34:16.292-0600"
],
"FTBFConfig_v139" : [
"2018-02-02T17:39:32.345-0600"
],
"FTBFConfig_v140" : [
"2018-02-02T17:42:54.546-0600"
],
"FTBFConfig_v141" : [
"2018-02-02T17:47:39.762-0600"
],
"FTBFConfig_v142" : [
"2018-02-02T17:54:03.756-0600"
]
}
}