{
"ouid" : [
"5481375a0631413ebf697882",
"7a430b2cefc24ecc8ff25811",
"ada36f7ddfe043d987ce73a6",
"b845c8fe24474ac4a819a24b",
"ced20d62246a4a058eb05861"
],
"version" : {
"0" : [
"5481375a0631413ebf697882"
],
"1" : [
"ced20d62246a4a058eb05861"
],
"2" : [
"ada36f7ddfe043d987ce73a6"
],
"3" : [
"b845c8fe24474ac4a819a24b"
],
"4" : [
"7a430b2cefc24ecc8ff25811"
]
},
"configurations.name" : {
"notprovided" : [
"5481375a0631413ebf697882",
"7a430b2cefc24ecc8ff25811",
"ada36f7ddfe043d987ce73a6",
"b845c8fe24474ac4a819a24b",
"ced20d62246a4a058eb05861"
],
"iterateDefaultGroup_v0" : [
"5481375a0631413ebf697882"
],
"iterateDefaultGroup_v1" : [
"5481375a0631413ebf697882"
],
"iterateDefaultGroup_v2" : [
"ced20d62246a4a058eb05861"
],
"iterateDefaultGroup_v3" : [
"ced20d62246a4a058eb05861"
],
"iterateDefaultGroup_v4" : [
"ced20d62246a4a058eb05861"
],
"iterateDefaultGroup_v5" : [
"ced20d62246a4a058eb05861"
],
"iterateDefaultGroup_v6" : [
"ced20d62246a4a058eb05861"
],
"iterateDefaultGroup_v7" : [
"ced20d62246a4a058eb05861"
],
"iterateDefaultGroup_v8" : [
"ced20d62246a4a058eb05861"
],
"iterateDefaultGroup_v9" : [
"ced20d62246a4a058eb05861"
],
"iterateDefaultGroup_v10" : [
"ada36f7ddfe043d987ce73a6"
],
"iterateDefaultGroup_v11" : [
"b845c8fe24474ac4a819a24b"
],
"iterateDefaultGroup_v12" : [
"7a430b2cefc24ecc8ff25811"
]
},
"entities.name" : {
"OTSROOT" : [
"5481375a0631413ebf697882",
"7a430b2cefc24ecc8ff25811",
"ada36f7ddfe043d987ce73a6",
"b845c8fe24474ac4a819a24b",
"ced20d62246a4a058eb05861"
]
},
"aliases.active.name" : {

},
"runs.name" : {

},
"configurations.assigned" : {
"notprovided" : [
"2020-07-21T14:47:39.407-0500",
"2020-07-21T15:28:03.779-0500",
"2020-07-28T13:15:24.556-0500",
"2020-07-28T13:20:56.192-0500",
"2020-07-28T13:26:35.046-0500"
],
"iterateDefaultGroup_v0" : [
"2020-07-21T14:47:39.987-0500"
],
"iterateDefaultGroup_v1" : [
"2020-07-21T15:25:08.383-0500"
],
"iterateDefaultGroup_v2" : [
"2020-07-21T15:28:04.780-0500"
],
"iterateDefaultGroup_v3" : [
"2020-07-21T15:42:21.189-0500"
],
"iterateDefaultGroup_v4" : [
"2020-07-21T15:45:04.125-0500"
],
"iterateDefaultGroup_v5" : [
"2020-07-21T15:57:34.095-0500"
],
"iterateDefaultGroup_v6" : [
"2020-07-28T10:52:35.574-0500"
],
"iterateDefaultGroup_v7" : [
"2020-07-28T13:01:37.287-0500"
],
"iterateDefaultGroup_v8" : [
"2020-07-28T13:03:27.462-0500"
],
"iterateDefaultGroup_v9" : [
"2020-07-28T13:12:58.456-0500"
],
"iterateDefaultGroup_v10" : [
"2020-07-28T13:15:25.690-0500"
],
"iterateDefaultGroup_v11" : [
"2020-07-28T13:20:57.647-0500"
],
"iterateDefaultGroup_v12" : [
"2020-07-28T13:27:38.222-0500"
]
}
}