{
"document" : {
"data" : {
"NAME" : "STATE_MACHINE_TABLE",
"COMMENT" : "three FSMs for The Supervisor.",
"AUTHOR" : "admin",
"CREATION_TIME" : 1625687150,
"COL_TYPES" : {
"STATE_MACHINE_GROUP_ID" : "STRING",
"STATE_MACHINE_UID" : "STRING",
"SYSTEM_ALIAS_FILTER" : "STRING",
"RUN_DISPLAY_ALIAS" : "STRING",
"ENABLE_TABLE_DUMP_ON_CONFIGURE_TRANSITION" : "STRING",
"TABLE_DUMP_ON_CONFIGURE_FORMAT" : "STRING",
"TABLE_DUMP_ON_CONFIGURE_FILE_PATH" : "STRING",
"TABLE_DUMP_ON_CONFIGURE_FILE_RADIX" : "STRING",
"ENABLE_TABLE_DUMP_ON_RUN_TRANSITION" : "STRING",
"TABLE_DUMP_ON_RUN_FORMAT" : "STRING",
"TABLE_DUMP_ON_RUN_FILE_PATH" : "STRING",
"TABLE_DUMP_ON_RUN_FILE_RADIX" : "STRING",
"RUN_INFO_PLUGIN_TYPE" : "STRING",
"COMMENT_DESCRIPTION" : "STRING",
"AUTHOR" : "STRING",
"RECORD_INSERTION_TIME" : "TIMESTAMP WITH TIMEZONE"
},
"DATA_SET" : [
{
"STATE_MACHINE_GROUP_ID" : "Supervisor0_FSMs",
"STATE_MACHINE_UID" : "PhysicsRuns0",
"SYSTEM_ALIAS_FILTER" : "*Physics*Config*",
"RUN_DISPLAY_ALIAS" : "Physics Run",
"ENABLE_TABLE_DUMP_ON_CONFIGURE_TRANSITION" : "No",
"TABLE_DUMP_ON_CONFIGURE_FORMAT" : "DEFAULT",
"TABLE_DUMP_ON_CONFIGURE_FILE_PATH" : "DEFAULT",
"TABLE_DUMP_ON_CONFIGURE_FILE_RADIX" : "DEFAULT",
"ENABLE_TABLE_DUMP_ON_RUN_TRANSITION" : "No",
"TABLE_DUMP_ON_RUN_FORMAT" : "DEFAULT",
"TABLE_DUMP_ON_RUN_FILE_PATH" : "DEFAULT",
"TABLE_DUMP_ON_RUN_FILE_RADIX" : "DEFAULT",
"RUN_INFO_PLUGIN_TYPE" : "DEFAULT",
"COMMENT_DESCRIPTION" : "System alias filter will only show Physics config groups. And the FSM display will show \"Physics Run.\"",
"AUTHOR" : "admin",
"RECORD_INSERTION_TIME" : "1483025802"
},
{
"STATE_MACHINE_GROUP_ID" : "Supervisor0_FSMs",
"STATE_MACHINE_UID" : "CalibrationRuns0",
"SYSTEM_ALIAS_FILTER" : "*Calib*Config*",
"RUN_DISPLAY_ALIAS" : "Calibration",
"ENABLE_TABLE_DUMP_ON_CONFIGURE_TRANSITION" : "No",
"TABLE_DUMP_ON_CONFIGURE_FORMAT" : "DEFAULT",
"TABLE_DUMP_ON_CONFIGURE_FILE_PATH" : "DEFAULT",
"TABLE_DUMP_ON_CONFIGURE_FILE_RADIX" : "DEFAULT",
"ENABLE_TABLE_DUMP_ON_RUN_TRANSITION" : "No",
"TABLE_DUMP_ON_RUN_FORMAT" : "DEFAULT",
"TABLE_DUMP_ON_RUN_FILE_PATH" : "DEFAULT",
"TABLE_DUMP_ON_RUN_FILE_RADIX" : "DEFAULT",
"RUN_INFO_PLUGIN_TYPE" : "DEFAULT",
"COMMENT_DESCRIPTION" : "Filter selects only groups with Calib in the name (for Calibrations). Displays runs as \"Calibration.\"",
"AUTHOR" : "admin",
"RECORD_INSERTION_TIME" : "1483025802"
},
{
"STATE_MACHINE_GROUP_ID" : "Supervisor0_FSMs",
"STATE_MACHINE_UID" : "OtherRuns0",
"SYSTEM_ALIAS_FILTER" : "!*Context*",
"RUN_DISPLAY_ALIAS" : "Run",
"ENABLE_TABLE_DUMP_ON_CONFIGURE_TRANSITION" : "No",
"TABLE_DUMP_ON_CONFIGURE_FORMAT" : "DEFAULT",
"TABLE_DUMP_ON_CONFIGURE_FILE_PATH" : "DEFAULT",
"TABLE_DUMP_ON_CONFIGURE_FILE_RADIX" : "DEFAULT",
"ENABLE_TABLE_DUMP_ON_RUN_TRANSITION" : "No",
"TABLE_DUMP_ON_RUN_FORMAT" : "DEFAULT",
"TABLE_DUMP_ON_RUN_FILE_PATH" : "DEFAULT",
"TABLE_DUMP_ON_RUN_FILE_RADIX" : "DEFAULT",
"RUN_INFO_PLUGIN_TYPE" : "DEFAULT",
"COMMENT_DESCRIPTION" : "System alias filter will only show non-context config groups. And the FSM display will show \"Oddball-Run.\"",
"AUTHOR" : "admin",
"RECORD_INSERTION_TIME" : "1483025802"
}
]
},
"metadata" : {

},
"search" : [

]
},
"comments" : [

],
"origin" : {
"source" : "template",
"name" : "notprovided",
"format" : "json",
"created" : "2021-07-07T14:45:50.868-0500",
"rawdata" : [

]
},
"version" : "2",
"entities" : [
{
"name" : "OTSROOT",
"assigned" : "2021-07-07T14:45:50.868-0500"
}
],
"configurations" : [
{
"name" : "notprovided",
"assigned" : "2021-07-07T14:45:50.868-0500"
},
{
"name" : "DefaultContext_v33",
"assigned" : "2021-07-07T14:45:52.293-0500"
},
{
"name" : "DefaultContext_v34",
"assigned" : "2021-07-07T16:02:04.403-0500"
},
{
"name" : "DefaultContext_v35",
"assigned" : "2021-07-07T16:05:37.966-0500"
},
{
"name" : "DefaultContext_v36",
"assigned" : "2021-07-08T14:00:20.493-0500"
},
{
"name" : "DefaultContext_v37",
"assigned" : "2021-07-08T14:17:00.198-0500"
},
{
"name" : "DefaultContext_v38",
"assigned" : "2021-07-08T16:21:56.303-0500"
},
{
"name" : "DefaultContext_v39",
"assigned" : "2021-07-08T16:24:39.457-0500"
},
{
"name" : "DefaultContext_v40",
"assigned" : "2021-07-14T13:02:14.246-0500"
},
{
"name" : "DefaultContext_v41",
"assigned" : "2021-07-14T13:03:01.390-0500"
},
{
"name" : "DefaultContext_v42",
"assigned" : "2021-07-14T14:39:31.854-0500"
},
{
"name" : "DefaultContext_v43",
"assigned" : "2021-07-21T12:08:22.669-0500"
},
{
"name" : "DefaultContext_v44",
"assigned" : "2021-08-03T11:10:39.642-0500"
},
{
"name" : "DefaultContext_v45",
"assigned" : "2021-09-02T14:08:01.019-0500"
},
{
"name" : "DefaultContext_v46",
"assigned" : "2021-09-24T15:36:52.663-0500"
},
{
"name" : "DefaultContext_v47",
"assigned" : "2021-09-28T10:22:57.696-0500"
},
{
"name" : "DefaultContext_v48",
"assigned" : "2021-11-10T15:11:05.393-0600"
},
{
"name" : "DefaultContext_v49",
"assigned" : "2022-04-18T12:56:04.381-0400"
},
{
"name" : "DefaultContext_v50",
"assigned" : "2022-04-20T10:06:52.296-0400"
},
{
"name" : "DefaultContext_v51",
"assigned" : "2023-01-19T10:05:01.638-0600"
},
{
"name" : "DefaultContext_v52",
"assigned" : "2023-01-19T11:02:48.237-0600"
},
{
"name" : "DefaultContext_v53",
"assigned" : "2023-01-19T12:09:18.138-0600"
},
{
"name" : "DefaultContext_v54",
"assigned" : "2023-01-23T15:11:58.249-0600"
},
{
"name" : "DefaultContext_v55",
"assigned" : "2023-01-30T13:43:40.950-0600"
},
{
"name" : "DefaultContext_v56",
"assigned" : "2023-02-13T14:11:45.966-0600"
},
{
"name" : "DefaultContext_v57",
"assigned" : "2023-02-13T14:13:00.470-0600"
},
{
"name" : "DefaultContext_v58",
"assigned" : "2023-02-13T14:20:59.664-0600"
},
{
"name" : "DefaultContext_v59",
"assigned" : "2023-02-13T14:33:43.574-0600"
},
{
"name" : "DefaultContext_v60",
"assigned" : "2023-02-13T14:58:14.809-0600"
},
{
"name" : "DefaultContext_v61",
"assigned" : "2023-02-16T12:29:02.436-0600"
},
{
"name" : "DefaultContext_v62",
"assigned" : "2023-02-16T14:03:00.891-0600"
},
{
"name" : "DefaultContext_v63",
"assigned" : "2023-02-16T14:04:39.964-0600"
},
{
"name" : "DefaultContext_v64",
"assigned" : "2023-02-16T14:42:27.093-0600"
},
{
"name" : "DefaultContext_v65",
"assigned" : "2023-02-16T14:49:47.109-0600"
},
{
"name" : "DefaultContext_v66",
"assigned" : "2023-02-16T14:53:11.849-0600"
},
{
"name" : "DefaultContext_v67",
"assigned" : "2023-02-16T14:55:43.436-0600"
},
{
"name" : "DefaultContext_v68",
"assigned" : "2023-02-17T08:58:42.598-0600"
},
{
"name" : "DefaultContext_v69",
"assigned" : "2023-02-17T09:04:54.377-0600"
},
{
"name" : "DefaultContext_v70",
"assigned" : "2023-02-17T09:06:41.406-0600"
},
{
"name" : "DefaultContext_v71",
"assigned" : "2023-02-17T09:07:48.244-0600"
},
{
"name" : "DefaultContext_v72",
"assigned" : "2023-02-23T08:41:50.435-0600"
},
{
"name" : "DefaultContext_v73",
"assigned" : "2023-02-28T13:19:24.166-0600"
},
{
"name" : "DefaultContext_v74",
"assigned" : "2023-02-28T13:20:45.091-0600"
},
{
"name" : "DefaultContext_v75",
"assigned" : "2023-03-01T10:10:37.224-0600"
},
{
"name" : "DefaultContext_v76",
"assigned" : "2023-04-14T11:05:29.501-0500"
},
{
"name" : "DefaultContext_v77",
"assigned" : "2023-04-14T11:09:59.670-0500"
},
{
"name" : "DefaultContext_v78",
"assigned" : "2023-04-14T14:03:30.443-0500"
},
{
"name" : "DefaultContext_v79",
"assigned" : "2023-04-14T15:36:53.260-0500"
}
],
"changelog" : "notprovided",
"bookkeeping" : {
"isdeleted" : false,
"isreadonly" : false,
"updates" : [
{
"event" : "addConfiguration",
"timestamp" : "2021-07-07T14:45:50.868-0500",
"value" : {
"name" : "notprovided",
"assigned" : "2021-07-07T14:45:50.868-0500"
}
},
{
"event" : "setVersion",
"timestamp" : "2021-07-07T14:45:50.868-0500",
"value" : {
"name" : "2",
"assigned" : "2021-07-07T14:45:50.868-0500"
}
},
{
"event" : "setCollection",
"timestamp" : "2021-07-07T14:45:50.868-0500",
"value" : {
"name" : "StateMachineTable",
"assigned" : "2021-07-07T14:45:50.868-0500"
}
},
{
"event" : "addEntity",
"timestamp" : "2021-07-07T14:45:50.868-0500",
"value" : {
"name" : "OTSROOT",
"assigned" : "2021-07-07T14:45:50.868-0500"
}
},
{
"event" : "addConfiguration",
"timestamp" : "2021-07-07T14:45:52.293-0500",
"value" : {
"name" : "DefaultContext_v33",
"assigned" : "2021-07-07T14:45:52.293-0500"
}
},
{
"event" : "addConfiguration",
"timestamp" : "2021-07-07T16:02:04.403-0500",
"value" : {
"name" : "DefaultContext_v34",
"assigned" : "2021-07-07T16:02:04.403-0500"
}
},
{
"event" : "addConfiguration",
"timestamp" : "2021-07-07T16:05:37.966-0500",
"value" : {
"name" : "DefaultContext_v35",
"assigned" : "2021-07-07T16:05:37.966-0500"
}
},
{
"event" : "addConfiguration",
"timestamp" : "2021-07-08T14:00:20.493-0500",
"value" : {
"name" : "DefaultContext_v36",
"assigned" : "2021-07-08T14:00:20.493-0500"
}
},
{
"event" : "addConfiguration",
"timestamp" : "2021-07-08T14:17:00.198-0500",
"value" : {
"name" : "DefaultContext_v37",
"assigned" : "2021-07-08T14:17:00.198-0500"
}
},
{
"event" : "addConfiguration",
"timestamp" : "2021-07-08T16:21:56.303-0500",
"value" : {
"name" : "DefaultContext_v38",
"assigned" : "2021-07-08T16:21:56.303-0500"
}
},
{
"event" : "addConfiguration",
"timestamp" : "2021-07-08T16:24:39.457-0500",
"value" : {
"name" : "DefaultContext_v39",
"assigned" : "2021-07-08T16:24:39.457-0500"
}
},
{
"event" : "addConfiguration",
"timestamp" : "2021-07-14T13:02:14.246-0500",
"value" : {
"name" : "DefaultContext_v40",
"assigned" : "2021-07-14T13:02:14.246-0500"
}
},
{
"event" : "addConfiguration",
"timestamp" : "2021-07-14T13:03:01.390-0500",
"value" : {
"name" : "DefaultContext_v41",
"assigned" : "2021-07-14T13:03:01.390-0500"
}
},
{
"event" : "addConfiguration",
"timestamp" : "2021-07-14T14:39:31.854-0500",
"value" : {
"name" : "DefaultContext_v42",
"assigned" : "2021-07-14T14:39:31.854-0500"
}
},
{
"event" : "addConfiguration",
"timestamp" : "2021-07-21T12:08:22.669-0500",
"value" : {
"name" : "DefaultContext_v43",
"assigned" : "2021-07-21T12:08:22.669-0500"
}
},
{
"event" : "addConfiguration",
"timestamp" : "2021-08-03T11:10:39.642-0500",
"value" : {
"name" : "DefaultContext_v44",
"assigned" : "2021-08-03T11:10:39.642-0500"
}
},
{
"event" : "addConfiguration",
"timestamp" : "2021-09-02T14:08:01.019-0500",
"value" : {
"name" : "DefaultContext_v45",
"assigned" : "2021-09-02T14:08:01.019-0500"
}
},
{
"event" : "addConfiguration",
"timestamp" : "2021-09-24T15:36:52.663-0500",
"value" : {
"name" : "DefaultContext_v46",
"assigned" : "2021-09-24T15:36:52.663-0500"
}
},
{
"event" : "addConfiguration",
"timestamp" : "2021-09-28T10:22:57.696-0500",
"value" : {
"name" : "DefaultContext_v47",
"assigned" : "2021-09-28T10:22:57.696-0500"
}
},
{
"event" : "addConfiguration",
"timestamp" : "2021-11-10T15:11:05.393-0600",
"value" : {
"name" : "DefaultContext_v48",
"assigned" : "2021-11-10T15:11:05.393-0600"
}
},
{
"event" : "addConfiguration",
"timestamp" : "2022-04-18T12:56:04.381-0400",
"value" : {
"name" : "DefaultContext_v49",
"assigned" : "2022-04-18T12:56:04.381-0400"
}
},
{
"event" : "addConfiguration",
"timestamp" : "2022-04-20T10:06:52.296-0400",
"value" : {
"name" : "DefaultContext_v50",
"assigned" : "2022-04-20T10:06:52.296-0400"
}
},
{
"event" : "addConfiguration",
"timestamp" : "2023-01-19T10:05:01.638-0600",
"value" : {
"name" : "DefaultContext_v51",
"assigned" : "2023-01-19T10:05:01.638-0600"
}
},
{
"event" : "addConfiguration",
"timestamp" : "2023-01-19T11:02:48.237-0600",
"value" : {
"name" : "DefaultContext_v52",
"assigned" : "2023-01-19T11:02:48.237-0600"
}
},
{
"event" : "addConfiguration",
"timestamp" : "2023-01-19T12:09:18.138-0600",
"value" : {
"name" : "DefaultContext_v53",
"assigned" : "2023-01-19T12:09:18.138-0600"
}
},
{
"event" : "addConfiguration",
"timestamp" : "2023-01-23T15:11:58.249-0600",
"value" : {
"name" : "DefaultContext_v54",
"assigned" : "2023-01-23T15:11:58.249-0600"
}
},
{
"event" : "addConfiguration",
"timestamp" : "2023-01-30T13:43:40.950-0600",
"value" : {
"name" : "DefaultContext_v55",
"assigned" : "2023-01-30T13:43:40.950-0600"
}
},
{
"event" : "addConfiguration",
"timestamp" : "2023-02-13T14:11:45.966-0600",
"value" : {
"name" : "DefaultContext_v56",
"assigned" : "2023-02-13T14:11:45.966-0600"
}
},
{
"event" : "addConfiguration",
"timestamp" : "2023-02-13T14:13:00.470-0600",
"value" : {
"name" : "DefaultContext_v57",
"assigned" : "2023-02-13T14:13:00.470-0600"
}
},
{
"event" : "addConfiguration",
"timestamp" : "2023-02-13T14:20:59.664-0600",
"value" : {
"name" : "DefaultContext_v58",
"assigned" : "2023-02-13T14:20:59.664-0600"
}
},
{
"event" : "addConfiguration",
"timestamp" : "2023-02-13T14:33:43.574-0600",
"value" : {
"name" : "DefaultContext_v59",
"assigned" : "2023-02-13T14:33:43.574-0600"
}
},
{
"event" : "addConfiguration",
"timestamp" : "2023-02-13T14:58:14.809-0600",
"value" : {
"name" : "DefaultContext_v60",
"assigned" : "2023-02-13T14:58:14.809-0600"
}
},
{
"event" : "addConfiguration",
"timestamp" : "2023-02-16T12:29:02.436-0600",
"value" : {
"name" : "DefaultContext_v61",
"assigned" : "2023-02-16T12:29:02.436-0600"
}
},
{
"event" : "addConfiguration",
"timestamp" : "2023-02-16T14:03:00.891-0600",
"value" : {
"name" : "DefaultContext_v62",
"assigned" : "2023-02-16T14:03:00.891-0600"
}
},
{
"event" : "addConfiguration",
"timestamp" : "2023-02-16T14:04:39.964-0600",
"value" : {
"name" : "DefaultContext_v63",
"assigned" : "2023-02-16T14:04:39.964-0600"
}
},
{
"event" : "addConfiguration",
"timestamp" : "2023-02-16T14:42:27.093-0600",
"value" : {
"name" : "DefaultContext_v64",
"assigned" : "2023-02-16T14:42:27.093-0600"
}
},
{
"event" : "addConfiguration",
"timestamp" : "2023-02-16T14:49:47.109-0600",
"value" : {
"name" : "DefaultContext_v65",
"assigned" : "2023-02-16T14:49:47.109-0600"
}
},
{
"event" : "addConfiguration",
"timestamp" : "2023-02-16T14:53:11.849-0600",
"value" : {
"name" : "DefaultContext_v66",
"assigned" : "2023-02-16T14:53:11.849-0600"
}
},
{
"event" : "addConfiguration",
"timestamp" : "2023-02-16T14:55:43.436-0600",
"value" : {
"name" : "DefaultContext_v67",
"assigned" : "2023-02-16T14:55:43.436-0600"
}
},
{
"event" : "addConfiguration",
"timestamp" : "2023-02-17T08:58:42.598-0600",
"value" : {
"name" : "DefaultContext_v68",
"assigned" : "2023-02-17T08:58:42.598-0600"
}
},
{
"event" : "addConfiguration",
"timestamp" : "2023-02-17T09:04:54.377-0600",
"value" : {
"name" : "DefaultContext_v69",
"assigned" : "2023-02-17T09:04:54.377-0600"
}
},
{
"event" : "addConfiguration",
"timestamp" : "2023-02-17T09:06:41.406-0600",
"value" : {
"name" : "DefaultContext_v70",
"assigned" : "2023-02-17T09:06:41.406-0600"
}
},
{
"event" : "addConfiguration",
"timestamp" : "2023-02-17T09:07:48.244-0600",
"value" : {
"name" : "DefaultContext_v71",
"assigned" : "2023-02-17T09:07:48.244-0600"
}
},
{
"event" : "addConfiguration",
"timestamp" : "2023-02-23T08:41:50.435-0600",
"value" : {
"name" : "DefaultContext_v72",
"assigned" : "2023-02-23T08:41:50.435-0600"
}
},
{
"event" : "addConfiguration",
"timestamp" : "2023-02-28T13:19:24.166-0600",
"value" : {
"name" : "DefaultContext_v73",
"assigned" : "2023-02-28T13:19:24.166-0600"
}
},
{
"event" : "addConfiguration",
"timestamp" : "2023-02-28T13:20:45.091-0600",
"value" : {
"name" : "DefaultContext_v74",
"assigned" : "2023-02-28T13:20:45.091-0600"
}
},
{
"event" : "addConfiguration",
"timestamp" : "2023-03-01T10:10:37.224-0600",
"value" : {
"name" : "DefaultContext_v75",
"assigned" : "2023-03-01T10:10:37.224-0600"
}
},
{
"event" : "addConfiguration",
"timestamp" : "2023-04-14T11:05:29.501-0500",
"value" : {
"name" : "DefaultContext_v76",
"assigned" : "2023-04-14T11:05:29.501-0500"
}
},
{
"event" : "addConfiguration",
"timestamp" : "2023-04-14T11:09:59.670-0500",
"value" : {
"name" : "DefaultContext_v77",
"assigned" : "2023-04-14T11:09:59.670-0500"
}
},
{
"event" : "addConfiguration",
"timestamp" : "2023-04-14T14:03:30.443-0500",
"value" : {
"name" : "DefaultContext_v78",
"assigned" : "2023-04-14T14:03:30.443-0500"
}
},
{
"event" : "addConfiguration",
"timestamp" : "2023-04-14T15:36:53.260-0500",
"value" : {
"name" : "DefaultContext_v79",
"assigned" : "2023-04-14T15:36:53.260-0500"
}
}
],
"created" : "2021-07-07T14:45:50.868-0500"
},
"_id" : {
"$oid" : "c4099916410f4683bdec5640"
},
"collection" : "StateMachineTable",
"aliases" : {
"active" : [

],
"history" : [

]
},
"runs" : [

],
"attachments" : [

],
"configtype" : "notprovided"
}