{
"document" : {
"data" : {
"NAME" : "VERSION_ALIASES_CONFIGURATION",
"COMMENT" : "Default Version Aliases.",
"AUTHOR" : "admin",
"CREATION_TIME" : 1480649901,
"COL_TYPES" : {
"VERSION_ALIAS_UID" : "VARCHAR2",
"CONFIGURATION_NAME" : "VARCHAR2",
"VERSION_ALIAS" : "VARCHAR2",
"VERSION" : "VARCHAR2",
"COMMENT_DESCRIPTION" : "VARCHAR2",
"AUTHOR" : "VARCHAR2",
"RECORD_INSERTION_TIME" : "TIMESTAMP WITH TIMEZONE"
},
"DATA_SET" : [

]
},
"metadata" : {

},
"search" : [

]
},
"comments" : [

],
"origin" : {
"source" : "template",
"name" : "notprovided",
"format" : "json",
"created" : "2017-11-08T15:56:08.870-0600",
"rawdata" : [

]
},
"version" : "3",
"entities" : [
{
"name" : "OTSROOT",
"assigned" : "2017-11-08T15:56:08.871-0600"
}
],
"configurations" : [
{
"name" : "notprovided",
"assigned" : "2017-11-08T15:56:08.871-0600"
},
{
"name" : "TableEditWizBackbone_v3",
"assigned" : "2017-11-08T15:56:08.946-0600"
},
{
"name" : "TableEditWizBackbone_v4",
"assigned" : "2017-11-09T09:56:34.230-0600"
},
{
"name" : "TableEditWizBackbone_v5",
"assigned" : "2017-11-09T10:06:03.347-0600"
},
{
"name" : "GroupAliasTreeEditWizBackbone_v0",
"assigned" : "2017-11-09T10:37:14.984-0600"
},
{
"name" : "GroupAliasSaveWizBackbone_v0",
"assigned" : "2017-11-09T10:39:05.302-0600"
},
{
"name" : "GroupAliasSaveWizBackbone_v1",
"assigned" : "2017-11-10T10:18:40.018-0600"
},
{
"name" : "GroupAliasSaveWizBackbone_v2",
"assigned" : "2017-11-10T10:28:48.533-0600"
},
{
"name" : "GroupAliasSaveWizBackbone_v3",
"assigned" : "2017-11-10T10:40:35.018-0600"
},
{
"name" : "GroupAliasSaveWizBackbone_v4",
"assigned" : "2017-11-10T10:52:07.567-0600"
},
{
"name" : "GroupAliasSaveWizBackbone_v5",
"assigned" : "2017-11-10T11:21:03.544-0600"
},
{
"name" : "GroupAliasSaveWizBackbone_v6",
"assigned" : "2017-11-10T11:44:51.848-0600"
},
{
"name" : "TableEditWizBackbone_v6",
"assigned" : "2017-11-10T12:15:27.793-0600"
},
{
"name" : "TableEditWizBackbone_v7",
"assigned" : "2017-11-10T12:16:57.368-0600"
},
{
"name" : "TableEditWizBackbone_v8",
"assigned" : "2017-11-10T12:22:21.855-0600"
},
{
"name" : "TableEditWizBackbone_v9",
"assigned" : "2017-11-10T12:35:34.127-0600"
},
{
"name" : "TableEditWizBackbone_v10",
"assigned" : "2017-11-10T12:37:12.239-0600"
},
{
"name" : "TableEditWizBackbone_v11",
"assigned" : "2017-11-10T12:38:16.832-0600"
},
{
"name" : "GroupAliasSaveWizBackbone_v7",
"assigned" : "2017-11-10T17:04:43.280-0600"
},
{
"name" : "GroupAliasSaveWizBackbone_v8",
"assigned" : "2017-11-13T10:55:08.295-0600"
},
{
"name" : "TableEditWizBackbone_v12",
"assigned" : "2017-11-14T11:21:20.136-0600"
},
{
"name" : "GroupAliasWizBackbone_v0",
"assigned" : "2017-11-14T14:16:27.027-0600"
},
{
"name" : "GroupAliasSaveWizBackbone_v9",
"assigned" : "2017-11-14T14:19:30.708-0600"
},
{
"name" : "GroupAliasTreeEditWizBackbone_v1",
"assigned" : "2017-11-14T16:15:31.036-0600"
},
{
"name" : "TableEditWizBackbone_v13",
"assigned" : "2017-11-15T11:55:01.016-0600"
},
{
"name" : "TableEditWizBackbone_v14",
"assigned" : "2017-11-15T11:57:53.646-0600"
},
{
"name" : "TableEditWizBackbone_v15",
"assigned" : "2017-11-15T12:29:38.841-0600"
},
{
"name" : "TableEditWizBackbone_v16",
"assigned" : "2017-11-15T12:31:24.692-0600"
},
{
"name" : "TableEditWizBackbone_v17",
"assigned" : "2017-11-15T12:39:08.141-0600"
},
{
"name" : "TableEditWizBackbone_v18",
"assigned" : "2017-11-15T12:42:36.505-0600"
},
{
"name" : "TableEditWizBackbone_v19",
"assigned" : "2017-11-15T12:55:34.819-0600"
},
{
"name" : "TableEditWizBackbone_v20",
"assigned" : "2017-11-15T12:57:48.694-0600"
},
{
"name" : "GroupAliasTreeEditWizBackbone_v2",
"assigned" : "2017-11-15T12:59:21.115-0600"
},
{
"name" : "TableEditWizBackbone_v21",
"assigned" : "2017-11-15T13:01:07.505-0600"
},
{
"name" : "TableEditWizBackbone_v22",
"assigned" : "2017-11-15T13:03:01.027-0600"
},
{
"name" : "TableEditWizBackbone_v23",
"assigned" : "2017-11-15T13:04:28.567-0600"
},
{
"name" : "TableEditWizBackbone_v24",
"assigned" : "2017-11-15T13:07:56.425-0600"
},
{
"name" : "GroupAliasTreeEditWizBackbone_v3",
"assigned" : "2017-11-15T13:12:02.835-0600"
},
{
"name" : "TableEditWizBackbone_v25",
"assigned" : "2017-11-15T13:13:57.812-0600"
},
{
"name" : "TableEditWizBackbone_v26",
"assigned" : "2017-11-15T13:27:45.495-0600"
},
{
"name" : "TableEditWizBackbone_v27",
"assigned" : "2017-11-15T13:35:51.880-0600"
},
{
"name" : "TableEditWizBackbone_v28",
"assigned" : "2017-11-15T13:36:56.491-0600"
},
{
"name" : "GroupAliasTreeEditWizBackbone_v4",
"assigned" : "2017-11-15T15:33:34.672-0600"
},
{
"name" : "TableEditWizBackbone_v29",
"assigned" : "2017-11-15T15:35:38.967-0600"
},
{
"name" : "GroupAliasTreeEditWizBackbone_v5",
"assigned" : "2017-11-15T15:38:07.274-0600"
},
{
"name" : "GroupAliasTreeEditWizBackbone_v6",
"assigned" : "2017-11-15T16:19:32.372-0600"
},
{
"name" : "GroupAliasTreeEditWizBackbone_v7",
"assigned" : "2017-11-15T16:26:35.709-0600"
},
{
"name" : "GroupAliasTreeEditWizBackbone_v8",
"assigned" : "2017-11-16T09:22:36.213-0600"
},
{
"name" : "GroupAliasTreeEditWizBackbone_v9",
"assigned" : "2017-11-16T09:27:13.224-0600"
},
{
"name" : "GroupAliasTreeEditWizBackbone_v10",
"assigned" : "2017-11-17T10:23:32.416-0600"
},
{
"name" : "TableEditWizBackbone_v30",
"assigned" : "2017-11-17T17:24:39.256-0600"
},
{
"name" : "GroupAliasTreeEditWizBackbone_v11",
"assigned" : "2017-11-17T17:26:50.512-0600"
},
{
"name" : "GroupAliasTreeEditWizBackbone_v12",
"assigned" : "2017-11-17T17:58:30.967-0600"
},
{
"name" : "GroupAliasTreeEditWizBackbone_v13",
"assigned" : "2017-11-17T18:24:50.413-0600"
},
{
"name" : "GroupAliasTreeEditWizBackbone_v14",
"assigned" : "2017-11-17T18:32:30.556-0600"
},
{
"name" : "GroupAliasTreeEditWizBackbone_v15",
"assigned" : "2017-11-17T18:43:37.940-0600"
},
{
"name" : "GroupAliasTreeEditWizBackbone_v16",
"assigned" : "2017-11-17T18:48:40.146-0600"
},
{
"name" : "GroupAliasTreeEditWizBackbone_v17",
"assigned" : "2017-11-20T14:44:43.671-0600"
},
{
"name" : "TableEditWizBackbone_v31",
"assigned" : "2017-11-20T14:48:36.562-0600"
},
{
"name" : "TableEditWizBackbone_v32",
"assigned" : "2017-11-20T15:40:01.876-0600"
},
{
"name" : "TableEditWizBackbone_v33",
"assigned" : "2017-11-20T16:41:08.478-0600"
},
{
"name" : "TableEditWizBackbone_v34",
"assigned" : "2017-11-20T18:55:41.081-0600"
},
{
"name" : "TableEditWizBackbone_v35",
"assigned" : "2017-11-20T18:57:36.452-0600"
},
{
"name" : "TableEditWizBackbone_v36",
"assigned" : "2017-11-28T10:58:47.137-0600"
},
{
"name" : "TableEditWizBackbone_v37",
"assigned" : "2017-11-28T11:47:21.058-0600"
},
{
"name" : "TableEditWizBackbone_v38",
"assigned" : "2017-11-28T12:09:43.625-0600"
},
{
"name" : "TableEditWizBackbone_v39",
"assigned" : "2017-11-28T12:18:11.293-0600"
},
{
"name" : "TableEditWizBackbone_v40",
"assigned" : "2017-11-28T16:52:31.676-0600"
},
{
"name" : "TableEditWizBackbone_v41",
"assigned" : "2017-11-28T17:27:53.517-0600"
},
{
"name" : "TableEditWizBackbone_v42",
"assigned" : "2017-11-29T11:25:56.865-0600"
},
{
"name" : "TableEditWizBackbone_v43",
"assigned" : "2017-11-29T16:45:22.398-0600"
},
{
"name" : "GroupAliasTreeEditWizBackbone_v18",
"assigned" : "2017-11-29T17:50:45.856-0600"
},
{
"name" : "GroupAliasTreeEditWizBackbone_v19",
"assigned" : "2017-11-29T18:00:39.322-0600"
},
{
"name" : "GroupAliasTreeEditWizBackbone_v20",
"assigned" : "2017-11-29T18:35:17.801-0600"
},
{
"name" : "TableEditWizBackbone_v44",
"assigned" : "2017-11-30T09:28:26.330-0600"
},
{
"name" : "TableEditWizBackbone_v45",
"assigned" : "2017-11-30T10:12:23.458-0600"
},
{
"name" : "GroupAliasSaveWizBackbone_v10",
"assigned" : "2017-12-01T09:36:25.886-0600"
},
{
"name" : "GroupAliasSaveWizBackbone_v11",
"assigned" : "2017-12-01T09:37:12.950-0600"
},
{
"name" : "GroupAliasSaveWizBackbone_v12",
"assigned" : "2017-12-01T09:52:08.098-0600"
},
{
"name" : "GroupAliasSaveWizBackbone_v13",
"assigned" : "2017-12-01T11:52:04.803-0600"
},
{
"name" : "GroupAliasSaveWizBackbone_v14",
"assigned" : "2017-12-01T12:18:28.142-0600"
},
{
"name" : "GroupAliasSaveWizBackbone_v15",
"assigned" : "2017-12-01T12:21:09.799-0600"
},
{
"name" : "GroupAliasSaveWizBackbone_v16",
"assigned" : "2017-12-01T12:43:29.777-0600"
},
{
"name" : "GroupAliasSaveWizBackbone_v17",
"assigned" : "2017-12-01T12:58:08.394-0600"
},
{
"name" : "GroupAliasSaveWizBackbone_v18",
"assigned" : "2017-12-01T13:01:01.799-0600"
},
{
"name" : "GroupAliasSaveWizBackbone_v19",
"assigned" : "2017-12-01T13:25:58.007-0600"
},
{
"name" : "GroupAliasSaveWizBackbone_v20",
"assigned" : "2017-12-01T13:35:52.437-0600"
},
{
"name" : "GroupAliasSaveWizBackbone_v21",
"assigned" : "2017-12-01T14:01:00.473-0600"
},
{
"name" : "GroupAliasSaveWizBackbone_v22",
"assigned" : "2017-12-01T14:04:07.918-0600"
},
{
"name" : "GroupAliasSaveWizBackbone_v23",
"assigned" : "2017-12-01T15:32:07.660-0600"
},
{
"name" : "GroupAliasTreeEditWizBackbone_v21",
"assigned" : "2017-12-01T15:35:15.547-0600"
},
{
"name" : "TableEditWizBackbone_v46",
"assigned" : "2017-12-01T15:37:42.395-0600"
},
{
"name" : "GroupAliasSaveWizBackbone_v24",
"assigned" : "2017-12-01T15:41:07.147-0600"
},
{
"name" : "TableEditWizBackbone_v47",
"assigned" : "2017-12-01T15:41:44.436-0600"
},
{
"name" : "GroupAliasTreeEditWizBackbone_v22",
"assigned" : "2017-12-01T15:49:51.234-0600"
},
{
"name" : "GroupAliasSaveWizBackbone_v25",
"assigned" : "2017-12-01T15:52:57.528-0600"
},
{
"name" : "GroupAliasSaveWizBackbone_v26",
"assigned" : "2017-12-01T15:54:42.851-0600"
},
{
"name" : "GroupAliasSaveWizBackbone_v27",
"assigned" : "2017-12-01T15:55:42.433-0600"
},
{
"name" : "GroupAliasSaveWizBackbone_v28",
"assigned" : "2017-12-01T15:56:48.433-0600"
},
{
"name" : "GroupAliasSaveWizBackbone_v29",
"assigned" : "2017-12-01T15:57:46.578-0600"
},
{
"name" : "GroupAliasSaveWizBackbone_v30",
"assigned" : "2017-12-01T15:58:37.526-0600"
},
{
"name" : "GroupAliasSaveWizBackbone_v31",
"assigned" : "2017-12-01T15:59:39.701-0600"
},
{
"name" : "GroupAliasSaveWizBackbone_v32",
"assigned" : "2017-12-01T16:19:50.240-0600"
},
{
"name" : "GroupAliasSaveWizBackbone_v33",
"assigned" : "2017-12-01T16:22:12.684-0600"
},
{
"name" : "GroupAliasSaveWizBackbone_v34",
"assigned" : "2017-12-01T16:31:33.385-0600"
},
{
"name" : "TableEditWizBackbone_v48",
"assigned" : "2017-12-01T17:06:40.500-0600"
},
{
"name" : "TableEditWizBackbone_v49",
"assigned" : "2017-12-01T17:08:02.035-0600"
},
{
"name" : "TableEditWizBackbone_v50",
"assigned" : "2017-12-01T17:10:18.454-0600"
},
{
"name" : "GroupAliasTreeEditWizBackbone_v23",
"assigned" : "2017-12-01T17:32:51.033-0600"
},
{
"name" : "TableEditWizBackbone_v51",
"assigned" : "2017-12-01T18:00:48.247-0600"
},
{
"name" : "TableEditWizBackbone_v52",
"assigned" : "2017-12-01T19:52:13.689-0600"
},
{
"name" : "GroupAliasSaveWizBackbone_v35",
"assigned" : "2017-12-01T20:39:00.174-0600"
},
{
"name" : "GroupAliasSaveWizBackbone_v36",
"assigned" : "2017-12-01T20:46:01.699-0600"
},
{
"name" : "GroupAliasSaveWizBackbone_v37",
"assigned" : "2017-12-01T20:49:21.830-0600"
},
{
"name" : "GroupAliasTreeEditWizBackbone_v24",
"assigned" : "2017-12-01T20:53:51.689-0600"
},
{
"name" : "GroupAliasTreeEditWizBackbone_v25",
"assigned" : "2017-12-01T21:12:23.070-0600"
},
{
"name" : "GroupAliasTreeEditWizBackbone_v26",
"assigned" : "2017-12-01T21:15:01.032-0600"
},
{
"name" : "GroupAliasTreeEditWizBackbone_v27",
"assigned" : "2017-12-01T21:21:18.786-0600"
},
{
"name" : "GroupAliasTreeEditWizBackbone_v28",
"assigned" : "2017-12-01T21:25:10.572-0600"
},
{
"name" : "GroupAliasSaveWizBackbone_v38",
"assigned" : "2017-12-01T21:33:56.204-0600"
},
{
"name" : "GroupAliasSaveWizBackbone_v39",
"assigned" : "2017-12-01T21:36:13.364-0600"
},
{
"name" : "GroupAliasSaveWizBackbone_v40",
"assigned" : "2017-12-01T21:43:10.164-0600"
},
{
"name" : "GroupAliasSaveWizBackbone_v41",
"assigned" : "2017-12-01T21:45:07.889-0600"
},
{
"name" : "GroupAliasSaveWizBackbone_v42",
"assigned" : "2017-12-01T21:46:59.744-0600"
},
{
"name" : "GroupAliasTreeEditWizBackbone_v29",
"assigned" : "2017-12-01T21:48:17.464-0600"
},
{
"name" : "GroupAliasTreeEditWizBackbone_v30",
"assigned" : "2017-12-01T21:52:06.520-0600"
},
{
"name" : "GroupAliasTreeEditWizBackbone_v31",
"assigned" : "2017-12-01T21:59:28.310-0600"
},
{
"name" : "TableEditWizBackbone_v53",
"assigned" : "2017-12-01T22:00:13.893-0600"
},
{
"name" : "GroupAliasSaveWizBackbone_v43",
"assigned" : "2017-12-01T22:13:16.720-0600"
},
{
"name" : "GroupAliasSaveWizBackbone_v44",
"assigned" : "2017-12-01T22:16:03.885-0600"
},
{
"name" : "GroupAliasSaveWizBackbone_v45",
"assigned" : "2017-12-01T22:17:13.371-0600"
},
{
"name" : "GroupAliasSaveWizBackbone_v46",
"assigned" : "2017-12-01T22:19:15.036-0600"
},
{
"name" : "GroupAliasSaveWizBackbone_v47",
"assigned" : "2017-12-01T22:22:05.089-0600"
},
{
"name" : "GroupAliasSaveWizBackbone_v48",
"assigned" : "2017-12-01T22:23:25.490-0600"
},
{
"name" : "GroupAliasSaveWizBackbone_v49",
"assigned" : "2017-12-01T22:25:26.053-0600"
},
{
"name" : "GroupAliasSaveWizBackbone_v50",
"assigned" : "2017-12-01T22:27:13.828-0600"
},
{
"name" : "GroupAliasSaveWizBackbone_v51",
"assigned" : "2017-12-01T22:29:38.217-0600"
},
{
"name" : "GroupAliasSaveWizBackbone_v52",
"assigned" : "2017-12-01T22:52:43.610-0600"
},
{
"name" : "GroupAliasSaveWizBackbone_v53",
"assigned" : "2017-12-01T22:57:38.737-0600"
},
{
"name" : "GroupAliasSaveWizBackbone_v54",
"assigned" : "2017-12-01T23:00:19.084-0600"
},
{
"name" : "GroupAliasSaveWizBackbone_v55",
"assigned" : "2017-12-01T23:52:43.480-0600"
},
{
"name" : "GroupAliasSaveWizBackbone_v56",
"assigned" : "2017-12-01T23:58:20.376-0600"
},
{
"name" : "GroupAliasSaveWizBackbone_v57",
"assigned" : "2017-12-02T00:00:43.156-0600"
},
{
"name" : "GroupAliasSaveWizBackbone_v58",
"assigned" : "2017-12-02T00:13:18.433-0600"
},
{
"name" : "GroupAliasSaveWizBackbone_v59",
"assigned" : "2017-12-02T00:28:37.317-0600"
},
{
"name" : "GroupAliasSaveWizBackbone_v60",
"assigned" : "2017-12-02T00:29:42.574-0600"
},
{
"name" : "GroupAliasSaveWizBackbone_v61",
"assigned" : "2017-12-02T00:31:24.719-0600"
},
{
"name" : "GroupAliasTreeEditWizBackbone_v32",
"assigned" : "2017-12-02T00:57:36.548-0600"
},
{
"name" : "GroupAliasTreeEditWizBackbone_v33",
"assigned" : "2017-12-02T10:53:09.360-0600"
},
{
"name" : "GroupAliasTreeEditWizBackbone_v34",
"assigned" : "2017-12-02T10:58:11.127-0600"
},
{
"name" : "GroupAliasTreeEditWizBackbone_v35",
"assigned" : "2017-12-02T11:08:27.391-0600"
},
{
"name" : "GroupAliasTreeEditWizBackbone_v36",
"assigned" : "2017-12-02T11:12:49.199-0600"
},
{
"name" : "GroupAliasTreeEditWizBackbone_v37",
"assigned" : "2017-12-02T11:18:52.055-0600"
},
{
"name" : "GroupAliasTreeEditWizBackbone_v38",
"assigned" : "2017-12-02T11:27:15.308-0600"
},
{
"name" : "GroupAliasTreeEditWizBackbone_v39",
"assigned" : "2017-12-02T11:38:46.468-0600"
},
{
"name" : "GroupAliasTreeEditWizBackbone_v40",
"assigned" : "2017-12-02T11:49:17.791-0600"
},
{
"name" : "GroupAliasTreeEditWizBackbone_v41",
"assigned" : "2017-12-02T11:55:19.492-0600"
},
{
"name" : "GroupAliasTreeEditWizBackbone_v42",
"assigned" : "2017-12-02T11:59:49.290-0600"
},
{
"name" : "GroupAliasTreeEditWizBackbone_v43",
"assigned" : "2017-12-02T12:06:36.181-0600"
},
{
"name" : "TableEditWizBackbone_v54",
"assigned" : "2017-12-02T12:24:24.761-0600"
},
{
"name" : "GroupAliasTreeEditWizBackbone_v44",
"assigned" : "2017-12-02T12:43:44.010-0600"
},
{
"name" : "GroupAliasTreeEditWizBackbone_v45",
"assigned" : "2017-12-02T13:55:43.623-0600"
},
{
"name" : "GroupAliasTreeEditWizBackbone_v46",
"assigned" : "2017-12-02T14:12:27.956-0600"
},
{
"name" : "GroupAliasTreeEditWizBackbone_v47",
"assigned" : "2017-12-02T14:47:45.311-0600"
},
{
"name" : "TableEditWizBackbone_v55",
"assigned" : "2017-12-02T14:48:28.415-0600"
},
{
"name" : "TableEditWizBackbone_v56",
"assigned" : "2017-12-02T18:55:00.121-0600"
},
{
"name" : "TableEditWizBackbone_v57",
"assigned" : "2017-12-02T19:06:01.870-0600"
},
{
"name" : "TableEditWizBackbone_v58",
"assigned" : "2017-12-02T19:09:35.524-0600"
},
{
"name" : "GroupAliasTreeEditWizBackbone_v48",
"assigned" : "2017-12-02T19:12:21.784-0600"
},
{
"name" : "GroupAliasTreeEditWizBackbone_v49",
"assigned" : "2017-12-03T12:01:14.210-0600"
},
{
"name" : "GroupAliasTreeEditWizBackbone_v50",
"assigned" : "2017-12-03T12:32:30.715-0600"
},
{
"name" : "TableEditWizBackbone_v59",
"assigned" : "2017-12-03T14:03:57.928-0600"
},
{
"name" : "TableEditWizBackbone_v60",
"assigned" : "2017-12-03T14:06:15.977-0600"
},
{
"name" : "TableEditWizBackbone_v61",
"assigned" : "2017-12-03T14:09:16.310-0600"
},
{
"name" : "TableEditWizBackbone_v62",
"assigned" : "2017-12-03T14:11:20.045-0600"
},
{
"name" : "TableEditWizBackbone_v63",
"assigned" : "2017-12-03T14:22:43.093-0600"
},
{
"name" : "TableEditWizBackbone_v64",
"assigned" : "2017-12-03T14:40:47.964-0600"
},
{
"name" : "TableEditWizBackbone_v65",
"assigned" : "2017-12-03T14:45:15.387-0600"
},
{
"name" : "GroupAliasSaveWizBackbone_v62",
"assigned" : "2017-12-04T14:51:42.629-0600"
},
{
"name" : "GroupAliasTreeEditWizBackbone_v51",
"assigned" : "2017-12-04T14:55:54.797-0600"
},
{
"name" : "GroupAliasTreeEditWizBackbone_v52",
"assigned" : "2017-12-04T16:41:01.772-0600"
},
{
"name" : "GroupAliasTreeEditWizBackbone_v53",
"assigned" : "2017-12-04T16:51:17.092-0600"
},
{
"name" : "GroupAliasTreeEditWizBackbone_v54",
"assigned" : "2017-12-04T16:56:57.679-0600"
},
{
"name" : "GroupAliasTreeEditWizBackbone_v55",
"assigned" : "2017-12-04T17:01:22.657-0600"
},
{
"name" : "GroupAliasTreeEditWizBackbone_v56",
"assigned" : "2017-12-04T17:04:07.774-0600"
},
{
"name" : "GroupAliasTreeEditWizBackbone_v57",
"assigned" : "2017-12-04T17:07:27.525-0600"
},
{
"name" : "GroupAliasTreeEditWizBackbone_v58",
"assigned" : "2017-12-04T17:09:35.524-0600"
},
{
"name" : "GroupAliasTreeEditWizBackbone_v59",
"assigned" : "2017-12-04T17:11:48.167-0600"
},
{
"name" : "GroupAliasTreeEditWizBackbone_v60",
"assigned" : "2017-12-04T17:19:13.189-0600"
},
{
"name" : "GroupAliasTreeEditWizBackbone_v61",
"assigned" : "2017-12-04T17:49:08.400-0600"
},
{
"name" : "GroupAliasTreeEditWizBackbone_v62",
"assigned" : "2017-12-04T20:14:11.924-0600"
},
{
"name" : "GroupAliasTreeEditWizBackbone_v63",
"assigned" : "2017-12-04T20:34:27.304-0600"
},
{
"name" : "GroupAliasTreeEditWizBackbone_v64",
"assigned" : "2017-12-04T21:05:31.613-0600"
},
{
"name" : "GroupAliasTreeEditWizBackbone_v65",
"assigned" : "2017-12-04T21:17:22.901-0600"
},
{
"name" : "GroupAliasTreeEditWizBackbone_v66",
"assigned" : "2017-12-04T21:41:28.390-0600"
},
{
"name" : "GroupAliasTreeEditWizBackbone_v67",
"assigned" : "2017-12-04T22:18:11.905-0600"
},
{
"name" : "GroupAliasTreeEditWizBackbone_v68",
"assigned" : "2017-12-04T22:39:13.182-0600"
},
{
"name" : "GroupAliasTreeEditWizBackbone_v69",
"assigned" : "2017-12-04T23:01:23.939-0600"
},
{
"name" : "GroupAliasSaveWizBackbone_v63",
"assigned" : "2017-12-07T11:07:58.556-0600"
},
{
"name" : "GroupAliasWizBackbone_v1",
"assigned" : "2017-12-07T11:15:40.202-0600"
},
{
"name" : "GroupAliasSaveWizBackbone_v64",
"assigned" : "2017-12-07T11:50:10.195-0600"
},
{
"name" : "GroupAliasSaveWizBackbone_v65",
"assigned" : "2017-12-07T11:58:37.002-0600"
},
{
"name" : "GroupAliasSaveWizBackbone_v66",
"assigned" : "2017-12-08T13:31:00.311-0600"
},
{
"name" : "GroupAliasSaveWizBackbone_v67",
"assigned" : "2017-12-08T13:32:47.280-0600"
},
{
"name" : "GroupAliasSaveWizBackbone_v68",
"assigned" : "2017-12-12T11:03:17.211-0600"
},
{
"name" : "GroupAliasSaveWizBackbone_v69",
"assigned" : "2017-12-12T11:31:19.653-0600"
},
{
"name" : "GroupAliasSaveWizBackbone_v70",
"assigned" : "2017-12-12T13:51:12.139-0600"
},
{
"name" : "GroupAliasSaveWizBackbone_v71",
"assigned" : "2017-12-12T15:25:16.795-0600"
},
{
"name" : "GroupAliasTreeEditWizBackbone_v70",
"assigned" : "2017-12-13T10:22:08.183-0600"
},
{
"name" : "GroupAliasSaveWizBackbone_v72",
"assigned" : "2017-12-13T10:24:35.218-0600"
},
{
"name" : "GroupAliasSaveWizBackbone_v73",
"assigned" : "2017-12-13T10:27:15.089-0600"
},
{
"name" : "TableEditWizBackbone_v66",
"assigned" : "2018-02-01T21:14:37.803-0600"
},
{
"name" : "GroupAliasSaveWizBackbone_v74",
"assigned" : "2018-02-01T21:21:17.379-0600"
},
{
"name" : "GroupAliasTreeEditWizBackbone_v71",
"assigned" : "2018-02-02T10:33:09.303-0600"
},
{
"name" : "GroupAliasSaveWizBackbone_v75",
"assigned" : "2018-02-02T11:25:48.311-0600"
},
{
"name" : "GroupAliasSaveWizBackbone_v76",
"assigned" : "2018-02-02T11:37:27.144-0600"
},
{
"name" : "GroupAliasSaveWizBackbone_v77",
"assigned" : "2018-02-02T11:47:29.753-0600"
},
{
"name" : "GroupAliasSaveWizBackbone_v78",
"assigned" : "2018-02-02T11:53:50.983-0600"
},
{
"name" : "GroupAliasSaveWizBackbone_v79",
"assigned" : "2018-02-02T12:01:07.219-0600"
},
{
"name" : "GroupAliasSaveWizBackbone_v80",
"assigned" : "2018-02-02T12:10:13.354-0600"
},
{
"name" : "GroupAliasSaveWizBackbone_v81",
"assigned" : "2018-02-02T12:27:28.588-0600"
},
{
"name" : "GroupAliasSaveWizBackbone_v82",
"assigned" : "2018-02-02T14:29:07.111-0600"
},
{
"name" : "GroupAliasSaveWizBackbone_v83",
"assigned" : "2018-02-02T14:30:34.606-0600"
},
{
"name" : "GroupAliasSaveWizBackbone_v84",
"assigned" : "2018-02-02T14:34:17.134-0600"
},
{
"name" : "GroupAliasSaveWizBackbone_v85",
"assigned" : "2018-02-02T14:36:43.780-0600"
},
{
"name" : "GroupAliasSaveWizBackbone_v86",
"assigned" : "2018-02-02T14:38:55.963-0600"
},
{
"name" : "GroupAliasSaveWizBackbone_v87",
"assigned" : "2018-02-02T14:42:06.506-0600"
},
{
"name" : "GroupAliasSaveWizBackbone_v88",
"assigned" : "2018-02-02T14:50:39.401-0600"
},
{
"name" : "GroupAliasSaveWizBackbone_v89",
"assigned" : "2018-02-02T14:53:13.579-0600"
},
{
"name" : "GroupAliasSaveWizBackbone_v90",
"assigned" : "2018-02-02T15:00:04.551-0600"
},
{
"name" : "GroupAliasSaveWizBackbone_v91",
"assigned" : "2018-02-02T15:04:23.886-0600"
},
{
"name" : "GroupAliasSaveWizBackbone_v92",
"assigned" : "2018-02-02T15:50:27.288-0600"
},
{
"name" : "GroupAliasSaveWizBackbone_v93",
"assigned" : "2018-02-02T15:51:45.606-0600"
},
{
"name" : "GroupAliasSaveWizBackbone_v94",
"assigned" : "2018-02-02T15:52:51.882-0600"
},
{
"name" : "GroupAliasSaveWizBackbone_v95",
"assigned" : "2018-02-02T16:03:00.998-0600"
},
{
"name" : "GroupAliasSaveWizBackbone_v96",
"assigned" : "2018-02-02T16:09:00.522-0600"
},
{
"name" : "GroupAliasSaveWizBackbone_v97",
"assigned" : "2018-02-02T16:11:46.411-0600"
},
{
"name" : "GroupAliasSaveWizBackbone_v98",
"assigned" : "2018-02-02T16:13:14.375-0600"
},
{
"name" : "GroupAliasSaveWizBackbone_v99",
"assigned" : "2018-02-02T16:14:43.803-0600"
},
{
"name" : "GroupAliasSaveWizBackbone_v100",
"assigned" : "2018-02-02T16:26:37.998-0600"
},
{
"name" : "GroupAliasSaveWizBackbone_v101",
"assigned" : "2018-02-02T16:27:23.907-0600"
},
{
"name" : "GroupAliasSaveWizBackbone_v102",
"assigned" : "2018-02-02T16:29:45.311-0600"
},
{
"name" : "GroupAliasSaveWizBackbone_v103",
"assigned" : "2018-02-02T16:31:57.212-0600"
},
{
"name" : "GroupAliasSaveWizBackbone_v104",
"assigned" : "2018-02-02T16:34:29.929-0600"
},
{
"name" : "GroupAliasSaveWizBackbone_v105",
"assigned" : "2018-02-02T17:39:46.049-0600"
},
{
"name" : "GroupAliasSaveWizBackbone_v106",
"assigned" : "2018-02-02T17:43:08.328-0600"
},
{
"name" : "GroupAliasSaveWizBackbone_v107",
"assigned" : "2018-02-02T17:47:53.565-0600"
},
{
"name" : "GroupAliasSaveWizBackbone_v108",
"assigned" : "2018-02-02T17:54:17.570-0600"
},
{
"name" : "GroupAliasTreeEditWizBackbone_v72",
"assigned" : "2018-02-02T19:28:13.142-0600"
},
{
"name" : "GroupAliasTreeEditWizBackbone_v73",
"assigned" : "2018-02-03T02:59:21.602-0600"
},
{
"name" : "GroupAliasTreeEditWizBackbone_v74",
"assigned" : "2018-02-03T03:00:46.766-0600"
}
],
"changelog" : "notprovided",
"bookkeeping" : {
"isdeleted" : false,
"isreadonly" : false,
"updates" : [
{
"event" : "addConfiguration",
"timestamp" : "2017-11-08T15:56:08.871-0600",
"value" : {
"name" : "notprovided",
"assigned" : "2017-11-08T15:56:08.871-0600"
}
},
{
"event" : "setVersion",
"timestamp" : "2017-11-08T15:56:08.871-0600",
"value" : {
"name" : "3",
"assigned" : "2017-11-08T15:56:08.871-0600"
}
},
{
"event" : "setCollection",
"timestamp" : "2017-11-08T15:56:08.871-0600",
"value" : {
"name" : "VersionAliasesConfiguration",
"assigned" : "2017-11-08T15:56:08.871-0600"
}
},
{
"event" : "addEntity",
"timestamp" : "2017-11-08T15:56:08.871-0600",
"value" : {
"name" : "OTSROOT",
"assigned" : "2017-11-08T15:56:08.871-0600"
}
},
{
"event" : "addConfiguration",
"timestamp" : "2017-11-08T15:56:08.946-0600",
"value" : {
"name" : "TableEditWizBackbone_v3",
"assigned" : "2017-11-08T15:56:08.946-0600"
}
},
{
"event" : "addConfiguration",
"timestamp" : "2017-11-09T09:56:34.230-0600",
"value" : {
"name" : "TableEditWizBackbone_v4",
"assigned" : "2017-11-09T09:56:34.230-0600"
}
},
{
"event" : "addConfiguration",
"timestamp" : "2017-11-09T10:06:03.347-0600",
"value" : {
"name" : "TableEditWizBackbone_v5",
"assigned" : "2017-11-09T10:06:03.347-0600"
}
},
{
"event" : "addConfiguration",
"timestamp" : "2017-11-09T10:37:14.984-0600",
"value" : {
"name" : "GroupAliasTreeEditWizBackbone_v0",
"assigned" : "2017-11-09T10:37:14.984-0600"
}
},
{
"event" : "addConfiguration",
"timestamp" : "2017-11-09T10:39:05.302-0600",
"value" : {
"name" : "GroupAliasSaveWizBackbone_v0",
"assigned" : "2017-11-09T10:39:05.302-0600"
}
},
{
"event" : "addConfiguration",
"timestamp" : "2017-11-10T10:18:40.018-0600",
"value" : {
"name" : "GroupAliasSaveWizBackbone_v1",
"assigned" : "2017-11-10T10:18:40.018-0600"
}
},
{
"event" : "addConfiguration",
"timestamp" : "2017-11-10T10:28:48.533-0600",
"value" : {
"name" : "GroupAliasSaveWizBackbone_v2",
"assigned" : "2017-11-10T10:28:48.533-0600"
}
},
{
"event" : "addConfiguration",
"timestamp" : "2017-11-10T10:40:35.018-0600",
"value" : {
"name" : "GroupAliasSaveWizBackbone_v3",
"assigned" : "2017-11-10T10:40:35.018-0600"
}
},
{
"event" : "addConfiguration",
"timestamp" : "2017-11-10T10:52:07.567-0600",
"value" : {
"name" : "GroupAliasSaveWizBackbone_v4",
"assigned" : "2017-11-10T10:52:07.567-0600"
}
},
{
"event" : "addConfiguration",
"timestamp" : "2017-11-10T11:21:03.544-0600",
"value" : {
"name" : "GroupAliasSaveWizBackbone_v5",
"assigned" : "2017-11-10T11:21:03.544-0600"
}
},
{
"event" : "addConfiguration",
"timestamp" : "2017-11-10T11:44:51.848-0600",
"value" : {
"name" : "GroupAliasSaveWizBackbone_v6",
"assigned" : "2017-11-10T11:44:51.848-0600"
}
},
{
"event" : "addConfiguration",
"timestamp" : "2017-11-10T12:15:27.793-0600",
"value" : {
"name" : "TableEditWizBackbone_v6",
"assigned" : "2017-11-10T12:15:27.793-0600"
}
},
{
"event" : "addConfiguration",
"timestamp" : "2017-11-10T12:16:57.368-0600",
"value" : {
"name" : "TableEditWizBackbone_v7",
"assigned" : "2017-11-10T12:16:57.368-0600"
}
},
{
"event" : "addConfiguration",
"timestamp" : "2017-11-10T12:22:21.855-0600",
"value" : {
"name" : "TableEditWizBackbone_v8",
"assigned" : "2017-11-10T12:22:21.855-0600"
}
},
{
"event" : "addConfiguration",
"timestamp" : "2017-11-10T12:35:34.127-0600",
"value" : {
"name" : "TableEditWizBackbone_v9",
"assigned" : "2017-11-10T12:35:34.127-0600"
}
},
{
"event" : "addConfiguration",
"timestamp" : "2017-11-10T12:37:12.239-0600",
"value" : {
"name" : "TableEditWizBackbone_v10",
"assigned" : "2017-11-10T12:37:12.239-0600"
}
},
{
"event" : "addConfiguration",
"timestamp" : "2017-11-10T12:38:16.832-0600",
"value" : {
"name" : "TableEditWizBackbone_v11",
"assigned" : "2017-11-10T12:38:16.832-0600"
}
},
{
"event" : "addConfiguration",
"timestamp" : "2017-11-10T17:04:43.280-0600",
"value" : {
"name" : "GroupAliasSaveWizBackbone_v7",
"assigned" : "2017-11-10T17:04:43.280-0600"
}
},
{
"event" : "addConfiguration",
"timestamp" : "2017-11-13T10:55:08.295-0600",
"value" : {
"name" : "GroupAliasSaveWizBackbone_v8",
"assigned" : "2017-11-13T10:55:08.295-0600"
}
},
{
"event" : "addConfiguration",
"timestamp" : "2017-11-14T11:21:20.136-0600",
"value" : {
"name" : "TableEditWizBackbone_v12",
"assigned" : "2017-11-14T11:21:20.136-0600"
}
},
{
"event" : "addConfiguration",
"timestamp" : "2017-11-14T14:16:27.027-0600",
"value" : {
"name" : "GroupAliasWizBackbone_v0",
"assigned" : "2017-11-14T14:16:27.027-0600"
}
},
{
"event" : "addConfiguration",
"timestamp" : "2017-11-14T14:19:30.709-0600",
"value" : {
"name" : "GroupAliasSaveWizBackbone_v9",
"assigned" : "2017-11-14T14:19:30.708-0600"
}
},
{
"event" : "addConfiguration",
"timestamp" : "2017-11-14T16:15:31.036-0600",
"value" : {
"name" : "GroupAliasTreeEditWizBackbone_v1",
"assigned" : "2017-11-14T16:15:31.036-0600"
}
},
{
"event" : "addConfiguration",
"timestamp" : "2017-11-15T11:55:01.016-0600",
"value" : {
"name" : "TableEditWizBackbone_v13",
"assigned" : "2017-11-15T11:55:01.016-0600"
}
},
{
"event" : "addConfiguration",
"timestamp" : "2017-11-15T11:57:53.646-0600",
"value" : {
"name" : "TableEditWizBackbone_v14",
"assigned" : "2017-11-15T11:57:53.646-0600"
}
},
{
"event" : "addConfiguration",
"timestamp" : "2017-11-15T12:29:38.841-0600",
"value" : {
"name" : "TableEditWizBackbone_v15",
"assigned" : "2017-11-15T12:29:38.841-0600"
}
},
{
"event" : "addConfiguration",
"timestamp" : "2017-11-15T12:31:24.692-0600",
"value" : {
"name" : "TableEditWizBackbone_v16",
"assigned" : "2017-11-15T12:31:24.692-0600"
}
},
{
"event" : "addConfiguration",
"timestamp" : "2017-11-15T12:39:08.141-0600",
"value" : {
"name" : "TableEditWizBackbone_v17",
"assigned" : "2017-11-15T12:39:08.141-0600"
}
},
{
"event" : "addConfiguration",
"timestamp" : "2017-11-15T12:42:36.505-0600",
"value" : {
"name" : "TableEditWizBackbone_v18",
"assigned" : "2017-11-15T12:42:36.505-0600"
}
},
{
"event" : "addConfiguration",
"timestamp" : "2017-11-15T12:55:34.819-0600",
"value" : {
"name" : "TableEditWizBackbone_v19",
"assigned" : "2017-11-15T12:55:34.819-0600"
}
},
{
"event" : "addConfiguration",
"timestamp" : "2017-11-15T12:57:48.694-0600",
"value" : {
"name" : "TableEditWizBackbone_v20",
"assigned" : "2017-11-15T12:57:48.694-0600"
}
},
{
"event" : "addConfiguration",
"timestamp" : "2017-11-15T12:59:21.115-0600",
"value" : {
"name" : "GroupAliasTreeEditWizBackbone_v2",
"assigned" : "2017-11-15T12:59:21.115-0600"
}
},
{
"event" : "addConfiguration",
"timestamp" : "2017-11-15T13:01:07.505-0600",
"value" : {
"name" : "TableEditWizBackbone_v21",
"assigned" : "2017-11-15T13:01:07.505-0600"
}
},
{
"event" : "addConfiguration",
"timestamp" : "2017-11-15T13:03:01.027-0600",
"value" : {
"name" : "TableEditWizBackbone_v22",
"assigned" : "2017-11-15T13:03:01.027-0600"
}
},
{
"event" : "addConfiguration",
"timestamp" : "2017-11-15T13:04:28.567-0600",
"value" : {
"name" : "TableEditWizBackbone_v23",
"assigned" : "2017-11-15T13:04:28.567-0600"
}
},
{
"event" : "addConfiguration",
"timestamp" : "2017-11-15T13:07:56.425-0600",
"value" : {
"name" : "TableEditWizBackbone_v24",
"assigned" : "2017-11-15T13:07:56.425-0600"
}
},
{
"event" : "addConfiguration",
"timestamp" : "2017-11-15T13:12:02.835-0600",
"value" : {
"name" : "GroupAliasTreeEditWizBackbone_v3",
"assigned" : "2017-11-15T13:12:02.835-0600"
}
},
{
"event" : "addConfiguration",
"timestamp" : "2017-11-15T13:13:57.812-0600",
"value" : {
"name" : "TableEditWizBackbone_v25",
"assigned" : "2017-11-15T13:13:57.812-0600"
}
},
{
"event" : "addConfiguration",
"timestamp" : "2017-11-15T13:27:45.495-0600",
"value" : {
"name" : "TableEditWizBackbone_v26",
"assigned" : "2017-11-15T13:27:45.495-0600"
}
},
{
"event" : "addConfiguration",
"timestamp" : "2017-11-15T13:35:51.880-0600",
"value" : {
"name" : "TableEditWizBackbone_v27",
"assigned" : "2017-11-15T13:35:51.880-0600"
}
},
{
"event" : "addConfiguration",
"timestamp" : "2017-11-15T13:36:56.491-0600",
"value" : {
"name" : "TableEditWizBackbone_v28",
"assigned" : "2017-11-15T13:36:56.491-0600"
}
},
{
"event" : "addConfiguration",
"timestamp" : "2017-11-15T15:33:34.672-0600",
"value" : {
"name" : "GroupAliasTreeEditWizBackbone_v4",
"assigned" : "2017-11-15T15:33:34.672-0600"
}
},
{
"event" : "addConfiguration",
"timestamp" : "2017-11-15T15:35:38.967-0600",
"value" : {
"name" : "TableEditWizBackbone_v29",
"assigned" : "2017-11-15T15:35:38.967-0600"
}
},
{
"event" : "addConfiguration",
"timestamp" : "2017-11-15T15:38:07.274-0600",
"value" : {
"name" : "GroupAliasTreeEditWizBackbone_v5",
"assigned" : "2017-11-15T15:38:07.274-0600"
}
},
{
"event" : "addConfiguration",
"timestamp" : "2017-11-15T16:19:32.373-0600",
"value" : {
"name" : "GroupAliasTreeEditWizBackbone_v6",
"assigned" : "2017-11-15T16:19:32.372-0600"
}
},
{
"event" : "addConfiguration",
"timestamp" : "2017-11-15T16:26:35.709-0600",
"value" : {
"name" : "GroupAliasTreeEditWizBackbone_v7",
"assigned" : "2017-11-15T16:26:35.709-0600"
}
},
{
"event" : "addConfiguration",
"timestamp" : "2017-11-16T09:22:36.213-0600",
"value" : {
"name" : "GroupAliasTreeEditWizBackbone_v8",
"assigned" : "2017-11-16T09:22:36.213-0600"
}
},
{
"event" : "addConfiguration",
"timestamp" : "2017-11-16T09:27:13.224-0600",
"value" : {
"name" : "GroupAliasTreeEditWizBackbone_v9",
"assigned" : "2017-11-16T09:27:13.224-0600"
}
},
{
"event" : "addConfiguration",
"timestamp" : "2017-11-17T10:23:32.416-0600",
"value" : {
"name" : "GroupAliasTreeEditWizBackbone_v10",
"assigned" : "2017-11-17T10:23:32.416-0600"
}
},
{
"event" : "addConfiguration",
"timestamp" : "2017-11-17T17:24:39.256-0600",
"value" : {
"name" : "TableEditWizBackbone_v30",
"assigned" : "2017-11-17T17:24:39.256-0600"
}
},
{
"event" : "addConfiguration",
"timestamp" : "2017-11-17T17:26:50.512-0600",
"value" : {
"name" : "GroupAliasTreeEditWizBackbone_v11",
"assigned" : "2017-11-17T17:26:50.512-0600"
}
},
{
"event" : "addConfiguration",
"timestamp" : "2017-11-17T17:58:30.967-0600",
"value" : {
"name" : "GroupAliasTreeEditWizBackbone_v12",
"assigned" : "2017-11-17T17:58:30.967-0600"
}
},
{
"event" : "addConfiguration",
"timestamp" : "2017-11-17T18:24:50.413-0600",
"value" : {
"name" : "GroupAliasTreeEditWizBackbone_v13",
"assigned" : "2017-11-17T18:24:50.413-0600"
}
},
{
"event" : "addConfiguration",
"timestamp" : "2017-11-17T18:32:30.556-0600",
"value" : {
"name" : "GroupAliasTreeEditWizBackbone_v14",
"assigned" : "2017-11-17T18:32:30.556-0600"
}
},
{
"event" : "addConfiguration",
"timestamp" : "2017-11-17T18:43:37.941-0600",
"value" : {
"name" : "GroupAliasTreeEditWizBackbone_v15",
"assigned" : "2017-11-17T18:43:37.940-0600"
}
},
{
"event" : "addConfiguration",
"timestamp" : "2017-11-17T18:48:40.146-0600",
"value" : {
"name" : "GroupAliasTreeEditWizBackbone_v16",
"assigned" : "2017-11-17T18:48:40.146-0600"
}
},
{
"event" : "addConfiguration",
"timestamp" : "2017-11-20T14:44:43.671-0600",
"value" : {
"name" : "GroupAliasTreeEditWizBackbone_v17",
"assigned" : "2017-11-20T14:44:43.671-0600"
}
},
{
"event" : "addConfiguration",
"timestamp" : "2017-11-20T14:48:36.562-0600",
"value" : {
"name" : "TableEditWizBackbone_v31",
"assigned" : "2017-11-20T14:48:36.562-0600"
}
},
{
"event" : "addConfiguration",
"timestamp" : "2017-11-20T15:40:01.876-0600",
"value" : {
"name" : "TableEditWizBackbone_v32",
"assigned" : "2017-11-20T15:40:01.876-0600"
}
},
{
"event" : "addConfiguration",
"timestamp" : "2017-11-20T16:41:08.478-0600",
"value" : {
"name" : "TableEditWizBackbone_v33",
"assigned" : "2017-11-20T16:41:08.478-0600"
}
},
{
"event" : "addConfiguration",
"timestamp" : "2017-11-20T18:55:41.081-0600",
"value" : {
"name" : "TableEditWizBackbone_v34",
"assigned" : "2017-11-20T18:55:41.081-0600"
}
},
{
"event" : "addConfiguration",
"timestamp" : "2017-11-20T18:57:36.452-0600",
"value" : {
"name" : "TableEditWizBackbone_v35",
"assigned" : "2017-11-20T18:57:36.452-0600"
}
},
{
"event" : "addConfiguration",
"timestamp" : "2017-11-28T10:58:47.137-0600",
"value" : {
"name" : "TableEditWizBackbone_v36",
"assigned" : "2017-11-28T10:58:47.137-0600"
}
},
{
"event" : "addConfiguration",
"timestamp" : "2017-11-28T11:47:21.059-0600",
"value" : {
"name" : "TableEditWizBackbone_v37",
"assigned" : "2017-11-28T11:47:21.058-0600"
}
},
{
"event" : "addConfiguration",
"timestamp" : "2017-11-28T12:09:43.625-0600",
"value" : {
"name" : "TableEditWizBackbone_v38",
"assigned" : "2017-11-28T12:09:43.625-0600"
}
},
{
"event" : "addConfiguration",
"timestamp" : "2017-11-28T12:18:11.294-0600",
"value" : {
"name" : "TableEditWizBackbone_v39",
"assigned" : "2017-11-28T12:18:11.293-0600"
}
},
{
"event" : "addConfiguration",
"timestamp" : "2017-11-28T16:52:31.676-0600",
"value" : {
"name" : "TableEditWizBackbone_v40",
"assigned" : "2017-11-28T16:52:31.676-0600"
}
},
{
"event" : "addConfiguration",
"timestamp" : "2017-11-28T17:27:53.518-0600",
"value" : {
"name" : "TableEditWizBackbone_v41",
"assigned" : "2017-11-28T17:27:53.517-0600"
}
},
{
"event" : "addConfiguration",
"timestamp" : "2017-11-29T11:25:56.865-0600",
"value" : {
"name" : "TableEditWizBackbone_v42",
"assigned" : "2017-11-29T11:25:56.865-0600"
}
},
{
"event" : "addConfiguration",
"timestamp" : "2017-11-29T16:45:22.398-0600",
"value" : {
"name" : "TableEditWizBackbone_v43",
"assigned" : "2017-11-29T16:45:22.398-0600"
}
},
{
"event" : "addConfiguration",
"timestamp" : "2017-11-29T17:50:45.857-0600",
"value" : {
"name" : "GroupAliasTreeEditWizBackbone_v18",
"assigned" : "2017-11-29T17:50:45.856-0600"
}
},
{
"event" : "addConfiguration",
"timestamp" : "2017-11-29T18:00:39.322-0600",
"value" : {
"name" : "GroupAliasTreeEditWizBackbone_v19",
"assigned" : "2017-11-29T18:00:39.322-0600"
}
},
{
"event" : "addConfiguration",
"timestamp" : "2017-11-29T18:35:17.801-0600",
"value" : {
"name" : "GroupAliasTreeEditWizBackbone_v20",
"assigned" : "2017-11-29T18:35:17.801-0600"
}
},
{
"event" : "addConfiguration",
"timestamp" : "2017-11-30T09:28:26.330-0600",
"value" : {
"name" : "TableEditWizBackbone_v44",
"assigned" : "2017-11-30T09:28:26.330-0600"
}
},
{
"event" : "addConfiguration",
"timestamp" : "2017-11-30T10:12:23.458-0600",
"value" : {
"name" : "TableEditWizBackbone_v45",
"assigned" : "2017-11-30T10:12:23.458-0600"
}
},
{
"event" : "addConfiguration",
"timestamp" : "2017-12-01T09:36:25.886-0600",
"value" : {
"name" : "GroupAliasSaveWizBackbone_v10",
"assigned" : "2017-12-01T09:36:25.886-0600"
}
},
{
"event" : "addConfiguration",
"timestamp" : "2017-12-01T09:37:12.950-0600",
"value" : {
"name" : "GroupAliasSaveWizBackbone_v11",
"assigned" : "2017-12-01T09:37:12.950-0600"
}
},
{
"event" : "addConfiguration",
"timestamp" : "2017-12-01T09:52:08.098-0600",
"value" : {
"name" : "GroupAliasSaveWizBackbone_v12",
"assigned" : "2017-12-01T09:52:08.098-0600"
}
},
{
"event" : "addConfiguration",
"timestamp" : "2017-12-01T11:52:04.804-0600",
"value" : {
"name" : "GroupAliasSaveWizBackbone_v13",
"assigned" : "2017-12-01T11:52:04.803-0600"
}
},
{
"event" : "addConfiguration",
"timestamp" : "2017-12-01T12:18:28.142-0600",
"value" : {
"name" : "GroupAliasSaveWizBackbone_v14",
"assigned" : "2017-12-01T12:18:28.142-0600"
}
},
{
"event" : "addConfiguration",
"timestamp" : "2017-12-01T12:21:09.799-0600",
"value" : {
"name" : "GroupAliasSaveWizBackbone_v15",
"assigned" : "2017-12-01T12:21:09.799-0600"
}
},
{
"event" : "addConfiguration",
"timestamp" : "2017-12-01T12:43:29.777-0600",
"value" : {
"name" : "GroupAliasSaveWizBackbone_v16",
"assigned" : "2017-12-01T12:43:29.777-0600"
}
},
{
"event" : "addConfiguration",
"timestamp" : "2017-12-01T12:58:08.394-0600",
"value" : {
"name" : "GroupAliasSaveWizBackbone_v17",
"assigned" : "2017-12-01T12:58:08.394-0600"
}
},
{
"event" : "addConfiguration",
"timestamp" : "2017-12-01T13:01:01.800-0600",
"value" : {
"name" : "GroupAliasSaveWizBackbone_v18",
"assigned" : "2017-12-01T13:01:01.799-0600"
}
},
{
"event" : "addConfiguration",
"timestamp" : "2017-12-01T13:25:58.007-0600",
"value" : {
"name" : "GroupAliasSaveWizBackbone_v19",
"assigned" : "2017-12-01T13:25:58.007-0600"
}
},
{
"event" : "addConfiguration",
"timestamp" : "2017-12-01T13:35:52.437-0600",
"value" : {
"name" : "GroupAliasSaveWizBackbone_v20",
"assigned" : "2017-12-01T13:35:52.437-0600"
}
},
{
"event" : "addConfiguration",
"timestamp" : "2017-12-01T14:01:00.473-0600",
"value" : {
"name" : "GroupAliasSaveWizBackbone_v21",
"assigned" : "2017-12-01T14:01:00.473-0600"
}
},
{
"event" : "addConfiguration",
"timestamp" : "2017-12-01T14:04:07.918-0600",
"value" : {
"name" : "GroupAliasSaveWizBackbone_v22",
"assigned" : "2017-12-01T14:04:07.918-0600"
}
},
{
"event" : "addConfiguration",
"timestamp" : "2017-12-01T15:32:07.660-0600",
"value" : {
"name" : "GroupAliasSaveWizBackbone_v23",
"assigned" : "2017-12-01T15:32:07.660-0600"
}
},
{
"event" : "addConfiguration",
"timestamp" : "2017-12-01T15:35:15.547-0600",
"value" : {
"name" : "GroupAliasTreeEditWizBackbone_v21",
"assigned" : "2017-12-01T15:35:15.547-0600"
}
},
{
"event" : "addConfiguration",
"timestamp" : "2017-12-01T15:37:42.395-0600",
"value" : {
"name" : "TableEditWizBackbone_v46",
"assigned" : "2017-12-01T15:37:42.395-0600"
}
},
{
"event" : "addConfiguration",
"timestamp" : "2017-12-01T15:41:07.147-0600",
"value" : {
"name" : "GroupAliasSaveWizBackbone_v24",
"assigned" : "2017-12-01T15:41:07.147-0600"
}
},
{
"event" : "addConfiguration",
"timestamp" : "2017-12-01T15:41:44.436-0600",
"value" : {
"name" : "TableEditWizBackbone_v47",
"assigned" : "2017-12-01T15:41:44.436-0600"
}
},
{
"event" : "addConfiguration",
"timestamp" : "2017-12-01T15:49:51.235-0600",
"value" : {
"name" : "GroupAliasTreeEditWizBackbone_v22",
"assigned" : "2017-12-01T15:49:51.234-0600"
}
},
{
"event" : "addConfiguration",
"timestamp" : "2017-12-01T15:52:57.528-0600",
"value" : {
"name" : "GroupAliasSaveWizBackbone_v25",
"assigned" : "2017-12-01T15:52:57.528-0600"
}
},
{
"event" : "addConfiguration",
"timestamp" : "2017-12-01T15:54:42.851-0600",
"value" : {
"name" : "GroupAliasSaveWizBackbone_v26",
"assigned" : "2017-12-01T15:54:42.851-0600"
}
},
{
"event" : "addConfiguration",
"timestamp" : "2017-12-01T15:55:42.434-0600",
"value" : {
"name" : "GroupAliasSaveWizBackbone_v27",
"assigned" : "2017-12-01T15:55:42.433-0600"
}
},
{
"event" : "addConfiguration",
"timestamp" : "2017-12-01T15:56:48.433-0600",
"value" : {
"name" : "GroupAliasSaveWizBackbone_v28",
"assigned" : "2017-12-01T15:56:48.433-0600"
}
},
{
"event" : "addConfiguration",
"timestamp" : "2017-12-01T15:57:46.578-0600",
"value" : {
"name" : "GroupAliasSaveWizBackbone_v29",
"assigned" : "2017-12-01T15:57:46.578-0600"
}
},
{
"event" : "addConfiguration",
"timestamp" : "2017-12-01T15:58:37.527-0600",
"value" : {
"name" : "GroupAliasSaveWizBackbone_v30",
"assigned" : "2017-12-01T15:58:37.526-0600"
}
},
{
"event" : "addConfiguration",
"timestamp" : "2017-12-01T15:59:39.701-0600",
"value" : {
"name" : "GroupAliasSaveWizBackbone_v31",
"assigned" : "2017-12-01T15:59:39.701-0600"
}
},
{
"event" : "addConfiguration",
"timestamp" : "2017-12-01T16:19:50.240-0600",
"value" : {
"name" : "GroupAliasSaveWizBackbone_v32",
"assigned" : "2017-12-01T16:19:50.240-0600"
}
},
{
"event" : "addConfiguration",
"timestamp" : "2017-12-01T16:22:12.684-0600",
"value" : {
"name" : "GroupAliasSaveWizBackbone_v33",
"assigned" : "2017-12-01T16:22:12.684-0600"
}
},
{
"event" : "addConfiguration",
"timestamp" : "2017-12-01T16:31:33.385-0600",
"value" : {
"name" : "GroupAliasSaveWizBackbone_v34",
"assigned" : "2017-12-01T16:31:33.385-0600"
}
},
{
"event" : "addConfiguration",
"timestamp" : "2017-12-01T17:06:40.500-0600",
"value" : {
"name" : "TableEditWizBackbone_v48",
"assigned" : "2017-12-01T17:06:40.500-0600"
}
},
{
"event" : "addConfiguration",
"timestamp" : "2017-12-01T17:08:02.035-0600",
"value" : {
"name" : "TableEditWizBackbone_v49",
"assigned" : "2017-12-01T17:08:02.035-0600"
}
},
{
"event" : "addConfiguration",
"timestamp" : "2017-12-01T17:10:18.454-0600",
"value" : {
"name" : "TableEditWizBackbone_v50",
"assigned" : "2017-12-01T17:10:18.454-0600"
}
},
{
"event" : "addConfiguration",
"timestamp" : "2017-12-01T17:32:51.033-0600",
"value" : {
"name" : "GroupAliasTreeEditWizBackbone_v23",
"assigned" : "2017-12-01T17:32:51.033-0600"
}
},
{
"event" : "addConfiguration",
"timestamp" : "2017-12-01T18:00:48.247-0600",
"value" : {
"name" : "TableEditWizBackbone_v51",
"assigned" : "2017-12-01T18:00:48.247-0600"
}
},
{
"event" : "addConfiguration",
"timestamp" : "2017-12-01T19:52:13.689-0600",
"value" : {
"name" : "TableEditWizBackbone_v52",
"assigned" : "2017-12-01T19:52:13.689-0600"
}
},
{
"event" : "addConfiguration",
"timestamp" : "2017-12-01T20:39:00.174-0600",
"value" : {
"name" : "GroupAliasSaveWizBackbone_v35",
"assigned" : "2017-12-01T20:39:00.174-0600"
}
},
{
"event" : "addConfiguration",
"timestamp" : "2017-12-01T20:46:01.699-0600",
"value" : {
"name" : "GroupAliasSaveWizBackbone_v36",
"assigned" : "2017-12-01T20:46:01.699-0600"
}
},
{
"event" : "addConfiguration",
"timestamp" : "2017-12-01T20:49:21.830-0600",
"value" : {
"name" : "GroupAliasSaveWizBackbone_v37",
"assigned" : "2017-12-01T20:49:21.830-0600"
}
},
{
"event" : "addConfiguration",
"timestamp" : "2017-12-01T20:53:51.689-0600",
"value" : {
"name" : "GroupAliasTreeEditWizBackbone_v24",
"assigned" : "2017-12-01T20:53:51.689-0600"
}
},
{
"event" : "addConfiguration",
"timestamp" : "2017-12-01T21:12:23.070-0600",
"value" : {
"name" : "GroupAliasTreeEditWizBackbone_v25",
"assigned" : "2017-12-01T21:12:23.070-0600"
}
},
{
"event" : "addConfiguration",
"timestamp" : "2017-12-01T21:15:01.032-0600",
"value" : {
"name" : "GroupAliasTreeEditWizBackbone_v26",
"assigned" : "2017-12-01T21:15:01.032-0600"
}
},
{
"event" : "addConfiguration",
"timestamp" : "2017-12-01T21:21:18.786-0600",
"value" : {
"name" : "GroupAliasTreeEditWizBackbone_v27",
"assigned" : "2017-12-01T21:21:18.786-0600"
}
},
{
"event" : "addConfiguration",
"timestamp" : "2017-12-01T21:25:10.572-0600",
"value" : {
"name" : "GroupAliasTreeEditWizBackbone_v28",
"assigned" : "2017-12-01T21:25:10.572-0600"
}
},
{
"event" : "addConfiguration",
"timestamp" : "2017-12-01T21:33:56.204-0600",
"value" : {
"name" : "GroupAliasSaveWizBackbone_v38",
"assigned" : "2017-12-01T21:33:56.204-0600"
}
},
{
"event" : "addConfiguration",
"timestamp" : "2017-12-01T21:36:13.364-0600",
"value" : {
"name" : "GroupAliasSaveWizBackbone_v39",
"assigned" : "2017-12-01T21:36:13.364-0600"
}
},
{
"event" : "addConfiguration",
"timestamp" : "2017-12-01T21:43:10.164-0600",
"value" : {
"name" : "GroupAliasSaveWizBackbone_v40",
"assigned" : "2017-12-01T21:43:10.164-0600"
}
},
{
"event" : "addConfiguration",
"timestamp" : "2017-12-01T21:45:07.890-0600",
"value" : {
"name" : "GroupAliasSaveWizBackbone_v41",
"assigned" : "2017-12-01T21:45:07.889-0600"
}
},
{
"event" : "addConfiguration",
"timestamp" : "2017-12-01T21:46:59.744-0600",
"value" : {
"name" : "GroupAliasSaveWizBackbone_v42",
"assigned" : "2017-12-01T21:46:59.744-0600"
}
},
{
"event" : "addConfiguration",
"timestamp" : "2017-12-01T21:48:17.465-0600",
"value" : {
"name" : "GroupAliasTreeEditWizBackbone_v29",
"assigned" : "2017-12-01T21:48:17.464-0600"
}
},
{
"event" : "addConfiguration",
"timestamp" : "2017-12-01T21:52:06.521-0600",
"value" : {
"name" : "GroupAliasTreeEditWizBackbone_v30",
"assigned" : "2017-12-01T21:52:06.520-0600"
}
},
{
"event" : "addConfiguration",
"timestamp" : "2017-12-01T21:59:28.310-0600",
"value" : {
"name" : "GroupAliasTreeEditWizBackbone_v31",
"assigned" : "2017-12-01T21:59:28.310-0600"
}
},
{
"event" : "addConfiguration",
"timestamp" : "2017-12-01T22:00:13.893-0600",
"value" : {
"name" : "TableEditWizBackbone_v53",
"assigned" : "2017-12-01T22:00:13.893-0600"
}
},
{
"event" : "addConfiguration",
"timestamp" : "2017-12-01T22:13:16.720-0600",
"value" : {
"name" : "GroupAliasSaveWizBackbone_v43",
"assigned" : "2017-12-01T22:13:16.720-0600"
}
},
{
"event" : "addConfiguration",
"timestamp" : "2017-12-01T22:16:03.885-0600",
"value" : {
"name" : "GroupAliasSaveWizBackbone_v44",
"assigned" : "2017-12-01T22:16:03.885-0600"
}
},
{
"event" : "addConfiguration",
"timestamp" : "2017-12-01T22:17:13.371-0600",
"value" : {
"name" : "GroupAliasSaveWizBackbone_v45",
"assigned" : "2017-12-01T22:17:13.371-0600"
}
},
{
"event" : "addConfiguration",
"timestamp" : "2017-12-01T22:19:15.037-0600",
"value" : {
"name" : "GroupAliasSaveWizBackbone_v46",
"assigned" : "2017-12-01T22:19:15.036-0600"
}
},
{
"event" : "addConfiguration",
"timestamp" : "2017-12-01T22:22:05.089-0600",
"value" : {
"name" : "GroupAliasSaveWizBackbone_v47",
"assigned" : "2017-12-01T22:22:05.089-0600"
}
},
{
"event" : "addConfiguration",
"timestamp" : "2017-12-01T22:23:25.490-0600",
"value" : {
"name" : "GroupAliasSaveWizBackbone_v48",
"assigned" : "2017-12-01T22:23:25.490-0600"
}
},
{
"event" : "addConfiguration",
"timestamp" : "2017-12-01T22:25:26.053-0600",
"value" : {
"name" : "GroupAliasSaveWizBackbone_v49",
"assigned" : "2017-12-01T22:25:26.053-0600"
}
},
{
"event" : "addConfiguration",
"timestamp" : "2017-12-01T22:27:13.828-0600",
"value" : {
"name" : "GroupAliasSaveWizBackbone_v50",
"assigned" : "2017-12-01T22:27:13.828-0600"
}
},
{
"event" : "addConfiguration",
"timestamp" : "2017-12-01T22:29:38.217-0600",
"value" : {
"name" : "GroupAliasSaveWizBackbone_v51",
"assigned" : "2017-12-01T22:29:38.217-0600"
}
},
{
"event" : "addConfiguration",
"timestamp" : "2017-12-01T22:52:43.610-0600",
"value" : {
"name" : "GroupAliasSaveWizBackbone_v52",
"assigned" : "2017-12-01T22:52:43.610-0600"
}
},
{
"event" : "addConfiguration",
"timestamp" : "2017-12-01T22:57:38.737-0600",
"value" : {
"name" : "GroupAliasSaveWizBackbone_v53",
"assigned" : "2017-12-01T22:57:38.737-0600"
}
},
{
"event" : "addConfiguration",
"timestamp" : "2017-12-01T23:00:19.085-0600",
"value" : {
"name" : "GroupAliasSaveWizBackbone_v54",
"assigned" : "2017-12-01T23:00:19.084-0600"
}
},
{
"event" : "addConfiguration",
"timestamp" : "2017-12-01T23:52:43.481-0600",
"value" : {
"name" : "GroupAliasSaveWizBackbone_v55",
"assigned" : "2017-12-01T23:52:43.480-0600"
}
},
{
"event" : "addConfiguration",
"timestamp" : "2017-12-01T23:58:20.376-0600",
"value" : {
"name" : "GroupAliasSaveWizBackbone_v56",
"assigned" : "2017-12-01T23:58:20.376-0600"
}
},
{
"event" : "addConfiguration",
"timestamp" : "2017-12-02T00:00:43.156-0600",
"value" : {
"name" : "GroupAliasSaveWizBackbone_v57",
"assigned" : "2017-12-02T00:00:43.156-0600"
}
},
{
"event" : "addConfiguration",
"timestamp" : "2017-12-02T00:13:18.433-0600",
"value" : {
"name" : "GroupAliasSaveWizBackbone_v58",
"assigned" : "2017-12-02T00:13:18.433-0600"
}
},
{
"event" : "addConfiguration",
"timestamp" : "2017-12-02T00:28:37.317-0600",
"value" : {
"name" : "GroupAliasSaveWizBackbone_v59",
"assigned" : "2017-12-02T00:28:37.317-0600"
}
},
{
"event" : "addConfiguration",
"timestamp" : "2017-12-02T00:29:42.574-0600",
"value" : {
"name" : "GroupAliasSaveWizBackbone_v60",
"assigned" : "2017-12-02T00:29:42.574-0600"
}
},
{
"event" : "addConfiguration",
"timestamp" : "2017-12-02T00:31:24.719-0600",
"value" : {
"name" : "GroupAliasSaveWizBackbone_v61",
"assigned" : "2017-12-02T00:31:24.719-0600"
}
},
{
"event" : "addConfiguration",
"timestamp" : "2017-12-02T00:57:36.549-0600",
"value" : {
"name" : "GroupAliasTreeEditWizBackbone_v32",
"assigned" : "2017-12-02T00:57:36.548-0600"
}
},
{
"event" : "addConfiguration",
"timestamp" : "2017-12-02T10:53:09.361-0600",
"value" : {
"name" : "GroupAliasTreeEditWizBackbone_v33",
"assigned" : "2017-12-02T10:53:09.360-0600"
}
},
{
"event" : "addConfiguration",
"timestamp" : "2017-12-02T10:58:11.128-0600",
"value" : {
"name" : "GroupAliasTreeEditWizBackbone_v34",
"assigned" : "2017-12-02T10:58:11.127-0600"
}
},
{
"event" : "addConfiguration",
"timestamp" : "2017-12-02T11:08:27.391-0600",
"value" : {
"name" : "GroupAliasTreeEditWizBackbone_v35",
"assigned" : "2017-12-02T11:08:27.391-0600"
}
},
{
"event" : "addConfiguration",
"timestamp" : "2017-12-02T11:12:49.199-0600",
"value" : {
"name" : "GroupAliasTreeEditWizBackbone_v36",
"assigned" : "2017-12-02T11:12:49.199-0600"
}
},
{
"event" : "addConfiguration",
"timestamp" : "2017-12-02T11:18:52.055-0600",
"value" : {
"name" : "GroupAliasTreeEditWizBackbone_v37",
"assigned" : "2017-12-02T11:18:52.055-0600"
}
},
{
"event" : "addConfiguration",
"timestamp" : "2017-12-02T11:27:15.308-0600",
"value" : {
"name" : "GroupAliasTreeEditWizBackbone_v38",
"assigned" : "2017-12-02T11:27:15.308-0600"
}
},
{
"event" : "addConfiguration",
"timestamp" : "2017-12-02T11:38:46.468-0600",
"value" : {
"name" : "GroupAliasTreeEditWizBackbone_v39",
"assigned" : "2017-12-02T11:38:46.468-0600"
}
},
{
"event" : "addConfiguration",
"timestamp" : "2017-12-02T11:49:17.791-0600",
"value" : {
"name" : "GroupAliasTreeEditWizBackbone_v40",
"assigned" : "2017-12-02T11:49:17.791-0600"
}
},
{
"event" : "addConfiguration",
"timestamp" : "2017-12-02T11:55:19.493-0600",
"value" : {
"name" : "GroupAliasTreeEditWizBackbone_v41",
"assigned" : "2017-12-02T11:55:19.492-0600"
}
},
{
"event" : "addConfiguration",
"timestamp" : "2017-12-02T11:59:49.290-0600",
"value" : {
"name" : "GroupAliasTreeEditWizBackbone_v42",
"assigned" : "2017-12-02T11:59:49.290-0600"
}
},
{
"event" : "addConfiguration",
"timestamp" : "2017-12-02T12:06:36.181-0600",
"value" : {
"name" : "GroupAliasTreeEditWizBackbone_v43",
"assigned" : "2017-12-02T12:06:36.181-0600"
}
},
{
"event" : "addConfiguration",
"timestamp" : "2017-12-02T12:24:24.761-0600",
"value" : {
"name" : "TableEditWizBackbone_v54",
"assigned" : "2017-12-02T12:24:24.761-0600"
}
},
{
"event" : "addConfiguration",
"timestamp" : "2017-12-02T12:43:44.011-0600",
"value" : {
"name" : "GroupAliasTreeEditWizBackbone_v44",
"assigned" : "2017-12-02T12:43:44.010-0600"
}
},
{
"event" : "addConfiguration",
"timestamp" : "2017-12-02T13:55:43.623-0600",
"value" : {
"name" : "GroupAliasTreeEditWizBackbone_v45",
"assigned" : "2017-12-02T13:55:43.623-0600"
}
},
{
"event" : "addConfiguration",
"timestamp" : "2017-12-02T14:12:27.956-0600",
"value" : {
"name" : "GroupAliasTreeEditWizBackbone_v46",
"assigned" : "2017-12-02T14:12:27.956-0600"
}
},
{
"event" : "addConfiguration",
"timestamp" : "2017-12-02T14:47:45.312-0600",
"value" : {
"name" : "GroupAliasTreeEditWizBackbone_v47",
"assigned" : "2017-12-02T14:47:45.311-0600"
}
},
{
"event" : "addConfiguration",
"timestamp" : "2017-12-02T14:48:28.415-0600",
"value" : {
"name" : "TableEditWizBackbone_v55",
"assigned" : "2017-12-02T14:48:28.415-0600"
}
},
{
"event" : "addConfiguration",
"timestamp" : "2017-12-02T18:55:00.121-0600",
"value" : {
"name" : "TableEditWizBackbone_v56",
"assigned" : "2017-12-02T18:55:00.121-0600"
}
},
{
"event" : "addConfiguration",
"timestamp" : "2017-12-02T19:06:01.870-0600",
"value" : {
"name" : "TableEditWizBackbone_v57",
"assigned" : "2017-12-02T19:06:01.870-0600"
}
},
{
"event" : "addConfiguration",
"timestamp" : "2017-12-02T19:09:35.524-0600",
"value" : {
"name" : "TableEditWizBackbone_v58",
"assigned" : "2017-12-02T19:09:35.524-0600"
}
},
{
"event" : "addConfiguration",
"timestamp" : "2017-12-02T19:12:21.784-0600",
"value" : {
"name" : "GroupAliasTreeEditWizBackbone_v48",
"assigned" : "2017-12-02T19:12:21.784-0600"
}
},
{
"event" : "addConfiguration",
"timestamp" : "2017-12-03T12:01:14.210-0600",
"value" : {
"name" : "GroupAliasTreeEditWizBackbone_v49",
"assigned" : "2017-12-03T12:01:14.210-0600"
}
},
{
"event" : "addConfiguration",
"timestamp" : "2017-12-03T12:32:30.715-0600",
"value" : {
"name" : "GroupAliasTreeEditWizBackbone_v50",
"assigned" : "2017-12-03T12:32:30.715-0600"
}
},
{
"event" : "addConfiguration",
"timestamp" : "2017-12-03T14:03:57.928-0600",
"value" : {
"name" : "TableEditWizBackbone_v59",
"assigned" : "2017-12-03T14:03:57.928-0600"
}
},
{
"event" : "addConfiguration",
"timestamp" : "2017-12-03T14:06:15.977-0600",
"value" : {
"name" : "TableEditWizBackbone_v60",
"assigned" : "2017-12-03T14:06:15.977-0600"
}
},
{
"event" : "addConfiguration",
"timestamp" : "2017-12-03T14:09:16.310-0600",
"value" : {
"name" : "TableEditWizBackbone_v61",
"assigned" : "2017-12-03T14:09:16.310-0600"
}
},
{
"event" : "addConfiguration",
"timestamp" : "2017-12-03T14:11:20.045-0600",
"value" : {
"name" : "TableEditWizBackbone_v62",
"assigned" : "2017-12-03T14:11:20.045-0600"
}
},
{
"event" : "addConfiguration",
"timestamp" : "2017-12-03T14:22:43.093-0600",
"value" : {
"name" : "TableEditWizBackbone_v63",
"assigned" : "2017-12-03T14:22:43.093-0600"
}
},
{
"event" : "addConfiguration",
"timestamp" : "2017-12-03T14:40:47.964-0600",
"value" : {
"name" : "TableEditWizBackbone_v64",
"assigned" : "2017-12-03T14:40:47.964-0600"
}
},
{
"event" : "addConfiguration",
"timestamp" : "2017-12-03T14:45:15.388-0600",
"value" : {
"name" : "TableEditWizBackbone_v65",
"assigned" : "2017-12-03T14:45:15.387-0600"
}
},
{
"event" : "addConfiguration",
"timestamp" : "2017-12-04T14:51:42.629-0600",
"value" : {
"name" : "GroupAliasSaveWizBackbone_v62",
"assigned" : "2017-12-04T14:51:42.629-0600"
}
},
{
"event" : "addConfiguration",
"timestamp" : "2017-12-04T14:55:54.798-0600",
"value" : {
"name" : "GroupAliasTreeEditWizBackbone_v51",
"assigned" : "2017-12-04T14:55:54.797-0600"
}
},
{
"event" : "addConfiguration",
"timestamp" : "2017-12-04T16:41:01.772-0600",
"value" : {
"name" : "GroupAliasTreeEditWizBackbone_v52",
"assigned" : "2017-12-04T16:41:01.772-0600"
}
},
{
"event" : "addConfiguration",
"timestamp" : "2017-12-04T16:51:17.092-0600",
"value" : {
"name" : "GroupAliasTreeEditWizBackbone_v53",
"assigned" : "2017-12-04T16:51:17.092-0600"
}
},
{
"event" : "addConfiguration",
"timestamp" : "2017-12-04T16:56:57.679-0600",
"value" : {
"name" : "GroupAliasTreeEditWizBackbone_v54",
"assigned" : "2017-12-04T16:56:57.679-0600"
}
},
{
"event" : "addConfiguration",
"timestamp" : "2017-12-04T17:01:22.658-0600",
"value" : {
"name" : "GroupAliasTreeEditWizBackbone_v55",
"assigned" : "2017-12-04T17:01:22.657-0600"
}
},
{
"event" : "addConfiguration",
"timestamp" : "2017-12-04T17:04:07.775-0600",
"value" : {
"name" : "GroupAliasTreeEditWizBackbone_v56",
"assigned" : "2017-12-04T17:04:07.774-0600"
}
},
{
"event" : "addConfiguration",
"timestamp" : "2017-12-04T17:07:27.526-0600",
"value" : {
"name" : "GroupAliasTreeEditWizBackbone_v57",
"assigned" : "2017-12-04T17:07:27.525-0600"
}
},
{
"event" : "addConfiguration",
"timestamp" : "2017-12-04T17:09:35.524-0600",
"value" : {
"name" : "GroupAliasTreeEditWizBackbone_v58",
"assigned" : "2017-12-04T17:09:35.524-0600"
}
},
{
"event" : "addConfiguration",
"timestamp" : "2017-12-04T17:11:48.167-0600",
"value" : {
"name" : "GroupAliasTreeEditWizBackbone_v59",
"assigned" : "2017-12-04T17:11:48.167-0600"
}
},
{
"event" : "addConfiguration",
"timestamp" : "2017-12-04T17:19:13.189-0600",
"value" : {
"name" : "GroupAliasTreeEditWizBackbone_v60",
"assigned" : "2017-12-04T17:19:13.189-0600"
}
},
{
"event" : "addConfiguration",
"timestamp" : "2017-12-04T17:49:08.400-0600",
"value" : {
"name" : "GroupAliasTreeEditWizBackbone_v61",
"assigned" : "2017-12-04T17:49:08.400-0600"
}
},
{
"event" : "addConfiguration",
"timestamp" : "2017-12-04T20:14:11.924-0600",
"value" : {
"name" : "GroupAliasTreeEditWizBackbone_v62",
"assigned" : "2017-12-04T20:14:11.924-0600"
}
},
{
"event" : "addConfiguration",
"timestamp" : "2017-12-04T20:34:27.305-0600",
"value" : {
"name" : "GroupAliasTreeEditWizBackbone_v63",
"assigned" : "2017-12-04T20:34:27.304-0600"
}
},
{
"event" : "addConfiguration",
"timestamp" : "2017-12-04T21:05:31.613-0600",
"value" : {
"name" : "GroupAliasTreeEditWizBackbone_v64",
"assigned" : "2017-12-04T21:05:31.613-0600"
}
},
{
"event" : "addConfiguration",
"timestamp" : "2017-12-04T21:17:22.901-0600",
"value" : {
"name" : "GroupAliasTreeEditWizBackbone_v65",
"assigned" : "2017-12-04T21:17:22.901-0600"
}
},
{
"event" : "addConfiguration",
"timestamp" : "2017-12-04T21:41:28.390-0600",
"value" : {
"name" : "GroupAliasTreeEditWizBackbone_v66",
"assigned" : "2017-12-04T21:41:28.390-0600"
}
},
{
"event" : "addConfiguration",
"timestamp" : "2017-12-04T22:18:11.905-0600",
"value" : {
"name" : "GroupAliasTreeEditWizBackbone_v67",
"assigned" : "2017-12-04T22:18:11.905-0600"
}
},
{
"event" : "addConfiguration",
"timestamp" : "2017-12-04T22:39:13.182-0600",
"value" : {
"name" : "GroupAliasTreeEditWizBackbone_v68",
"assigned" : "2017-12-04T22:39:13.182-0600"
}
},
{
"event" : "addConfiguration",
"timestamp" : "2017-12-04T23:01:23.940-0600",
"value" : {
"name" : "GroupAliasTreeEditWizBackbone_v69",
"assigned" : "2017-12-04T23:01:23.939-0600"
}
},
{
"event" : "addConfiguration",
"timestamp" : "2017-12-07T11:07:58.557-0600",
"value" : {
"name" : "GroupAliasSaveWizBackbone_v63",
"assigned" : "2017-12-07T11:07:58.556-0600"
}
},
{
"event" : "addConfiguration",
"timestamp" : "2017-12-07T11:15:40.202-0600",
"value" : {
"name" : "GroupAliasWizBackbone_v1",
"assigned" : "2017-12-07T11:15:40.202-0600"
}
},
{
"event" : "addConfiguration",
"timestamp" : "2017-12-07T11:50:10.195-0600",
"value" : {
"name" : "GroupAliasSaveWizBackbone_v64",
"assigned" : "2017-12-07T11:50:10.195-0600"
}
},
{
"event" : "addConfiguration",
"timestamp" : "2017-12-07T11:58:37.003-0600",
"value" : {
"name" : "GroupAliasSaveWizBackbone_v65",
"assigned" : "2017-12-07T11:58:37.002-0600"
}
},
{
"event" : "addConfiguration",
"timestamp" : "2017-12-08T13:31:00.312-0600",
"value" : {
"name" : "GroupAliasSaveWizBackbone_v66",
"assigned" : "2017-12-08T13:31:00.311-0600"
}
},
{
"event" : "addConfiguration",
"timestamp" : "2017-12-08T13:32:47.281-0600",
"value" : {
"name" : "GroupAliasSaveWizBackbone_v67",
"assigned" : "2017-12-08T13:32:47.280-0600"
}
},
{
"event" : "addConfiguration",
"timestamp" : "2017-12-12T11:03:17.212-0600",
"value" : {
"name" : "GroupAliasSaveWizBackbone_v68",
"assigned" : "2017-12-12T11:03:17.211-0600"
}
},
{
"event" : "addConfiguration",
"timestamp" : "2017-12-12T11:31:19.653-0600",
"value" : {
"name" : "GroupAliasSaveWizBackbone_v69",
"assigned" : "2017-12-12T11:31:19.653-0600"
}
},
{
"event" : "addConfiguration",
"timestamp" : "2017-12-12T13:51:12.139-0600",
"value" : {
"name" : "GroupAliasSaveWizBackbone_v70",
"assigned" : "2017-12-12T13:51:12.139-0600"
}
},
{
"event" : "addConfiguration",
"timestamp" : "2017-12-12T15:25:16.796-0600",
"value" : {
"name" : "GroupAliasSaveWizBackbone_v71",
"assigned" : "2017-12-12T15:25:16.795-0600"
}
},
{
"event" : "addConfiguration",
"timestamp" : "2017-12-13T10:22:08.184-0600",
"value" : {
"name" : "GroupAliasTreeEditWizBackbone_v70",
"assigned" : "2017-12-13T10:22:08.183-0600"
}
},
{
"event" : "addConfiguration",
"timestamp" : "2017-12-13T10:24:35.218-0600",
"value" : {
"name" : "GroupAliasSaveWizBackbone_v72",
"assigned" : "2017-12-13T10:24:35.218-0600"
}
},
{
"event" : "addConfiguration",
"timestamp" : "2017-12-13T10:27:15.090-0600",
"value" : {
"name" : "GroupAliasSaveWizBackbone_v73",
"assigned" : "2017-12-13T10:27:15.089-0600"
}
},
{
"event" : "addConfiguration",
"timestamp" : "2018-02-01T21:14:37.803-0600",
"value" : {
"name" : "TableEditWizBackbone_v66",
"assigned" : "2018-02-01T21:14:37.803-0600"
}
},
{
"event" : "addConfiguration",
"timestamp" : "2018-02-01T21:21:17.379-0600",
"value" : {
"name" : "GroupAliasSaveWizBackbone_v74",
"assigned" : "2018-02-01T21:21:17.379-0600"
}
},
{
"event" : "addConfiguration",
"timestamp" : "2018-02-02T10:33:09.303-0600",
"value" : {
"name" : "GroupAliasTreeEditWizBackbone_v71",
"assigned" : "2018-02-02T10:33:09.303-0600"
}
},
{
"event" : "addConfiguration",
"timestamp" : "2018-02-02T11:25:48.311-0600",
"value" : {
"name" : "GroupAliasSaveWizBackbone_v75",
"assigned" : "2018-02-02T11:25:48.311-0600"
}
},
{
"event" : "addConfiguration",
"timestamp" : "2018-02-02T11:37:27.145-0600",
"value" : {
"name" : "GroupAliasSaveWizBackbone_v76",
"assigned" : "2018-02-02T11:37:27.144-0600"
}
},
{
"event" : "addConfiguration",
"timestamp" : "2018-02-02T11:47:29.753-0600",
"value" : {
"name" : "GroupAliasSaveWizBackbone_v77",
"assigned" : "2018-02-02T11:47:29.753-0600"
}
},
{
"event" : "addConfiguration",
"timestamp" : "2018-02-02T11:53:50.983-0600",
"value" : {
"name" : "GroupAliasSaveWizBackbone_v78",
"assigned" : "2018-02-02T11:53:50.983-0600"
}
},
{
"event" : "addConfiguration",
"timestamp" : "2018-02-02T12:01:07.219-0600",
"value" : {
"name" : "GroupAliasSaveWizBackbone_v79",
"assigned" : "2018-02-02T12:01:07.219-0600"
}
},
{
"event" : "addConfiguration",
"timestamp" : "2018-02-02T12:10:13.355-0600",
"value" : {
"name" : "GroupAliasSaveWizBackbone_v80",
"assigned" : "2018-02-02T12:10:13.354-0600"
}
},
{
"event" : "addConfiguration",
"timestamp" : "2018-02-02T12:27:28.588-0600",
"value" : {
"name" : "GroupAliasSaveWizBackbone_v81",
"assigned" : "2018-02-02T12:27:28.588-0600"
}
},
{
"event" : "addConfiguration",
"timestamp" : "2018-02-02T14:29:07.111-0600",
"value" : {
"name" : "GroupAliasSaveWizBackbone_v82",
"assigned" : "2018-02-02T14:29:07.111-0600"
}
},
{
"event" : "addConfiguration",
"timestamp" : "2018-02-02T14:30:34.606-0600",
"value" : {
"name" : "GroupAliasSaveWizBackbone_v83",
"assigned" : "2018-02-02T14:30:34.606-0600"
}
},
{
"event" : "addConfiguration",
"timestamp" : "2018-02-02T14:34:17.134-0600",
"value" : {
"name" : "GroupAliasSaveWizBackbone_v84",
"assigned" : "2018-02-02T14:34:17.134-0600"
}
},
{
"event" : "addConfiguration",
"timestamp" : "2018-02-02T14:36:43.781-0600",
"value" : {
"name" : "GroupAliasSaveWizBackbone_v85",
"assigned" : "2018-02-02T14:36:43.780-0600"
}
},
{
"event" : "addConfiguration",
"timestamp" : "2018-02-02T14:38:55.964-0600",
"value" : {
"name" : "GroupAliasSaveWizBackbone_v86",
"assigned" : "2018-02-02T14:38:55.963-0600"
}
},
{
"event" : "addConfiguration",
"timestamp" : "2018-02-02T14:42:06.506-0600",
"value" : {
"name" : "GroupAliasSaveWizBackbone_v87",
"assigned" : "2018-02-02T14:42:06.506-0600"
}
},
{
"event" : "addConfiguration",
"timestamp" : "2018-02-02T14:50:39.401-0600",
"value" : {
"name" : "GroupAliasSaveWizBackbone_v88",
"assigned" : "2018-02-02T14:50:39.401-0600"
}
},
{
"event" : "addConfiguration",
"timestamp" : "2018-02-02T14:53:13.580-0600",
"value" : {
"name" : "GroupAliasSaveWizBackbone_v89",
"assigned" : "2018-02-02T14:53:13.579-0600"
}
},
{
"event" : "addConfiguration",
"timestamp" : "2018-02-02T15:00:04.551-0600",
"value" : {
"name" : "GroupAliasSaveWizBackbone_v90",
"assigned" : "2018-02-02T15:00:04.551-0600"
}
},
{
"event" : "addConfiguration",
"timestamp" : "2018-02-02T15:04:23.887-0600",
"value" : {
"name" : "GroupAliasSaveWizBackbone_v91",
"assigned" : "2018-02-02T15:04:23.886-0600"
}
},
{
"event" : "addConfiguration",
"timestamp" : "2018-02-02T15:50:27.288-0600",
"value" : {
"name" : "GroupAliasSaveWizBackbone_v92",
"assigned" : "2018-02-02T15:50:27.288-0600"
}
},
{
"event" : "addConfiguration",
"timestamp" : "2018-02-02T15:51:45.607-0600",
"value" : {
"name" : "GroupAliasSaveWizBackbone_v93",
"assigned" : "2018-02-02T15:51:45.606-0600"
}
},
{
"event" : "addConfiguration",
"timestamp" : "2018-02-02T15:52:51.883-0600",
"value" : {
"name" : "GroupAliasSaveWizBackbone_v94",
"assigned" : "2018-02-02T15:52:51.882-0600"
}
},
{
"event" : "addConfiguration",
"timestamp" : "2018-02-02T16:03:00.999-0600",
"value" : {
"name" : "GroupAliasSaveWizBackbone_v95",
"assigned" : "2018-02-02T16:03:00.998-0600"
}
},
{
"event" : "addConfiguration",
"timestamp" : "2018-02-02T16:09:00.522-0600",
"value" : {
"name" : "GroupAliasSaveWizBackbone_v96",
"assigned" : "2018-02-02T16:09:00.522-0600"
}
},
{
"event" : "addConfiguration",
"timestamp" : "2018-02-02T16:11:46.412-0600",
"value" : {
"name" : "GroupAliasSaveWizBackbone_v97",
"assigned" : "2018-02-02T16:11:46.411-0600"
}
},
{
"event" : "addConfiguration",
"timestamp" : "2018-02-02T16:13:14.376-0600",
"value" : {
"name" : "GroupAliasSaveWizBackbone_v98",
"assigned" : "2018-02-02T16:13:14.375-0600"
}
},
{
"event" : "addConfiguration",
"timestamp" : "2018-02-02T16:14:43.803-0600",
"value" : {
"name" : "GroupAliasSaveWizBackbone_v99",
"assigned" : "2018-02-02T16:14:43.803-0600"
}
},
{
"event" : "addConfiguration",
"timestamp" : "2018-02-02T16:26:37.998-0600",
"value" : {
"name" : "GroupAliasSaveWizBackbone_v100",
"assigned" : "2018-02-02T16:26:37.998-0600"
}
},
{
"event" : "addConfiguration",
"timestamp" : "2018-02-02T16:27:23.908-0600",
"value" : {
"name" : "GroupAliasSaveWizBackbone_v101",
"assigned" : "2018-02-02T16:27:23.907-0600"
}
},
{
"event" : "addConfiguration",
"timestamp" : "2018-02-02T16:29:45.311-0600",
"value" : {
"name" : "GroupAliasSaveWizBackbone_v102",
"assigned" : "2018-02-02T16:29:45.311-0600"
}
},
{
"event" : "addConfiguration",
"timestamp" : "2018-02-02T16:31:57.213-0600",
"value" : {
"name" : "GroupAliasSaveWizBackbone_v103",
"assigned" : "2018-02-02T16:31:57.212-0600"
}
},
{
"event" : "addConfiguration",
"timestamp" : "2018-02-02T16:34:29.930-0600",
"value" : {
"name" : "GroupAliasSaveWizBackbone_v104",
"assigned" : "2018-02-02T16:34:29.929-0600"
}
},
{
"event" : "addConfiguration",
"timestamp" : "2018-02-02T17:39:46.050-0600",
"value" : {
"name" : "GroupAliasSaveWizBackbone_v105",
"assigned" : "2018-02-02T17:39:46.049-0600"
}
},
{
"event" : "addConfiguration",
"timestamp" : "2018-02-02T17:43:08.328-0600",
"value" : {
"name" : "GroupAliasSaveWizBackbone_v106",
"assigned" : "2018-02-02T17:43:08.328-0600"
}
},
{
"event" : "addConfiguration",
"timestamp" : "2018-02-02T17:47:53.565-0600",
"value" : {
"name" : "GroupAliasSaveWizBackbone_v107",
"assigned" : "2018-02-02T17:47:53.565-0600"
}
},
{
"event" : "addConfiguration",
"timestamp" : "2018-02-02T17:54:17.570-0600",
"value" : {
"name" : "GroupAliasSaveWizBackbone_v108",
"assigned" : "2018-02-02T17:54:17.570-0600"
}
},
{
"event" : "addConfiguration",
"timestamp" : "2018-02-02T19:28:13.142-0600",
"value" : {
"name" : "GroupAliasTreeEditWizBackbone_v72",
"assigned" : "2018-02-02T19:28:13.142-0600"
}
},
{
"event" : "addConfiguration",
"timestamp" : "2018-02-03T02:59:21.603-0600",
"value" : {
"name" : "GroupAliasTreeEditWizBackbone_v73",
"assigned" : "2018-02-03T02:59:21.602-0600"
}
},
{
"event" : "addConfiguration",
"timestamp" : "2018-02-03T03:00:46.767-0600",
"value" : {
"name" : "GroupAliasTreeEditWizBackbone_v74",
"assigned" : "2018-02-03T03:00:46.766-0600"
}
}
],
"created" : "2017-11-08T15:56:08.870-0600"
},
"_id" : {
"$oid" : "1c11310ade2d404e9e0ecf48"
},
"collection" : "VersionAliasesConfiguration",
"aliases" : {
"active" : [

],
"history" : [

]
},
"runs" : [

],
"attachments" : [

],
"configtype" : "notprovided"
}