{
"ouid" : [
"19c0e67443e641298a322014",
"9e76980d0cbd4500bf7c8ae9",
"c570e45f06d9416280f782bd"
],
"version" : {
"0" : [
"9e76980d0cbd4500bf7c8ae9"
],
"1" : [
"c570e45f06d9416280f782bd"
],
"2" : [
"19c0e67443e641298a322014"
]
},
"configurations.name" : {
"notprovided" : [
"19c0e67443e641298a322014",
"9e76980d0cbd4500bf7c8ae9",
"c570e45f06d9416280f782bd"
],
"DefaultConfig_v0" : [
"9e76980d0cbd4500bf7c8ae9"
],
"DefaultConfig_v1" : [
"9e76980d0cbd4500bf7c8ae9"
],
"DefaultConfig_v2" : [
"c570e45f06d9416280f782bd"
],
"DefaultConfig_v3" : [
"19c0e67443e641298a322014"
]
},
"entities.name" : {
"OTSROOT" : [
"19c0e67443e641298a322014",
"9e76980d0cbd4500bf7c8ae9",
"c570e45f06d9416280f782bd"
]
},
"aliases.active.name" : {

},
"runs.name" : {

},
"configurations.assigned" : {
"notprovided" : [
"2020-09-08T15:08:30.368-0500",
"2020-09-08T17:51:44.357-0500",
"2020-09-08T17:53:11.220-0500"
],
"DefaultConfig_v0" : [
"2020-09-08T15:08:30.849-0500"
],
"DefaultConfig_v1" : [
"2020-09-08T15:38:44.909-0500"
],
"DefaultConfig_v2" : [
"2020-09-08T17:51:45.080-0500"
],
"DefaultConfig_v3" : [
"2020-09-08T17:53:12.007-0500"
]
}
}