{
"document" : {
"data" : {
"NAME" : "DATA_BUFFER_TABLE",
"COMMENT" : "No comment.",
"AUTHOR" : "admin",
"CREATION_TIME" : 1620853265,
"COL_TYPES" : {
"DATA_BUFFER_GROUP_ID" : "STRING",
"DATA_BUFFER_UID" : "STRING",
"LINK_TO_DATA_PROCESSOR_TABLE" : "STRING",
"LINK_TO_DATA_PROCESSOR_GROUP_ID" : "STRING",
"STATUS" : "STRING",
"COMMENT_DESCRIPTION" : "STRING",
"AUTHOR" : "STRING",
"RECORD_INSERTION_TIME" : "TIMESTAMP WITH TIMEZONE"
},
"DATA_SET" : [
{
"DATA_BUFFER_GROUP_ID" : "OuterTrackerDataBuffer0",
"DATA_BUFFER_UID" : "OuterTrackerDataBuffer0",
"LINK_TO_DATA_PROCESSOR_TABLE" : "DataProcessorTable",
"LINK_TO_DATA_PROCESSOR_GROUP_ID" : "OuterTrackerDataBuffer0",
"STATUS" : "On",
"COMMENT_DESCRIPTION" : "DEFAULT",
"AUTHOR" : "admin",
"RECORD_INSERTION_TIME" : "1550772672"
},
{
"DATA_BUFFER_GROUP_ID" : "VisualDataBuffer",
"DATA_BUFFER_UID" : "VisualDataBufferPS0",
"LINK_TO_DATA_PROCESSOR_TABLE" : "DataProcessorTable",
"LINK_TO_DATA_PROCESSOR_GROUP_ID" : "VisualDataBufferPS0",
"STATUS" : "On",
"COMMENT_DESCRIPTION" : "DEFAULT",
"AUTHOR" : "admin",
"RECORD_INSERTION_TIME" : "1620853265"
},
{
"DATA_BUFFER_GROUP_ID" : "VisualDataBuffer",
"DATA_BUFFER_UID" : "VisualDataBuffer2S0",
"LINK_TO_DATA_PROCESSOR_TABLE" : "DataProcessorTable",
"LINK_TO_DATA_PROCESSOR_GROUP_ID" : "VisualDataBuffer2S0",
"STATUS" : "On",
"COMMENT_DESCRIPTION" : "DEFAULT",
"AUTHOR" : "admin",
"RECORD_INSERTION_TIME" : "1620853265"
}
]
},
"metadata" : {

},
"search" : [

]
},
"comments" : [

],
"origin" : {
"source" : "template",
"name" : "notprovided",
"format" : "json",
"created" : "2021-05-12T16:01:05.562-0500",
"rawdata" : [

]
},
"version" : "2",
"entities" : [
{
"name" : "OTSROOT",
"assigned" : "2021-05-12T16:01:05.563-0500"
}
],
"configurations" : [
{
"name" : "notprovided",
"assigned" : "2021-05-12T16:01:05.563-0500"
},
{
"name" : "DefaultConfig_v35",
"assigned" : "2021-05-12T16:11:00.989-0500"
}
],
"changelog" : "notprovided",
"bookkeeping" : {
"isdeleted" : false,
"isreadonly" : false,
"updates" : [
{
"event" : "addConfiguration",
"timestamp" : "2021-05-12T16:01:05.563-0500",
"value" : {
"name" : "notprovided",
"assigned" : "2021-05-12T16:01:05.563-0500"
}
},
{
"event" : "setVersion",
"timestamp" : "2021-05-12T16:01:05.563-0500",
"value" : {
"name" : "2",
"assigned" : "2021-05-12T16:01:05.563-0500"
}
},
{
"event" : "setCollection",
"timestamp" : "2021-05-12T16:01:05.563-0500",
"value" : {
"name" : "DataBufferTable",
"assigned" : "2021-05-12T16:01:05.563-0500"
}
},
{
"event" : "addEntity",
"timestamp" : "2021-05-12T16:01:05.563-0500",
"value" : {
"name" : "OTSROOT",
"assigned" : "2021-05-12T16:01:05.563-0500"
}
},
{
"event" : "addConfiguration",
"timestamp" : "2021-05-12T16:11:00.989-0500",
"value" : {
"name" : "DefaultConfig_v35",
"assigned" : "2021-05-12T16:11:00.989-0500"
}
}
],
"created" : "2021-05-12T16:01:05.563-0500"
},
"_id" : {
"$oid" : "ad2397ebc5914353a627b2c1"
},
"collection" : "DataBufferTable",
"aliases" : {
"active" : [

],
"history" : [

]
},
"runs" : [

],
"attachments" : [

],
"configtype" : "notprovided"
}