{
"document" : {
"data" : {
"NAME" : "DATA_BUFFER_TABLE",
"COMMENT" : "No comment.",
"AUTHOR" : "admin",
"CREATION_TIME" : 1550871033,
"COL_TYPES" : {
"DATA_BUFFER_GROUP_ID" : "VARCHAR2",
"DATA_BUFFER_UID" : "VARCHAR2",
"LINK_TO_DATA_PROCESSOR_TABLE" : "VARCHAR2",
"LINK_TO_DATA_PROCESSOR_GROUP_ID" : "VARCHAR2",
"STATUS" : "VARCHAR2",
"COMMENT_DESCRIPTION" : "VARCHAR2",
"AUTHOR" : "VARCHAR2",
"RECORD_INSERTION_TIME" : "TIMESTAMP WITH TIMEZONE"
},
"DATA_SET" : [
{
"DATA_BUFFER_GROUP_ID" : "OuterTrackerDataBuffer0",
"DATA_BUFFER_UID" : "OuterTrackerDataBuffer0",
"LINK_TO_DATA_PROCESSOR_TABLE" : "DataProcessorTable",
"LINK_TO_DATA_PROCESSOR_GROUP_ID" : "OuterTrackerDataBuffer0",
"STATUS" : "On",
"COMMENT_DESCRIPTION" : "DEFAULT",
"AUTHOR" : "admin",
"RECORD_INSERTION_TIME" : "1550772672"
},
{
"DATA_BUFFER_GROUP_ID" : "VisualDataBuffer",
"DATA_BUFFER_UID" : "VisualDataBuffer",
"LINK_TO_DATA_PROCESSOR_TABLE" : "DataProcessorTable",
"LINK_TO_DATA_PROCESSOR_GROUP_ID" : "VisualDataBuffer",
"STATUS" : "On",
"COMMENT_DESCRIPTION" : "DEFAULT",
"AUTHOR" : "admin",
"RECORD_INSERTION_TIME" : "1550871033"
}
]
},
"metadata" : {

},
"search" : [

]
},
"comments" : [

],
"origin" : {
"source" : "template",
"name" : "notprovided",
"format" : "json",
"created" : "2019-02-22T16:11:42.648-0600",
"rawdata" : [

]
},
"version" : "1",
"entities" : [
{
"name" : "OTSROOT",
"assigned" : "2019-02-22T16:11:42.648-0600"
}
],
"tables" : [
{
"name" : "notprovided",
"assigned" : "2019-02-22T16:11:42.648-0600"
},
{
"name" : "DefaultConfig_v1",
"assigned" : "2019-02-22T16:11:42.950-0600"
}
],
"changelog" : "notprovided",
"bookkeeping" : {
"isdeleted" : false,
"isreadonly" : false,
"updates" : [
{
"event" : "addTable",
"timestamp" : "2019-02-22T16:11:42.648-0600",
"value" : {
"name" : "notprovided",
"assigned" : "2019-02-22T16:11:42.648-0600"
}
},
{
"event" : "setVersion",
"timestamp" : "2019-02-22T16:11:42.648-0600",
"value" : {
"name" : "1",
"assigned" : "2019-02-22T16:11:42.648-0600"
}
},
{
"event" : "setCollection",
"timestamp" : "2019-02-22T16:11:42.648-0600",
"value" : {
"name" : "DataBufferTable",
"assigned" : "2019-02-22T16:11:42.648-0600"
}
},
{
"event" : "addEntity",
"timestamp" : "2019-02-22T16:11:42.648-0600",
"value" : {
"name" : "OTSROOT",
"assigned" : "2019-02-22T16:11:42.648-0600"
}
},
{
"event" : "addTable",
"timestamp" : "2019-02-22T16:11:42.950-0600",
"value" : {
"name" : "DefaultConfig_v1",
"assigned" : "2019-02-22T16:11:42.950-0600"
}
},
{
"event" : "addConfiguration",
"timestamp" : "2019-07-22T11:27:30.194-0500",
"value" : {
"name" : "DefaultConfig_v2",
"assigned" : "2019-07-22T11:27:30.194-0500"
}
},
{
"event" : "addConfiguration",
"timestamp" : "2019-07-22T14:43:10.041-0500",
"value" : {
"name" : "DefaultConfig_v3",
"assigned" : "2019-07-22T14:43:10.041-0500"
}
},
{
"event" : "addConfiguration",
"timestamp" : "2019-07-22T14:47:01.208-0500",
"value" : {
"name" : "DefaultConfig_v4",
"assigned" : "2019-07-22T14:47:01.208-0500"
}
},
{
"event" : "addConfiguration",
"timestamp" : "2019-07-22T15:05:41.279-0500",
"value" : {
"name" : "DefaultConfig_v5",
"assigned" : "2019-07-22T15:05:41.279-0500"
}
},
{
"event" : "addConfiguration",
"timestamp" : "2019-07-23T09:00:31.750-0500",
"value" : {
"name" : "DefaultConfig_v6",
"assigned" : "2019-07-23T09:00:31.750-0500"
}
},
{
"event" : "addConfiguration",
"timestamp" : "2019-07-23T09:04:43.459-0500",
"value" : {
"name" : "DefaultConfig_v7",
"assigned" : "2019-07-23T09:04:43.459-0500"
}
},
{
"event" : "addConfiguration",
"timestamp" : "2019-07-23T09:48:11.548-0500",
"value" : {
"name" : "DefaultConfig_v8",
"assigned" : "2019-07-23T09:48:11.548-0500"
}
},
{
"event" : "addConfiguration",
"timestamp" : "2019-08-07T11:00:29.134-0500",
"value" : {
"name" : "DefaultConfig_v9",
"assigned" : "2019-08-07T11:00:29.134-0500"
}
},
{
"event" : "addConfiguration",
"timestamp" : "2019-11-20T15:25:38.320-0600",
"value" : {
"name" : "DefaultConfig_v10",
"assigned" : "2019-11-20T15:25:38.320-0600"
}
},
{
"event" : "addConfiguration",
"timestamp" : "2019-11-20T15:28:12.332-0600",
"value" : {
"name" : "DefaultConfig_v11",
"assigned" : "2019-11-20T15:28:12.332-0600"
}
},
{
"event" : "addConfiguration",
"timestamp" : "2019-11-20T15:58:29.603-0600",
"value" : {
"name" : "DefaultConfig_v12",
"assigned" : "2019-11-20T15:58:29.603-0600"
}
},
{
"event" : "addConfiguration",
"timestamp" : "2019-11-20T16:23:03.334-0600",
"value" : {
"name" : "DefaultConfig_v13",
"assigned" : "2019-11-20T16:23:03.334-0600"
}
},
{
"event" : "addConfiguration",
"timestamp" : "2019-11-20T16:24:45.473-0600",
"value" : {
"name" : "DefaultConfig_v14",
"assigned" : "2019-11-20T16:24:45.473-0600"
}
},
{
"event" : "addConfiguration",
"timestamp" : "2019-11-20T16:27:46.288-0600",
"value" : {
"name" : "DefaultConfig_v15",
"assigned" : "2019-11-20T16:27:46.288-0600"
}
},
{
"event" : "addConfiguration",
"timestamp" : "2019-11-20T16:42:10.825-0600",
"value" : {
"name" : "DefaultConfig_v16",
"assigned" : "2019-11-20T16:42:10.825-0600"
}
},
{
"event" : "addConfiguration",
"timestamp" : "2019-12-09T19:33:37.413-0600",
"value" : {
"name" : "DefaultConfig_v17",
"assigned" : "2019-12-09T19:33:37.413-0600"
}
},
{
"event" : "addConfiguration",
"timestamp" : "2019-12-10T14:21:49.710-0600",
"value" : {
"name" : "DefaultConfig_v18",
"assigned" : "2019-12-10T14:21:49.710-0600"
}
},
{
"event" : "addConfiguration",
"timestamp" : "2021-04-29T11:28:51.614-0500",
"value" : {
"name" : "DefaultConfig_v19",
"assigned" : "2021-04-29T11:28:51.614-0500"
}
},
{
"event" : "addConfiguration",
"timestamp" : "2021-04-29T11:36:29.628-0500",
"value" : {
"name" : "DefaultConfig_v20",
"assigned" : "2021-04-29T11:36:29.628-0500"
}
},
{
"event" : "addConfiguration",
"timestamp" : "2021-04-29T11:56:49.974-0500",
"value" : {
"name" : "DefaultConfig_v21",
"assigned" : "2021-04-29T11:56:49.974-0500"
}
},
{
"event" : "addConfiguration",
"timestamp" : "2021-04-29T12:03:11.633-0500",
"value" : {
"name" : "DefaultConfig_v22",
"assigned" : "2021-04-29T12:03:11.633-0500"
}
},
{
"event" : "addConfiguration",
"timestamp" : "2021-04-29T12:06:21.463-0500",
"value" : {
"name" : "DefaultConfig_v23",
"assigned" : "2021-04-29T12:06:21.463-0500"
}
},
{
"event" : "addConfiguration",
"timestamp" : "2021-04-29T13:06:39.090-0500",
"value" : {
"name" : "DefaultConfig_v24",
"assigned" : "2021-04-29T13:06:39.090-0500"
}
},
{
"event" : "addConfiguration",
"timestamp" : "2021-04-30T09:33:56.927-0500",
"value" : {
"name" : "DefaultConfig_v25",
"assigned" : "2021-04-30T09:33:56.927-0500"
}
},
{
"event" : "addConfiguration",
"timestamp" : "2021-04-30T09:34:32.490-0500",
"value" : {
"name" : "DefaultConfig_v26",
"assigned" : "2021-04-30T09:34:32.490-0500"
}
},
{
"event" : "addConfiguration",
"timestamp" : "2021-04-30T09:36:19.236-0500",
"value" : {
"name" : "DefaultConfig_v27",
"assigned" : "2021-04-30T09:36:19.236-0500"
}
},
{
"event" : "addConfiguration",
"timestamp" : "2021-04-30T11:59:05.814-0500",
"value" : {
"name" : "DefaultConfig_v28",
"assigned" : "2021-04-30T11:59:05.814-0500"
}
},
{
"event" : "addConfiguration",
"timestamp" : "2021-04-30T12:10:52.355-0500",
"value" : {
"name" : "DefaultConfig_v29",
"assigned" : "2021-04-30T12:10:52.355-0500"
}
},
{
"event" : "addConfiguration",
"timestamp" : "2021-04-30T12:11:38.634-0500",
"value" : {
"name" : "DefaultConfig_v30",
"assigned" : "2021-04-30T12:11:38.634-0500"
}
},
{
"event" : "addConfiguration",
"timestamp" : "2021-05-06T17:42:15.180-0500",
"value" : {
"name" : "DefaultConfig_v31",
"assigned" : "2021-05-06T17:42:15.180-0500"
}
},
{
"event" : "addConfiguration",
"timestamp" : "2021-05-10T10:42:46.959-0500",
"value" : {
"name" : "DefaultConfig_v32",
"assigned" : "2021-05-10T10:42:46.958-0500"
}
},
{
"event" : "addConfiguration",
"timestamp" : "2021-05-10T11:08:52.724-0500",
"value" : {
"name" : "DefaultConfig_v33",
"assigned" : "2021-05-10T11:08:52.724-0500"
}
},
{
"event" : "addConfiguration",
"timestamp" : "2021-05-12T15:51:22.814-0500",
"value" : {
"name" : "DefaultConfig_v34",
"assigned" : "2021-05-12T15:51:22.814-0500"
}
}
],
"created" : "2019-02-22T16:11:42.648-0600"
},
"_id" : {
"$oid" : "f8e640822ee8494d9a3e92dd"
},
"collection" : "DataBufferTable",
"aliases" : {
"active" : [

],
"history" : [

]
},
"runs" : [

],
"attachments" : [

],
"configtype" : "notprovided",
"configurations" : [
{
"name" : "DefaultConfig_v2",
"assigned" : "2019-07-22T11:27:30.194-0500"
},
{
"name" : "DefaultConfig_v3",
"assigned" : "2019-07-22T14:43:10.041-0500"
},
{
"name" : "DefaultConfig_v4",
"assigned" : "2019-07-22T14:47:01.208-0500"
},
{
"name" : "DefaultConfig_v5",
"assigned" : "2019-07-22T15:05:41.279-0500"
},
{
"name" : "DefaultConfig_v6",
"assigned" : "2019-07-23T09:00:31.750-0500"
},
{
"name" : "DefaultConfig_v7",
"assigned" : "2019-07-23T09:04:43.459-0500"
},
{
"name" : "DefaultConfig_v8",
"assigned" : "2019-07-23T09:48:11.548-0500"
},
{
"name" : "DefaultConfig_v9",
"assigned" : "2019-08-07T11:00:29.134-0500"
},
{
"name" : "DefaultConfig_v10",
"assigned" : "2019-11-20T15:25:38.320-0600"
},
{
"name" : "DefaultConfig_v11",
"assigned" : "2019-11-20T15:28:12.332-0600"
},
{
"name" : "DefaultConfig_v12",
"assigned" : "2019-11-20T15:58:29.603-0600"
},
{
"name" : "DefaultConfig_v13",
"assigned" : "2019-11-20T16:23:03.334-0600"
},
{
"name" : "DefaultConfig_v14",
"assigned" : "2019-11-20T16:24:45.473-0600"
},
{
"name" : "DefaultConfig_v15",
"assigned" : "2019-11-20T16:27:46.288-0600"
},
{
"name" : "DefaultConfig_v16",
"assigned" : "2019-11-20T16:42:10.825-0600"
},
{
"name" : "DefaultConfig_v17",
"assigned" : "2019-12-09T19:33:37.413-0600"
},
{
"name" : "DefaultConfig_v18",
"assigned" : "2019-12-10T14:21:49.710-0600"
},
{
"name" : "DefaultConfig_v19",
"assigned" : "2021-04-29T11:28:51.614-0500"
},
{
"name" : "DefaultConfig_v20",
"assigned" : "2021-04-29T11:36:29.628-0500"
},
{
"name" : "DefaultConfig_v21",
"assigned" : "2021-04-29T11:56:49.974-0500"
},
{
"name" : "DefaultConfig_v22",
"assigned" : "2021-04-29T12:03:11.633-0500"
},
{
"name" : "DefaultConfig_v23",
"assigned" : "2021-04-29T12:06:21.463-0500"
},
{
"name" : "DefaultConfig_v24",
"assigned" : "2021-04-29T13:06:39.090-0500"
},
{
"name" : "DefaultConfig_v25",
"assigned" : "2021-04-30T09:33:56.927-0500"
},
{
"name" : "DefaultConfig_v26",
"assigned" : "2021-04-30T09:34:32.490-0500"
},
{
"name" : "DefaultConfig_v27",
"assigned" : "2021-04-30T09:36:19.236-0500"
},
{
"name" : "DefaultConfig_v28",
"assigned" : "2021-04-30T11:59:05.814-0500"
},
{
"name" : "DefaultConfig_v29",
"assigned" : "2021-04-30T12:10:52.355-0500"
},
{
"name" : "DefaultConfig_v30",
"assigned" : "2021-04-30T12:11:38.634-0500"
},
{
"name" : "DefaultConfig_v31",
"assigned" : "2021-05-06T17:42:15.180-0500"
},
{
"name" : "DefaultConfig_v32",
"assigned" : "2021-05-10T10:42:46.958-0500"
},
{
"name" : "DefaultConfig_v33",
"assigned" : "2021-05-10T11:08:52.724-0500"
},
{
"name" : "DefaultConfig_v34",
"assigned" : "2021-05-12T15:51:22.814-0500"
}
]
}