{
"ouid" : [
"28998553a1ae492491526841",
"2b5d9a6b9c554676ba199aff",
"8ddf94ed89df42dab2f5a074",
"9a3fcef6e7f14d0989051ff1",
"9e58ac68b11e4eefb3572745",
"b6c0e07a4a594db091d63f93",
"bf5e5e3ea3fc4318b4a676b3",
"d481c48516a1426a84721c2d",
"e9ddd8baf038478da7bdba77",
"f3512cea9fe74805a335c5ce"
],
"version" : {
"3" : [
"d481c48516a1426a84721c2d"
],
"4" : [
"e9ddd8baf038478da7bdba77"
],
"5" : [
"f3512cea9fe74805a335c5ce"
],
"6" : [
"9e58ac68b11e4eefb3572745"
],
"7" : [
"b6c0e07a4a594db091d63f93"
],
"8" : [
"2b5d9a6b9c554676ba199aff"
],
"9" : [
"8ddf94ed89df42dab2f5a074"
],
"10" : [
"28998553a1ae492491526841"
],
"11" : [
"bf5e5e3ea3fc4318b4a676b3"
],
"12" : [
"9a3fcef6e7f14d0989051ff1"
]
},
"configurations.name" : {
"notprovided" : [
"28998553a1ae492491526841",
"2b5d9a6b9c554676ba199aff",
"8ddf94ed89df42dab2f5a074",
"9a3fcef6e7f14d0989051ff1",
"9e58ac68b11e4eefb3572745",
"b6c0e07a4a594db091d63f93",
"bf5e5e3ea3fc4318b4a676b3",
"d481c48516a1426a84721c2d",
"e9ddd8baf038478da7bdba77",
"f3512cea9fe74805a335c5ce"
],
"TableEditWizBackbone_v3" : [
"d481c48516a1426a84721c2d"
],
"TableEditWizBackbone_v4" : [
"e9ddd8baf038478da7bdba77"
],
"GroupAliasTreeEditWizBackbone_v0" : [
"f3512cea9fe74805a335c5ce"
],
"GroupAliasTreeEditWizBackbone_v1" : [
"9e58ac68b11e4eefb3572745"
],
"GroupAliasTreeEditWizBackbone_v2" : [
"b6c0e07a4a594db091d63f93"
],
"GroupAliasTreeEditWizBackbone_v3" : [
"2b5d9a6b9c554676ba199aff"
],
"GroupAliasTreeEditWizBackbone_v4" : [
"8ddf94ed89df42dab2f5a074"
],
"GroupAliasTreeEditWizBackbone_v5" : [
"28998553a1ae492491526841"
],
"TableEditWizBackbone_v5" : [
"bf5e5e3ea3fc4318b4a676b3"
],
"GroupAliasTreeEditWizBackbone_v6" : [
"9a3fcef6e7f14d0989051ff1"
]
},
"entities.name" : {
"OTSROOT" : [
"28998553a1ae492491526841",
"2b5d9a6b9c554676ba199aff",
"8ddf94ed89df42dab2f5a074",
"9a3fcef6e7f14d0989051ff1",
"9e58ac68b11e4eefb3572745",
"b6c0e07a4a594db091d63f93",
"bf5e5e3ea3fc4318b4a676b3",
"d481c48516a1426a84721c2d",
"e9ddd8baf038478da7bdba77",
"f3512cea9fe74805a335c5ce"
]
},
"aliases.active.name" : {

},
"runs.name" : {

},
"configurations.assigned" : {
"notprovided" : [
"2020-07-21T14:27:47.942-0500",
"2020-07-21T14:27:48.161-0500",
"2020-07-21T14:42:50.897-0500",
"2020-07-21T14:44:17.012-0500",
"2020-07-21T14:46:44.767-0500",
"2020-07-21T14:51:17.041-0500",
"2020-07-21T14:55:17.257-0500",
"2020-07-21T14:55:57.394-0500",
"2020-07-21T14:57:50.856-0500",
"2020-07-21T15:50:01.792-0500"
],
"TableEditWizBackbone_v3" : [
"2020-07-21T14:27:48.054-0500"
],
"TableEditWizBackbone_v4" : [
"2020-07-21T14:27:48.216-0500"
],
"GroupAliasTreeEditWizBackbone_v0" : [
"2020-07-21T14:42:51.200-0500"
],
"GroupAliasTreeEditWizBackbone_v1" : [
"2020-07-21T14:44:17.314-0500"
],
"GroupAliasTreeEditWizBackbone_v2" : [
"2020-07-21T14:46:45.089-0500"
],
"GroupAliasTreeEditWizBackbone_v3" : [
"2020-07-21T14:51:17.429-0500"
],
"GroupAliasTreeEditWizBackbone_v4" : [
"2020-07-21T14:55:17.373-0500"
],
"GroupAliasTreeEditWizBackbone_v5" : [
"2020-07-21T14:55:57.797-0500"
],
"TableEditWizBackbone_v5" : [
"2020-07-21T14:57:51.289-0500"
],
"GroupAliasTreeEditWizBackbone_v6" : [
"2020-07-21T15:50:02.196-0500"
]
}
}