{
"document" : {
"data" : {
"NAME" : "STATE_MACHINE_CONFIGURATION",
"COMMENT" : "three FSMs for The Supervisor.",
"AUTHOR" : "admin",
"CREATION_TIME" : 1496767347,
"COL_TYPES" : {
"STATE_MACHINE_GROUP_ID" : "VARCHAR2",
"STATE_MACHINE_UID" : "VARCHAR2",
"SYSTEM_ALIAS_FILTER" : "VARCHAR2",
"RUN_DISPLAY_ALIAS" : "VARCHAR2",
"ENABLE_CONFIGURATION_DUMP_ON_CONFIGURE_TRANSITION" : "VARCHAR2",
"CONFIGURATION_DUMP_ON_CONFIGURE_FORMAT" : "VARCHAR2",
"CONFIGURATION_DUMP_ON_CONFIGURE_FILE_PATH" : "VARCHAR2",
"CONFIGURATION_DUMP_ON_CONFIGURE_FILE_RADIX" : "VARCHAR2",
"ENABLE_CONFIGURATION_DUMP_ON_RUN_TRANSITION" : "VARCHAR2",
"CONFIGURATION_DUMP_ON_RUN_FORMAT" : "VARCHAR2",
"CONFIGURATION_DUMP_ON_RUN_FILE_PATH" : "VARCHAR2",
"CONFIGURATION_DUMP_ON_RUN_FILE_RADIX" : "VARCHAR2",
"COMMENT_DESCRIPTION" : "VARCHAR2",
"AUTHOR" : "VARCHAR2",
"RECORD_INSERTION_TIME" : "TIMESTAMP WITH TIMEZONE"
},
"DATA_SET" : [
{
"STATE_MACHINE_GROUP_ID" : "Supervisor0_FSMs",
"STATE_MACHINE_UID" : "PhysicsRuns0",
"SYSTEM_ALIAS_FILTER" : "*Physics*Config*",
"RUN_DISPLAY_ALIAS" : "Physics Run",
"ENABLE_CONFIGURATION_DUMP_ON_CONFIGURE_TRANSITION" : "No",
"CONFIGURATION_DUMP_ON_CONFIGURE_FORMAT" : "DEFAULT",
"CONFIGURATION_DUMP_ON_CONFIGURE_FILE_PATH" : "DEFAULT",
"CONFIGURATION_DUMP_ON_CONFIGURE_FILE_RADIX" : "DEFAULT",
"ENABLE_CONFIGURATION_DUMP_ON_RUN_TRANSITION" : "No",
"CONFIGURATION_DUMP_ON_RUN_FORMAT" : "DEFAULT",
"CONFIGURATION_DUMP_ON_RUN_FILE_PATH" : "DEFAULT",
"CONFIGURATION_DUMP_ON_RUN_FILE_RADIX" : "DEFAULT",
"COMMENT_DESCRIPTION" : "System alias filter will only show Physics config groups. And the FSM display will show \"Physics Run.\"",
"AUTHOR" : "admin",
"RECORD_INSERTION_TIME" : "1483025802"
},
{
"STATE_MACHINE_GROUP_ID" : "Supervisor0_FSMs",
"STATE_MACHINE_UID" : "CalibrationRuns0",
"SYSTEM_ALIAS_FILTER" : "*Calib*Config*",
"RUN_DISPLAY_ALIAS" : "Calibration",
"ENABLE_CONFIGURATION_DUMP_ON_CONFIGURE_TRANSITION" : "No",
"CONFIGURATION_DUMP_ON_CONFIGURE_FORMAT" : "DEFAULT",
"CONFIGURATION_DUMP_ON_CONFIGURE_FILE_PATH" : "DEFAULT",
"CONFIGURATION_DUMP_ON_CONFIGURE_FILE_RADIX" : "DEFAULT",
"ENABLE_CONFIGURATION_DUMP_ON_RUN_TRANSITION" : "No",
"CONFIGURATION_DUMP_ON_RUN_FORMAT" : "DEFAULT",
"CONFIGURATION_DUMP_ON_RUN_FILE_PATH" : "DEFAULT",
"CONFIGURATION_DUMP_ON_RUN_FILE_RADIX" : "DEFAULT",
"COMMENT_DESCRIPTION" : "Filter selects only groups with Calib in the name (for Calibrations). Displays runs as \"Calibration.\"",
"AUTHOR" : "admin",
"RECORD_INSERTION_TIME" : "1483025802"
},
{
"STATE_MACHINE_GROUP_ID" : "Supervisor0_FSMs",
"STATE_MACHINE_UID" : "OtherRuns0",
"SYSTEM_ALIAS_FILTER" : "!*Context*",
"RUN_DISPLAY_ALIAS" : "Run",
"ENABLE_CONFIGURATION_DUMP_ON_CONFIGURE_TRANSITION" : "No",
"CONFIGURATION_DUMP_ON_CONFIGURE_FORMAT" : "DEFAULT",
"CONFIGURATION_DUMP_ON_CONFIGURE_FILE_PATH" : "DEFAULT",
"CONFIGURATION_DUMP_ON_CONFIGURE_FILE_RADIX" : "DEFAULT",
"ENABLE_CONFIGURATION_DUMP_ON_RUN_TRANSITION" : "No",
"CONFIGURATION_DUMP_ON_RUN_FORMAT" : "DEFAULT",
"CONFIGURATION_DUMP_ON_RUN_FILE_PATH" : "DEFAULT",
"CONFIGURATION_DUMP_ON_RUN_FILE_RADIX" : "DEFAULT",
"COMMENT_DESCRIPTION" : "System alias filter will only show non-context config groups. And the FSM display will show \"Oddball-Run.\"",
"AUTHOR" : "admin",
"RECORD_INSERTION_TIME" : "1483025802"
}
]
},
"metadata" : {

},
"search" : [

]
},
"comments" : [

],
"origin" : {
"source" : "template",
"name" : "notprovided",
"format" : "json",
"created" : "2017-11-08T15:56:07.999-0600",
"rawdata" : [

]
},
"version" : "1",
"entities" : [
{
"name" : "OTSROOT",
"assigned" : "2017-11-08T15:56:08.002-0600"
}
],
"configurations" : [
{
"name" : "notprovided",
"assigned" : "2017-11-08T15:56:08.001-0600"
},
{
"name" : "FTBFContext_v1",
"assigned" : "2017-11-08T15:56:08.345-0600"
},
{
"name" : "FTBFContext_v2",
"assigned" : "2017-11-09T10:39:03.769-0600"
},
{
"name" : "FTBFContext_v3",
"assigned" : "2017-11-10T10:18:38.215-0600"
},
{
"name" : "FTBFContext_v4",
"assigned" : "2017-11-10T10:28:46.754-0600"
},
{
"name" : "FTBFContext_v5",
"assigned" : "2017-11-10T10:40:33.177-0600"
},
{
"name" : "FTBFContext_v6",
"assigned" : "2017-11-10T10:52:05.583-0600"
},
{
"name" : "FTBFContext_v7",
"assigned" : "2017-11-10T11:21:01.475-0600"
},
{
"name" : "FTBFContext_v8",
"assigned" : "2017-11-10T11:44:49.717-0600"
},
{
"name" : "FTBFContext_v9",
"assigned" : "2017-11-10T12:15:25.987-0600"
},
{
"name" : "FTBFContext_v10",
"assigned" : "2017-11-10T12:16:54.542-0600"
},
{
"name" : "FTBFContext_v11",
"assigned" : "2017-11-10T12:22:19.759-0600"
},
{
"name" : "FTBFContext_v12",
"assigned" : "2017-11-10T12:35:32.273-0600"
},
{
"name" : "FTBFContext_v13",
"assigned" : "2017-11-10T12:37:10.357-0600"
},
{
"name" : "FTBFContext_v14",
"assigned" : "2017-11-10T12:38:14.857-0600"
},
{
"name" : "FTBFContext_v15",
"assigned" : "2017-11-10T17:04:41.227-0600"
},
{
"name" : "FTBFContext_v16",
"assigned" : "2017-11-13T10:55:06.150-0600"
},
{
"name" : "FTBFContext_v17",
"assigned" : "2017-11-13T14:51:53.943-0600"
},
{
"name" : "FTBFContext_v18",
"assigned" : "2017-11-13T15:21:32.864-0600"
},
{
"name" : "FTBFContext_v19",
"assigned" : "2017-11-14T11:21:18.151-0600"
},
{
"name" : "FTBFContext_v20",
"assigned" : "2017-11-14T16:15:29.092-0600"
},
{
"name" : "FTBFContext_v21",
"assigned" : "2017-11-15T12:29:36.640-0600"
},
{
"name" : "FTBFContext_v22",
"assigned" : "2017-11-15T12:31:22.541-0600"
},
{
"name" : "FTBFContext_v23",
"assigned" : "2017-11-15T12:39:05.889-0600"
},
{
"name" : "FTBFContext_v24",
"assigned" : "2017-11-15T12:55:32.744-0600"
},
{
"name" : "FTBFContext_v25",
"assigned" : "2017-11-15T12:57:46.545-0600"
},
{
"name" : "FTBFContext_v26",
"assigned" : "2017-11-15T12:59:19.597-0600"
},
{
"name" : "FTBFContext_v27",
"assigned" : "2017-11-15T16:19:29.856-0600"
},
{
"name" : "FTBFContext_v28",
"assigned" : "2017-11-16T09:27:10.665-0600"
},
{
"name" : "FTBFContext_v29",
"assigned" : "2017-11-17T17:24:36.051-0600"
},
{
"name" : "FTBFContext_v30",
"assigned" : "2017-11-20T14:44:40.737-0600"
},
{
"name" : "FTBFContext_v31",
"assigned" : "2017-11-28T10:58:43.372-0600"
},
{
"name" : "FTBFContext_v32",
"assigned" : "2017-11-28T11:47:17.553-0600"
},
{
"name" : "FTBFContext_v33",
"assigned" : "2017-11-28T12:09:40.362-0600"
},
{
"name" : "FTBFContext_v34",
"assigned" : "2017-11-28T12:18:07.853-0600"
},
{
"name" : "FTBFContext_v35",
"assigned" : "2017-11-28T16:52:28.136-0600"
},
{
"name" : "FTBFContext_v36",
"assigned" : "2017-11-28T17:27:49.661-0600"
},
{
"name" : "FTBFContext_v37",
"assigned" : "2017-11-29T11:25:53.291-0600"
},
{
"name" : "FTBFContext_v38",
"assigned" : "2017-11-29T16:45:18.443-0600"
},
{
"name" : "FTBFContext_v39",
"assigned" : "2017-11-30T09:28:22.732-0600"
},
{
"name" : "FTBFContext_v40",
"assigned" : "2017-11-30T10:12:19.454-0600"
},
{
"name" : "FTBFContext_v41",
"assigned" : "2017-12-01T15:35:09.456-0600"
},
{
"name" : "FTBFContext_v42",
"assigned" : "2017-12-01T15:41:37.932-0600"
},
{
"name" : "FTBFContext_v43",
"assigned" : "2017-12-01T15:49:46.816-0600"
},
{
"name" : "FTBFContext_v44",
"assigned" : "2017-12-01T17:07:56.556-0600"
},
{
"name" : "FTBFContext_v45",
"assigned" : "2017-12-01T17:10:13.939-0600"
},
{
"name" : "FTBFContext_v46",
"assigned" : "2017-12-01T18:00:43.498-0600"
},
{
"name" : "FTBFContext_v47",
"assigned" : "2017-12-01T19:52:09.174-0600"
},
{
"name" : "FTBFContext_v48",
"assigned" : "2017-12-02T14:47:39.693-0600"
},
{
"name" : "FTBFContext_v49",
"assigned" : "2017-12-02T14:48:22.847-0600"
},
{
"name" : "FTBFContext_v50",
"assigned" : "2017-12-02T18:54:54.550-0600"
},
{
"name" : "FTBFContext_v51",
"assigned" : "2017-12-02T19:09:29.898-0600"
},
{
"name" : "FTBFContext_v52",
"assigned" : "2017-12-03T12:01:07.552-0600"
},
{
"name" : "FTBFContext_v53",
"assigned" : "2017-12-04T16:40:50.314-0600"
},
{
"name" : "FTBFContext_v54",
"assigned" : "2018-02-03T03:00:36.270-0600"
}
],
"changelog" : "notprovided",
"bookkeeping" : {
"isdeleted" : false,
"isreadonly" : false,
"updates" : [
{
"event" : "addConfiguration",
"timestamp" : "2017-11-08T15:56:08.001-0600",
"value" : {
"name" : "notprovided",
"assigned" : "2017-11-08T15:56:08.001-0600"
}
},
{
"event" : "setVersion",
"timestamp" : "2017-11-08T15:56:08.001-0600",
"value" : {
"name" : "1",
"assigned" : "2017-11-08T15:56:08.001-0600"
}
},
{
"event" : "setCollection",
"timestamp" : "2017-11-08T15:56:08.001-0600",
"value" : {
"name" : "StateMachineConfiguration",
"assigned" : "2017-11-08T15:56:08.001-0600"
}
},
{
"event" : "addEntity",
"timestamp" : "2017-11-08T15:56:08.002-0600",
"value" : {
"name" : "OTSROOT",
"assigned" : "2017-11-08T15:56:08.002-0600"
}
},
{
"event" : "addConfiguration",
"timestamp" : "2017-11-08T15:56:08.345-0600",
"value" : {
"name" : "FTBFContext_v1",
"assigned" : "2017-11-08T15:56:08.345-0600"
}
},
{
"event" : "addConfiguration",
"timestamp" : "2017-11-09T10:39:03.769-0600",
"value" : {
"name" : "FTBFContext_v2",
"assigned" : "2017-11-09T10:39:03.769-0600"
}
},
{
"event" : "addConfiguration",
"timestamp" : "2017-11-10T10:18:38.215-0600",
"value" : {
"name" : "FTBFContext_v3",
"assigned" : "2017-11-10T10:18:38.215-0600"
}
},
{
"event" : "addConfiguration",
"timestamp" : "2017-11-10T10:28:46.754-0600",
"value" : {
"name" : "FTBFContext_v4",
"assigned" : "2017-11-10T10:28:46.754-0600"
}
},
{
"event" : "addConfiguration",
"timestamp" : "2017-11-10T10:40:33.177-0600",
"value" : {
"name" : "FTBFContext_v5",
"assigned" : "2017-11-10T10:40:33.177-0600"
}
},
{
"event" : "addConfiguration",
"timestamp" : "2017-11-10T10:52:05.584-0600",
"value" : {
"name" : "FTBFContext_v6",
"assigned" : "2017-11-10T10:52:05.583-0600"
}
},
{
"event" : "addConfiguration",
"timestamp" : "2017-11-10T11:21:01.475-0600",
"value" : {
"name" : "FTBFContext_v7",
"assigned" : "2017-11-10T11:21:01.475-0600"
}
},
{
"event" : "addConfiguration",
"timestamp" : "2017-11-10T11:44:49.717-0600",
"value" : {
"name" : "FTBFContext_v8",
"assigned" : "2017-11-10T11:44:49.717-0600"
}
},
{
"event" : "addConfiguration",
"timestamp" : "2017-11-10T12:15:25.987-0600",
"value" : {
"name" : "FTBFContext_v9",
"assigned" : "2017-11-10T12:15:25.987-0600"
}
},
{
"event" : "addConfiguration",
"timestamp" : "2017-11-10T12:16:54.542-0600",
"value" : {
"name" : "FTBFContext_v10",
"assigned" : "2017-11-10T12:16:54.542-0600"
}
},
{
"event" : "addConfiguration",
"timestamp" : "2017-11-10T12:22:19.759-0600",
"value" : {
"name" : "FTBFContext_v11",
"assigned" : "2017-11-10T12:22:19.759-0600"
}
},
{
"event" : "addConfiguration",
"timestamp" : "2017-11-10T12:35:32.273-0600",
"value" : {
"name" : "FTBFContext_v12",
"assigned" : "2017-11-10T12:35:32.273-0600"
}
},
{
"event" : "addConfiguration",
"timestamp" : "2017-11-10T12:37:10.357-0600",
"value" : {
"name" : "FTBFContext_v13",
"assigned" : "2017-11-10T12:37:10.357-0600"
}
},
{
"event" : "addConfiguration",
"timestamp" : "2017-11-10T12:38:14.857-0600",
"value" : {
"name" : "FTBFContext_v14",
"assigned" : "2017-11-10T12:38:14.857-0600"
}
},
{
"event" : "addConfiguration",
"timestamp" : "2017-11-10T17:04:41.227-0600",
"value" : {
"name" : "FTBFContext_v15",
"assigned" : "2017-11-10T17:04:41.227-0600"
}
},
{
"event" : "addConfiguration",
"timestamp" : "2017-11-13T10:55:06.150-0600",
"value" : {
"name" : "FTBFContext_v16",
"assigned" : "2017-11-13T10:55:06.150-0600"
}
},
{
"event" : "addConfiguration",
"timestamp" : "2017-11-13T14:51:53.943-0600",
"value" : {
"name" : "FTBFContext_v17",
"assigned" : "2017-11-13T14:51:53.943-0600"
}
},
{
"event" : "addConfiguration",
"timestamp" : "2017-11-13T15:21:32.864-0600",
"value" : {
"name" : "FTBFContext_v18",
"assigned" : "2017-11-13T15:21:32.864-0600"
}
},
{
"event" : "addConfiguration",
"timestamp" : "2017-11-14T11:21:18.151-0600",
"value" : {
"name" : "FTBFContext_v19",
"assigned" : "2017-11-14T11:21:18.151-0600"
}
},
{
"event" : "addConfiguration",
"timestamp" : "2017-11-14T16:15:29.092-0600",
"value" : {
"name" : "FTBFContext_v20",
"assigned" : "2017-11-14T16:15:29.092-0600"
}
},
{
"event" : "addConfiguration",
"timestamp" : "2017-11-15T12:29:36.640-0600",
"value" : {
"name" : "FTBFContext_v21",
"assigned" : "2017-11-15T12:29:36.640-0600"
}
},
{
"event" : "addConfiguration",
"timestamp" : "2017-11-15T12:31:22.541-0600",
"value" : {
"name" : "FTBFContext_v22",
"assigned" : "2017-11-15T12:31:22.541-0600"
}
},
{
"event" : "addConfiguration",
"timestamp" : "2017-11-15T12:39:05.889-0600",
"value" : {
"name" : "FTBFContext_v23",
"assigned" : "2017-11-15T12:39:05.889-0600"
}
},
{
"event" : "addConfiguration",
"timestamp" : "2017-11-15T12:55:32.744-0600",
"value" : {
"name" : "FTBFContext_v24",
"assigned" : "2017-11-15T12:55:32.744-0600"
}
},
{
"event" : "addConfiguration",
"timestamp" : "2017-11-15T12:57:46.545-0600",
"value" : {
"name" : "FTBFContext_v25",
"assigned" : "2017-11-15T12:57:46.545-0600"
}
},
{
"event" : "addConfiguration",
"timestamp" : "2017-11-15T12:59:19.597-0600",
"value" : {
"name" : "FTBFContext_v26",
"assigned" : "2017-11-15T12:59:19.597-0600"
}
},
{
"event" : "addConfiguration",
"timestamp" : "2017-11-15T16:19:29.856-0600",
"value" : {
"name" : "FTBFContext_v27",
"assigned" : "2017-11-15T16:19:29.856-0600"
}
},
{
"event" : "addConfiguration",
"timestamp" : "2017-11-16T09:27:10.666-0600",
"value" : {
"name" : "FTBFContext_v28",
"assigned" : "2017-11-16T09:27:10.665-0600"
}
},
{
"event" : "addConfiguration",
"timestamp" : "2017-11-17T17:24:36.051-0600",
"value" : {
"name" : "FTBFContext_v29",
"assigned" : "2017-11-17T17:24:36.051-0600"
}
},
{
"event" : "addConfiguration",
"timestamp" : "2017-11-20T14:44:40.737-0600",
"value" : {
"name" : "FTBFContext_v30",
"assigned" : "2017-11-20T14:44:40.737-0600"
}
},
{
"event" : "addConfiguration",
"timestamp" : "2017-11-28T10:58:43.372-0600",
"value" : {
"name" : "FTBFContext_v31",
"assigned" : "2017-11-28T10:58:43.372-0600"
}
},
{
"event" : "addConfiguration",
"timestamp" : "2017-11-28T11:47:17.553-0600",
"value" : {
"name" : "FTBFContext_v32",
"assigned" : "2017-11-28T11:47:17.553-0600"
}
},
{
"event" : "addConfiguration",
"timestamp" : "2017-11-28T12:09:40.362-0600",
"value" : {
"name" : "FTBFContext_v33",
"assigned" : "2017-11-28T12:09:40.362-0600"
}
},
{
"event" : "addConfiguration",
"timestamp" : "2017-11-28T12:18:07.853-0600",
"value" : {
"name" : "FTBFContext_v34",
"assigned" : "2017-11-28T12:18:07.853-0600"
}
},
{
"event" : "addConfiguration",
"timestamp" : "2017-11-28T16:52:28.136-0600",
"value" : {
"name" : "FTBFContext_v35",
"assigned" : "2017-11-28T16:52:28.136-0600"
}
},
{
"event" : "addConfiguration",
"timestamp" : "2017-11-28T17:27:49.661-0600",
"value" : {
"name" : "FTBFContext_v36",
"assigned" : "2017-11-28T17:27:49.661-0600"
}
},
{
"event" : "addConfiguration",
"timestamp" : "2017-11-29T11:25:53.291-0600",
"value" : {
"name" : "FTBFContext_v37",
"assigned" : "2017-11-29T11:25:53.291-0600"
}
},
{
"event" : "addConfiguration",
"timestamp" : "2017-11-29T16:45:18.443-0600",
"value" : {
"name" : "FTBFContext_v38",
"assigned" : "2017-11-29T16:45:18.443-0600"
}
},
{
"event" : "addConfiguration",
"timestamp" : "2017-11-30T09:28:22.732-0600",
"value" : {
"name" : "FTBFContext_v39",
"assigned" : "2017-11-30T09:28:22.732-0600"
}
},
{
"event" : "addConfiguration",
"timestamp" : "2017-11-30T10:12:19.454-0600",
"value" : {
"name" : "FTBFContext_v40",
"assigned" : "2017-11-30T10:12:19.454-0600"
}
},
{
"event" : "addConfiguration",
"timestamp" : "2017-12-01T15:35:09.456-0600",
"value" : {
"name" : "FTBFContext_v41",
"assigned" : "2017-12-01T15:35:09.456-0600"
}
},
{
"event" : "addConfiguration",
"timestamp" : "2017-12-01T15:41:37.932-0600",
"value" : {
"name" : "FTBFContext_v42",
"assigned" : "2017-12-01T15:41:37.932-0600"
}
},
{
"event" : "addConfiguration",
"timestamp" : "2017-12-01T15:49:46.816-0600",
"value" : {
"name" : "FTBFContext_v43",
"assigned" : "2017-12-01T15:49:46.816-0600"
}
},
{
"event" : "addConfiguration",
"timestamp" : "2017-12-01T17:07:56.556-0600",
"value" : {
"name" : "FTBFContext_v44",
"assigned" : "2017-12-01T17:07:56.556-0600"
}
},
{
"event" : "addConfiguration",
"timestamp" : "2017-12-01T17:10:13.939-0600",
"value" : {
"name" : "FTBFContext_v45",
"assigned" : "2017-12-01T17:10:13.939-0600"
}
},
{
"event" : "addConfiguration",
"timestamp" : "2017-12-01T18:00:43.498-0600",
"value" : {
"name" : "FTBFContext_v46",
"assigned" : "2017-12-01T18:00:43.498-0600"
}
},
{
"event" : "addConfiguration",
"timestamp" : "2017-12-01T19:52:09.174-0600",
"value" : {
"name" : "FTBFContext_v47",
"assigned" : "2017-12-01T19:52:09.174-0600"
}
},
{
"event" : "addConfiguration",
"timestamp" : "2017-12-02T14:47:39.694-0600",
"value" : {
"name" : "FTBFContext_v48",
"assigned" : "2017-12-02T14:47:39.693-0600"
}
},
{
"event" : "addConfiguration",
"timestamp" : "2017-12-02T14:48:22.847-0600",
"value" : {
"name" : "FTBFContext_v49",
"assigned" : "2017-12-02T14:48:22.847-0600"
}
},
{
"event" : "addConfiguration",
"timestamp" : "2017-12-02T18:54:54.550-0600",
"value" : {
"name" : "FTBFContext_v50",
"assigned" : "2017-12-02T18:54:54.550-0600"
}
},
{
"event" : "addConfiguration",
"timestamp" : "2017-12-02T19:09:29.898-0600",
"value" : {
"name" : "FTBFContext_v51",
"assigned" : "2017-12-02T19:09:29.898-0600"
}
},
{
"event" : "addConfiguration",
"timestamp" : "2017-12-03T12:01:07.552-0600",
"value" : {
"name" : "FTBFContext_v52",
"assigned" : "2017-12-03T12:01:07.552-0600"
}
},
{
"event" : "addConfiguration",
"timestamp" : "2017-12-04T16:40:50.314-0600",
"value" : {
"name" : "FTBFContext_v53",
"assigned" : "2017-12-04T16:40:50.314-0600"
}
},
{
"event" : "addConfiguration",
"timestamp" : "2018-02-03T03:00:36.270-0600",
"value" : {
"name" : "FTBFContext_v54",
"assigned" : "2018-02-03T03:00:36.270-0600"
}
}
],
"created" : "2017-11-08T15:56:07.999-0600"
},
"_id" : {
"$oid" : "5129aac9d663404a99b75766"
},
"collection" : "StateMachineConfiguration",
"aliases" : {
"active" : [

],
"history" : [

]
},
"runs" : [

],
"attachments" : [

],
"configtype" : "notprovided"
}