{
"ouid" : [
"5129aac9d663404a99b75766"
],
"version" : {
"1" : [
"5129aac9d663404a99b75766"
]
},
"configurations.name" : {
"notprovided" : [
"5129aac9d663404a99b75766"
],
"FTBFContext_v1" : [
"5129aac9d663404a99b75766"
],
"FTBFContext_v2" : [
"5129aac9d663404a99b75766"
],
"FTBFContext_v3" : [
"5129aac9d663404a99b75766"
],
"FTBFContext_v4" : [
"5129aac9d663404a99b75766"
],
"FTBFContext_v5" : [
"5129aac9d663404a99b75766"
],
"FTBFContext_v6" : [
"5129aac9d663404a99b75766"
],
"FTBFContext_v7" : [
"5129aac9d663404a99b75766"
],
"FTBFContext_v8" : [
"5129aac9d663404a99b75766"
],
"FTBFContext_v9" : [
"5129aac9d663404a99b75766"
],
"FTBFContext_v10" : [
"5129aac9d663404a99b75766"
],
"FTBFContext_v11" : [
"5129aac9d663404a99b75766"
],
"FTBFContext_v12" : [
"5129aac9d663404a99b75766"
],
"FTBFContext_v13" : [
"5129aac9d663404a99b75766"
],
"FTBFContext_v14" : [
"5129aac9d663404a99b75766"
],
"FTBFContext_v15" : [
"5129aac9d663404a99b75766"
],
"FTBFContext_v16" : [
"5129aac9d663404a99b75766"
],
"FTBFContext_v17" : [
"5129aac9d663404a99b75766"
],
"FTBFContext_v18" : [
"5129aac9d663404a99b75766"
],
"FTBFContext_v19" : [
"5129aac9d663404a99b75766"
],
"FTBFContext_v20" : [
"5129aac9d663404a99b75766"
],
"FTBFContext_v21" : [
"5129aac9d663404a99b75766"
],
"FTBFContext_v22" : [
"5129aac9d663404a99b75766"
],
"FTBFContext_v23" : [
"5129aac9d663404a99b75766"
],
"FTBFContext_v24" : [
"5129aac9d663404a99b75766"
],
"FTBFContext_v25" : [
"5129aac9d663404a99b75766"
],
"FTBFContext_v26" : [
"5129aac9d663404a99b75766"
],
"FTBFContext_v27" : [
"5129aac9d663404a99b75766"
],
"FTBFContext_v28" : [
"5129aac9d663404a99b75766"
],
"FTBFContext_v29" : [
"5129aac9d663404a99b75766"
],
"FTBFContext_v30" : [
"5129aac9d663404a99b75766"
],
"FTBFContext_v31" : [
"5129aac9d663404a99b75766"
],
"FTBFContext_v32" : [
"5129aac9d663404a99b75766"
],
"FTBFContext_v33" : [
"5129aac9d663404a99b75766"
],
"FTBFContext_v34" : [
"5129aac9d663404a99b75766"
],
"FTBFContext_v35" : [
"5129aac9d663404a99b75766"
],
"FTBFContext_v36" : [
"5129aac9d663404a99b75766"
],
"FTBFContext_v37" : [
"5129aac9d663404a99b75766"
],
"FTBFContext_v38" : [
"5129aac9d663404a99b75766"
],
"FTBFContext_v39" : [
"5129aac9d663404a99b75766"
],
"FTBFContext_v40" : [
"5129aac9d663404a99b75766"
],
"FTBFContext_v41" : [
"5129aac9d663404a99b75766"
],
"FTBFContext_v42" : [
"5129aac9d663404a99b75766"
],
"FTBFContext_v43" : [
"5129aac9d663404a99b75766"
],
"FTBFContext_v44" : [
"5129aac9d663404a99b75766"
],
"FTBFContext_v45" : [
"5129aac9d663404a99b75766"
],
"FTBFContext_v46" : [
"5129aac9d663404a99b75766"
],
"FTBFContext_v47" : [
"5129aac9d663404a99b75766"
],
"FTBFContext_v48" : [
"5129aac9d663404a99b75766"
],
"FTBFContext_v49" : [
"5129aac9d663404a99b75766"
],
"FTBFContext_v50" : [
"5129aac9d663404a99b75766"
],
"FTBFContext_v51" : [
"5129aac9d663404a99b75766"
],
"FTBFContext_v52" : [
"5129aac9d663404a99b75766"
],
"FTBFContext_v53" : [
"5129aac9d663404a99b75766"
],
"FTBFContext_v54" : [
"5129aac9d663404a99b75766"
]
},
"entities.name" : {
"OTSROOT" : [
"5129aac9d663404a99b75766"
]
},
"aliases.active.name" : {

},
"runs.name" : {

},
"configurations.assigned" : {
"notprovided" : [
"2017-11-08T15:56:08.001-0600"
],
"FTBFContext_v1" : [
"2017-11-08T15:56:08.345-0600"
],
"FTBFContext_v2" : [
"2017-11-09T10:39:03.769-0600"
],
"FTBFContext_v3" : [
"2017-11-10T10:18:38.215-0600"
],
"FTBFContext_v4" : [
"2017-11-10T10:28:46.754-0600"
],
"FTBFContext_v5" : [
"2017-11-10T10:40:33.177-0600"
],
"FTBFContext_v6" : [
"2017-11-10T10:52:05.583-0600"
],
"FTBFContext_v7" : [
"2017-11-10T11:21:01.475-0600"
],
"FTBFContext_v8" : [
"2017-11-10T11:44:49.717-0600"
],
"FTBFContext_v9" : [
"2017-11-10T12:15:25.987-0600"
],
"FTBFContext_v10" : [
"2017-11-10T12:16:54.542-0600"
],
"FTBFContext_v11" : [
"2017-11-10T12:22:19.759-0600"
],
"FTBFContext_v12" : [
"2017-11-10T12:35:32.273-0600"
],
"FTBFContext_v13" : [
"2017-11-10T12:37:10.357-0600"
],
"FTBFContext_v14" : [
"2017-11-10T12:38:14.857-0600"
],
"FTBFContext_v15" : [
"2017-11-10T17:04:41.227-0600"
],
"FTBFContext_v16" : [
"2017-11-13T10:55:06.150-0600"
],
"FTBFContext_v17" : [
"2017-11-13T14:51:53.943-0600"
],
"FTBFContext_v18" : [
"2017-11-13T15:21:32.864-0600"
],
"FTBFContext_v19" : [
"2017-11-14T11:21:18.151-0600"
],
"FTBFContext_v20" : [
"2017-11-14T16:15:29.092-0600"
],
"FTBFContext_v21" : [
"2017-11-15T12:29:36.640-0600"
],
"FTBFContext_v22" : [
"2017-11-15T12:31:22.541-0600"
],
"FTBFContext_v23" : [
"2017-11-15T12:39:05.889-0600"
],
"FTBFContext_v24" : [
"2017-11-15T12:55:32.744-0600"
],
"FTBFContext_v25" : [
"2017-11-15T12:57:46.545-0600"
],
"FTBFContext_v26" : [
"2017-11-15T12:59:19.597-0600"
],
"FTBFContext_v27" : [
"2017-11-15T16:19:29.856-0600"
],
"FTBFContext_v28" : [
"2017-11-16T09:27:10.665-0600"
],
"FTBFContext_v29" : [
"2017-11-17T17:24:36.051-0600"
],
"FTBFContext_v30" : [
"2017-11-20T14:44:40.737-0600"
],
"FTBFContext_v31" : [
"2017-11-28T10:58:43.372-0600"
],
"FTBFContext_v32" : [
"2017-11-28T11:47:17.553-0600"
],
"FTBFContext_v33" : [
"2017-11-28T12:09:40.362-0600"
],
"FTBFContext_v34" : [
"2017-11-28T12:18:07.853-0600"
],
"FTBFContext_v35" : [
"2017-11-28T16:52:28.136-0600"
],
"FTBFContext_v36" : [
"2017-11-28T17:27:49.661-0600"
],
"FTBFContext_v37" : [
"2017-11-29T11:25:53.291-0600"
],
"FTBFContext_v38" : [
"2017-11-29T16:45:18.443-0600"
],
"FTBFContext_v39" : [
"2017-11-30T09:28:22.732-0600"
],
"FTBFContext_v40" : [
"2017-11-30T10:12:19.454-0600"
],
"FTBFContext_v41" : [
"2017-12-01T15:35:09.456-0600"
],
"FTBFContext_v42" : [
"2017-12-01T15:41:37.932-0600"
],
"FTBFContext_v43" : [
"2017-12-01T15:49:46.816-0600"
],
"FTBFContext_v44" : [
"2017-12-01T17:07:56.556-0600"
],
"FTBFContext_v45" : [
"2017-12-01T17:10:13.939-0600"
],
"FTBFContext_v46" : [
"2017-12-01T18:00:43.498-0600"
],
"FTBFContext_v47" : [
"2017-12-01T19:52:09.174-0600"
],
"FTBFContext_v48" : [
"2017-12-02T14:47:39.693-0600"
],
"FTBFContext_v49" : [
"2017-12-02T14:48:22.847-0600"
],
"FTBFContext_v50" : [
"2017-12-02T18:54:54.550-0600"
],
"FTBFContext_v51" : [
"2017-12-02T19:09:29.898-0600"
],
"FTBFContext_v52" : [
"2017-12-03T12:01:07.552-0600"
],
"FTBFContext_v53" : [
"2017-12-04T16:40:50.314-0600"
],
"FTBFContext_v54" : [
"2018-02-03T03:00:36.270-0600"
]
}
}