{
"ouid" : [
"14fdb9bdb5fb464ebeb734f6"
],
"version" : {
"1" : [
"14fdb9bdb5fb464ebeb734f6"
]
},
"configurations.name" : {
"notprovided" : [
"14fdb9bdb5fb464ebeb734f6"
],
"FTBFContext_v1" : [
"14fdb9bdb5fb464ebeb734f6"
],
"FTBFContext_v2" : [
"14fdb9bdb5fb464ebeb734f6"
],
"FTBFContext_v3" : [
"14fdb9bdb5fb464ebeb734f6"
],
"FTBFContext_v4" : [
"14fdb9bdb5fb464ebeb734f6"
],
"FTBFContext_v5" : [
"14fdb9bdb5fb464ebeb734f6"
],
"FTBFContext_v6" : [
"14fdb9bdb5fb464ebeb734f6"
],
"FTBFContext_v7" : [
"14fdb9bdb5fb464ebeb734f6"
],
"FTBFContext_v8" : [
"14fdb9bdb5fb464ebeb734f6"
],
"FTBFContext_v9" : [
"14fdb9bdb5fb464ebeb734f6"
],
"FTBFContext_v10" : [
"14fdb9bdb5fb464ebeb734f6"
],
"FTBFContext_v11" : [
"14fdb9bdb5fb464ebeb734f6"
],
"FTBFContext_v12" : [
"14fdb9bdb5fb464ebeb734f6"
],
"FTBFContext_v13" : [
"14fdb9bdb5fb464ebeb734f6"
],
"FTBFContext_v14" : [
"14fdb9bdb5fb464ebeb734f6"
],
"FTBFContext_v15" : [
"14fdb9bdb5fb464ebeb734f6"
],
"FTBFContext_v16" : [
"14fdb9bdb5fb464ebeb734f6"
],
"FTBFContext_v17" : [
"14fdb9bdb5fb464ebeb734f6"
],
"FTBFContext_v18" : [
"14fdb9bdb5fb464ebeb734f6"
],
"FTBFContext_v19" : [
"14fdb9bdb5fb464ebeb734f6"
],
"FTBFContext_v20" : [
"14fdb9bdb5fb464ebeb734f6"
],
"FTBFContext_v21" : [
"14fdb9bdb5fb464ebeb734f6"
],
"FTBFContext_v22" : [
"14fdb9bdb5fb464ebeb734f6"
],
"FTBFContext_v23" : [
"14fdb9bdb5fb464ebeb734f6"
],
"FTBFContext_v24" : [
"14fdb9bdb5fb464ebeb734f6"
],
"FTBFContext_v25" : [
"14fdb9bdb5fb464ebeb734f6"
],
"FTBFContext_v26" : [
"14fdb9bdb5fb464ebeb734f6"
],
"FTBFContext_v27" : [
"14fdb9bdb5fb464ebeb734f6"
],
"FTBFContext_v28" : [
"14fdb9bdb5fb464ebeb734f6"
],
"FTBFContext_v29" : [
"14fdb9bdb5fb464ebeb734f6"
],
"FTBFContext_v30" : [
"14fdb9bdb5fb464ebeb734f6"
],
"FTBFContext_v31" : [
"14fdb9bdb5fb464ebeb734f6"
],
"FTBFContext_v32" : [
"14fdb9bdb5fb464ebeb734f6"
],
"FTBFContext_v33" : [
"14fdb9bdb5fb464ebeb734f6"
],
"FTBFContext_v34" : [
"14fdb9bdb5fb464ebeb734f6"
],
"FTBFContext_v35" : [
"14fdb9bdb5fb464ebeb734f6"
],
"FTBFContext_v36" : [
"14fdb9bdb5fb464ebeb734f6"
],
"FTBFContext_v37" : [
"14fdb9bdb5fb464ebeb734f6"
],
"FTBFContext_v38" : [
"14fdb9bdb5fb464ebeb734f6"
],
"FTBFContext_v39" : [
"14fdb9bdb5fb464ebeb734f6"
],
"FTBFContext_v40" : [
"14fdb9bdb5fb464ebeb734f6"
],
"FTBFContext_v41" : [
"14fdb9bdb5fb464ebeb734f6"
],
"FTBFContext_v42" : [
"14fdb9bdb5fb464ebeb734f6"
],
"FTBFContext_v43" : [
"14fdb9bdb5fb464ebeb734f6"
],
"FTBFContext_v44" : [
"14fdb9bdb5fb464ebeb734f6"
],
"FTBFContext_v45" : [
"14fdb9bdb5fb464ebeb734f6"
],
"FTBFContext_v46" : [
"14fdb9bdb5fb464ebeb734f6"
],
"FTBFContext_v47" : [
"14fdb9bdb5fb464ebeb734f6"
],
"FTBFContext_v48" : [
"14fdb9bdb5fb464ebeb734f6"
],
"FTBFContext_v49" : [
"14fdb9bdb5fb464ebeb734f6"
],
"FTBFContext_v50" : [
"14fdb9bdb5fb464ebeb734f6"
],
"FTBFContext_v51" : [
"14fdb9bdb5fb464ebeb734f6"
],
"FTBFContext_v52" : [
"14fdb9bdb5fb464ebeb734f6"
],
"FTBFContext_v53" : [
"14fdb9bdb5fb464ebeb734f6"
],
"FTBFContext_v54" : [
"14fdb9bdb5fb464ebeb734f6"
]
},
"entities.name" : {
"OTSROOT" : [
"14fdb9bdb5fb464ebeb734f6"
]
},
"aliases.active.name" : {

},
"runs.name" : {

},
"configurations.assigned" : {
"notprovided" : [
"2017-11-08T15:56:08.041-0600"
],
"FTBFContext_v1" : [
"2017-11-08T15:56:08.395-0600"
],
"FTBFContext_v2" : [
"2017-11-09T10:39:03.829-0600"
],
"FTBFContext_v3" : [
"2017-11-10T10:18:38.274-0600"
],
"FTBFContext_v4" : [
"2017-11-10T10:28:46.822-0600"
],
"FTBFContext_v5" : [
"2017-11-10T10:40:33.253-0600"
],
"FTBFContext_v6" : [
"2017-11-10T10:52:05.648-0600"
],
"FTBFContext_v7" : [
"2017-11-10T11:21:01.539-0600"
],
"FTBFContext_v8" : [
"2017-11-10T11:44:49.780-0600"
],
"FTBFContext_v9" : [
"2017-11-10T12:15:26.081-0600"
],
"FTBFContext_v10" : [
"2017-11-10T12:16:54.607-0600"
],
"FTBFContext_v11" : [
"2017-11-10T12:22:19.833-0600"
],
"FTBFContext_v12" : [
"2017-11-10T12:35:32.338-0600"
],
"FTBFContext_v13" : [
"2017-11-10T12:37:10.421-0600"
],
"FTBFContext_v14" : [
"2017-11-10T12:38:14.923-0600"
],
"FTBFContext_v15" : [
"2017-11-10T17:04:41.295-0600"
],
"FTBFContext_v16" : [
"2017-11-13T10:55:06.215-0600"
],
"FTBFContext_v17" : [
"2017-11-13T14:51:54.009-0600"
],
"FTBFContext_v18" : [
"2017-11-13T15:21:32.932-0600"
],
"FTBFContext_v19" : [
"2017-11-14T11:21:18.219-0600"
],
"FTBFContext_v20" : [
"2017-11-14T16:15:29.160-0600"
],
"FTBFContext_v21" : [
"2017-11-15T12:29:36.716-0600"
],
"FTBFContext_v22" : [
"2017-11-15T12:31:22.617-0600"
],
"FTBFContext_v23" : [
"2017-11-15T12:39:05.960-0600"
],
"FTBFContext_v24" : [
"2017-11-15T12:55:32.817-0600"
],
"FTBFContext_v25" : [
"2017-11-15T12:57:46.618-0600"
],
"FTBFContext_v26" : [
"2017-11-15T12:59:19.670-0600"
],
"FTBFContext_v27" : [
"2017-11-15T16:19:29.945-0600"
],
"FTBFContext_v28" : [
"2017-11-16T09:27:10.747-0600"
],
"FTBFContext_v29" : [
"2017-11-17T17:24:36.135-0600"
],
"FTBFContext_v30" : [
"2017-11-20T14:44:40.827-0600"
],
"FTBFContext_v31" : [
"2017-11-28T10:58:43.466-0600"
],
"FTBFContext_v32" : [
"2017-11-28T11:47:17.648-0600"
],
"FTBFContext_v33" : [
"2017-11-28T12:09:40.454-0600"
],
"FTBFContext_v34" : [
"2017-11-28T12:18:07.947-0600"
],
"FTBFContext_v35" : [
"2017-11-28T16:52:28.232-0600"
],
"FTBFContext_v36" : [
"2017-11-28T17:27:49.755-0600"
],
"FTBFContext_v37" : [
"2017-11-29T11:25:53.386-0600"
],
"FTBFContext_v38" : [
"2017-11-29T16:45:18.538-0600"
],
"FTBFContext_v39" : [
"2017-11-30T09:28:22.830-0600"
],
"FTBFContext_v40" : [
"2017-11-30T10:12:19.548-0600"
],
"FTBFContext_v41" : [
"2017-12-01T15:35:09.610-0600"
],
"FTBFContext_v42" : [
"2017-12-01T15:41:38.102-0600"
],
"FTBFContext_v43" : [
"2017-12-01T15:49:46.922-0600"
],
"FTBFContext_v44" : [
"2017-12-01T17:07:56.672-0600"
],
"FTBFContext_v45" : [
"2017-12-01T17:10:14.050-0600"
],
"FTBFContext_v46" : [
"2017-12-01T18:00:43.671-0600"
],
"FTBFContext_v47" : [
"2017-12-01T19:52:09.291-0600"
],
"FTBFContext_v48" : [
"2017-12-02T14:47:39.831-0600"
],
"FTBFContext_v49" : [
"2017-12-02T14:48:22.984-0600"
],
"FTBFContext_v50" : [
"2017-12-02T18:54:54.689-0600"
],
"FTBFContext_v51" : [
"2017-12-02T19:09:30.038-0600"
],
"FTBFContext_v52" : [
"2017-12-03T12:01:07.691-0600"
],
"FTBFContext_v53" : [
"2017-12-04T16:40:50.562-0600"
],
"FTBFContext_v54" : [
"2018-02-03T03:00:36.495-0600"
]
}
}