{
"ouid" : [
"0e3c1a2579ae4638b4d50c71",
"401a0105fa4348edb1a648e0",
"54fa097aedaa46b79774c30f",
"68eb7da56b364e6ba23024f5",
"6958e4a701f647cd9c75d231",
"79814a14f7d342c3b3842294",
"a68389cf06614a00849af650",
"c59294cadc484a50b11945e0",
"c72a7cfef3b643d99e2008a5",
"e60d27066f9a4499a5aefedf",
"f52c7fce27a74528b93ab848"
],
"version" : {
"0" : [
"c59294cadc484a50b11945e0"
],
"1" : [
"401a0105fa4348edb1a648e0"
],
"2" : [
"6958e4a701f647cd9c75d231"
],
"3" : [
"0e3c1a2579ae4638b4d50c71"
],
"4" : [
"e60d27066f9a4499a5aefedf"
],
"5" : [
"79814a14f7d342c3b3842294"
],
"6" : [
"68eb7da56b364e6ba23024f5"
],
"7" : [
"a68389cf06614a00849af650"
],
"8" : [
"c72a7cfef3b643d99e2008a5"
],
"9" : [
"f52c7fce27a74528b93ab848"
],
"10" : [
"54fa097aedaa46b79774c30f"
]
},
"configurations.name" : {
"notprovided" : [
"0e3c1a2579ae4638b4d50c71",
"401a0105fa4348edb1a648e0",
"54fa097aedaa46b79774c30f",
"68eb7da56b364e6ba23024f5",
"6958e4a701f647cd9c75d231",
"79814a14f7d342c3b3842294",
"a68389cf06614a00849af650",
"c59294cadc484a50b11945e0",
"c72a7cfef3b643d99e2008a5",
"e60d27066f9a4499a5aefedf",
"f52c7fce27a74528b93ab848"
],
"iterateDefaultGroup_v2" : [
"c59294cadc484a50b11945e0"
],
"iterateDefaultGroup_v3" : [
"c59294cadc484a50b11945e0"
],
"iterateDefaultGroup_v4" : [
"c59294cadc484a50b11945e0"
],
"iterateDefaultGroup_v5" : [
"c59294cadc484a50b11945e0"
],
"iterateDefaultGroup_v6" : [
"c59294cadc484a50b11945e0"
],
"iterateDefaultGroup_v7" : [
"c59294cadc484a50b11945e0"
],
"iterateDefaultGroup_v8" : [
"c59294cadc484a50b11945e0"
],
"iterateDefaultGroup_v9" : [
"401a0105fa4348edb1a648e0"
],
"iterateDefaultGroup_v10" : [
"401a0105fa4348edb1a648e0"
],
"iterateDefaultGroup_v11" : [
"401a0105fa4348edb1a648e0"
],
"iterateDefaultGroup_v12" : [
"401a0105fa4348edb1a648e0"
],
"iterateDefaultGroup_v13" : [
"401a0105fa4348edb1a648e0"
],
"iterateDefaultGroup_v14" : [
"401a0105fa4348edb1a648e0"
],
"iterateDefaultGroup_v15" : [
"401a0105fa4348edb1a648e0"
],
"iterateDefaultGroup_v16" : [
"401a0105fa4348edb1a648e0"
],
"iterateDefaultGroup_v17" : [
"401a0105fa4348edb1a648e0"
],
"iterateDefaultGroup_v18" : [
"401a0105fa4348edb1a648e0"
],
"iterateDefaultGroup_v19" : [
"401a0105fa4348edb1a648e0"
],
"iterateDefaultGroup_v20" : [
"6958e4a701f647cd9c75d231"
],
"iterateDefaultGroup_v21" : [
"6958e4a701f647cd9c75d231"
],
"iterateDefaultGroup_v22" : [
"6958e4a701f647cd9c75d231"
],
"iterateDefaultGroup_v23" : [
"0e3c1a2579ae4638b4d50c71"
],
"iterateDefaultGroup_v24" : [
"0e3c1a2579ae4638b4d50c71"
],
"iterateDefaultGroup_v25" : [
"e60d27066f9a4499a5aefedf"
],
"iterateDefaultGroup_v26" : [
"e60d27066f9a4499a5aefedf"
],
"iterateDefaultGroup_v27" : [
"79814a14f7d342c3b3842294"
],
"iterateDefaultGroup_v28" : [
"68eb7da56b364e6ba23024f5"
],
"iterateDefaultGroup_v29" : [
"68eb7da56b364e6ba23024f5"
],
"iterateDefaultGroup_v30" : [
"68eb7da56b364e6ba23024f5"
],
"iterateDefaultGroup_v31" : [
"68eb7da56b364e6ba23024f5"
],
"iterateDefaultGroup_v32" : [
"a68389cf06614a00849af650"
],
"iterateDefaultGroup_v33" : [
"a68389cf06614a00849af650"
],
"iterateDefaultGroup_v34" : [
"a68389cf06614a00849af650"
],
"iterateDefaultGroup_v35" : [
"a68389cf06614a00849af650"
],
"iterateDefaultGroup_v36" : [
"a68389cf06614a00849af650"
],
"iterateDefaultGroup_v37" : [
"a68389cf06614a00849af650"
],
"iterateDefaultGroup_v38" : [
"a68389cf06614a00849af650"
],
"iterateDefaultGroup_v39" : [
"a68389cf06614a00849af650"
],
"iterateDefaultGroup_v40" : [
"c72a7cfef3b643d99e2008a5"
],
"iterateDefaultGroup_v41" : [
"a68389cf06614a00849af650"
],
"iterateDefaultGroup_v42" : [
"a68389cf06614a00849af650"
],
"iterateDefaultGroup_v43" : [
"a68389cf06614a00849af650"
],
"iterateDefaultGroup_v44" : [
"a68389cf06614a00849af650"
],
"iterateDefaultGroup_v45" : [
"a68389cf06614a00849af650"
],
"iterateDefaultGroup_v46" : [
"a68389cf06614a00849af650"
],
"iterateDefaultGroup_v47" : [
"a68389cf06614a00849af650"
],
"iterateDefaultGroup_v48" : [
"a68389cf06614a00849af650"
],
"iterateDefaultGroup_v49" : [
"a68389cf06614a00849af650"
],
"iterateDefaultGroup_v50" : [
"a68389cf06614a00849af650"
],
"iterateDefaultGroup_v51" : [
"a68389cf06614a00849af650"
],
"iterateDefaultGroup_v52" : [
"a68389cf06614a00849af650"
],
"iterateDefaultGroup_v53" : [
"a68389cf06614a00849af650"
],
"iterateDefaultGroup_v54" : [
"a68389cf06614a00849af650"
],
"iterateDefaultGroup_v55" : [
"a68389cf06614a00849af650"
],
"iterateDefaultGroup_v56" : [
"a68389cf06614a00849af650"
],
"iterateDefaultGroup_v57" : [
"a68389cf06614a00849af650"
],
"iterateDefaultGroup_v58" : [
"a68389cf06614a00849af650"
],
"iterateDefaultGroup_v59" : [
"a68389cf06614a00849af650"
],
"iterateDefaultGroup_v60" : [
"a68389cf06614a00849af650"
],
"iterateDefaultGroup_v61" : [
"a68389cf06614a00849af650"
],
"iterateDefaultGroup_v62" : [
"a68389cf06614a00849af650"
],
"iterateDefaultGroup_v63" : [
"a68389cf06614a00849af650"
],
"iterateDefaultGroup_v64" : [
"a68389cf06614a00849af650"
],
"iterateDefaultGroup_v65" : [
"a68389cf06614a00849af650"
],
"iterateDefaultGroup_v66" : [
"a68389cf06614a00849af650"
],
"iterateDefaultGroup_v67" : [
"a68389cf06614a00849af650"
],
"iterateDefaultGroup_v68" : [
"a68389cf06614a00849af650"
],
"iterateDefaultGroup_v69" : [
"f52c7fce27a74528b93ab848"
],
"iterateDefaultGroup_v70" : [
"f52c7fce27a74528b93ab848"
],
"iterateDefaultGroup_v71" : [
"f52c7fce27a74528b93ab848"
],
"iterateDefaultGroup_v72" : [
"f52c7fce27a74528b93ab848"
],
"iterateDefaultGroup_v73" : [
"54fa097aedaa46b79774c30f"
],
"iterateDefaultGroup_v74" : [
"54fa097aedaa46b79774c30f"
],
"iterateDefaultGroup_v75" : [
"54fa097aedaa46b79774c30f"
],
"iterateDefaultGroup_v76" : [
"54fa097aedaa46b79774c30f"
],
"iterateDefaultGroup_v77" : [
"54fa097aedaa46b79774c30f"
],
"iterateDefaultGroup_v78" : [
"54fa097aedaa46b79774c30f"
],
"iterateDefaultGroup_v79" : [
"54fa097aedaa46b79774c30f"
],
"iterateDefaultGroup_v80" : [
"54fa097aedaa46b79774c30f"
],
"iterateDefaultGroup_v81" : [
"54fa097aedaa46b79774c30f"
]
},
"entities.name" : {
"OTSROOT" : [
"0e3c1a2579ae4638b4d50c71",
"401a0105fa4348edb1a648e0",
"54fa097aedaa46b79774c30f",
"68eb7da56b364e6ba23024f5",
"6958e4a701f647cd9c75d231",
"79814a14f7d342c3b3842294",
"a68389cf06614a00849af650",
"c59294cadc484a50b11945e0",
"c72a7cfef3b643d99e2008a5",
"e60d27066f9a4499a5aefedf",
"f52c7fce27a74528b93ab848"
]
},
"aliases.active.name" : {

},
"runs.name" : {

},
"configurations.assigned" : {
"notprovided" : [
"2020-07-28T16:25:05.866-0500",
"2020-07-29T14:04:54.654-0500",
"2021-07-12T13:38:43.269-0500",
"2021-07-20T15:27:05.421-0500",
"2021-07-23T12:39:36.528-0500",
"2021-07-23T13:08:41.665-0500",
"2021-07-23T13:16:28.202-0500",
"2021-07-28T09:08:04.578-0500",
"2021-07-28T14:42:28.128-0500",
"2023-04-07T13:56:54.221-0500",
"2023-04-07T15:12:07.790-0500"
],
"iterateDefaultGroup_v2" : [
"2020-07-28T16:25:06.250-0500"
],
"iterateDefaultGroup_v3" : [
"2020-07-29T13:52:20.561-0500"
],
"iterateDefaultGroup_v4" : [
"2020-07-29T13:56:47.682-0500"
],
"iterateDefaultGroup_v5" : [
"2020-07-29T15:14:11.929-0500"
],
"iterateDefaultGroup_v6" : [
"2020-10-09T16:10:10.145-0500"
],
"iterateDefaultGroup_v7" : [
"2020-10-09T16:31:32.081-0500"
],
"iterateDefaultGroup_v8" : [
"2020-10-09T16:46:00.752-0500"
],
"iterateDefaultGroup_v9" : [
"2020-10-12T10:30:01.878-0500"
],
"iterateDefaultGroup_v10" : [
"2020-10-12T13:54:18.301-0500"
],
"iterateDefaultGroup_v11" : [
"2020-10-12T15:28:45.889-0500"
],
"iterateDefaultGroup_v12" : [
"2020-10-12T15:33:41.258-0500"
],
"iterateDefaultGroup_v13" : [
"2020-10-26T10:34:09.698-0500"
],
"iterateDefaultGroup_v14" : [
"2020-10-26T11:12:08.790-0500"
],
"iterateDefaultGroup_v15" : [
"2020-10-26T13:20:58.937-0500"
],
"iterateDefaultGroup_v16" : [
"2020-10-26T13:46:31.855-0500"
],
"iterateDefaultGroup_v17" : [
"2020-10-27T17:08:44.487-0500"
],
"iterateDefaultGroup_v18" : [
"2021-06-30T15:46:04.204-0500"
],
"iterateDefaultGroup_v19" : [
"2021-07-12T11:48:21.833-0500"
],
"iterateDefaultGroup_v20" : [
"2021-07-12T13:38:44.957-0500"
],
"iterateDefaultGroup_v21" : [
"2021-07-12T13:40:39.910-0500"
],
"iterateDefaultGroup_v22" : [
"2021-07-14T16:20:56.780-0500"
],
"iterateDefaultGroup_v23" : [
"2021-07-20T15:29:51.401-0500"
],
"iterateDefaultGroup_v24" : [
"2021-07-22T18:34:19.145-0500"
],
"iterateDefaultGroup_v25" : [
"2021-07-23T12:39:38.509-0500"
],
"iterateDefaultGroup_v26" : [
"2021-07-23T12:45:35.886-0500"
],
"iterateDefaultGroup_v27" : [
"2021-07-23T13:08:43.664-0500"
],
"iterateDefaultGroup_v28" : [
"2021-07-23T13:16:30.177-0500"
],
"iterateDefaultGroup_v29" : [
"2021-07-23T14:16:53.961-0500"
],
"iterateDefaultGroup_v30" : [
"2021-07-28T08:44:04.943-0500"
],
"iterateDefaultGroup_v31" : [
"2021-07-28T09:04:35.682-0500"
],
"iterateDefaultGroup_v32" : [
"2021-07-28T09:08:06.500-0500"
],
"iterateDefaultGroup_v33" : [
"2021-07-28T09:09:00.520-0500"
],
"iterateDefaultGroup_v34" : [
"2021-07-28T09:11:42.564-0500"
],
"iterateDefaultGroup_v35" : [
"2021-07-28T10:45:28.598-0500"
],
"iterateDefaultGroup_v36" : [
"2021-07-28T11:09:41.800-0500"
],
"iterateDefaultGroup_v37" : [
"2021-07-28T11:56:32.150-0500"
],
"iterateDefaultGroup_v38" : [
"2021-07-28T13:37:16.755-0500"
],
"iterateDefaultGroup_v39" : [
"2021-07-28T14:34:06.913-0500"
],
"iterateDefaultGroup_v40" : [
"2021-07-28T14:42:30.220-0500"
],
"iterateDefaultGroup_v41" : [
"2021-07-28T14:47:07.211-0500"
],
"iterateDefaultGroup_v42" : [
"2021-07-28T14:48:23.615-0500"
],
"iterateDefaultGroup_v43" : [
"2021-07-28T14:48:51.543-0500"
],
"iterateDefaultGroup_v44" : [
"2021-07-28T14:51:22.956-0500"
],
"iterateDefaultGroup_v45" : [
"2021-07-28T15:03:29.870-0500"
],
"iterateDefaultGroup_v46" : [
"2021-07-28T15:11:18.720-0500"
],
"iterateDefaultGroup_v47" : [
"2021-07-28T15:13:40.195-0500"
],
"iterateDefaultGroup_v48" : [
"2021-07-28T15:30:21.297-0500"
],
"iterateDefaultGroup_v49" : [
"2021-07-28T15:42:30.610-0500"
],
"iterateDefaultGroup_v50" : [
"2021-07-28T15:54:18.478-0500"
],
"iterateDefaultGroup_v51" : [
"2021-07-28T16:06:51.337-0500"
],
"iterateDefaultGroup_v52" : [
"2021-07-28T16:13:47.325-0500"
],
"iterateDefaultGroup_v53" : [
"2021-07-28T16:15:01.553-0500"
],
"iterateDefaultGroup_v54" : [
"2021-09-02T13:40:33.717-0500"
],
"iterateDefaultGroup_v55" : [
"2021-09-02T14:33:16.729-0500"
],
"iterateDefaultGroup_v56" : [
"2021-09-02T14:42:09.223-0500"
],
"iterateDefaultGroup_v57" : [
"2021-10-12T11:12:25.018-0500"
],
"iterateDefaultGroup_v58" : [
"2021-10-12T16:34:03.750-0500"
],
"iterateDefaultGroup_v59" : [
"2021-10-13T18:15:37.489-0500"
],
"iterateDefaultGroup_v60" : [
"2021-10-15T15:39:59.043-0500"
],
"iterateDefaultGroup_v61" : [
"2023-03-10T15:26:53.925-0600"
],
"iterateDefaultGroup_v62" : [
"2023-03-15T09:42:49.361-0500"
],
"iterateDefaultGroup_v63" : [
"2023-03-16T13:47:44.451-0500"
],
"iterateDefaultGroup_v64" : [
"2023-03-16T14:10:03.111-0500"
],
"iterateDefaultGroup_v65" : [
"2023-04-04T11:27:07.660-0500"
],
"iterateDefaultGroup_v66" : [
"2023-04-07T12:13:39.346-0500"
],
"iterateDefaultGroup_v67" : [
"2023-04-07T13:50:52.815-0500"
],
"iterateDefaultGroup_v68" : [
"2023-04-07T13:53:27.453-0500"
],
"iterateDefaultGroup_v69" : [
"2023-04-07T13:58:49.527-0500"
],
"iterateDefaultGroup_v70" : [
"2023-04-07T14:10:01.985-0500"
],
"iterateDefaultGroup_v71" : [
"2023-04-07T14:33:16.921-0500"
],
"iterateDefaultGroup_v72" : [
"2023-04-07T14:47:41.494-0500"
],
"iterateDefaultGroup_v73" : [
"2023-04-07T15:12:10.696-0500"
],
"iterateDefaultGroup_v74" : [
"2023-04-07T15:32:05.544-0500"
],
"iterateDefaultGroup_v75" : [
"2023-04-07T16:23:30.636-0500"
],
"iterateDefaultGroup_v76" : [
"2023-04-10T13:12:21.395-0500"
],
"iterateDefaultGroup_v77" : [
"2023-04-10T14:03:47.644-0500"
],
"iterateDefaultGroup_v78" : [
"2023-04-13T17:40:22.238-0500"
],
"iterateDefaultGroup_v79" : [
"2023-04-13T17:42:57.277-0500"
],
"iterateDefaultGroup_v80" : [
"2023-04-14T09:32:22.720-0500"
],
"iterateDefaultGroup_v81" : [
"2023-04-14T16:25:21.327-0500"
]
}
}