{
"document" : {
"data" : {
"NAME" : "TCP_DATA_RECEIVER_PRODUCER_TABLE",
"COMMENT" : "No comment.",
"AUTHOR" : "admin",
"CREATION_TIME" : 1678228607,
"COL_TYPES" : {
"PROCESSOR_UID" : "STRING",
"BUFFER_SIZE" : "NUMBER",
"SERVER_IP_ADDRESS" : "STRING",
"SERVER_PORT" : "NUMBER",
"DATA_TYPE" : "STRING",
"COMMENT_DESCRIPTION" : "STRING",
"AUTHOR" : "STRING",
"RECORD_INSERTION_TIME" : "TIMESTAMP WITH TIMEZONE"
},
"DATA_SET" : [
{
"PROCESSOR_UID" : "VBBurninBoxListener",
"BUFFER_SIZE" : "1000",
"SERVER_IP_ADDRESS" : "127.0.0.1",
"SERVER_PORT" : "50000",
"DATA_TYPE" : "Packet",
"COMMENT_DESCRIPTION" : "No Comment",
"AUTHOR" : "admin",
"RECORD_INSERTION_TIME" : "1678228597"
},
{
"PROCESSOR_UID" : "VBPowerSupplyListener",
"BUFFER_SIZE" : "1000",
"SERVER_IP_ADDRESS" : "127.0.0.1",
"SERVER_PORT" : "50001",
"DATA_TYPE" : "Packet",
"COMMENT_DESCRIPTION" : "No Comment",
"AUTHOR" : "admin",
"RECORD_INSERTION_TIME" : "1625087761"
},
{
"PROCESSOR_UID" : "VBTrackerListener",
"BUFFER_SIZE" : "1000",
"SERVER_IP_ADDRESS" : "127.0.0.1",
"SERVER_PORT" : "6000",
"DATA_TYPE" : "Raw",
"COMMENT_DESCRIPTION" : "No Comment",
"AUTHOR" : "admin",
"RECORD_INSERTION_TIME" : "1625864758"
}
]
},
"metadata" : {

},
"search" : [

]
},
"comments" : [

],
"origin" : {
"source" : "template",
"name" : "notprovided",
"format" : "json",
"created" : "2023-03-07T16:36:47.490-0600",
"rawdata" : [

]
},
"version" : "3",
"entities" : [
{
"name" : "OTSROOT",
"assigned" : "2023-03-07T16:36:47.491-0600"
}
],
"configurations" : [
{
"name" : "notprovided",
"assigned" : "2023-03-07T16:36:47.491-0600"
},
{
"name" : "BurninBoxConfiguration_v116",
"assigned" : "2023-03-07T16:36:51.533-0600"
},
{
"name" : "BurninBoxConfiguration_v117",
"assigned" : "2023-03-09T15:31:32.379-0600"
},
{
"name" : "BurninBoxConfiguration_v118",
"assigned" : "2023-03-15T12:03:56.625-0500"
},
{
"name" : "BurninBoxConfiguration_v119",
"assigned" : "2023-03-16T14:10:41.483-0500"
},
{
"name" : "BurninBoxConfiguration_v120",
"assigned" : "2023-04-04T11:18:54.759-0500"
},
{
"name" : "BurninBoxConfiguration_v121",
"assigned" : "2023-04-04T11:19:17.845-0500"
},
{
"name" : "BurninBoxConfiguration_v122",
"assigned" : "2023-04-04T11:23:01.435-0500"
}
],
"changelog" : "notprovided",
"bookkeeping" : {
"isdeleted" : false,
"isreadonly" : false,
"updates" : [
{
"event" : "addConfiguration",
"timestamp" : "2023-03-07T16:36:47.491-0600",
"value" : {
"name" : "notprovided",
"assigned" : "2023-03-07T16:36:47.491-0600"
}
},
{
"event" : "setVersion",
"timestamp" : "2023-03-07T16:36:47.491-0600",
"value" : {
"name" : "3",
"assigned" : "2023-03-07T16:36:47.491-0600"
}
},
{
"event" : "setCollection",
"timestamp" : "2023-03-07T16:36:47.491-0600",
"value" : {
"name" : "TCPDataReceiverProducerTable",
"assigned" : "2023-03-07T16:36:47.491-0600"
}
},
{
"event" : "addEntity",
"timestamp" : "2023-03-07T16:36:47.491-0600",
"value" : {
"name" : "OTSROOT",
"assigned" : "2023-03-07T16:36:47.491-0600"
}
},
{
"event" : "addConfiguration",
"timestamp" : "2023-03-07T16:36:51.533-0600",
"value" : {
"name" : "BurninBoxConfiguration_v116",
"assigned" : "2023-03-07T16:36:51.533-0600"
}
},
{
"event" : "addConfiguration",
"timestamp" : "2023-03-09T15:31:32.379-0600",
"value" : {
"name" : "BurninBoxConfiguration_v117",
"assigned" : "2023-03-09T15:31:32.379-0600"
}
},
{
"event" : "addConfiguration",
"timestamp" : "2023-03-15T12:03:56.625-0500",
"value" : {
"name" : "BurninBoxConfiguration_v118",
"assigned" : "2023-03-15T12:03:56.625-0500"
}
},
{
"event" : "addConfiguration",
"timestamp" : "2023-03-16T14:10:41.484-0500",
"value" : {
"name" : "BurninBoxConfiguration_v119",
"assigned" : "2023-03-16T14:10:41.483-0500"
}
},
{
"event" : "addConfiguration",
"timestamp" : "2023-04-04T11:18:54.759-0500",
"value" : {
"name" : "BurninBoxConfiguration_v120",
"assigned" : "2023-04-04T11:18:54.759-0500"
}
},
{
"event" : "addConfiguration",
"timestamp" : "2023-04-04T11:19:17.845-0500",
"value" : {
"name" : "BurninBoxConfiguration_v121",
"assigned" : "2023-04-04T11:19:17.845-0500"
}
},
{
"event" : "addConfiguration",
"timestamp" : "2023-04-04T11:23:01.435-0500",
"value" : {
"name" : "BurninBoxConfiguration_v122",
"assigned" : "2023-04-04T11:23:01.435-0500"
}
}
],
"created" : "2023-03-07T16:36:47.490-0600"
},
"_id" : {
"$oid" : "a22e543addbf483b873d3f8b"
},
"collection" : "TCPDataReceiverProducerTable",
"aliases" : {
"active" : [

],
"history" : [

]
},
"runs" : [

],
"attachments" : [

],
"configtype" : "notprovided"
}