{
"document" : {
"data" : {
"NAME" : "TCP_DATA_RECEIVER_PRODUCER_TABLE",
"COMMENT" : "No comment.",
"AUTHOR" : "admin",
"CREATION_TIME" : 1685632797,
"COL_TYPES" : {
"PROCESSOR_UID" : "STRING",
"BUFFER_SIZE" : "NUMBER",
"SERVER_IP_ADDRESS" : "STRING",
"SERVER_PORT" : "NUMBER",
"DATA_TYPE" : "STRING",
"COMMENT_DESCRIPTION" : "STRING",
"AUTHOR" : "STRING",
"RECORD_INSERTION_TIME" : "TIMESTAMP WITH TIMEZONE"
},
"DATA_SET" : [
{
"PROCESSOR_UID" : "VBBurninBoxListener",
"BUFFER_SIZE" : "1000",
"SERVER_IP_ADDRESS" : "127.0.0.1",
"SERVER_PORT" : "50000",
"DATA_TYPE" : "Packet",
"COMMENT_DESCRIPTION" : "No Comment",
"AUTHOR" : "admin",
"RECORD_INSERTION_TIME" : "1678228597"
},
{
"PROCESSOR_UID" : "VBPowerSupplyListener",
"BUFFER_SIZE" : "1000",
"SERVER_IP_ADDRESS" : "127.0.0.1",
"SERVER_PORT" : "50001",
"DATA_TYPE" : "Packet",
"COMMENT_DESCRIPTION" : "No Comment",
"AUTHOR" : "admin",
"RECORD_INSERTION_TIME" : "1625087761"
},
{
"PROCESSOR_UID" : "VBTrackerListener",
"BUFFER_SIZE" : "1000",
"SERVER_IP_ADDRESS" : "127.0.0.1",
"SERVER_PORT" : "6002",
"DATA_TYPE" : "Raw",
"COMMENT_DESCRIPTION" : "No Comment",
"AUTHOR" : "admin",
"RECORD_INSERTION_TIME" : "1685632790"
},
{
"PROCESSOR_UID" : "VBTrackerMonitorListener",
"BUFFER_SIZE" : "1000",
"SERVER_IP_ADDRESS" : "127.0.0.1",
"SERVER_PORT" : "8050",
"DATA_TYPE" : "Raw",
"COMMENT_DESCRIPTION" : "No Comment",
"AUTHOR" : "admin",
"RECORD_INSERTION_TIME" : "1680642238"
}
]
},
"metadata" : {

},
"search" : [

]
},
"comments" : [

],
"origin" : {
"source" : "template",
"name" : "notprovided",
"format" : "json",
"created" : "2023-06-01T10:19:57.926-0500",
"rawdata" : [

]
},
"version" : "6",
"entities" : [
{
"name" : "OTSROOT",
"assigned" : "2023-06-01T10:19:57.927-0500"
}
],
"configurations" : [
{
"name" : "notprovided",
"assigned" : "2023-06-01T10:19:57.927-0500"
},
{
"name" : "BurninBoxConfiguration_v159",
"assigned" : "2023-06-01T10:20:02.761-0500"
},
{
"name" : "BurninBoxConfiguration_v160",
"assigned" : "2023-06-01T10:23:59.156-0500"
}
],
"changelog" : "notprovided",
"bookkeeping" : {
"isdeleted" : false,
"isreadonly" : false,
"updates" : [
{
"event" : "addConfiguration",
"timestamp" : "2023-06-01T10:19:57.927-0500",
"value" : {
"name" : "notprovided",
"assigned" : "2023-06-01T10:19:57.927-0500"
}
},
{
"event" : "setVersion",
"timestamp" : "2023-06-01T10:19:57.927-0500",
"value" : {
"name" : "6",
"assigned" : "2023-06-01T10:19:57.927-0500"
}
},
{
"event" : "setCollection",
"timestamp" : "2023-06-01T10:19:57.927-0500",
"value" : {
"name" : "TCPDataReceiverProducerTable",
"assigned" : "2023-06-01T10:19:57.927-0500"
}
},
{
"event" : "addEntity",
"timestamp" : "2023-06-01T10:19:57.927-0500",
"value" : {
"name" : "OTSROOT",
"assigned" : "2023-06-01T10:19:57.927-0500"
}
},
{
"event" : "addConfiguration",
"timestamp" : "2023-06-01T10:20:02.761-0500",
"value" : {
"name" : "BurninBoxConfiguration_v159",
"assigned" : "2023-06-01T10:20:02.761-0500"
}
},
{
"event" : "addConfiguration",
"timestamp" : "2023-06-01T10:23:59.156-0500",
"value" : {
"name" : "BurninBoxConfiguration_v160",
"assigned" : "2023-06-01T10:23:59.156-0500"
}
}
],
"created" : "2023-06-01T10:19:57.926-0500"
},
"_id" : {
"$oid" : "b24f3e64117b4322bc16b379"
},
"collection" : "TCPDataReceiverProducerTable",
"aliases" : {
"active" : [

],
"history" : [

]
},
"runs" : [

],
"attachments" : [

],
"configtype" : "notprovided"
}