{
"document" : {
"data" : {
"NAME" : "UDP_DATA_STREAMER_CONSUMER_CONFIGURATION",
"COMMENT" : "No comment.",
"AUTHOR" : "uplegger",
"CREATION_TIME" : 1510768729,
"COL_TYPES" : {
"PROCESSOR_UID" : "VARCHAR2",
"HOST_IP_ADDRESS" : "VARCHAR2",
"HOST_PORT" : "NUMBER",
"STREAM_TO_IP_ADDRESS" : "VARCHAR2",
"STREAM_TO_PORT" : "NUMBER",
"COMMENT_DESCRIPTION" : "VARCHAR2",
"AUTHOR" : "VARCHAR2",
"RECORD_INSERTION_TIME" : "TIMESTAMP WITH TIMEZONE"
},
"DATA_SET" : [
{
"PROCESSOR_UID" : "UDPStreamer0",
"HOST_IP_ADDRESS" : "127.0.0.1",
"HOST_PORT" : "4100",
"STREAM_TO_IP_ADDRESS" : "127.0.0.1",
"STREAM_TO_PORT" : "4101",
"COMMENT_DESCRIPTION" : "No Comment",
"AUTHOR" : "admin",
"RECORD_INSERTION_TIME" : "1479826470"
},
{
"PROCESSOR_UID" : "UDPStreamer1",
"HOST_IP_ADDRESS" : "127.0.0.1",
"HOST_PORT" : "3000",
"STREAM_TO_IP_ADDRESS" : "127.0.0.1",
"STREAM_TO_PORT" : "3001",
"COMMENT_DESCRIPTION" : "No Comment",
"AUTHOR" : "DEFAULT",
"RECORD_INSERTION_TIME" : "0"
},
{
"PROCESSOR_UID" : "FSSR0_DB0_DataStreamer0",
"HOST_IP_ADDRESS" : "192.168.133.1",
"HOST_PORT" : "48000",
"STREAM_TO_IP_ADDRESS" : "192.168.133.1",
"STREAM_TO_PORT" : "50000",
"COMMENT_DESCRIPTION" : "Streaming to Visualizer",
"AUTHOR" : "admin",
"RECORD_INSERTION_TIME" : "1509723650"
},
{
"PROCESSOR_UID" : "FSSR1_DB0_DataStreamer0",
"HOST_IP_ADDRESS" : "192.168.133.1",
"HOST_PORT" : "48001",
"STREAM_TO_IP_ADDRESS" : "192.168.133.1",
"STREAM_TO_PORT" : "50000",
"COMMENT_DESCRIPTION" : "Streaming to Visualizer",
"AUTHOR" : "admin",
"RECORD_INSERTION_TIME" : "1509723650"
},
{
"PROCESSOR_UID" : "FSSR2_DB0_DataStreamer0",
"HOST_IP_ADDRESS" : "192.168.133.1",
"HOST_PORT" : "48002",
"STREAM_TO_IP_ADDRESS" : "192.168.133.1",
"STREAM_TO_PORT" : "50000",
"COMMENT_DESCRIPTION" : "Streaming to Visualizer",
"AUTHOR" : "admin",
"RECORD_INSERTION_TIME" : "1509723650"
},
{
"PROCESSOR_UID" : "FSSR3_DB0_DataStreamer0",
"HOST_IP_ADDRESS" : "192.168.133.1",
"HOST_PORT" : "48003",
"STREAM_TO_IP_ADDRESS" : "192.168.133.1",
"STREAM_TO_PORT" : "50000",
"COMMENT_DESCRIPTION" : "Streaming to Visualizer",
"AUTHOR" : "admin",
"RECORD_INSERTION_TIME" : "1509723650"
},
{
"PROCESSOR_UID" : "FSSR2_DB0_Streamer1",
"HOST_IP_ADDRESS" : "192.168.133.1",
"HOST_PORT" : "48012",
"STREAM_TO_IP_ADDRESS" : "192.168.133.1",
"STREAM_TO_PORT" : "49002",
"COMMENT_DESCRIPTION" : "Streaming to Artdaq",
"AUTHOR" : "uplegger",
"RECORD_INSERTION_TIME" : "1510768729"
}
]
},
"metadata" : {

},
"search" : [

]
},
"comments" : [

],
"origin" : {
"source" : "template",
"name" : "notprovided",
"format" : "json",
"created" : "2017-11-15T11:58:49.356-0600",
"rawdata" : [

]
},
"version" : "2",
"entities" : [
{
"name" : "OTSROOT",
"assigned" : "2017-11-15T11:58:49.358-0600"
}
],
"configurations" : [
{
"name" : "notprovided",
"assigned" : "2017-11-15T11:58:49.357-0600"
}
],
"changelog" : "notprovided",
"bookkeeping" : {
"isdeleted" : false,
"isreadonly" : false,
"updates" : [
{
"event" : "addConfiguration",
"timestamp" : "2017-11-15T11:58:49.357-0600",
"value" : {
"name" : "notprovided",
"assigned" : "2017-11-15T11:58:49.357-0600"
}
},
{
"event" : "setVersion",
"timestamp" : "2017-11-15T11:58:49.357-0600",
"value" : {
"name" : "2",
"assigned" : "2017-11-15T11:58:49.357-0600"
}
},
{
"event" : "setCollection",
"timestamp" : "2017-11-15T11:58:49.357-0600",
"value" : {
"name" : "UDPDataStreamerConsumerConfiguration",
"assigned" : "2017-11-15T11:58:49.357-0600"
}
},
{
"event" : "addEntity",
"timestamp" : "2017-11-15T11:58:49.358-0600",
"value" : {
"name" : "OTSROOT",
"assigned" : "2017-11-15T11:58:49.358-0600"
}
}
],
"created" : "2017-11-15T11:58:49.356-0600"
},
"_id" : {
"$oid" : "1f3f7e7f3744419e8fff9ae2"
},
"collection" : "UDPDataStreamerConsumerConfiguration",
"aliases" : {
"active" : [

],
"history" : [

]
},
"runs" : [

],
"attachments" : [

],
"configtype" : "notprovided"
}