{
"document" : {
"data" : {
"NAME" : "UDP_DATA_STREAMER_CONSUMER_CONFIGURATION",
"COMMENT" : "No comment.",
"AUTHOR" : "uplegger",
"CREATION_TIME" : 1510961201,
"COL_TYPES" : {
"PROCESSOR_UID" : "VARCHAR2",
"HOST_IP_ADDRESS" : "VARCHAR2",
"HOST_PORT" : "NUMBER",
"STREAM_TO_IP_ADDRESS" : "VARCHAR2",
"STREAM_TO_PORT" : "NUMBER",
"COMMENT_DESCRIPTION" : "VARCHAR2",
"AUTHOR" : "VARCHAR2",
"RECORD_INSERTION_TIME" : "TIMESTAMP WITH TIMEZONE"
},
"DATA_SET" : [
{
"PROCESSOR_UID" : "UDPStreamer0",
"HOST_IP_ADDRESS" : "127.0.0.1",
"HOST_PORT" : "4100",
"STREAM_TO_IP_ADDRESS" : "127.0.0.1",
"STREAM_TO_PORT" : "4101",
"COMMENT_DESCRIPTION" : "No Comment",
"AUTHOR" : "uplegger",
"RECORD_INSERTION_TIME" : "1510768494"
},
{
"PROCESSOR_UID" : "UDPStreamer1",
"HOST_IP_ADDRESS" : "127.0.0.1",
"HOST_PORT" : "3000",
"STREAM_TO_IP_ADDRESS" : "127.0.0.1",
"STREAM_TO_PORT" : "3001",
"COMMENT_DESCRIPTION" : "No Comment",
"AUTHOR" : "DEFAULT",
"RECORD_INSERTION_TIME" : "0"
},
{
"PROCESSOR_UID" : "FSSR0_DB0_DataStreamer0",
"HOST_IP_ADDRESS" : "192.168.133.1",
"HOST_PORT" : "48000",
"STREAM_TO_IP_ADDRESS" : "192.168.133.1",
"STREAM_TO_PORT" : "50000",
"COMMENT_DESCRIPTION" : "Streaming to Visualizer",
"AUTHOR" : "admin",
"RECORD_INSERTION_TIME" : "1509723650"
},
{
"PROCESSOR_UID" : "FSSR1_DB0_DataStreamer0",
"HOST_IP_ADDRESS" : "192.168.133.1",
"HOST_PORT" : "48001",
"STREAM_TO_IP_ADDRESS" : "192.168.133.1",
"STREAM_TO_PORT" : "50000",
"COMMENT_DESCRIPTION" : "Streaming to Visualizer",
"AUTHOR" : "admin",
"RECORD_INSERTION_TIME" : "1509723650"
},
{
"PROCESSOR_UID" : "FSSR2_DB0_DataStreamer0",
"HOST_IP_ADDRESS" : "192.168.133.1",
"HOST_PORT" : "48002",
"STREAM_TO_IP_ADDRESS" : "192.168.133.1",
"STREAM_TO_PORT" : "50000",
"COMMENT_DESCRIPTION" : "Streaming to Visualizer",
"AUTHOR" : "admin",
"RECORD_INSERTION_TIME" : "1509723650"
},
{
"PROCESSOR_UID" : "FSSR3_DB0_DataStreamer0",
"HOST_IP_ADDRESS" : "192.168.133.1",
"HOST_PORT" : "48003",
"STREAM_TO_IP_ADDRESS" : "192.168.133.1",
"STREAM_TO_PORT" : "50000",
"COMMENT_DESCRIPTION" : "Streaming to Visualizer",
"AUTHOR" : "admin",
"RECORD_INSERTION_TIME" : "1509723650"
},
{
"PROCESSOR_UID" : "FSSR2_DB0_DataStreamer1",
"HOST_IP_ADDRESS" : "192.168.133.1",
"HOST_PORT" : "48012",
"STREAM_TO_IP_ADDRESS" : "192.168.133.1",
"STREAM_TO_PORT" : "49002",
"COMMENT_DESCRIPTION" : "Streaming to Artdaq",
"AUTHOR" : "uplegger",
"RECORD_INSERTION_TIME" : "1510961195"
}
]
},
"metadata" : {

},
"search" : [

]
},
"comments" : [

],
"origin" : {
"source" : "template",
"name" : "notprovided",
"format" : "json",
"created" : "2017-11-17T17:26:41.677-0600",
"rawdata" : [

]
},
"version" : "5",
"entities" : [
{
"name" : "OTSROOT",
"assigned" : "2017-11-17T17:26:41.679-0600"
}
],
"configurations" : [
{
"name" : "notprovided",
"assigned" : "2017-11-17T17:26:41.678-0600"
},
{
"name" : "FTBFConfig_v23",
"assigned" : "2017-11-17T17:26:47.457-0600"
},
{
"name" : "FTBFConfig_v24",
"assigned" : "2017-11-17T17:58:28.028-0600"
},
{
"name" : "FTBFConfig_v25",
"assigned" : "2017-11-17T18:24:47.727-0600"
},
{
"name" : "FTBFConfig_v26",
"assigned" : "2017-11-17T18:32:25.963-0600"
},
{
"name" : "FTBFConfig_v27",
"assigned" : "2017-11-17T18:43:33.166-0600"
},
{
"name" : "FTBFConfig_v28",
"assigned" : "2017-11-17T18:48:35.224-0600"
},
{
"name" : "FTBFConfig_v29",
"assigned" : "2017-11-20T14:48:33.201-0600"
},
{
"name" : "FTBFConfig_v30",
"assigned" : "2017-11-20T15:39:58.229-0600"
},
{
"name" : "FTBFConfig_v31",
"assigned" : "2017-11-20T16:41:04.258-0600"
},
{
"name" : "FTBFConfig_v32",
"assigned" : "2017-11-20T18:55:37.223-0600"
},
{
"name" : "FTBFConfig_v33",
"assigned" : "2017-11-20T18:57:32.596-0600"
},
{
"name" : "FTBFConfig_v34",
"assigned" : "2017-11-29T17:50:42.035-0600"
},
{
"name" : "FTBFConfig_v35",
"assigned" : "2017-11-29T18:00:35.130-0600"
},
{
"name" : "FTBFConfig_v36",
"assigned" : "2017-11-29T18:35:13.714-0600"
},
{
"name" : "FTBFConfig_v37",
"assigned" : "2017-12-01T09:36:20.709-0600"
},
{
"name" : "FTBFConfig_v38",
"assigned" : "2017-12-01T09:52:03.582-0600"
},
{
"name" : "FTBFConfig_v39",
"assigned" : "2017-12-01T11:52:00.847-0600"
},
{
"name" : "FTBFConfig_v40",
"assigned" : "2017-12-01T12:18:23.013-0600"
},
{
"name" : "FTBFConfig_v41",
"assigned" : "2017-12-01T12:21:04.961-0600"
},
{
"name" : "FTBFConfig_v42",
"assigned" : "2017-12-01T12:43:24.480-0600"
},
{
"name" : "FTBFConfig_v43",
"assigned" : "2017-12-01T12:58:02.488-0600"
},
{
"name" : "FTBFConfig_v44",
"assigned" : "2017-12-01T13:00:54.953-0600"
},
{
"name" : "FTBFConfig_v45",
"assigned" : "2017-12-01T13:25:51.619-0600"
},
{
"name" : "FTBFConfig_v46",
"assigned" : "2017-12-01T13:35:46.402-0600"
},
{
"name" : "FTBFConfig_v47",
"assigned" : "2017-12-01T14:00:54.509-0600"
},
{
"name" : "FTBFConfig_v48",
"assigned" : "2017-12-01T14:04:01.876-0600"
},
{
"name" : "FTBFConfig_v49",
"assigned" : "2017-12-01T15:32:02.061-0600"
},
{
"name" : "FTBFConfig_v52",
"assigned" : "2017-12-01T15:37:35.731-0600"
},
{
"name" : "FTBFConfig_v53",
"assigned" : "2017-12-01T15:41:01.591-0600"
},
{
"name" : "FTBFConfig_v54",
"assigned" : "2017-12-01T15:52:51.889-0600"
},
{
"name" : "FTBFConfig_v55",
"assigned" : "2017-12-01T15:54:37.118-0600"
},
{
"name" : "FTBFConfig_v56",
"assigned" : "2017-12-01T15:55:36.683-0600"
},
{
"name" : "FTBFConfig_v57",
"assigned" : "2017-12-01T15:56:42.585-0600"
},
{
"name" : "FTBFConfig_v58",
"assigned" : "2017-12-01T15:57:40.692-0600"
},
{
"name" : "FTBFConfig_v59",
"assigned" : "2017-12-01T15:58:32.501-0600"
},
{
"name" : "FTBFConfig_v60",
"assigned" : "2017-12-01T15:59:33.774-0600"
},
{
"name" : "FTBFConfig_v61",
"assigned" : "2017-12-01T16:19:43.649-0600"
},
{
"name" : "FTBFConfig_v62",
"assigned" : "2017-12-01T16:22:06.079-0600"
},
{
"name" : "FTBFConfig_v63",
"assigned" : "2017-12-01T16:31:26.749-0600"
},
{
"name" : "FTBFConfig_v64",
"assigned" : "2017-12-01T17:06:34.124-0600"
},
{
"name" : "FTBFConfig_v65",
"assigned" : "2017-12-01T17:32:46.309-0600"
},
{
"name" : "FTBFConfig_v66",
"assigned" : "2017-12-01T20:38:52.784-0600"
},
{
"name" : "FTBFConfig_v67",
"assigned" : "2017-12-01T21:25:04.035-0600"
},
{
"name" : "FTBFConfig_v68",
"assigned" : "2017-12-01T21:43:03.775-0600"
},
{
"name" : "FTBFConfig_v69",
"assigned" : "2017-12-01T21:45:02.371-0600"
},
{
"name" : "FTBFConfig_v70",
"assigned" : "2017-12-01T21:59:21.686-0600"
},
{
"name" : "FTBFConfigNim_v0",
"assigned" : "2017-12-01T22:00:08.424-0600"
},
{
"name" : "FTBFConfigNim_v1",
"assigned" : "2017-12-01T22:13:10.299-0600"
},
{
"name" : "FTBFConfigNim_v2",
"assigned" : "2017-12-01T22:15:57.443-0600"
},
{
"name" : "FTBFConfigNim_v3",
"assigned" : "2017-12-01T22:17:06.023-0600"
},
{
"name" : "FTBFConfigNim_v4",
"assigned" : "2017-12-01T22:19:08.551-0600"
},
{
"name" : "FTBFConfigNim_v5",
"assigned" : "2017-12-01T22:21:59.366-0600"
},
{
"name" : "FTBFConfigNim_v6",
"assigned" : "2017-12-01T22:23:17.869-0600"
},
{
"name" : "FTBFConfigNim_v7",
"assigned" : "2017-12-01T22:25:19.384-0600"
},
{
"name" : "FTBFConfigNim_v8",
"assigned" : "2017-12-01T22:27:07.067-0600"
},
{
"name" : "FTBFConfigNim_v9",
"assigned" : "2017-12-01T22:29:31.344-0600"
},
{
"name" : "FTBFConfigNim_v10",
"assigned" : "2017-12-01T22:52:36.716-0600"
},
{
"name" : "FTBFConfigNim_v11",
"assigned" : "2017-12-01T22:57:31.242-0600"
},
{
"name" : "FTBFConfigNim_v12",
"assigned" : "2017-12-01T23:00:09.442-0600"
},
{
"name" : "FTBFConfigNim_v13",
"assigned" : "2017-12-01T23:52:37.571-0600"
},
{
"name" : "FTBFConfigNim_v14",
"assigned" : "2017-12-01T23:58:12.061-0600"
},
{
"name" : "FTBFConfigNim_v15",
"assigned" : "2017-12-02T00:00:36.271-0600"
},
{
"name" : "FTBFConfigNim_v16",
"assigned" : "2017-12-02T00:13:11.516-0600"
},
{
"name" : "FTBFConfigNim_v17",
"assigned" : "2017-12-02T00:28:30.409-0600"
},
{
"name" : "FTBFConfigNim_v18",
"assigned" : "2017-12-02T00:29:36.502-0600"
},
{
"name" : "FTBFConfigNim_v19",
"assigned" : "2017-12-02T00:31:15.850-0600"
},
{
"name" : "FTBFConfigNim_v20",
"assigned" : "2017-12-02T00:57:29.563-0600"
},
{
"name" : "FTBFConfigNim_v21",
"assigned" : "2017-12-02T10:58:04.139-0600"
},
{
"name" : "FTBFConfigNim_v22",
"assigned" : "2017-12-02T11:08:20.312-0600"
},
{
"name" : "FTBFConfigNim_v23",
"assigned" : "2017-12-02T11:12:41.955-0600"
},
{
"name" : "FTBFConfigNim_v24",
"assigned" : "2017-12-02T11:18:44.850-0600"
},
{
"name" : "FTBFConfigNim_v25",
"assigned" : "2017-12-02T11:27:08.063-0600"
},
{
"name" : "FTBFConfigNim_v26",
"assigned" : "2017-12-02T11:38:39.175-0600"
},
{
"name" : "FTBFConfigNim_v27",
"assigned" : "2017-12-02T11:49:10.380-0600"
},
{
"name" : "FTBFConfigNim_v28",
"assigned" : "2017-12-02T11:55:11.912-0600"
},
{
"name" : "FTBFConfigNim_v29",
"assigned" : "2017-12-02T12:06:28.766-0600"
},
{
"name" : "FTBFConfig_v71",
"assigned" : "2017-12-02T12:24:17.345-0600"
},
{
"name" : "FTBFConfig_v72",
"assigned" : "2017-12-02T12:43:38.265-0600"
},
{
"name" : "FTBFConfig_v73",
"assigned" : "2017-12-02T13:55:37.968-0600"
},
{
"name" : "FTBFConfig_v75",
"assigned" : "2017-12-02T14:12:21.157-0600"
},
{
"name" : "FTBFConfig_v76",
"assigned" : "2017-12-02T19:05:56.157-0600"
},
{
"name" : "FTBFConfig_v77",
"assigned" : "2017-12-02T19:12:16.010-0600"
},
{
"name" : "FTBFConfig_v78",
"assigned" : "2017-12-03T14:03:51.144-0600"
},
{
"name" : "FTBFConfig_v79",
"assigned" : "2017-12-03T14:09:09.477-0600"
},
{
"name" : "FTBFConfig_v80",
"assigned" : "2017-12-03T14:11:13.249-0600"
},
{
"name" : "FTBFConfig_v81",
"assigned" : "2017-12-03T14:22:36.256-0600"
},
{
"name" : "FTBFConfig_v82",
"assigned" : "2017-12-03T14:40:41.104-0600"
},
{
"name" : "FTBFConfig_v83",
"assigned" : "2017-12-03T14:45:08.466-0600"
},
{
"name" : "FTBFConfig_v84",
"assigned" : "2017-12-04T14:51:33.691-0600"
},
{
"name" : "FTBFConfig_v85",
"assigned" : "2017-12-04T14:55:46.927-0600"
},
{
"name" : "FTBFConfig_v86",
"assigned" : "2017-12-04T16:51:10.007-0600"
},
{
"name" : "FTBFConfig_v87",
"assigned" : "2017-12-04T16:56:50.649-0600"
},
{
"name" : "FTBFConfig_v88",
"assigned" : "2017-12-04T17:01:15.436-0600"
},
{
"name" : "FTBFConfig_v89",
"assigned" : "2017-12-04T17:04:00.559-0600"
},
{
"name" : "FTBFConfig_v90",
"assigned" : "2017-12-04T17:07:20.295-0600"
},
{
"name" : "FTBFConfig_v91",
"assigned" : "2017-12-04T17:09:29.391-0600"
},
{
"name" : "FTBFConfig_v92",
"assigned" : "2017-12-04T17:11:41.915-0600"
},
{
"name" : "FTBFConfig_v93",
"assigned" : "2017-12-04T21:05:24.410-0600"
},
{
"name" : "FTBFConfig_v94",
"assigned" : "2017-12-04T21:17:15.478-0600"
},
{
"name" : "FTBFConfig_v95",
"assigned" : "2017-12-04T21:41:21.081-0600"
},
{
"name" : "FTBFConfig_v96",
"assigned" : "2017-12-04T22:39:05.746-0600"
},
{
"name" : "FTBFConfig_v97",
"assigned" : "2017-12-04T23:01:16.295-0600"
},
{
"name" : "FTBFConfig_v98",
"assigned" : "2017-12-07T11:07:50.239-0600"
},
{
"name" : "FTBFConfig_v99",
"assigned" : "2017-12-07T11:50:02.927-0600"
},
{
"name" : "FTBFConfig_v100",
"assigned" : "2017-12-07T11:58:29.661-0600"
},
{
"name" : "FTBFConfig_v101",
"assigned" : "2017-12-08T13:30:51.849-0600"
},
{
"name" : "FTBFConfig_v102",
"assigned" : "2017-12-08T13:32:38.758-0600"
},
{
"name" : "FTBFConfig_v103",
"assigned" : "2017-12-12T11:03:08.598-0600"
},
{
"name" : "FTBFConfig_v104",
"assigned" : "2017-12-12T13:51:03.211-0600"
},
{
"name" : "FTBFConfig_v105",
"assigned" : "2017-12-12T15:25:09.186-0600"
},
{
"name" : "FTBFConfig_v106",
"assigned" : "2017-12-13T10:24:27.464-0600"
},
{
"name" : "FTBFConfig_v107",
"assigned" : "2017-12-13T10:27:06.125-0600"
},
{
"name" : "FTBFConfig_v108",
"assigned" : "2018-02-01T21:14:29.970-0600"
},
{
"name" : "FTBFConfig_v109",
"assigned" : "2018-02-01T21:21:07.108-0600"
},
{
"name" : "FTBFConfig_v110",
"assigned" : "2018-02-02T11:25:38.151-0600"
},
{
"name" : "FTBFConfig_v111",
"assigned" : "2018-02-02T11:37:16.960-0600"
},
{
"name" : "FTBFConfig_v112",
"assigned" : "2018-02-02T11:47:19.483-0600"
},
{
"name" : "FTBFConfig_v113",
"assigned" : "2018-02-02T11:53:40.721-0600"
},
{
"name" : "FTBFConfig_v114",
"assigned" : "2018-02-02T12:00:56.902-0600"
},
{
"name" : "FTBFConfig_v115",
"assigned" : "2018-02-02T12:27:18.321-0600"
},
{
"name" : "FTBFConfig_v116",
"assigned" : "2018-02-02T14:28:57.865-0600"
},
{
"name" : "FTBFConfig_v117",
"assigned" : "2018-02-02T14:30:24.233-0600"
},
{
"name" : "FTBFConfig_v118",
"assigned" : "2018-02-02T14:34:05.486-0600"
},
{
"name" : "FTBFConfig_v119",
"assigned" : "2018-02-02T14:36:32.092-0600"
},
{
"name" : "FTBFConfig_v120",
"assigned" : "2018-02-02T14:38:45.515-0600"
},
{
"name" : "FTBFConfig_v121",
"assigned" : "2018-02-02T14:41:54.835-0600"
},
{
"name" : "FTBFConfig_v122",
"assigned" : "2018-02-02T14:50:28.886-0600"
},
{
"name" : "FTBFConfig_v123",
"assigned" : "2018-02-02T14:53:01.783-0600"
},
{
"name" : "FTBFConfig_v124",
"assigned" : "2018-02-02T14:59:55.095-0600"
},
{
"name" : "FTBFConfig_v125",
"assigned" : "2018-02-02T15:04:13.230-0600"
},
{
"name" : "FTBFConfig_v126",
"assigned" : "2018-02-02T15:50:16.561-0600"
},
{
"name" : "FTBFConfig_v127",
"assigned" : "2018-02-02T15:51:36.022-0600"
},
{
"name" : "FTBFConfig_v128",
"assigned" : "2018-02-02T15:52:41.139-0600"
},
{
"name" : "FTBFConfig_v129",
"assigned" : "2018-02-02T16:02:50.134-0600"
},
{
"name" : "FTBFConfig_v130",
"assigned" : "2018-02-02T16:08:49.657-0600"
},
{
"name" : "FTBFConfig_v131",
"assigned" : "2018-02-02T16:11:35.514-0600"
},
{
"name" : "FTBFConfig_v132",
"assigned" : "2018-02-02T16:13:03.396-0600"
},
{
"name" : "FTBFConfig_v133",
"assigned" : "2018-02-02T16:14:34.062-0600"
},
{
"name" : "FTBFConfig_v134",
"assigned" : "2018-02-02T16:26:26.962-0600"
},
{
"name" : "FTBFConfig_v135",
"assigned" : "2018-02-02T16:27:14.053-0600"
},
{
"name" : "FTBFConfig_v136",
"assigned" : "2018-02-02T16:29:35.416-0600"
},
{
"name" : "FTBFConfig_v137",
"assigned" : "2018-02-02T16:31:46.087-0600"
},
{
"name" : "FTBFConfig_v138",
"assigned" : "2018-02-02T16:34:18.741-0600"
},
{
"name" : "FTBFConfig_v139",
"assigned" : "2018-02-02T17:39:34.814-0600"
},
{
"name" : "FTBFConfig_v140",
"assigned" : "2018-02-02T17:42:57.034-0600"
},
{
"name" : "FTBFConfig_v141",
"assigned" : "2018-02-02T17:47:42.236-0600"
},
{
"name" : "FTBFConfig_v142",
"assigned" : "2018-02-02T17:54:06.249-0600"
}
],
"changelog" : "notprovided",
"bookkeeping" : {
"isdeleted" : false,
"isreadonly" : false,
"updates" : [
{
"event" : "addConfiguration",
"timestamp" : "2017-11-17T17:26:41.678-0600",
"value" : {
"name" : "notprovided",
"assigned" : "2017-11-17T17:26:41.678-0600"
}
},
{
"event" : "setVersion",
"timestamp" : "2017-11-17T17:26:41.678-0600",
"value" : {
"name" : "5",
"assigned" : "2017-11-17T17:26:41.678-0600"
}
},
{
"event" : "setCollection",
"timestamp" : "2017-11-17T17:26:41.679-0600",
"value" : {
"name" : "UDPDataStreamerConsumerConfiguration",
"assigned" : "2017-11-17T17:26:41.679-0600"
}
},
{
"event" : "addEntity",
"timestamp" : "2017-11-17T17:26:41.679-0600",
"value" : {
"name" : "OTSROOT",
"assigned" : "2017-11-17T17:26:41.679-0600"
}
},
{
"event" : "addConfiguration",
"timestamp" : "2017-11-17T17:26:47.457-0600",
"value" : {
"name" : "FTBFConfig_v23",
"assigned" : "2017-11-17T17:26:47.457-0600"
}
},
{
"event" : "addConfiguration",
"timestamp" : "2017-11-17T17:58:28.028-0600",
"value" : {
"name" : "FTBFConfig_v24",
"assigned" : "2017-11-17T17:58:28.028-0600"
}
},
{
"event" : "addConfiguration",
"timestamp" : "2017-11-17T18:24:47.727-0600",
"value" : {
"name" : "FTBFConfig_v25",
"assigned" : "2017-11-17T18:24:47.727-0600"
}
},
{
"event" : "addConfiguration",
"timestamp" : "2017-11-17T18:32:25.963-0600",
"value" : {
"name" : "FTBFConfig_v26",
"assigned" : "2017-11-17T18:32:25.963-0600"
}
},
{
"event" : "addConfiguration",
"timestamp" : "2017-11-17T18:43:33.166-0600",
"value" : {
"name" : "FTBFConfig_v27",
"assigned" : "2017-11-17T18:43:33.166-0600"
}
},
{
"event" : "addConfiguration",
"timestamp" : "2017-11-17T18:48:35.224-0600",
"value" : {
"name" : "FTBFConfig_v28",
"assigned" : "2017-11-17T18:48:35.224-0600"
}
},
{
"event" : "addConfiguration",
"timestamp" : "2017-11-20T14:48:33.202-0600",
"value" : {
"name" : "FTBFConfig_v29",
"assigned" : "2017-11-20T14:48:33.201-0600"
}
},
{
"event" : "addConfiguration",
"timestamp" : "2017-11-20T15:39:58.230-0600",
"value" : {
"name" : "FTBFConfig_v30",
"assigned" : "2017-11-20T15:39:58.229-0600"
}
},
{
"event" : "addConfiguration",
"timestamp" : "2017-11-20T16:41:04.258-0600",
"value" : {
"name" : "FTBFConfig_v31",
"assigned" : "2017-11-20T16:41:04.258-0600"
}
},
{
"event" : "addConfiguration",
"timestamp" : "2017-11-20T18:55:37.223-0600",
"value" : {
"name" : "FTBFConfig_v32",
"assigned" : "2017-11-20T18:55:37.223-0600"
}
},
{
"event" : "addConfiguration",
"timestamp" : "2017-11-20T18:57:32.596-0600",
"value" : {
"name" : "FTBFConfig_v33",
"assigned" : "2017-11-20T18:57:32.596-0600"
}
},
{
"event" : "addConfiguration",
"timestamp" : "2017-11-29T17:50:42.035-0600",
"value" : {
"name" : "FTBFConfig_v34",
"assigned" : "2017-11-29T17:50:42.035-0600"
}
},
{
"event" : "addConfiguration",
"timestamp" : "2017-11-29T18:00:35.130-0600",
"value" : {
"name" : "FTBFConfig_v35",
"assigned" : "2017-11-29T18:00:35.130-0600"
}
},
{
"event" : "addConfiguration",
"timestamp" : "2017-11-29T18:35:13.714-0600",
"value" : {
"name" : "FTBFConfig_v36",
"assigned" : "2017-11-29T18:35:13.714-0600"
}
},
{
"event" : "addConfiguration",
"timestamp" : "2017-12-01T09:36:20.709-0600",
"value" : {
"name" : "FTBFConfig_v37",
"assigned" : "2017-12-01T09:36:20.709-0600"
}
},
{
"event" : "addConfiguration",
"timestamp" : "2017-12-01T09:52:03.582-0600",
"value" : {
"name" : "FTBFConfig_v38",
"assigned" : "2017-12-01T09:52:03.582-0600"
}
},
{
"event" : "addConfiguration",
"timestamp" : "2017-12-01T11:52:00.847-0600",
"value" : {
"name" : "FTBFConfig_v39",
"assigned" : "2017-12-01T11:52:00.847-0600"
}
},
{
"event" : "addConfiguration",
"timestamp" : "2017-12-01T12:18:23.013-0600",
"value" : {
"name" : "FTBFConfig_v40",
"assigned" : "2017-12-01T12:18:23.013-0600"
}
},
{
"event" : "addConfiguration",
"timestamp" : "2017-12-01T12:21:04.961-0600",
"value" : {
"name" : "FTBFConfig_v41",
"assigned" : "2017-12-01T12:21:04.961-0600"
}
},
{
"event" : "addConfiguration",
"timestamp" : "2017-12-01T12:43:24.480-0600",
"value" : {
"name" : "FTBFConfig_v42",
"assigned" : "2017-12-01T12:43:24.480-0600"
}
},
{
"event" : "addConfiguration",
"timestamp" : "2017-12-01T12:58:02.488-0600",
"value" : {
"name" : "FTBFConfig_v43",
"assigned" : "2017-12-01T12:58:02.488-0600"
}
},
{
"event" : "addConfiguration",
"timestamp" : "2017-12-01T13:00:54.953-0600",
"value" : {
"name" : "FTBFConfig_v44",
"assigned" : "2017-12-01T13:00:54.953-0600"
}
},
{
"event" : "addConfiguration",
"timestamp" : "2017-12-01T13:25:51.619-0600",
"value" : {
"name" : "FTBFConfig_v45",
"assigned" : "2017-12-01T13:25:51.619-0600"
}
},
{
"event" : "addConfiguration",
"timestamp" : "2017-12-01T13:35:46.402-0600",
"value" : {
"name" : "FTBFConfig_v46",
"assigned" : "2017-12-01T13:35:46.402-0600"
}
},
{
"event" : "addConfiguration",
"timestamp" : "2017-12-01T14:00:54.509-0600",
"value" : {
"name" : "FTBFConfig_v47",
"assigned" : "2017-12-01T14:00:54.509-0600"
}
},
{
"event" : "addConfiguration",
"timestamp" : "2017-12-01T14:04:01.876-0600",
"value" : {
"name" : "FTBFConfig_v48",
"assigned" : "2017-12-01T14:04:01.876-0600"
}
},
{
"event" : "addConfiguration",
"timestamp" : "2017-12-01T15:32:02.061-0600",
"value" : {
"name" : "FTBFConfig_v49",
"assigned" : "2017-12-01T15:32:02.061-0600"
}
},
{
"event" : "addConfiguration",
"timestamp" : "2017-12-01T15:37:35.731-0600",
"value" : {
"name" : "FTBFConfig_v52",
"assigned" : "2017-12-01T15:37:35.731-0600"
}
},
{
"event" : "addConfiguration",
"timestamp" : "2017-12-01T15:41:01.591-0600",
"value" : {
"name" : "FTBFConfig_v53",
"assigned" : "2017-12-01T15:41:01.591-0600"
}
},
{
"event" : "addConfiguration",
"timestamp" : "2017-12-01T15:52:51.889-0600",
"value" : {
"name" : "FTBFConfig_v54",
"assigned" : "2017-12-01T15:52:51.889-0600"
}
},
{
"event" : "addConfiguration",
"timestamp" : "2017-12-01T15:54:37.118-0600",
"value" : {
"name" : "FTBFConfig_v55",
"assigned" : "2017-12-01T15:54:37.118-0600"
}
},
{
"event" : "addConfiguration",
"timestamp" : "2017-12-01T15:55:36.683-0600",
"value" : {
"name" : "FTBFConfig_v56",
"assigned" : "2017-12-01T15:55:36.683-0600"
}
},
{
"event" : "addConfiguration",
"timestamp" : "2017-12-01T15:56:42.585-0600",
"value" : {
"name" : "FTBFConfig_v57",
"assigned" : "2017-12-01T15:56:42.585-0600"
}
},
{
"event" : "addConfiguration",
"timestamp" : "2017-12-01T15:57:40.692-0600",
"value" : {
"name" : "FTBFConfig_v58",
"assigned" : "2017-12-01T15:57:40.692-0600"
}
},
{
"event" : "addConfiguration",
"timestamp" : "2017-12-01T15:58:32.501-0600",
"value" : {
"name" : "FTBFConfig_v59",
"assigned" : "2017-12-01T15:58:32.501-0600"
}
},
{
"event" : "addConfiguration",
"timestamp" : "2017-12-01T15:59:33.774-0600",
"value" : {
"name" : "FTBFConfig_v60",
"assigned" : "2017-12-01T15:59:33.774-0600"
}
},
{
"event" : "addConfiguration",
"timestamp" : "2017-12-01T16:19:43.649-0600",
"value" : {
"name" : "FTBFConfig_v61",
"assigned" : "2017-12-01T16:19:43.649-0600"
}
},
{
"event" : "addConfiguration",
"timestamp" : "2017-12-01T16:22:06.079-0600",
"value" : {
"name" : "FTBFConfig_v62",
"assigned" : "2017-12-01T16:22:06.079-0600"
}
},
{
"event" : "addConfiguration",
"timestamp" : "2017-12-01T16:31:26.749-0600",
"value" : {
"name" : "FTBFConfig_v63",
"assigned" : "2017-12-01T16:31:26.749-0600"
}
},
{
"event" : "addConfiguration",
"timestamp" : "2017-12-01T17:06:34.124-0600",
"value" : {
"name" : "FTBFConfig_v64",
"assigned" : "2017-12-01T17:06:34.124-0600"
}
},
{
"event" : "addConfiguration",
"timestamp" : "2017-12-01T17:32:46.309-0600",
"value" : {
"name" : "FTBFConfig_v65",
"assigned" : "2017-12-01T17:32:46.309-0600"
}
},
{
"event" : "addConfiguration",
"timestamp" : "2017-12-01T20:38:52.784-0600",
"value" : {
"name" : "FTBFConfig_v66",
"assigned" : "2017-12-01T20:38:52.784-0600"
}
},
{
"event" : "addConfiguration",
"timestamp" : "2017-12-01T21:25:04.035-0600",
"value" : {
"name" : "FTBFConfig_v67",
"assigned" : "2017-12-01T21:25:04.035-0600"
}
},
{
"event" : "addConfiguration",
"timestamp" : "2017-12-01T21:43:03.775-0600",
"value" : {
"name" : "FTBFConfig_v68",
"assigned" : "2017-12-01T21:43:03.775-0600"
}
},
{
"event" : "addConfiguration",
"timestamp" : "2017-12-01T21:45:02.372-0600",
"value" : {
"name" : "FTBFConfig_v69",
"assigned" : "2017-12-01T21:45:02.371-0600"
}
},
{
"event" : "addConfiguration",
"timestamp" : "2017-12-01T21:59:21.686-0600",
"value" : {
"name" : "FTBFConfig_v70",
"assigned" : "2017-12-01T21:59:21.686-0600"
}
},
{
"event" : "addConfiguration",
"timestamp" : "2017-12-01T22:00:08.424-0600",
"value" : {
"name" : "FTBFConfigNim_v0",
"assigned" : "2017-12-01T22:00:08.424-0600"
}
},
{
"event" : "addConfiguration",
"timestamp" : "2017-12-01T22:13:10.300-0600",
"value" : {
"name" : "FTBFConfigNim_v1",
"assigned" : "2017-12-01T22:13:10.299-0600"
}
},
{
"event" : "addConfiguration",
"timestamp" : "2017-12-01T22:15:57.443-0600",
"value" : {
"name" : "FTBFConfigNim_v2",
"assigned" : "2017-12-01T22:15:57.443-0600"
}
},
{
"event" : "addConfiguration",
"timestamp" : "2017-12-01T22:17:06.023-0600",
"value" : {
"name" : "FTBFConfigNim_v3",
"assigned" : "2017-12-01T22:17:06.023-0600"
}
},
{
"event" : "addConfiguration",
"timestamp" : "2017-12-01T22:19:08.551-0600",
"value" : {
"name" : "FTBFConfigNim_v4",
"assigned" : "2017-12-01T22:19:08.551-0600"
}
},
{
"event" : "addConfiguration",
"timestamp" : "2017-12-01T22:21:59.366-0600",
"value" : {
"name" : "FTBFConfigNim_v5",
"assigned" : "2017-12-01T22:21:59.366-0600"
}
},
{
"event" : "addConfiguration",
"timestamp" : "2017-12-01T22:23:17.869-0600",
"value" : {
"name" : "FTBFConfigNim_v6",
"assigned" : "2017-12-01T22:23:17.869-0600"
}
},
{
"event" : "addConfiguration",
"timestamp" : "2017-12-01T22:25:19.384-0600",
"value" : {
"name" : "FTBFConfigNim_v7",
"assigned" : "2017-12-01T22:25:19.384-0600"
}
},
{
"event" : "addConfiguration",
"timestamp" : "2017-12-01T22:27:07.067-0600",
"value" : {
"name" : "FTBFConfigNim_v8",
"assigned" : "2017-12-01T22:27:07.067-0600"
}
},
{
"event" : "addConfiguration",
"timestamp" : "2017-12-01T22:29:31.344-0600",
"value" : {
"name" : "FTBFConfigNim_v9",
"assigned" : "2017-12-01T22:29:31.344-0600"
}
},
{
"event" : "addConfiguration",
"timestamp" : "2017-12-01T22:52:36.716-0600",
"value" : {
"name" : "FTBFConfigNim_v10",
"assigned" : "2017-12-01T22:52:36.716-0600"
}
},
{
"event" : "addConfiguration",
"timestamp" : "2017-12-01T22:57:31.242-0600",
"value" : {
"name" : "FTBFConfigNim_v11",
"assigned" : "2017-12-01T22:57:31.242-0600"
}
},
{
"event" : "addConfiguration",
"timestamp" : "2017-12-01T23:00:09.442-0600",
"value" : {
"name" : "FTBFConfigNim_v12",
"assigned" : "2017-12-01T23:00:09.442-0600"
}
},
{
"event" : "addConfiguration",
"timestamp" : "2017-12-01T23:52:37.571-0600",
"value" : {
"name" : "FTBFConfigNim_v13",
"assigned" : "2017-12-01T23:52:37.571-0600"
}
},
{
"event" : "addConfiguration",
"timestamp" : "2017-12-01T23:58:12.061-0600",
"value" : {
"name" : "FTBFConfigNim_v14",
"assigned" : "2017-12-01T23:58:12.061-0600"
}
},
{
"event" : "addConfiguration",
"timestamp" : "2017-12-02T00:00:36.271-0600",
"value" : {
"name" : "FTBFConfigNim_v15",
"assigned" : "2017-12-02T00:00:36.271-0600"
}
},
{
"event" : "addConfiguration",
"timestamp" : "2017-12-02T00:13:11.516-0600",
"value" : {
"name" : "FTBFConfigNim_v16",
"assigned" : "2017-12-02T00:13:11.516-0600"
}
},
{
"event" : "addConfiguration",
"timestamp" : "2017-12-02T00:28:30.409-0600",
"value" : {
"name" : "FTBFConfigNim_v17",
"assigned" : "2017-12-02T00:28:30.409-0600"
}
},
{
"event" : "addConfiguration",
"timestamp" : "2017-12-02T00:29:36.503-0600",
"value" : {
"name" : "FTBFConfigNim_v18",
"assigned" : "2017-12-02T00:29:36.502-0600"
}
},
{
"event" : "addConfiguration",
"timestamp" : "2017-12-02T00:31:15.850-0600",
"value" : {
"name" : "FTBFConfigNim_v19",
"assigned" : "2017-12-02T00:31:15.850-0600"
}
},
{
"event" : "addConfiguration",
"timestamp" : "2017-12-02T00:57:29.563-0600",
"value" : {
"name" : "FTBFConfigNim_v20",
"assigned" : "2017-12-02T00:57:29.563-0600"
}
},
{
"event" : "addConfiguration",
"timestamp" : "2017-12-02T10:58:04.140-0600",
"value" : {
"name" : "FTBFConfigNim_v21",
"assigned" : "2017-12-02T10:58:04.139-0600"
}
},
{
"event" : "addConfiguration",
"timestamp" : "2017-12-02T11:08:20.312-0600",
"value" : {
"name" : "FTBFConfigNim_v22",
"assigned" : "2017-12-02T11:08:20.312-0600"
}
},
{
"event" : "addConfiguration",
"timestamp" : "2017-12-02T11:12:41.955-0600",
"value" : {
"name" : "FTBFConfigNim_v23",
"assigned" : "2017-12-02T11:12:41.955-0600"
}
},
{
"event" : "addConfiguration",
"timestamp" : "2017-12-02T11:18:44.850-0600",
"value" : {
"name" : "FTBFConfigNim_v24",
"assigned" : "2017-12-02T11:18:44.850-0600"
}
},
{
"event" : "addConfiguration",
"timestamp" : "2017-12-02T11:27:08.063-0600",
"value" : {
"name" : "FTBFConfigNim_v25",
"assigned" : "2017-12-02T11:27:08.063-0600"
}
},
{
"event" : "addConfiguration",
"timestamp" : "2017-12-02T11:38:39.175-0600",
"value" : {
"name" : "FTBFConfigNim_v26",
"assigned" : "2017-12-02T11:38:39.175-0600"
}
},
{
"event" : "addConfiguration",
"timestamp" : "2017-12-02T11:49:10.380-0600",
"value" : {
"name" : "FTBFConfigNim_v27",
"assigned" : "2017-12-02T11:49:10.380-0600"
}
},
{
"event" : "addConfiguration",
"timestamp" : "2017-12-02T11:55:11.912-0600",
"value" : {
"name" : "FTBFConfigNim_v28",
"assigned" : "2017-12-02T11:55:11.912-0600"
}
},
{
"event" : "addConfiguration",
"timestamp" : "2017-12-02T12:06:28.767-0600",
"value" : {
"name" : "FTBFConfigNim_v29",
"assigned" : "2017-12-02T12:06:28.766-0600"
}
},
{
"event" : "addConfiguration",
"timestamp" : "2017-12-02T12:24:17.345-0600",
"value" : {
"name" : "FTBFConfig_v71",
"assigned" : "2017-12-02T12:24:17.345-0600"
}
},
{
"event" : "addConfiguration",
"timestamp" : "2017-12-02T12:43:38.265-0600",
"value" : {
"name" : "FTBFConfig_v72",
"assigned" : "2017-12-02T12:43:38.265-0600"
}
},
{
"event" : "addConfiguration",
"timestamp" : "2017-12-02T13:55:37.968-0600",
"value" : {
"name" : "FTBFConfig_v73",
"assigned" : "2017-12-02T13:55:37.968-0600"
}
},
{
"event" : "addConfiguration",
"timestamp" : "2017-12-02T14:12:21.157-0600",
"value" : {
"name" : "FTBFConfig_v75",
"assigned" : "2017-12-02T14:12:21.157-0600"
}
},
{
"event" : "addConfiguration",
"timestamp" : "2017-12-02T19:05:56.157-0600",
"value" : {
"name" : "FTBFConfig_v76",
"assigned" : "2017-12-02T19:05:56.157-0600"
}
},
{
"event" : "addConfiguration",
"timestamp" : "2017-12-02T19:12:16.010-0600",
"value" : {
"name" : "FTBFConfig_v77",
"assigned" : "2017-12-02T19:12:16.010-0600"
}
},
{
"event" : "addConfiguration",
"timestamp" : "2017-12-03T14:03:51.144-0600",
"value" : {
"name" : "FTBFConfig_v78",
"assigned" : "2017-12-03T14:03:51.144-0600"
}
},
{
"event" : "addConfiguration",
"timestamp" : "2017-12-03T14:09:09.478-0600",
"value" : {
"name" : "FTBFConfig_v79",
"assigned" : "2017-12-03T14:09:09.477-0600"
}
},
{
"event" : "addConfiguration",
"timestamp" : "2017-12-03T14:11:13.249-0600",
"value" : {
"name" : "FTBFConfig_v80",
"assigned" : "2017-12-03T14:11:13.249-0600"
}
},
{
"event" : "addConfiguration",
"timestamp" : "2017-12-03T14:22:36.257-0600",
"value" : {
"name" : "FTBFConfig_v81",
"assigned" : "2017-12-03T14:22:36.256-0600"
}
},
{
"event" : "addConfiguration",
"timestamp" : "2017-12-03T14:40:41.104-0600",
"value" : {
"name" : "FTBFConfig_v82",
"assigned" : "2017-12-03T14:40:41.104-0600"
}
},
{
"event" : "addConfiguration",
"timestamp" : "2017-12-03T14:45:08.467-0600",
"value" : {
"name" : "FTBFConfig_v83",
"assigned" : "2017-12-03T14:45:08.466-0600"
}
},
{
"event" : "addConfiguration",
"timestamp" : "2017-12-04T14:51:33.691-0600",
"value" : {
"name" : "FTBFConfig_v84",
"assigned" : "2017-12-04T14:51:33.691-0600"
}
},
{
"event" : "addConfiguration",
"timestamp" : "2017-12-04T14:55:46.927-0600",
"value" : {
"name" : "FTBFConfig_v85",
"assigned" : "2017-12-04T14:55:46.927-0600"
}
},
{
"event" : "addConfiguration",
"timestamp" : "2017-12-04T16:51:10.007-0600",
"value" : {
"name" : "FTBFConfig_v86",
"assigned" : "2017-12-04T16:51:10.007-0600"
}
},
{
"event" : "addConfiguration",
"timestamp" : "2017-12-04T16:56:50.649-0600",
"value" : {
"name" : "FTBFConfig_v87",
"assigned" : "2017-12-04T16:56:50.649-0600"
}
},
{
"event" : "addConfiguration",
"timestamp" : "2017-12-04T17:01:15.437-0600",
"value" : {
"name" : "FTBFConfig_v88",
"assigned" : "2017-12-04T17:01:15.436-0600"
}
},
{
"event" : "addConfiguration",
"timestamp" : "2017-12-04T17:04:00.559-0600",
"value" : {
"name" : "FTBFConfig_v89",
"assigned" : "2017-12-04T17:04:00.559-0600"
}
},
{
"event" : "addConfiguration",
"timestamp" : "2017-12-04T17:07:20.295-0600",
"value" : {
"name" : "FTBFConfig_v90",
"assigned" : "2017-12-04T17:07:20.295-0600"
}
},
{
"event" : "addConfiguration",
"timestamp" : "2017-12-04T17:09:29.391-0600",
"value" : {
"name" : "FTBFConfig_v91",
"assigned" : "2017-12-04T17:09:29.391-0600"
}
},
{
"event" : "addConfiguration",
"timestamp" : "2017-12-04T17:11:41.915-0600",
"value" : {
"name" : "FTBFConfig_v92",
"assigned" : "2017-12-04T17:11:41.915-0600"
}
},
{
"event" : "addConfiguration",
"timestamp" : "2017-12-04T21:05:24.410-0600",
"value" : {
"name" : "FTBFConfig_v93",
"assigned" : "2017-12-04T21:05:24.410-0600"
}
},
{
"event" : "addConfiguration",
"timestamp" : "2017-12-04T21:17:15.478-0600",
"value" : {
"name" : "FTBFConfig_v94",
"assigned" : "2017-12-04T21:17:15.478-0600"
}
},
{
"event" : "addConfiguration",
"timestamp" : "2017-12-04T21:41:21.081-0600",
"value" : {
"name" : "FTBFConfig_v95",
"assigned" : "2017-12-04T21:41:21.081-0600"
}
},
{
"event" : "addConfiguration",
"timestamp" : "2017-12-04T22:39:05.746-0600",
"value" : {
"name" : "FTBFConfig_v96",
"assigned" : "2017-12-04T22:39:05.746-0600"
}
},
{
"event" : "addConfiguration",
"timestamp" : "2017-12-04T23:01:16.295-0600",
"value" : {
"name" : "FTBFConfig_v97",
"assigned" : "2017-12-04T23:01:16.295-0600"
}
},
{
"event" : "addConfiguration",
"timestamp" : "2017-12-07T11:07:50.239-0600",
"value" : {
"name" : "FTBFConfig_v98",
"assigned" : "2017-12-07T11:07:50.239-0600"
}
},
{
"event" : "addConfiguration",
"timestamp" : "2017-12-07T11:50:02.927-0600",
"value" : {
"name" : "FTBFConfig_v99",
"assigned" : "2017-12-07T11:50:02.927-0600"
}
},
{
"event" : "addConfiguration",
"timestamp" : "2017-12-07T11:58:29.661-0600",
"value" : {
"name" : "FTBFConfig_v100",
"assigned" : "2017-12-07T11:58:29.661-0600"
}
},
{
"event" : "addConfiguration",
"timestamp" : "2017-12-08T13:30:51.849-0600",
"value" : {
"name" : "FTBFConfig_v101",
"assigned" : "2017-12-08T13:30:51.849-0600"
}
},
{
"event" : "addConfiguration",
"timestamp" : "2017-12-08T13:32:38.758-0600",
"value" : {
"name" : "FTBFConfig_v102",
"assigned" : "2017-12-08T13:32:38.758-0600"
}
},
{
"event" : "addConfiguration",
"timestamp" : "2017-12-12T11:03:08.598-0600",
"value" : {
"name" : "FTBFConfig_v103",
"assigned" : "2017-12-12T11:03:08.598-0600"
}
},
{
"event" : "addConfiguration",
"timestamp" : "2017-12-12T13:51:03.211-0600",
"value" : {
"name" : "FTBFConfig_v104",
"assigned" : "2017-12-12T13:51:03.211-0600"
}
},
{
"event" : "addConfiguration",
"timestamp" : "2017-12-12T15:25:09.186-0600",
"value" : {
"name" : "FTBFConfig_v105",
"assigned" : "2017-12-12T15:25:09.186-0600"
}
},
{
"event" : "addConfiguration",
"timestamp" : "2017-12-13T10:24:27.464-0600",
"value" : {
"name" : "FTBFConfig_v106",
"assigned" : "2017-12-13T10:24:27.464-0600"
}
},
{
"event" : "addConfiguration",
"timestamp" : "2017-12-13T10:27:06.125-0600",
"value" : {
"name" : "FTBFConfig_v107",
"assigned" : "2017-12-13T10:27:06.125-0600"
}
},
{
"event" : "addConfiguration",
"timestamp" : "2018-02-01T21:14:29.971-0600",
"value" : {
"name" : "FTBFConfig_v108",
"assigned" : "2018-02-01T21:14:29.970-0600"
}
},
{
"event" : "addConfiguration",
"timestamp" : "2018-02-01T21:21:07.108-0600",
"value" : {
"name" : "FTBFConfig_v109",
"assigned" : "2018-02-01T21:21:07.108-0600"
}
},
{
"event" : "addConfiguration",
"timestamp" : "2018-02-02T11:25:38.151-0600",
"value" : {
"name" : "FTBFConfig_v110",
"assigned" : "2018-02-02T11:25:38.151-0600"
}
},
{
"event" : "addConfiguration",
"timestamp" : "2018-02-02T11:37:16.960-0600",
"value" : {
"name" : "FTBFConfig_v111",
"assigned" : "2018-02-02T11:37:16.960-0600"
}
},
{
"event" : "addConfiguration",
"timestamp" : "2018-02-02T11:47:19.483-0600",
"value" : {
"name" : "FTBFConfig_v112",
"assigned" : "2018-02-02T11:47:19.483-0600"
}
},
{
"event" : "addConfiguration",
"timestamp" : "2018-02-02T11:53:40.721-0600",
"value" : {
"name" : "FTBFConfig_v113",
"assigned" : "2018-02-02T11:53:40.721-0600"
}
},
{
"event" : "addConfiguration",
"timestamp" : "2018-02-02T12:00:56.902-0600",
"value" : {
"name" : "FTBFConfig_v114",
"assigned" : "2018-02-02T12:00:56.902-0600"
}
},
{
"event" : "addConfiguration",
"timestamp" : "2018-02-02T12:27:18.322-0600",
"value" : {
"name" : "FTBFConfig_v115",
"assigned" : "2018-02-02T12:27:18.321-0600"
}
},
{
"event" : "addConfiguration",
"timestamp" : "2018-02-02T14:28:57.865-0600",
"value" : {
"name" : "FTBFConfig_v116",
"assigned" : "2018-02-02T14:28:57.865-0600"
}
},
{
"event" : "addConfiguration",
"timestamp" : "2018-02-02T14:30:24.233-0600",
"value" : {
"name" : "FTBFConfig_v117",
"assigned" : "2018-02-02T14:30:24.233-0600"
}
},
{
"event" : "addConfiguration",
"timestamp" : "2018-02-02T14:34:05.487-0600",
"value" : {
"name" : "FTBFConfig_v118",
"assigned" : "2018-02-02T14:34:05.486-0600"
}
},
{
"event" : "addConfiguration",
"timestamp" : "2018-02-02T14:36:32.092-0600",
"value" : {
"name" : "FTBFConfig_v119",
"assigned" : "2018-02-02T14:36:32.092-0600"
}
},
{
"event" : "addConfiguration",
"timestamp" : "2018-02-02T14:38:45.515-0600",
"value" : {
"name" : "FTBFConfig_v120",
"assigned" : "2018-02-02T14:38:45.515-0600"
}
},
{
"event" : "addConfiguration",
"timestamp" : "2018-02-02T14:41:54.835-0600",
"value" : {
"name" : "FTBFConfig_v121",
"assigned" : "2018-02-02T14:41:54.835-0600"
}
},
{
"event" : "addConfiguration",
"timestamp" : "2018-02-02T14:50:28.886-0600",
"value" : {
"name" : "FTBFConfig_v122",
"assigned" : "2018-02-02T14:50:28.886-0600"
}
},
{
"event" : "addConfiguration",
"timestamp" : "2018-02-02T14:53:01.784-0600",
"value" : {
"name" : "FTBFConfig_v123",
"assigned" : "2018-02-02T14:53:01.783-0600"
}
},
{
"event" : "addConfiguration",
"timestamp" : "2018-02-02T14:59:55.095-0600",
"value" : {
"name" : "FTBFConfig_v124",
"assigned" : "2018-02-02T14:59:55.095-0600"
}
},
{
"event" : "addConfiguration",
"timestamp" : "2018-02-02T15:04:13.230-0600",
"value" : {
"name" : "FTBFConfig_v125",
"assigned" : "2018-02-02T15:04:13.230-0600"
}
},
{
"event" : "addConfiguration",
"timestamp" : "2018-02-02T15:50:16.562-0600",
"value" : {
"name" : "FTBFConfig_v126",
"assigned" : "2018-02-02T15:50:16.561-0600"
}
},
{
"event" : "addConfiguration",
"timestamp" : "2018-02-02T15:51:36.022-0600",
"value" : {
"name" : "FTBFConfig_v127",
"assigned" : "2018-02-02T15:51:36.022-0600"
}
},
{
"event" : "addConfiguration",
"timestamp" : "2018-02-02T15:52:41.139-0600",
"value" : {
"name" : "FTBFConfig_v128",
"assigned" : "2018-02-02T15:52:41.139-0600"
}
},
{
"event" : "addConfiguration",
"timestamp" : "2018-02-02T16:02:50.134-0600",
"value" : {
"name" : "FTBFConfig_v129",
"assigned" : "2018-02-02T16:02:50.134-0600"
}
},
{
"event" : "addConfiguration",
"timestamp" : "2018-02-02T16:08:49.657-0600",
"value" : {
"name" : "FTBFConfig_v130",
"assigned" : "2018-02-02T16:08:49.657-0600"
}
},
{
"event" : "addConfiguration",
"timestamp" : "2018-02-02T16:11:35.514-0600",
"value" : {
"name" : "FTBFConfig_v131",
"assigned" : "2018-02-02T16:11:35.514-0600"
}
},
{
"event" : "addConfiguration",
"timestamp" : "2018-02-02T16:13:03.396-0600",
"value" : {
"name" : "FTBFConfig_v132",
"assigned" : "2018-02-02T16:13:03.396-0600"
}
},
{
"event" : "addConfiguration",
"timestamp" : "2018-02-02T16:14:34.062-0600",
"value" : {
"name" : "FTBFConfig_v133",
"assigned" : "2018-02-02T16:14:34.062-0600"
}
},
{
"event" : "addConfiguration",
"timestamp" : "2018-02-02T16:26:26.962-0600",
"value" : {
"name" : "FTBFConfig_v134",
"assigned" : "2018-02-02T16:26:26.962-0600"
}
},
{
"event" : "addConfiguration",
"timestamp" : "2018-02-02T16:27:14.054-0600",
"value" : {
"name" : "FTBFConfig_v135",
"assigned" : "2018-02-02T16:27:14.053-0600"
}
},
{
"event" : "addConfiguration",
"timestamp" : "2018-02-02T16:29:35.416-0600",
"value" : {
"name" : "FTBFConfig_v136",
"assigned" : "2018-02-02T16:29:35.416-0600"
}
},
{
"event" : "addConfiguration",
"timestamp" : "2018-02-02T16:31:46.088-0600",
"value" : {
"name" : "FTBFConfig_v137",
"assigned" : "2018-02-02T16:31:46.087-0600"
}
},
{
"event" : "addConfiguration",
"timestamp" : "2018-02-02T16:34:18.741-0600",
"value" : {
"name" : "FTBFConfig_v138",
"assigned" : "2018-02-02T16:34:18.741-0600"
}
},
{
"event" : "addConfiguration",
"timestamp" : "2018-02-02T17:39:34.815-0600",
"value" : {
"name" : "FTBFConfig_v139",
"assigned" : "2018-02-02T17:39:34.814-0600"
}
},
{
"event" : "addConfiguration",
"timestamp" : "2018-02-02T17:42:57.034-0600",
"value" : {
"name" : "FTBFConfig_v140",
"assigned" : "2018-02-02T17:42:57.034-0600"
}
},
{
"event" : "addConfiguration",
"timestamp" : "2018-02-02T17:47:42.236-0600",
"value" : {
"name" : "FTBFConfig_v141",
"assigned" : "2018-02-02T17:47:42.236-0600"
}
},
{
"event" : "addConfiguration",
"timestamp" : "2018-02-02T17:54:06.249-0600",
"value" : {
"name" : "FTBFConfig_v142",
"assigned" : "2018-02-02T17:54:06.249-0600"
}
}
],
"created" : "2017-11-17T17:26:41.677-0600"
},
"_id" : {
"$oid" : "b837a979d1d84cbb8642513b"
},
"collection" : "UDPDataStreamerConsumerConfiguration",
"aliases" : {
"active" : [

],
"history" : [

]
},
"runs" : [

],
"attachments" : [

],
"configtype" : "notprovided"
}