{
"ouid" : [
"efa2a33b5b204b74b156db56"
],
"version" : {
"1" : [
"efa2a33b5b204b74b156db56"
]
},
"configurations.name" : {
"notprovided" : [
"efa2a33b5b204b74b156db56"
],
"DefaultConfig_v1" : [
"efa2a33b5b204b74b156db56"
],
"DefaultConfig_v2" : [
"efa2a33b5b204b74b156db56"
],
"DefaultConfig_v3" : [
"efa2a33b5b204b74b156db56"
],
"DefaultConfig_v4" : [
"efa2a33b5b204b74b156db56"
]
},
"entities.name" : {
"OTSROOT" : [
"efa2a33b5b204b74b156db56"
]
},
"aliases.active.name" : {

},
"runs.name" : {

},
"configurations.assigned" : {
"notprovided" : [
"2020-07-21T14:27:46.132-0500"
],
"DefaultConfig_v1" : [
"2020-07-21T14:27:46.702-0500"
],
"DefaultConfig_v2" : [
"2020-07-21T14:44:16.334-0500"
],
"DefaultConfig_v3" : [
"2020-07-21T14:57:50.200-0500"
],
"DefaultConfig_v4" : [
"2020-07-28T10:52:34.101-0500"
]
}
}