{
"ouid" : [
"5c934749a68f422686c5792f",
"9dbe17708e474580be88af1c"
],
"version" : {
"3" : [
"5c934749a68f422686c5792f"
],
"4" : [
"9dbe17708e474580be88af1c"
]
},
"configurations.name" : {
"notprovided" : [
"5c934749a68f422686c5792f",
"9dbe17708e474580be88af1c"
],
"OTMiniModuleContext_v3" : [
"5c934749a68f422686c5792f"
],
"OTMiniModuleContext_v4" : [
"9dbe17708e474580be88af1c"
]
},
"entities.name" : {
"OTSROOT" : [
"5c934749a68f422686c5792f",
"9dbe17708e474580be88af1c"
]
},
"aliases.active.name" : {

},
"runs.name" : {

}
}