{
"document" : {
"data" : {
"NAME" : "TABLE_GROUP_METADATA",
"COMMENT" : "",
"AUTHOR" : "",
"CREATION_TIME" : 1550763300,
"COL_TYPES" : {
"UNUSED_UID" : "NUMBER",
"GROUP_ALIASES" : "STRING",
"COMMENT_DESCRIPTION" : "STRING",
"AUTHOR" : "STRING",
"GROUP_CREATION_TIME" : "TIMESTAMP WITH TIMEZONE"
},
"DATA_SET" : [
{
"UNUSED_UID" : "0",
"GROUP_ALIASES" : "",
"COMMENT_DESCRIPTION" : "No%20Comment",
"AUTHOR" : "admin",
"GROUP_CREATION_TIME" : "1605043852"
}
]
},
"metadata" : {

},
"search" : [

]
},
"comments" : [

],
"origin" : {
"source" : "template",
"name" : "notprovided",
"format" : "json",
"created" : "2020-11-10T15:30:52.496-0600",
"rawdata" : [

]
},
"version" : "111",
"entities" : [
{
"name" : "OTSROOT",
"assigned" : "2020-11-10T15:30:52.496-0600"
}
],
"configurations" : [
{
"name" : "notprovided",
"assigned" : "2020-11-10T15:30:52.496-0600"
},
{
"name" : "DefaultContext_v20",
"assigned" : "2020-11-10T15:30:52.853-0600"
}
],
"changelog" : "notprovided",
"bookkeeping" : {
"isdeleted" : false,
"isreadonly" : false,
"updates" : [
{
"event" : "addConfiguration",
"timestamp" : "2020-11-10T15:30:52.496-0600",
"value" : {
"name" : "notprovided",
"assigned" : "2020-11-10T15:30:52.496-0600"
}
},
{
"event" : "setVersion",
"timestamp" : "2020-11-10T15:30:52.496-0600",
"value" : {
"name" : "111",
"assigned" : "2020-11-10T15:30:52.496-0600"
}
},
{
"event" : "setCollection",
"timestamp" : "2020-11-10T15:30:52.496-0600",
"value" : {
"name" : "TableGroupMetadata",
"assigned" : "2020-11-10T15:30:52.496-0600"
}
},
{
"event" : "addEntity",
"timestamp" : "2020-11-10T15:30:52.496-0600",
"value" : {
"name" : "OTSROOT",
"assigned" : "2020-11-10T15:30:52.496-0600"
}
},
{
"event" : "addConfiguration",
"timestamp" : "2020-11-10T15:30:52.853-0600",
"value" : {
"name" : "DefaultContext_v20",
"assigned" : "2020-11-10T15:30:52.853-0600"
}
}
],
"created" : "2020-11-10T15:30:52.496-0600"
},
"_id" : {
"$oid" : "71125e31aa9d4ee3921633ee"
},
"collection" : "TableGroupMetadata",
"aliases" : {
"active" : [

],
"history" : [

]
},
"runs" : [

],
"attachments" : [

],
"configtype" : "notprovided"
}