{
"ouid" : [
"42a1320d7da54d06b4ca8495",
"afef28204a064e2e9f52be3d"
],
"version" : {
"0" : [
"42a1320d7da54d06b4ca8495"
],
"1" : [
"afef28204a064e2e9f52be3d"
]
},
"configurations.name" : {
"notprovided" : [
"42a1320d7da54d06b4ca8495",
"afef28204a064e2e9f52be3d"
],
"iterateDefaultGroup_v0" : [
"42a1320d7da54d06b4ca8495"
],
"iterateDefaultGroup_v1" : [
"afef28204a064e2e9f52be3d"
],
"iterateDefaultGroup_v2" : [
"afef28204a064e2e9f52be3d"
],
"iterateDefaultGroup_v3" : [
"afef28204a064e2e9f52be3d"
],
"iterateDefaultGroup_v4" : [
"afef28204a064e2e9f52be3d"
],
"iterateDefaultGroup_v5" : [
"afef28204a064e2e9f52be3d"
],
"iterateDefaultGroup_v6" : [
"afef28204a064e2e9f52be3d"
],
"iterateDefaultGroup_v7" : [
"afef28204a064e2e9f52be3d"
],
"iterateDefaultGroup_v8" : [
"afef28204a064e2e9f52be3d"
],
"iterateDefaultGroup_v9" : [
"afef28204a064e2e9f52be3d"
],
"iterateDefaultGroup_v10" : [
"afef28204a064e2e9f52be3d"
],
"iterateDefaultGroup_v11" : [
"afef28204a064e2e9f52be3d"
],
"iterateDefaultGroup_v12" : [
"afef28204a064e2e9f52be3d"
]
},
"entities.name" : {
"OTSROOT" : [
"42a1320d7da54d06b4ca8495",
"afef28204a064e2e9f52be3d"
]
},
"aliases.active.name" : {

},
"runs.name" : {

},
"configurations.assigned" : {
"notprovided" : [
"2020-07-21T14:47:39.050-0500",
"2020-07-21T15:25:07.184-0500"
],
"iterateDefaultGroup_v0" : [
"2020-07-21T14:47:39.522-0500"
],
"iterateDefaultGroup_v1" : [
"2020-07-21T15:25:07.932-0500"
],
"iterateDefaultGroup_v2" : [
"2020-07-21T15:28:04.298-0500"
],
"iterateDefaultGroup_v3" : [
"2020-07-21T15:42:20.573-0500"
],
"iterateDefaultGroup_v4" : [
"2020-07-21T15:45:03.637-0500"
],
"iterateDefaultGroup_v5" : [
"2020-07-21T15:57:33.632-0500"
],
"iterateDefaultGroup_v6" : [
"2020-07-28T10:52:35.116-0500"
],
"iterateDefaultGroup_v7" : [
"2020-07-28T13:01:36.810-0500"
],
"iterateDefaultGroup_v8" : [
"2020-07-28T13:03:27.018-0500"
],
"iterateDefaultGroup_v9" : [
"2020-07-28T13:12:57.987-0500"
],
"iterateDefaultGroup_v10" : [
"2020-07-28T13:15:25.225-0500"
],
"iterateDefaultGroup_v11" : [
"2020-07-28T13:20:57.150-0500"
],
"iterateDefaultGroup_v12" : [
"2020-07-28T13:27:37.738-0500"
]
}
}