{
"document" : {
"data" : {
"NAME" : "XDAQ_CONTEXT_TABLE",
"COMMENT" : "Default simplest Outer Tracker table",
"AUTHOR" : "admin",
"CREATION_TIME" : 1575589955,
"COL_TYPES" : {
"CONTEXT_UID" : "STRING",
"LINK_TO_APPLICATION_TABLE" : "STRING",
"LINK_TO_APPLICATION_GROUP_ID" : "STRING",
"STATUS" : "STRING",
"ID" : "NUMBER",
"ADDRESS" : "STRING",
"PORT" : "NUMBER",
"COMMENT_DESCRIPTION" : "STRING",
"AUTHOR" : "STRING",
"RECORD_INSERTION_TIME" : "TIMESTAMP WITH TIMEZONE"
},
"DATA_SET" : [
{
"CONTEXT_UID" : "MainContext",
"LINK_TO_APPLICATION_TABLE" : "XDAQApplicationTable",
"LINK_TO_APPLICATION_GROUP_ID" : "MainContextApps",
"STATUS" : "On",
"ID" : "0",
"ADDRESS" : "http://${HOSTNAME}",
"PORT" : "2015",
"COMMENT_DESCRIPTION" : "main context",
"AUTHOR" : "admin",
"RECORD_INSERTION_TIME" : "1574201096"
},
{
"CONTEXT_UID" : "OuterTrackerContext",
"LINK_TO_APPLICATION_TABLE" : "XDAQApplicationTable",
"LINK_TO_APPLICATION_GROUP_ID" : "OuterTrackerContextApp",
"STATUS" : "On",
"ID" : "0",
"ADDRESS" : "http://${HOSTNAME}",
"PORT" : "2020",
"COMMENT_DESCRIPTION" : "No Comment",
"AUTHOR" : "admin",
"RECORD_INSERTION_TIME" : "1575589952"
},
{
"CONTEXT_UID" : "TestContext",
"LINK_TO_APPLICATION_TABLE" : "XDAQApplicationTable",
"LINK_TO_APPLICATION_GROUP_ID" : "TestContextApps",
"STATUS" : "Off",
"ID" : "0",
"ADDRESS" : "http://${HOSTNAME}",
"PORT" : "2021",
"COMMENT_DESCRIPTION" : "No Comment",
"AUTHOR" : "admin",
"RECORD_INSERTION_TIME" : "1575589948"
}
]
},
"metadata" : {

},
"search" : [

]
},
"comments" : [

],
"origin" : {
"source" : "template",
"name" : "notprovided",
"format" : "json",
"created" : "2019-12-05T17:52:35.643-0600",
"rawdata" : [

]
},
"version" : "7",
"entities" : [
{
"name" : "OTSROOT",
"assigned" : "2019-12-05T17:52:35.643-0600"
}
],
"configurations" : [
{
"name" : "notprovided",
"assigned" : "2019-12-05T17:52:35.643-0600"
},
{
"name" : "DefaultContext_v12",
"assigned" : "2019-12-05T17:52:36.456-0600"
},
{
"name" : "DefaultContext_v13",
"assigned" : "2019-12-06T09:54:12.843-0600"
},
{
"name" : "DefaultContext_v14",
"assigned" : "2019-12-09T11:56:59.624-0600"
},
{
"name" : "DefaultContext_v15",
"assigned" : "2019-12-13T13:20:56.971-0600"
}
],
"changelog" : "notprovided",
"bookkeeping" : {
"isdeleted" : false,
"isreadonly" : false,
"updates" : [
{
"event" : "addConfiguration",
"timestamp" : "2019-12-05T17:52:35.643-0600",
"value" : {
"name" : "notprovided",
"assigned" : "2019-12-05T17:52:35.643-0600"
}
},
{
"event" : "setVersion",
"timestamp" : "2019-12-05T17:52:35.643-0600",
"value" : {
"name" : "7",
"assigned" : "2019-12-05T17:52:35.643-0600"
}
},
{
"event" : "setCollection",
"timestamp" : "2019-12-05T17:52:35.643-0600",
"value" : {
"name" : "XDAQContextTable",
"assigned" : "2019-12-05T17:52:35.643-0600"
}
},
{
"event" : "addEntity",
"timestamp" : "2019-12-05T17:52:35.643-0600",
"value" : {
"name" : "OTSROOT",
"assigned" : "2019-12-05T17:52:35.643-0600"
}
},
{
"event" : "addConfiguration",
"timestamp" : "2019-12-05T17:52:36.456-0600",
"value" : {
"name" : "DefaultContext_v12",
"assigned" : "2019-12-05T17:52:36.456-0600"
}
},
{
"event" : "addConfiguration",
"timestamp" : "2019-12-06T09:54:12.843-0600",
"value" : {
"name" : "DefaultContext_v13",
"assigned" : "2019-12-06T09:54:12.843-0600"
}
},
{
"event" : "addConfiguration",
"timestamp" : "2019-12-09T11:56:59.624-0600",
"value" : {
"name" : "DefaultContext_v14",
"assigned" : "2019-12-09T11:56:59.624-0600"
}
},
{
"event" : "addConfiguration",
"timestamp" : "2019-12-13T13:20:56.971-0600",
"value" : {
"name" : "DefaultContext_v15",
"assigned" : "2019-12-13T13:20:56.971-0600"
}
}
],
"created" : "2019-12-05T17:52:35.643-0600"
},
"_id" : {
"$oid" : "f25ae32e359545b0ad66139e"
},
"collection" : "XDAQContextTable",
"aliases" : {
"active" : [

],
"history" : [

]
},
"runs" : [

],
"attachments" : [

],
"configtype" : "notprovided"
}