{
"ouid" : [
"ef9b2568635647898bc20a32"
],
"version" : {
"1" : [
"ef9b2568635647898bc20a32"
]
},
"configurations.name" : {
"notprovided" : [
"ef9b2568635647898bc20a32"
],
"DefaultConfig_v1" : [
"ef9b2568635647898bc20a32"
],
"DefaultConfig_v2" : [
"ef9b2568635647898bc20a32"
],
"DefaultConfig_v3" : [
"ef9b2568635647898bc20a32"
],
"DefaultConfig_v4" : [
"ef9b2568635647898bc20a32"
]
},
"entities.name" : {
"OTSROOT" : [
"ef9b2568635647898bc20a32"
]
},
"aliases.active.name" : {

},
"runs.name" : {

},
"configurations.assigned" : {
"notprovided" : [
"2020-07-21T14:27:46.408-0500"
],
"DefaultConfig_v1" : [
"2020-07-21T14:27:46.925-0500"
],
"DefaultConfig_v2" : [
"2020-07-21T14:44:16.606-0500"
],
"DefaultConfig_v3" : [
"2020-07-21T14:57:50.472-0500"
],
"DefaultConfig_v4" : [
"2020-07-28T10:52:34.366-0500"
]
}
}