{
"document" : {
"data" : {
"NAME" : "VERSION_ALIASES_TABLE",
"COMMENT" : "Default Version Aliases.",
"AUTHOR" : "admin",
"CREATION_TIME" : 1480649901,
"COL_TYPES" : {
"VERSION_ALIAS_UID" : "STRING",
"TABLE_NAME" : "STRING",
"VERSION_ALIAS" : "STRING",
"VERSION" : "STRING",
"COMMENT_DESCRIPTION" : "STRING",
"AUTHOR" : "STRING",
"RECORD_INSERTION_TIME" : "TIMESTAMP WITH TIMEZONE"
},
"DATA_SET" : [

]
},
"metadata" : {

},
"search" : [

]
},
"comments" : [

],
"origin" : {
"source" : "template",
"name" : "notprovided",
"format" : "json",
"created" : "2020-07-21T14:27:47.989-0500",
"rawdata" : [

]
},
"version" : "3",
"entities" : [
{
"name" : "OTSROOT",
"assigned" : "2020-07-21T14:27:47.990-0500"
}
],
"configurations" : [
{
"name" : "notprovided",
"assigned" : "2020-07-21T14:27:47.990-0500"
},
{
"name" : "TableEditWizBackbone_v3",
"assigned" : "2020-07-21T14:27:48.117-0500"
}
],
"changelog" : "notprovided",
"bookkeeping" : {
"isdeleted" : false,
"isreadonly" : false,
"updates" : [
{
"event" : "addConfiguration",
"timestamp" : "2020-07-21T14:27:47.990-0500",
"value" : {
"name" : "notprovided",
"assigned" : "2020-07-21T14:27:47.990-0500"
}
},
{
"event" : "setVersion",
"timestamp" : "2020-07-21T14:27:47.990-0500",
"value" : {
"name" : "3",
"assigned" : "2020-07-21T14:27:47.990-0500"
}
},
{
"event" : "setCollection",
"timestamp" : "2020-07-21T14:27:47.990-0500",
"value" : {
"name" : "VersionAliasesTable",
"assigned" : "2020-07-21T14:27:47.990-0500"
}
},
{
"event" : "addEntity",
"timestamp" : "2020-07-21T14:27:47.990-0500",
"value" : {
"name" : "OTSROOT",
"assigned" : "2020-07-21T14:27:47.990-0500"
}
},
{
"event" : "addConfiguration",
"timestamp" : "2020-07-21T14:27:48.117-0500",
"value" : {
"name" : "TableEditWizBackbone_v3",
"assigned" : "2020-07-21T14:27:48.117-0500"
}
}
],
"created" : "2020-07-21T14:27:47.990-0500"
},
"_id" : {
"$oid" : "6a58a2c2da3d4eaa99b6ccc5"
},
"collection" : "VersionAliasesTable",
"aliases" : {
"active" : [

],
"history" : [

]
},
"runs" : [

],
"attachments" : [

],
"configtype" : "notprovided"
}