{
"ouid" : [
"6a58a2c2da3d4eaa99b6ccc5",
"7d92bb02ccdb4734b72ccd77"
],
"version" : {
"3" : [
"6a58a2c2da3d4eaa99b6ccc5"
],
"4" : [
"7d92bb02ccdb4734b72ccd77"
]
},
"configurations.name" : {
"notprovided" : [
"6a58a2c2da3d4eaa99b6ccc5",
"7d92bb02ccdb4734b72ccd77"
],
"TableEditWizBackbone_v3" : [
"6a58a2c2da3d4eaa99b6ccc5"
],
"TableEditWizBackbone_v4" : [
"7d92bb02ccdb4734b72ccd77"
],
"GroupAliasTreeEditWizBackbone_v0" : [
"7d92bb02ccdb4734b72ccd77"
],
"GroupAliasTreeEditWizBackbone_v1" : [
"7d92bb02ccdb4734b72ccd77"
],
"GroupAliasTreeEditWizBackbone_v2" : [
"7d92bb02ccdb4734b72ccd77"
],
"GroupAliasTreeEditWizBackbone_v3" : [
"7d92bb02ccdb4734b72ccd77"
],
"GroupAliasTreeEditWizBackbone_v4" : [
"7d92bb02ccdb4734b72ccd77"
],
"GroupAliasTreeEditWizBackbone_v5" : [
"7d92bb02ccdb4734b72ccd77"
],
"TableEditWizBackbone_v5" : [
"7d92bb02ccdb4734b72ccd77"
],
"GroupAliasTreeEditWizBackbone_v6" : [
"7d92bb02ccdb4734b72ccd77"
],
"GroupAliasTreeEditWizBackbone_v7" : [
"7d92bb02ccdb4734b72ccd77"
],
"GroupAliasTreeEditWizBackbone_v8" : [
"7d92bb02ccdb4734b72ccd77"
],
"GroupAliasTreeEditWizBackbone_v9" : [
"7d92bb02ccdb4734b72ccd77"
],
"GroupAliasTreeEditWizBackbone_v10" : [
"7d92bb02ccdb4734b72ccd77"
],
"GroupAliasTreeEditWizBackbone_v11" : [
"7d92bb02ccdb4734b72ccd77"
],
"TableEditWizBackbone_v6" : [
"7d92bb02ccdb4734b72ccd77"
],
"TableEditWizBackbone_v7" : [
"7d92bb02ccdb4734b72ccd77"
],
"TableEditWizBackbone_v8" : [
"7d92bb02ccdb4734b72ccd77"
],
"GroupAliasTreeEditWizBackbone_v12" : [
"7d92bb02ccdb4734b72ccd77"
],
"TableEditWizBackbone_v9" : [
"7d92bb02ccdb4734b72ccd77"
],
"TableEditWizBackbone_v10" : [
"7d92bb02ccdb4734b72ccd77"
],
"TableEditWizBackbone_v11" : [
"7d92bb02ccdb4734b72ccd77"
],
"TableEditWizBackbone_v12" : [
"7d92bb02ccdb4734b72ccd77"
],
"TableEditWizBackbone_v13" : [
"7d92bb02ccdb4734b72ccd77"
],
"TableEditWizBackbone_v14" : [
"7d92bb02ccdb4734b72ccd77"
],
"TableEditWizBackbone_v15" : [
"7d92bb02ccdb4734b72ccd77"
],
"TableEditWizBackbone_v16" : [
"7d92bb02ccdb4734b72ccd77"
],
"TableEditWizBackbone_v17" : [
"7d92bb02ccdb4734b72ccd77"
],
"TableEditWizBackbone_v18" : [
"7d92bb02ccdb4734b72ccd77"
],
"TableEditWizBackbone_v19" : [
"7d92bb02ccdb4734b72ccd77"
],
"TableEditWizBackbone_v20" : [
"7d92bb02ccdb4734b72ccd77"
],
"TableEditWizBackbone_v21" : [
"7d92bb02ccdb4734b72ccd77"
],
"TableEditWizBackbone_v22" : [
"7d92bb02ccdb4734b72ccd77"
],
"TableEditWizBackbone_v23" : [
"7d92bb02ccdb4734b72ccd77"
],
"TableEditWizBackbone_v24" : [
"7d92bb02ccdb4734b72ccd77"
],
"TableEditWizBackbone_v25" : [
"7d92bb02ccdb4734b72ccd77"
],
"TableEditWizBackbone_v26" : [
"7d92bb02ccdb4734b72ccd77"
],
"TableEditWizBackbone_v27" : [
"7d92bb02ccdb4734b72ccd77"
],
"TableEditWizBackbone_v28" : [
"7d92bb02ccdb4734b72ccd77"
],
"TableEditWizBackbone_v29" : [
"7d92bb02ccdb4734b72ccd77"
],
"TableEditWizBackbone_v30" : [
"7d92bb02ccdb4734b72ccd77"
],
"TableEditWizBackbone_v31" : [
"7d92bb02ccdb4734b72ccd77"
],
"GroupAliasTreeEditWizBackbone_v13" : [
"7d92bb02ccdb4734b72ccd77"
],
"TableEditWizBackbone_v32" : [
"7d92bb02ccdb4734b72ccd77"
],
"TableEditWizBackbone_v33" : [
"7d92bb02ccdb4734b72ccd77"
],
"TableEditWizBackbone_v34" : [
"7d92bb02ccdb4734b72ccd77"
],
"TableEditWizBackbone_v35" : [
"7d92bb02ccdb4734b72ccd77"
],
"TableEditWizBackbone_v36" : [
"7d92bb02ccdb4734b72ccd77"
],
"TableEditWizBackbone_v37" : [
"7d92bb02ccdb4734b72ccd77"
],
"TableEditWizBackbone_v38" : [
"7d92bb02ccdb4734b72ccd77"
],
"TableEditWizBackbone_v39" : [
"7d92bb02ccdb4734b72ccd77"
],
"TableEditWizBackbone_v40" : [
"7d92bb02ccdb4734b72ccd77"
],
"TableEditWizBackbone_v41" : [
"7d92bb02ccdb4734b72ccd77"
],
"GroupAliasSaveWizBackbone_v0" : [
"7d92bb02ccdb4734b72ccd77"
],
"TableEditWizBackbone_v42" : [
"7d92bb02ccdb4734b72ccd77"
],
"TableEditWizBackbone_v43" : [
"7d92bb02ccdb4734b72ccd77"
],
"TableEditWizBackbone_v44" : [
"7d92bb02ccdb4734b72ccd77"
],
"TableEditWizBackbone_v45" : [
"7d92bb02ccdb4734b72ccd77"
],
"TableEditWizBackbone_v46" : [
"7d92bb02ccdb4734b72ccd77"
],
"TableEditWizBackbone_v47" : [
"7d92bb02ccdb4734b72ccd77"
],
"TableEditWizBackbone_v48" : [
"7d92bb02ccdb4734b72ccd77"
],
"TableEditWizBackbone_v49" : [
"7d92bb02ccdb4734b72ccd77"
],
"TableEditWizBackbone_v50" : [
"7d92bb02ccdb4734b72ccd77"
]
},
"entities.name" : {
"OTSROOT" : [
"6a58a2c2da3d4eaa99b6ccc5",
"7d92bb02ccdb4734b72ccd77"
]
},
"aliases.active.name" : {

},
"runs.name" : {

},
"configurations.assigned" : {
"notprovided" : [
"2020-07-21T14:27:47.990-0500",
"2020-07-21T14:27:48.189-0500"
],
"TableEditWizBackbone_v3" : [
"2020-07-21T14:27:48.117-0500"
],
"TableEditWizBackbone_v4" : [
"2020-07-21T14:27:48.243-0500"
],
"GroupAliasTreeEditWizBackbone_v0" : [
"2020-07-21T14:42:51.276-0500"
],
"GroupAliasTreeEditWizBackbone_v1" : [
"2020-07-21T14:44:17.394-0500"
],
"GroupAliasTreeEditWizBackbone_v2" : [
"2020-07-21T14:46:45.167-0500"
],
"GroupAliasTreeEditWizBackbone_v3" : [
"2020-07-21T14:51:17.506-0500"
],
"GroupAliasTreeEditWizBackbone_v4" : [
"2020-07-21T14:55:17.471-0500"
],
"GroupAliasTreeEditWizBackbone_v5" : [
"2020-07-21T14:55:57.885-0500"
],
"TableEditWizBackbone_v5" : [
"2020-07-21T14:57:51.356-0500"
],
"GroupAliasTreeEditWizBackbone_v6" : [
"2020-07-21T15:50:02.284-0500"
],
"GroupAliasTreeEditWizBackbone_v7" : [
"2020-08-20T13:46:49.606-0500"
],
"GroupAliasTreeEditWizBackbone_v8" : [
"2020-08-20T13:52:01.787-0500"
],
"GroupAliasTreeEditWizBackbone_v9" : [
"2020-08-20T14:43:56.146-0500"
],
"GroupAliasTreeEditWizBackbone_v10" : [
"2020-08-24T11:59:57.983-0500"
],
"GroupAliasTreeEditWizBackbone_v11" : [
"2020-08-24T16:05:14.554-0500"
],
"TableEditWizBackbone_v6" : [
"2020-08-26T10:29:25.579-0500"
],
"TableEditWizBackbone_v7" : [
"2020-08-26T10:33:57.802-0500"
],
"TableEditWizBackbone_v8" : [
"2020-08-26T10:45:55.684-0500"
],
"GroupAliasTreeEditWizBackbone_v12" : [
"2020-08-26T11:10:55.399-0500"
],
"TableEditWizBackbone_v9" : [
"2020-08-26T14:49:53.851-0500"
],
"TableEditWizBackbone_v10" : [
"2020-08-26T14:52:01.467-0500"
],
"TableEditWizBackbone_v11" : [
"2020-08-26T15:00:05.018-0500"
],
"TableEditWizBackbone_v12" : [
"2020-08-26T16:17:13.846-0500"
],
"TableEditWizBackbone_v13" : [
"2020-08-26T16:18:17.066-0500"
],
"TableEditWizBackbone_v14" : [
"2020-08-28T21:40:24.120-0500"
],
"TableEditWizBackbone_v15" : [
"2020-08-31T15:20:00.211-0500"
],
"TableEditWizBackbone_v16" : [
"2020-09-03T10:43:23.959-0500"
],
"TableEditWizBackbone_v17" : [
"2020-09-03T10:49:04.703-0500"
],
"TableEditWizBackbone_v18" : [
"2020-09-08T17:07:23.015-0500"
],
"TableEditWizBackbone_v19" : [
"2020-09-11T16:02:30.838-0500"
],
"TableEditWizBackbone_v20" : [
"2020-09-14T17:47:20.827-0500"
],
"TableEditWizBackbone_v21" : [
"2020-09-14T18:00:25.137-0500"
],
"TableEditWizBackbone_v22" : [
"2020-09-15T15:14:58.756-0500"
],
"TableEditWizBackbone_v23" : [
"2020-09-15T15:18:55.865-0500"
],
"TableEditWizBackbone_v24" : [
"2020-09-15T15:27:52.858-0500"
],
"TableEditWizBackbone_v25" : [
"2020-09-15T15:52:14.301-0500"
],
"TableEditWizBackbone_v26" : [
"2020-09-21T11:42:00.113-0500"
],
"TableEditWizBackbone_v27" : [
"2020-09-21T11:54:30.909-0500"
],
"TableEditWizBackbone_v28" : [
"2020-10-06T14:24:23.869-0500"
],
"TableEditWizBackbone_v29" : [
"2020-10-06T14:45:43.063-0500"
],
"TableEditWizBackbone_v30" : [
"2020-10-06T15:04:21.605-0500"
],
"TableEditWizBackbone_v31" : [
"2020-10-07T16:45:37.848-0500"
],
"GroupAliasTreeEditWizBackbone_v13" : [
"2020-10-07T17:03:31.999-0500"
],
"TableEditWizBackbone_v32" : [
"2020-11-04T20:42:38.748-0600"
],
"TableEditWizBackbone_v33" : [
"2020-11-10T13:18:47.906-0600"
],
"TableEditWizBackbone_v34" : [
"2020-11-10T13:35:43.190-0600"
],
"TableEditWizBackbone_v35" : [
"2020-11-10T13:38:43.105-0600"
],
"TableEditWizBackbone_v36" : [
"2020-11-10T13:39:24.957-0600"
],
"TableEditWizBackbone_v37" : [
"2020-11-10T13:41:31.934-0600"
],
"TableEditWizBackbone_v38" : [
"2020-11-10T15:30:54.118-0600"
],
"TableEditWizBackbone_v39" : [
"2020-11-11T11:00:28.418-0600"
],
"TableEditWizBackbone_v40" : [
"2020-11-11T11:54:29.843-0600"
],
"TableEditWizBackbone_v41" : [
"2020-11-11T11:57:38.746-0600"
],
"GroupAliasSaveWizBackbone_v0" : [
"2020-11-11T12:11:53.653-0600"
],
"TableEditWizBackbone_v42" : [
"2020-11-11T15:51:22.400-0600"
],
"TableEditWizBackbone_v43" : [
"2020-11-11T15:51:49.499-0600"
],
"TableEditWizBackbone_v44" : [
"2020-11-13T11:04:52.143-0600"
],
"TableEditWizBackbone_v45" : [
"2020-11-13T11:24:28.036-0600"
],
"TableEditWizBackbone_v46" : [
"2020-11-13T14:27:43.101-0600"
],
"TableEditWizBackbone_v47" : [
"2020-11-23T16:30:55.697-0600"
],
"TableEditWizBackbone_v48" : [
"2020-12-21T11:05:58.642-0600"
],
"TableEditWizBackbone_v49" : [
"2021-01-18T20:04:40.894-0600"
],
"TableEditWizBackbone_v50" : [
"2021-01-18T20:05:21.383-0600"
]
}
}