{
"ouid" : [
"c9db8e9307084156bbd11ef5"
],
"version" : {
"1" : [
"c9db8e9307084156bbd11ef5"
]
},
"configurations.name" : {
"notprovided" : [
"c9db8e9307084156bbd11ef5"
],
"FTBFContext_v1" : [
"c9db8e9307084156bbd11ef5"
],
"FTBFContext_v2" : [
"c9db8e9307084156bbd11ef5"
],
"FTBFContext_v3" : [
"c9db8e9307084156bbd11ef5"
],
"FTBFContext_v4" : [
"c9db8e9307084156bbd11ef5"
],
"FTBFContext_v5" : [
"c9db8e9307084156bbd11ef5"
],
"FTBFContext_v6" : [
"c9db8e9307084156bbd11ef5"
],
"FTBFContext_v7" : [
"c9db8e9307084156bbd11ef5"
],
"FTBFContext_v8" : [
"c9db8e9307084156bbd11ef5"
],
"FTBFContext_v9" : [
"c9db8e9307084156bbd11ef5"
],
"FTBFContext_v10" : [
"c9db8e9307084156bbd11ef5"
],
"FTBFContext_v11" : [
"c9db8e9307084156bbd11ef5"
],
"FTBFContext_v12" : [
"c9db8e9307084156bbd11ef5"
],
"FTBFContext_v13" : [
"c9db8e9307084156bbd11ef5"
],
"FTBFContext_v14" : [
"c9db8e9307084156bbd11ef5"
],
"FTBFContext_v15" : [
"c9db8e9307084156bbd11ef5"
],
"FTBFContext_v16" : [
"c9db8e9307084156bbd11ef5"
],
"FTBFContext_v17" : [
"c9db8e9307084156bbd11ef5"
],
"FTBFContext_v18" : [
"c9db8e9307084156bbd11ef5"
],
"FTBFContext_v19" : [
"c9db8e9307084156bbd11ef5"
],
"FTBFContext_v20" : [
"c9db8e9307084156bbd11ef5"
],
"FTBFContext_v21" : [
"c9db8e9307084156bbd11ef5"
],
"FTBFContext_v22" : [
"c9db8e9307084156bbd11ef5"
],
"FTBFContext_v23" : [
"c9db8e9307084156bbd11ef5"
],
"FTBFContext_v24" : [
"c9db8e9307084156bbd11ef5"
],
"FTBFContext_v25" : [
"c9db8e9307084156bbd11ef5"
],
"FTBFContext_v26" : [
"c9db8e9307084156bbd11ef5"
],
"FTBFContext_v27" : [
"c9db8e9307084156bbd11ef5"
],
"FTBFContext_v28" : [
"c9db8e9307084156bbd11ef5"
],
"FTBFContext_v29" : [
"c9db8e9307084156bbd11ef5"
],
"FTBFContext_v30" : [
"c9db8e9307084156bbd11ef5"
],
"FTBFContext_v31" : [
"c9db8e9307084156bbd11ef5"
],
"FTBFContext_v32" : [
"c9db8e9307084156bbd11ef5"
],
"FTBFContext_v33" : [
"c9db8e9307084156bbd11ef5"
],
"FTBFContext_v34" : [
"c9db8e9307084156bbd11ef5"
],
"FTBFContext_v35" : [
"c9db8e9307084156bbd11ef5"
],
"FTBFContext_v36" : [
"c9db8e9307084156bbd11ef5"
],
"FTBFContext_v37" : [
"c9db8e9307084156bbd11ef5"
],
"FTBFContext_v38" : [
"c9db8e9307084156bbd11ef5"
],
"FTBFContext_v39" : [
"c9db8e9307084156bbd11ef5"
],
"FTBFContext_v40" : [
"c9db8e9307084156bbd11ef5"
],
"FTBFContext_v41" : [
"c9db8e9307084156bbd11ef5"
],
"FTBFContext_v42" : [
"c9db8e9307084156bbd11ef5"
],
"FTBFContext_v43" : [
"c9db8e9307084156bbd11ef5"
],
"FTBFContext_v44" : [
"c9db8e9307084156bbd11ef5"
],
"FTBFContext_v45" : [
"c9db8e9307084156bbd11ef5"
],
"FTBFContext_v46" : [
"c9db8e9307084156bbd11ef5"
],
"FTBFContext_v47" : [
"c9db8e9307084156bbd11ef5"
],
"FTBFContext_v48" : [
"c9db8e9307084156bbd11ef5"
],
"FTBFContext_v49" : [
"c9db8e9307084156bbd11ef5"
],
"FTBFContext_v50" : [
"c9db8e9307084156bbd11ef5"
],
"FTBFContext_v51" : [
"c9db8e9307084156bbd11ef5"
],
"FTBFContext_v52" : [
"c9db8e9307084156bbd11ef5"
],
"FTBFContext_v53" : [
"c9db8e9307084156bbd11ef5"
],
"FTBFContext_v54" : [
"c9db8e9307084156bbd11ef5"
]
},
"entities.name" : {
"OTSROOT" : [
"c9db8e9307084156bbd11ef5"
]
},
"aliases.active.name" : {

},
"runs.name" : {

},
"configurations.assigned" : {
"notprovided" : [
"2017-11-08T15:56:07.951-0600"
],
"FTBFContext_v1" : [
"2017-11-08T15:56:08.290-0600"
],
"FTBFContext_v2" : [
"2017-11-09T10:39:03.711-0600"
],
"FTBFContext_v3" : [
"2017-11-10T10:18:38.158-0600"
],
"FTBFContext_v4" : [
"2017-11-10T10:28:46.696-0600"
],
"FTBFContext_v5" : [
"2017-11-10T10:40:33.118-0600"
],
"FTBFContext_v6" : [
"2017-11-10T10:52:05.523-0600"
],
"FTBFContext_v7" : [
"2017-11-10T11:21:01.392-0600"
],
"FTBFContext_v8" : [
"2017-11-10T11:44:49.644-0600"
],
"FTBFContext_v9" : [
"2017-11-10T12:15:25.916-0600"
],
"FTBFContext_v10" : [
"2017-11-10T12:16:54.464-0600"
],
"FTBFContext_v11" : [
"2017-11-10T12:22:19.696-0600"
],
"FTBFContext_v12" : [
"2017-11-10T12:35:32.210-0600"
],
"FTBFContext_v13" : [
"2017-11-10T12:37:10.294-0600"
],
"FTBFContext_v14" : [
"2017-11-10T12:38:14.792-0600"
],
"FTBFContext_v15" : [
"2017-11-10T17:04:41.152-0600"
],
"FTBFContext_v16" : [
"2017-11-13T10:55:06.076-0600"
],
"FTBFContext_v17" : [
"2017-11-13T14:51:53.864-0600"
],
"FTBFContext_v18" : [
"2017-11-13T15:21:32.798-0600"
],
"FTBFContext_v19" : [
"2017-11-14T11:21:18.086-0600"
],
"FTBFContext_v20" : [
"2017-11-14T16:15:29.025-0600"
],
"FTBFContext_v21" : [
"2017-11-15T12:29:36.549-0600"
],
"FTBFContext_v22" : [
"2017-11-15T12:31:22.466-0600"
],
"FTBFContext_v23" : [
"2017-11-15T12:39:05.805-0600"
],
"FTBFContext_v24" : [
"2017-11-15T12:55:32.673-0600"
],
"FTBFContext_v25" : [
"2017-11-15T12:57:46.466-0600"
],
"FTBFContext_v26" : [
"2017-11-15T12:59:19.517-0600"
],
"FTBFContext_v27" : [
"2017-11-15T16:19:29.777-0600"
],
"FTBFContext_v28" : [
"2017-11-16T09:27:10.576-0600"
],
"FTBFContext_v29" : [
"2017-11-17T17:24:35.968-0600"
],
"FTBFContext_v30" : [
"2017-11-20T14:44:40.648-0600"
],
"FTBFContext_v31" : [
"2017-11-28T10:58:43.279-0600"
],
"FTBFContext_v32" : [
"2017-11-28T11:47:17.452-0600"
],
"FTBFContext_v33" : [
"2017-11-28T12:09:40.273-0600"
],
"FTBFContext_v34" : [
"2017-11-28T12:18:07.723-0600"
],
"FTBFContext_v35" : [
"2017-11-28T16:52:28.039-0600"
],
"FTBFContext_v36" : [
"2017-11-28T17:27:49.570-0600"
],
"FTBFContext_v37" : [
"2017-11-29T11:25:53.197-0600"
],
"FTBFContext_v38" : [
"2017-11-29T16:45:18.349-0600"
],
"FTBFContext_v39" : [
"2017-11-30T09:28:22.636-0600"
],
"FTBFContext_v40" : [
"2017-11-30T10:12:19.357-0600"
],
"FTBFContext_v41" : [
"2017-12-01T15:35:09.306-0600"
],
"FTBFContext_v42" : [
"2017-12-01T15:41:37.770-0600"
],
"FTBFContext_v43" : [
"2017-12-01T15:49:46.710-0600"
],
"FTBFContext_v44" : [
"2017-12-01T17:07:56.442-0600"
],
"FTBFContext_v45" : [
"2017-12-01T17:10:13.819-0600"
],
"FTBFContext_v46" : [
"2017-12-01T18:00:43.384-0600"
],
"FTBFContext_v47" : [
"2017-12-01T19:52:09.058-0600"
],
"FTBFContext_v48" : [
"2017-12-02T14:47:39.557-0600"
],
"FTBFContext_v49" : [
"2017-12-02T14:48:22.711-0600"
],
"FTBFContext_v50" : [
"2017-12-02T18:54:54.413-0600"
],
"FTBFContext_v51" : [
"2017-12-02T19:09:29.759-0600"
],
"FTBFContext_v52" : [
"2017-12-03T12:01:07.414-0600"
],
"FTBFContext_v53" : [
"2017-12-04T16:40:50.065-0600"
],
"FTBFContext_v54" : [
"2018-02-03T03:00:36.088-0600"
]
}
}