{
"document" : {
"data" : {
"NAME" : "DATA_MANAGER_SUPERVISOR_CONFIGURATION",
"COMMENT" : "Data manager top-level records.",
"AUTHOR" : "admin",
"CREATION_TIME" : 1509718058,
"COL_TYPES" : {
"SUPERVISOR_UID" : "VARCHAR2",
"LINK_TO_DATA_MANAGER_TABLE" : "VARCHAR2",
"LINK_TO_DATA_MANAGER_GROUP_ID" : "VARCHAR2",
"COMMENT_DESCRIPTION" : "VARCHAR2",
"AUTHOR" : "VARCHAR2",
"RECORD_INSERTION_TIME" : "TIMESTAMP WITH TIMEZONE"
},
"DATA_SET" : [
{
"SUPERVISOR_UID" : "DataManagerSupervisor0",
"LINK_TO_DATA_MANAGER_TABLE" : "DataManagerConfiguration",
"LINK_TO_DATA_MANAGER_GROUP_ID" : "DMGroup0",
"COMMENT_DESCRIPTION" : "No Comment",
"AUTHOR" : "admin",
"RECORD_INSERTION_TIME" : "1479771599"
},
{
"SUPERVISOR_UID" : "ARTDAQVisualSupervisor0",
"LINK_TO_DATA_MANAGER_TABLE" : "DataManagerConfiguration",
"LINK_TO_DATA_MANAGER_GROUP_ID" : "DMVisualizerGroup0",
"COMMENT_DESCRIPTION" : "No Comment",
"AUTHOR" : "admin",
"RECORD_INSERTION_TIME" : "1509718058"
},
{
"SUPERVISOR_UID" : "ARTDAQDataManagerSupervisor0",
"LINK_TO_DATA_MANAGER_TABLE" : "DataManagerConfiguration",
"LINK_TO_DATA_MANAGER_GROUP_ID" : "DMGroup0",
"COMMENT_DESCRIPTION" : "No Comment",
"AUTHOR" : "admin",
"RECORD_INSERTION_TIME" : "1508871380"
},
{
"SUPERVISOR_UID" : "DataManagerSupervisorFSSR0",
"LINK_TO_DATA_MANAGER_TABLE" : "DataManagerConfiguration",
"LINK_TO_DATA_MANAGER_GROUP_ID" : "DataManagerSupervisorFSSR0",
"COMMENT_DESCRIPTION" : "",
"AUTHOR" : "admin",
"RECORD_INSERTION_TIME" : "1509718058"
},
{
"SUPERVISOR_UID" : "DataManagerSupervisorFSSR1",
"LINK_TO_DATA_MANAGER_TABLE" : "DataManagerConfiguration",
"LINK_TO_DATA_MANAGER_GROUP_ID" : "DataManagerSupervisorFSSR1",
"COMMENT_DESCRIPTION" : "",
"AUTHOR" : "admin",
"RECORD_INSERTION_TIME" : "1509718058"
},
{
"SUPERVISOR_UID" : "DataManagerSupervisorFSSR2",
"LINK_TO_DATA_MANAGER_TABLE" : "DataManagerConfiguration",
"LINK_TO_DATA_MANAGER_GROUP_ID" : "DataManagerSupervisorFSSR2",
"COMMENT_DESCRIPTION" : "",
"AUTHOR" : "admin",
"RECORD_INSERTION_TIME" : "1509718058"
},
{
"SUPERVISOR_UID" : "DataManagerSupervisorFSSR3",
"LINK_TO_DATA_MANAGER_TABLE" : "DataManagerConfiguration",
"LINK_TO_DATA_MANAGER_GROUP_ID" : "DataManagerSupervisorFSSR3",
"COMMENT_DESCRIPTION" : "",
"AUTHOR" : "admin",
"RECORD_INSERTION_TIME" : "1509718058"
},
{
"SUPERVISOR_UID" : "VisualSupervisor0",
"LINK_TO_DATA_MANAGER_TABLE" : "DataManagerConfiguration",
"LINK_TO_DATA_MANAGER_GROUP_ID" : "VisualDataManager",
"COMMENT_DESCRIPTION" : "",
"AUTHOR" : "admin",
"RECORD_INSERTION_TIME" : "1509718058"
},
{
"SUPERVISOR_UID" : "DataManagerSupervisorNIMPlus0",
"LINK_TO_DATA_MANAGER_TABLE" : "DataManagerConfiguration",
"LINK_TO_DATA_MANAGER_GROUP_ID" : "DataManagerSupervisorNIMPlus0",
"COMMENT_DESCRIPTION" : "No Comment",
"AUTHOR" : "admin",
"RECORD_INSERTION_TIME" : "1509718058"
}
]
},
"metadata" : {

},
"search" : [

]
},
"comments" : [

],
"origin" : {
"source" : "template",
"name" : "notprovided",
"format" : "json",
"created" : "2017-11-08T15:56:03.485-0600",
"rawdata" : [

]
},
"version" : "0",
"entities" : [
{
"name" : "OTSROOT",
"assigned" : "2017-11-08T15:56:03.487-0600"
}
],
"configurations" : [
{
"name" : "notprovided",
"assigned" : "2017-11-08T15:56:03.486-0600"
},
{
"name" : "FTBFConfig_v0",
"assigned" : "2017-11-08T15:56:06.274-0600"
},
{
"name" : "FTBFConfig_v1",
"assigned" : "2017-11-09T09:56:31.067-0600"
},
{
"name" : "FTBFConfig_v2",
"assigned" : "2017-11-09T10:06:00.041-0600"
},
{
"name" : "FTBFConfig_v3",
"assigned" : "2017-11-09T10:37:11.601-0600"
},
{
"name" : "FTBFConfig_v4",
"assigned" : "2017-11-15T11:30:10.419-0600"
},
{
"name" : "FTBFConfig_v5",
"assigned" : "2017-11-15T11:54:57.243-0600"
},
{
"name" : "FTBFConfig_v6",
"assigned" : "2017-11-15T11:57:49.864-0600"
}
],
"changelog" : "notprovided",
"bookkeeping" : {
"isdeleted" : false,
"isreadonly" : false,
"updates" : [
{
"event" : "addConfiguration",
"timestamp" : "2017-11-08T15:56:03.486-0600",
"value" : {
"name" : "notprovided",
"assigned" : "2017-11-08T15:56:03.486-0600"
}
},
{
"event" : "setVersion",
"timestamp" : "2017-11-08T15:56:03.486-0600",
"value" : {
"name" : "0",
"assigned" : "2017-11-08T15:56:03.486-0600"
}
},
{
"event" : "setCollection",
"timestamp" : "2017-11-08T15:56:03.487-0600",
"value" : {
"name" : "DataManagerSupervisorConfiguration",
"assigned" : "2017-11-08T15:56:03.487-0600"
}
},
{
"event" : "addEntity",
"timestamp" : "2017-11-08T15:56:03.487-0600",
"value" : {
"name" : "OTSROOT",
"assigned" : "2017-11-08T15:56:03.487-0600"
}
},
{
"event" : "addConfiguration",
"timestamp" : "2017-11-08T15:56:06.274-0600",
"value" : {
"name" : "FTBFConfig_v0",
"assigned" : "2017-11-08T15:56:06.274-0600"
}
},
{
"event" : "addConfiguration",
"timestamp" : "2017-11-09T09:56:31.067-0600",
"value" : {
"name" : "FTBFConfig_v1",
"assigned" : "2017-11-09T09:56:31.067-0600"
}
},
{
"event" : "addConfiguration",
"timestamp" : "2017-11-09T10:06:00.041-0600",
"value" : {
"name" : "FTBFConfig_v2",
"assigned" : "2017-11-09T10:06:00.041-0600"
}
},
{
"event" : "addConfiguration",
"timestamp" : "2017-11-09T10:37:11.601-0600",
"value" : {
"name" : "FTBFConfig_v3",
"assigned" : "2017-11-09T10:37:11.601-0600"
}
},
{
"event" : "addConfiguration",
"timestamp" : "2017-11-15T11:30:10.419-0600",
"value" : {
"name" : "FTBFConfig_v4",
"assigned" : "2017-11-15T11:30:10.419-0600"
}
},
{
"event" : "addConfiguration",
"timestamp" : "2017-11-15T11:54:57.243-0600",
"value" : {
"name" : "FTBFConfig_v5",
"assigned" : "2017-11-15T11:54:57.243-0600"
}
},
{
"event" : "addConfiguration",
"timestamp" : "2017-11-15T11:57:49.864-0600",
"value" : {
"name" : "FTBFConfig_v6",
"assigned" : "2017-11-15T11:57:49.864-0600"
}
}
],
"created" : "2017-11-08T15:56:03.485-0600"
},
"_id" : {
"$oid" : "e1155d03ecf24106b09cc727"
},
"collection" : "DataManagerSupervisorConfiguration",
"aliases" : {
"active" : [

],
"history" : [

]
},
"runs" : [

],
"attachments" : [

],
"configtype" : "notprovided"
}