{
"document" : {
"data" : {
"NAME" : "DATA_MANAGER_SUPERVISOR_CONFIGURATION",
"COMMENT" : "Data manager top-level records.",
"AUTHOR" : "admin",
"CREATION_TIME" : 1510771348,
"COL_TYPES" : {
"SUPERVISOR_UID" : "VARCHAR2",
"LINK_TO_DATA_MANAGER_TABLE" : "VARCHAR2",
"LINK_TO_DATA_MANAGER_GROUP_ID" : "VARCHAR2",
"COMMENT_DESCRIPTION" : "VARCHAR2",
"AUTHOR" : "VARCHAR2",
"RECORD_INSERTION_TIME" : "TIMESTAMP WITH TIMEZONE"
},
"DATA_SET" : [
{
"SUPERVISOR_UID" : "DataManagerSupervisor0",
"LINK_TO_DATA_MANAGER_TABLE" : "DataManagerConfiguration",
"LINK_TO_DATA_MANAGER_GROUP_ID" : "DMGroup0",
"COMMENT_DESCRIPTION" : "No Comment",
"AUTHOR" : "admin",
"RECORD_INSERTION_TIME" : "1479771599"
},
{
"SUPERVISOR_UID" : "ARTDAQVisualSupervisor0",
"LINK_TO_DATA_MANAGER_TABLE" : "DataManagerConfiguration",
"LINK_TO_DATA_MANAGER_GROUP_ID" : "DMVisualizerGroup0",
"COMMENT_DESCRIPTION" : "No Comment",
"AUTHOR" : "admin",
"RECORD_INSERTION_TIME" : "1509718058"
},
{
"SUPERVISOR_UID" : "ARTDAQDataManagerSupervisor0",
"LINK_TO_DATA_MANAGER_TABLE" : "DataManagerConfiguration",
"LINK_TO_DATA_MANAGER_GROUP_ID" : "DMGroup0",
"COMMENT_DESCRIPTION" : "No Comment",
"AUTHOR" : "admin",
"RECORD_INSERTION_TIME" : "1508871380"
},
{
"SUPERVISOR_UID" : "DataManagerSupervisorFSSR0",
"LINK_TO_DATA_MANAGER_TABLE" : "DataManagerConfiguration",
"LINK_TO_DATA_MANAGER_GROUP_ID" : "DataManagerSupervisorFSSR0",
"COMMENT_DESCRIPTION" : "",
"AUTHOR" : "admin",
"RECORD_INSERTION_TIME" : "1509718058"
},
{
"SUPERVISOR_UID" : "DataManagerSupervisorFSSR1",
"LINK_TO_DATA_MANAGER_TABLE" : "DataManagerConfiguration",
"LINK_TO_DATA_MANAGER_GROUP_ID" : "DataManagerSupervisorFSSR1",
"COMMENT_DESCRIPTION" : "",
"AUTHOR" : "admin",
"RECORD_INSERTION_TIME" : "1509718058"
},
{
"SUPERVISOR_UID" : "DataManagerSupervisorFSSR2",
"LINK_TO_DATA_MANAGER_TABLE" : "DataManagerConfiguration",
"LINK_TO_DATA_MANAGER_GROUP_ID" : "DataManagerSupervisorFSSR2",
"COMMENT_DESCRIPTION" : "",
"AUTHOR" : "admin",
"RECORD_INSERTION_TIME" : "1509718058"
},
{
"SUPERVISOR_UID" : "DataManagerSupervisorFSSR3",
"LINK_TO_DATA_MANAGER_TABLE" : "DataManagerConfiguration",
"LINK_TO_DATA_MANAGER_GROUP_ID" : "DataManagerSupervisorFSSR3",
"COMMENT_DESCRIPTION" : "",
"AUTHOR" : "admin",
"RECORD_INSERTION_TIME" : "1509718058"
},
{
"SUPERVISOR_UID" : "VisualSupervisor0",
"LINK_TO_DATA_MANAGER_TABLE" : "DataManagerConfiguration",
"LINK_TO_DATA_MANAGER_GROUP_ID" : "VisualDataManager",
"COMMENT_DESCRIPTION" : "",
"AUTHOR" : "admin",
"RECORD_INSERTION_TIME" : "1509718058"
},
{
"SUPERVISOR_UID" : "DataManagerSupervisorNIMPlus0",
"LINK_TO_DATA_MANAGER_TABLE" : "DataManagerConfiguration",
"LINK_TO_DATA_MANAGER_GROUP_ID" : "DataManagerSupervisorNIMPlus0",
"COMMENT_DESCRIPTION" : "No Comment",
"AUTHOR" : "admin",
"RECORD_INSERTION_TIME" : "1509718058"
},
{
"SUPERVISOR_UID" : "ARTDAQDataManagerStripsSupervisor2",
"LINK_TO_DATA_MANAGER_TABLE" : "DataManagerConfiguration",
"LINK_TO_DATA_MANAGER_GROUP_ID" : "ARTDAQDataManagerStripsSupervisor2",
"COMMENT_DESCRIPTION" : "No Comment",
"AUTHOR" : "admin",
"RECORD_INSERTION_TIME" : "1510771348"
}
]
},
"metadata" : {

},
"search" : [

]
},
"comments" : [

],
"origin" : {
"source" : "template",
"name" : "notprovided",
"format" : "json",
"created" : "2017-11-15T12:42:28.956-0600",
"rawdata" : [

]
},
"version" : "1",
"entities" : [
{
"name" : "OTSROOT",
"assigned" : "2017-11-15T12:42:28.959-0600"
}
],
"configurations" : [
{
"name" : "notprovided",
"assigned" : "2017-11-15T12:42:28.957-0600"
},
{
"name" : "FTBFConfig_v7",
"assigned" : "2017-11-15T12:42:32.274-0600"
},
{
"name" : "FTBFConfig_v8",
"assigned" : "2017-11-15T13:01:03.356-0600"
},
{
"name" : "FTBFConfig_v9",
"assigned" : "2017-11-15T13:02:56.691-0600"
},
{
"name" : "FTBFConfig_v10",
"assigned" : "2017-11-15T13:04:24.271-0600"
},
{
"name" : "FTBFConfig_v11",
"assigned" : "2017-11-15T13:07:51.778-0600"
},
{
"name" : "FTBFConfig_v12",
"assigned" : "2017-11-15T13:11:59.239-0600"
},
{
"name" : "FTBFConfig_v13",
"assigned" : "2017-11-15T13:13:53.189-0600"
},
{
"name" : "FTBFConfig_v14",
"assigned" : "2017-11-15T13:27:30.038-0600"
},
{
"name" : "FTBFConfig_v15",
"assigned" : "2017-11-15T13:35:47.190-0600"
},
{
"name" : "FTBFConfig_v16",
"assigned" : "2017-11-15T13:36:51.803-0600"
},
{
"name" : "FTBFConfig_v17",
"assigned" : "2017-11-15T15:33:30.347-0600"
},
{
"name" : "FTBFConfig_v18",
"assigned" : "2017-11-15T15:35:33.967-0600"
},
{
"name" : "FTBFConfig_v19",
"assigned" : "2017-11-15T15:38:02.821-0600"
},
{
"name" : "FTBFConfig_v20",
"assigned" : "2017-11-15T16:26:30.704-0600"
},
{
"name" : "FTBFConfig_v21",
"assigned" : "2017-11-16T09:22:31.628-0600"
},
{
"name" : "FTBFConfig_v22",
"assigned" : "2017-11-17T10:23:27.851-0600"
},
{
"name" : "FTBFConfig_v23",
"assigned" : "2017-11-17T17:26:45.410-0600"
},
{
"name" : "FTBFConfig_v24",
"assigned" : "2017-11-17T17:58:25.928-0600"
},
{
"name" : "FTBFConfig_v25",
"assigned" : "2017-11-17T18:24:45.597-0600"
},
{
"name" : "FTBFConfig_v26",
"assigned" : "2017-11-17T18:32:23.135-0600"
},
{
"name" : "FTBFConfig_v27",
"assigned" : "2017-11-17T18:43:30.315-0600"
},
{
"name" : "FTBFConfig_v28",
"assigned" : "2017-11-17T18:48:32.353-0600"
},
{
"name" : "FTBFConfig_v29",
"assigned" : "2017-11-20T14:48:30.993-0600"
},
{
"name" : "FTBFConfig_v30",
"assigned" : "2017-11-20T15:39:56.130-0600"
},
{
"name" : "FTBFConfig_v31",
"assigned" : "2017-11-20T16:41:02.151-0600"
},
{
"name" : "FTBFConfig_v32",
"assigned" : "2017-11-20T18:55:35.068-0600"
},
{
"name" : "FTBFConfig_v33",
"assigned" : "2017-11-20T18:57:30.350-0600"
},
{
"name" : "FTBFConfig_v34",
"assigned" : "2017-11-29T17:50:39.839-0600"
},
{
"name" : "FTBFConfig_v35",
"assigned" : "2017-11-29T18:00:32.798-0600"
},
{
"name" : "FTBFConfig_v36",
"assigned" : "2017-11-29T18:35:11.506-0600"
},
{
"name" : "FTBFConfig_v37",
"assigned" : "2017-12-01T09:36:17.877-0600"
},
{
"name" : "FTBFConfig_v38",
"assigned" : "2017-12-01T09:52:01.225-0600"
},
{
"name" : "FTBFConfig_v39",
"assigned" : "2017-12-01T11:51:58.477-0600"
},
{
"name" : "FTBFConfig_v40",
"assigned" : "2017-12-01T12:18:20.527-0600"
},
{
"name" : "FTBFConfig_v41",
"assigned" : "2017-12-01T12:21:02.584-0600"
},
{
"name" : "FTBFConfig_v42",
"assigned" : "2017-12-01T12:43:21.887-0600"
},
{
"name" : "FTBFConfig_v43",
"assigned" : "2017-12-01T12:57:59.666-0600"
},
{
"name" : "FTBFConfig_v44",
"assigned" : "2017-12-01T13:00:52.276-0600"
},
{
"name" : "FTBFConfig_v45",
"assigned" : "2017-12-01T13:25:48.928-0600"
},
{
"name" : "FTBFConfig_v46",
"assigned" : "2017-12-01T13:35:43.666-0600"
},
{
"name" : "FTBFConfig_v47",
"assigned" : "2017-12-01T14:00:51.978-0600"
},
{
"name" : "FTBFConfig_v48",
"assigned" : "2017-12-01T14:03:59.330-0600"
},
{
"name" : "FTBFConfig_v49",
"assigned" : "2017-12-01T15:31:59.478-0600"
},
{
"name" : "FTBFConfig_v52",
"assigned" : "2017-12-01T15:37:31.727-0600"
},
{
"name" : "FTBFConfig_v53",
"assigned" : "2017-12-01T15:40:58.994-0600"
},
{
"name" : "FTBFConfig_v54",
"assigned" : "2017-12-01T15:52:49.312-0600"
},
{
"name" : "FTBFConfig_v55",
"assigned" : "2017-12-01T15:54:34.459-0600"
},
{
"name" : "FTBFConfig_v56",
"assigned" : "2017-12-01T15:55:34.031-0600"
},
{
"name" : "FTBFConfig_v57",
"assigned" : "2017-12-01T15:56:39.865-0600"
},
{
"name" : "FTBFConfig_v58",
"assigned" : "2017-12-01T15:57:37.927-0600"
},
{
"name" : "FTBFConfig_v59",
"assigned" : "2017-12-01T15:58:29.841-0600"
},
{
"name" : "FTBFConfig_v60",
"assigned" : "2017-12-01T15:59:31.048-0600"
},
{
"name" : "FTBFConfig_v61",
"assigned" : "2017-12-01T16:19:40.877-0600"
},
{
"name" : "FTBFConfig_v62",
"assigned" : "2017-12-01T16:22:03.360-0600"
},
{
"name" : "FTBFConfig_v63",
"assigned" : "2017-12-01T16:31:23.986-0600"
},
{
"name" : "FTBFConfig_v64",
"assigned" : "2017-12-01T17:06:31.209-0600"
},
{
"name" : "FTBFConfig_v65",
"assigned" : "2017-12-01T17:32:43.338-0600"
},
{
"name" : "FTBFConfig_v66",
"assigned" : "2017-12-01T20:38:49.839-0600"
},
{
"name" : "FTBFConfig_v67",
"assigned" : "2017-12-01T21:25:01.186-0600"
},
{
"name" : "FTBFConfig_v68",
"assigned" : "2017-12-01T21:43:00.873-0600"
},
{
"name" : "FTBFConfig_v69",
"assigned" : "2017-12-01T21:44:59.472-0600"
},
{
"name" : "FTBFConfig_v70",
"assigned" : "2017-12-01T21:59:18.727-0600"
},
{
"name" : "FTBFConfigNim_v0",
"assigned" : "2017-12-01T22:00:05.459-0600"
},
{
"name" : "FTBFConfigNim_v1",
"assigned" : "2017-12-01T22:13:07.227-0600"
},
{
"name" : "FTBFConfigNim_v2",
"assigned" : "2017-12-01T22:15:54.472-0600"
},
{
"name" : "FTBFConfigNim_v3",
"assigned" : "2017-12-01T22:17:02.870-0600"
},
{
"name" : "FTBFConfigNim_v4",
"assigned" : "2017-12-01T22:19:05.544-0600"
},
{
"name" : "FTBFConfigNim_v5",
"assigned" : "2017-12-01T22:21:56.296-0600"
},
{
"name" : "FTBFConfigNim_v6",
"assigned" : "2017-12-01T22:23:12.432-0600"
},
{
"name" : "FTBFConfigNim_v7",
"assigned" : "2017-12-01T22:25:16.273-0600"
},
{
"name" : "FTBFConfigNim_v8",
"assigned" : "2017-12-01T22:27:03.956-0600"
},
{
"name" : "FTBFConfigNim_v9",
"assigned" : "2017-12-01T22:29:28.076-0600"
},
{
"name" : "FTBFConfigNim_v10",
"assigned" : "2017-12-01T22:52:33.285-0600"
},
{
"name" : "FTBFConfigNim_v11",
"assigned" : "2017-12-01T22:57:28.070-0600"
},
{
"name" : "FTBFConfigNim_v12",
"assigned" : "2017-12-01T23:00:06.265-0600"
},
{
"name" : "FTBFConfigNim_v13",
"assigned" : "2017-12-01T23:52:34.395-0600"
},
{
"name" : "FTBFConfigNim_v14",
"assigned" : "2017-12-01T23:58:08.823-0600"
},
{
"name" : "FTBFConfigNim_v15",
"assigned" : "2017-12-02T00:00:33.075-0600"
},
{
"name" : "FTBFConfigNim_v16",
"assigned" : "2017-12-02T00:13:08.235-0600"
},
{
"name" : "FTBFConfigNim_v17",
"assigned" : "2017-12-02T00:28:27.194-0600"
},
{
"name" : "FTBFConfigNim_v18",
"assigned" : "2017-12-02T00:29:33.254-0600"
},
{
"name" : "FTBFConfigNim_v19",
"assigned" : "2017-12-02T00:31:11.475-0600"
},
{
"name" : "FTBFConfigNim_v20",
"assigned" : "2017-12-02T00:57:26.285-0600"
},
{
"name" : "FTBFConfigNim_v21",
"assigned" : "2017-12-02T10:58:00.829-0600"
},
{
"name" : "FTBFConfigNim_v22",
"assigned" : "2017-12-02T11:08:17.031-0600"
},
{
"name" : "FTBFConfigNim_v23",
"assigned" : "2017-12-02T11:12:38.587-0600"
},
{
"name" : "FTBFConfigNim_v24",
"assigned" : "2017-12-02T11:18:41.486-0600"
},
{
"name" : "FTBFConfigNim_v25",
"assigned" : "2017-12-02T11:27:04.675-0600"
},
{
"name" : "FTBFConfigNim_v26",
"assigned" : "2017-12-02T11:38:35.725-0600"
},
{
"name" : "FTBFConfigNim_v27",
"assigned" : "2017-12-02T11:49:06.918-0600"
},
{
"name" : "FTBFConfigNim_v28",
"assigned" : "2017-12-02T11:55:08.378-0600"
},
{
"name" : "FTBFConfigNim_v29",
"assigned" : "2017-12-02T12:06:25.213-0600"
},
{
"name" : "FTBFConfig_v71",
"assigned" : "2017-12-02T12:24:13.865-0600"
},
{
"name" : "FTBFConfig_v72",
"assigned" : "2017-12-02T12:43:34.716-0600"
},
{
"name" : "FTBFConfig_v73",
"assigned" : "2017-12-02T13:55:34.382-0600"
},
{
"name" : "FTBFConfig_v74",
"assigned" : "2017-12-02T14:09:06.754-0600"
},
{
"name" : "FTBFConfig_v75",
"assigned" : "2017-12-02T14:12:17.512-0600"
},
{
"name" : "FTBFConfig_v76",
"assigned" : "2017-12-02T19:05:52.594-0600"
},
{
"name" : "FTBFConfig_v77",
"assigned" : "2017-12-02T19:12:12.461-0600"
},
{
"name" : "FTBFConfig_v78",
"assigned" : "2017-12-03T14:03:47.603-0600"
},
{
"name" : "FTBFConfig_v79",
"assigned" : "2017-12-03T14:09:05.853-0600"
},
{
"name" : "FTBFConfig_v80",
"assigned" : "2017-12-03T14:11:09.601-0600"
},
{
"name" : "FTBFConfig_v81",
"assigned" : "2017-12-03T14:22:32.640-0600"
},
{
"name" : "FTBFConfig_v82",
"assigned" : "2017-12-03T14:40:37.426-0600"
},
{
"name" : "FTBFConfig_v83",
"assigned" : "2017-12-03T14:45:04.794-0600"
},
{
"name" : "FTBFConfig_v84",
"assigned" : "2017-12-04T14:51:30.126-0600"
},
{
"name" : "FTBFConfig_v85",
"assigned" : "2017-12-04T14:55:43.302-0600"
},
{
"name" : "FTBFConfig_v86",
"assigned" : "2017-12-04T16:51:06.327-0600"
},
{
"name" : "FTBFConfig_v87",
"assigned" : "2017-12-04T16:56:46.966-0600"
},
{
"name" : "FTBFConfig_v88",
"assigned" : "2017-12-04T17:01:11.693-0600"
},
{
"name" : "FTBFConfig_v89",
"assigned" : "2017-12-04T17:03:56.805-0600"
},
{
"name" : "FTBFConfig_v90",
"assigned" : "2017-12-04T17:07:16.439-0600"
},
{
"name" : "FTBFConfig_v91",
"assigned" : "2017-12-04T17:09:25.566-0600"
},
{
"name" : "FTBFConfig_v92",
"assigned" : "2017-12-04T17:11:38.060-0600"
},
{
"name" : "FTBFConfig_v93",
"assigned" : "2017-12-04T21:05:20.640-0600"
},
{
"name" : "FTBFConfig_v94",
"assigned" : "2017-12-04T21:17:11.583-0600"
},
{
"name" : "FTBFConfig_v95",
"assigned" : "2017-12-04T21:41:17.248-0600"
},
{
"name" : "FTBFConfig_v96",
"assigned" : "2017-12-04T22:39:01.892-0600"
},
{
"name" : "FTBFConfig_v97",
"assigned" : "2017-12-04T23:01:12.390-0600"
},
{
"name" : "FTBFConfig_v98",
"assigned" : "2017-12-07T11:07:46.398-0600"
},
{
"name" : "FTBFConfig_v99",
"assigned" : "2017-12-07T11:49:59.086-0600"
},
{
"name" : "FTBFConfig_v100",
"assigned" : "2017-12-07T11:58:25.817-0600"
},
{
"name" : "FTBFConfig_v101",
"assigned" : "2017-12-08T13:30:47.983-0600"
},
{
"name" : "FTBFConfig_v102",
"assigned" : "2017-12-08T13:32:34.847-0600"
},
{
"name" : "FTBFConfig_v103",
"assigned" : "2017-12-12T11:03:04.656-0600"
},
{
"name" : "FTBFConfig_v104",
"assigned" : "2017-12-12T13:50:59.094-0600"
},
{
"name" : "FTBFConfig_v105",
"assigned" : "2017-12-12T15:25:05.096-0600"
},
{
"name" : "FTBFConfig_v106",
"assigned" : "2017-12-13T10:24:23.451-0600"
},
{
"name" : "FTBFConfig_v107",
"assigned" : "2017-12-13T10:27:02.179-0600"
},
{
"name" : "FTBFConfig_v108",
"assigned" : "2018-02-01T21:14:25.741-0600"
},
{
"name" : "FTBFConfig_v109",
"assigned" : "2018-02-01T21:21:02.875-0600"
},
{
"name" : "FTBFConfig_v110",
"assigned" : "2018-02-02T11:25:33.838-0600"
},
{
"name" : "FTBFConfig_v111",
"assigned" : "2018-02-02T11:37:12.656-0600"
},
{
"name" : "FTBFConfig_v112",
"assigned" : "2018-02-02T11:47:15.163-0600"
},
{
"name" : "FTBFConfig_v113",
"assigned" : "2018-02-02T11:53:36.414-0600"
},
{
"name" : "FTBFConfig_v114",
"assigned" : "2018-02-02T12:00:52.514-0600"
},
{
"name" : "FTBFConfig_v115",
"assigned" : "2018-02-02T12:27:13.988-0600"
},
{
"name" : "FTBFConfig_v116",
"assigned" : "2018-02-02T14:28:53.511-0600"
},
{
"name" : "FTBFConfig_v117",
"assigned" : "2018-02-02T14:30:19.849-0600"
},
{
"name" : "FTBFConfig_v118",
"assigned" : "2018-02-02T14:34:01.117-0600"
},
{
"name" : "FTBFConfig_v119",
"assigned" : "2018-02-02T14:36:27.713-0600"
},
{
"name" : "FTBFConfig_v120",
"assigned" : "2018-02-02T14:38:41.051-0600"
},
{
"name" : "FTBFConfig_v121",
"assigned" : "2018-02-02T14:41:50.366-0600"
},
{
"name" : "FTBFConfig_v122",
"assigned" : "2018-02-02T14:50:24.449-0600"
},
{
"name" : "FTBFConfig_v123",
"assigned" : "2018-02-02T14:52:57.301-0600"
},
{
"name" : "FTBFConfig_v124",
"assigned" : "2018-02-02T14:59:50.622-0600"
},
{
"name" : "FTBFConfig_v125",
"assigned" : "2018-02-02T15:04:08.733-0600"
},
{
"name" : "FTBFConfig_v126",
"assigned" : "2018-02-02T15:50:11.954-0600"
},
{
"name" : "FTBFConfig_v127",
"assigned" : "2018-02-02T15:51:31.436-0600"
},
{
"name" : "FTBFConfig_v128",
"assigned" : "2018-02-02T15:52:36.591-0600"
},
{
"name" : "FTBFConfig_v129",
"assigned" : "2018-02-02T16:02:45.495-0600"
},
{
"name" : "FTBFConfig_v130",
"assigned" : "2018-02-02T16:08:45.035-0600"
},
{
"name" : "FTBFConfig_v131",
"assigned" : "2018-02-02T16:11:30.887-0600"
},
{
"name" : "FTBFConfig_v132",
"assigned" : "2018-02-02T16:12:58.750-0600"
},
{
"name" : "FTBFConfig_v133",
"assigned" : "2018-02-02T16:14:29.339-0600"
},
{
"name" : "FTBFConfig_v134",
"assigned" : "2018-02-02T16:26:22.246-0600"
},
{
"name" : "FTBFConfig_v135",
"assigned" : "2018-02-02T16:27:09.358-0600"
},
{
"name" : "FTBFConfig_v136",
"assigned" : "2018-02-02T16:29:30.717-0600"
},
{
"name" : "FTBFConfig_v137",
"assigned" : "2018-02-02T16:31:41.321-0600"
},
{
"name" : "FTBFConfig_v138",
"assigned" : "2018-02-02T16:34:13.990-0600"
},
{
"name" : "FTBFConfig_v139",
"assigned" : "2018-02-02T17:39:30.040-0600"
},
{
"name" : "FTBFConfig_v140",
"assigned" : "2018-02-02T17:42:52.219-0600"
},
{
"name" : "FTBFConfig_v141",
"assigned" : "2018-02-02T17:47:37.404-0600"
},
{
"name" : "FTBFConfig_v142",
"assigned" : "2018-02-02T17:54:01.426-0600"
}
],
"changelog" : "notprovided",
"bookkeeping" : {
"isdeleted" : false,
"isreadonly" : false,
"updates" : [
{
"event" : "addConfiguration",
"timestamp" : "2017-11-15T12:42:28.957-0600",
"value" : {
"name" : "notprovided",
"assigned" : "2017-11-15T12:42:28.957-0600"
}
},
{
"event" : "setVersion",
"timestamp" : "2017-11-15T12:42:28.958-0600",
"value" : {
"name" : "1",
"assigned" : "2017-11-15T12:42:28.958-0600"
}
},
{
"event" : "setCollection",
"timestamp" : "2017-11-15T12:42:28.958-0600",
"value" : {
"name" : "DataManagerSupervisorConfiguration",
"assigned" : "2017-11-15T12:42:28.958-0600"
}
},
{
"event" : "addEntity",
"timestamp" : "2017-11-15T12:42:28.959-0600",
"value" : {
"name" : "OTSROOT",
"assigned" : "2017-11-15T12:42:28.959-0600"
}
},
{
"event" : "addConfiguration",
"timestamp" : "2017-11-15T12:42:32.274-0600",
"value" : {
"name" : "FTBFConfig_v7",
"assigned" : "2017-11-15T12:42:32.274-0600"
}
},
{
"event" : "addConfiguration",
"timestamp" : "2017-11-15T13:01:03.356-0600",
"value" : {
"name" : "FTBFConfig_v8",
"assigned" : "2017-11-15T13:01:03.356-0600"
}
},
{
"event" : "addConfiguration",
"timestamp" : "2017-11-15T13:02:56.691-0600",
"value" : {
"name" : "FTBFConfig_v9",
"assigned" : "2017-11-15T13:02:56.691-0600"
}
},
{
"event" : "addConfiguration",
"timestamp" : "2017-11-15T13:04:24.271-0600",
"value" : {
"name" : "FTBFConfig_v10",
"assigned" : "2017-11-15T13:04:24.271-0600"
}
},
{
"event" : "addConfiguration",
"timestamp" : "2017-11-15T13:07:51.778-0600",
"value" : {
"name" : "FTBFConfig_v11",
"assigned" : "2017-11-15T13:07:51.778-0600"
}
},
{
"event" : "addConfiguration",
"timestamp" : "2017-11-15T13:11:59.239-0600",
"value" : {
"name" : "FTBFConfig_v12",
"assigned" : "2017-11-15T13:11:59.239-0600"
}
},
{
"event" : "addConfiguration",
"timestamp" : "2017-11-15T13:13:53.189-0600",
"value" : {
"name" : "FTBFConfig_v13",
"assigned" : "2017-11-15T13:13:53.189-0600"
}
},
{
"event" : "addConfiguration",
"timestamp" : "2017-11-15T13:27:30.038-0600",
"value" : {
"name" : "FTBFConfig_v14",
"assigned" : "2017-11-15T13:27:30.038-0600"
}
},
{
"event" : "addConfiguration",
"timestamp" : "2017-11-15T13:35:47.190-0600",
"value" : {
"name" : "FTBFConfig_v15",
"assigned" : "2017-11-15T13:35:47.190-0600"
}
},
{
"event" : "addConfiguration",
"timestamp" : "2017-11-15T13:36:51.803-0600",
"value" : {
"name" : "FTBFConfig_v16",
"assigned" : "2017-11-15T13:36:51.803-0600"
}
},
{
"event" : "addConfiguration",
"timestamp" : "2017-11-15T15:33:30.347-0600",
"value" : {
"name" : "FTBFConfig_v17",
"assigned" : "2017-11-15T15:33:30.347-0600"
}
},
{
"event" : "addConfiguration",
"timestamp" : "2017-11-15T15:35:33.967-0600",
"value" : {
"name" : "FTBFConfig_v18",
"assigned" : "2017-11-15T15:35:33.967-0600"
}
},
{
"event" : "addConfiguration",
"timestamp" : "2017-11-15T15:38:02.821-0600",
"value" : {
"name" : "FTBFConfig_v19",
"assigned" : "2017-11-15T15:38:02.821-0600"
}
},
{
"event" : "addConfiguration",
"timestamp" : "2017-11-15T16:26:30.704-0600",
"value" : {
"name" : "FTBFConfig_v20",
"assigned" : "2017-11-15T16:26:30.704-0600"
}
},
{
"event" : "addConfiguration",
"timestamp" : "2017-11-16T09:22:31.628-0600",
"value" : {
"name" : "FTBFConfig_v21",
"assigned" : "2017-11-16T09:22:31.628-0600"
}
},
{
"event" : "addConfiguration",
"timestamp" : "2017-11-17T10:23:27.851-0600",
"value" : {
"name" : "FTBFConfig_v22",
"assigned" : "2017-11-17T10:23:27.851-0600"
}
},
{
"event" : "addConfiguration",
"timestamp" : "2017-11-17T17:26:45.410-0600",
"value" : {
"name" : "FTBFConfig_v23",
"assigned" : "2017-11-17T17:26:45.410-0600"
}
},
{
"event" : "addConfiguration",
"timestamp" : "2017-11-17T17:58:25.928-0600",
"value" : {
"name" : "FTBFConfig_v24",
"assigned" : "2017-11-17T17:58:25.928-0600"
}
},
{
"event" : "addConfiguration",
"timestamp" : "2017-11-17T18:24:45.597-0600",
"value" : {
"name" : "FTBFConfig_v25",
"assigned" : "2017-11-17T18:24:45.597-0600"
}
},
{
"event" : "addConfiguration",
"timestamp" : "2017-11-17T18:32:23.135-0600",
"value" : {
"name" : "FTBFConfig_v26",
"assigned" : "2017-11-17T18:32:23.135-0600"
}
},
{
"event" : "addConfiguration",
"timestamp" : "2017-11-17T18:43:30.315-0600",
"value" : {
"name" : "FTBFConfig_v27",
"assigned" : "2017-11-17T18:43:30.315-0600"
}
},
{
"event" : "addConfiguration",
"timestamp" : "2017-11-17T18:48:32.353-0600",
"value" : {
"name" : "FTBFConfig_v28",
"assigned" : "2017-11-17T18:48:32.353-0600"
}
},
{
"event" : "addConfiguration",
"timestamp" : "2017-11-20T14:48:30.993-0600",
"value" : {
"name" : "FTBFConfig_v29",
"assigned" : "2017-11-20T14:48:30.993-0600"
}
},
{
"event" : "addConfiguration",
"timestamp" : "2017-11-20T15:39:56.130-0600",
"value" : {
"name" : "FTBFConfig_v30",
"assigned" : "2017-11-20T15:39:56.130-0600"
}
},
{
"event" : "addConfiguration",
"timestamp" : "2017-11-20T16:41:02.151-0600",
"value" : {
"name" : "FTBFConfig_v31",
"assigned" : "2017-11-20T16:41:02.151-0600"
}
},
{
"event" : "addConfiguration",
"timestamp" : "2017-11-20T18:55:35.068-0600",
"value" : {
"name" : "FTBFConfig_v32",
"assigned" : "2017-11-20T18:55:35.068-0600"
}
},
{
"event" : "addConfiguration",
"timestamp" : "2017-11-20T18:57:30.350-0600",
"value" : {
"name" : "FTBFConfig_v33",
"assigned" : "2017-11-20T18:57:30.350-0600"
}
},
{
"event" : "addConfiguration",
"timestamp" : "2017-11-29T17:50:39.839-0600",
"value" : {
"name" : "FTBFConfig_v34",
"assigned" : "2017-11-29T17:50:39.839-0600"
}
},
{
"event" : "addConfiguration",
"timestamp" : "2017-11-29T18:00:32.798-0600",
"value" : {
"name" : "FTBFConfig_v35",
"assigned" : "2017-11-29T18:00:32.798-0600"
}
},
{
"event" : "addConfiguration",
"timestamp" : "2017-11-29T18:35:11.506-0600",
"value" : {
"name" : "FTBFConfig_v36",
"assigned" : "2017-11-29T18:35:11.506-0600"
}
},
{
"event" : "addConfiguration",
"timestamp" : "2017-12-01T09:36:17.877-0600",
"value" : {
"name" : "FTBFConfig_v37",
"assigned" : "2017-12-01T09:36:17.877-0600"
}
},
{
"event" : "addConfiguration",
"timestamp" : "2017-12-01T09:52:01.225-0600",
"value" : {
"name" : "FTBFConfig_v38",
"assigned" : "2017-12-01T09:52:01.225-0600"
}
},
{
"event" : "addConfiguration",
"timestamp" : "2017-12-01T11:51:58.477-0600",
"value" : {
"name" : "FTBFConfig_v39",
"assigned" : "2017-12-01T11:51:58.477-0600"
}
},
{
"event" : "addConfiguration",
"timestamp" : "2017-12-01T12:18:20.527-0600",
"value" : {
"name" : "FTBFConfig_v40",
"assigned" : "2017-12-01T12:18:20.527-0600"
}
},
{
"event" : "addConfiguration",
"timestamp" : "2017-12-01T12:21:02.584-0600",
"value" : {
"name" : "FTBFConfig_v41",
"assigned" : "2017-12-01T12:21:02.584-0600"
}
},
{
"event" : "addConfiguration",
"timestamp" : "2017-12-01T12:43:21.887-0600",
"value" : {
"name" : "FTBFConfig_v42",
"assigned" : "2017-12-01T12:43:21.887-0600"
}
},
{
"event" : "addConfiguration",
"timestamp" : "2017-12-01T12:57:59.666-0600",
"value" : {
"name" : "FTBFConfig_v43",
"assigned" : "2017-12-01T12:57:59.666-0600"
}
},
{
"event" : "addConfiguration",
"timestamp" : "2017-12-01T13:00:52.276-0600",
"value" : {
"name" : "FTBFConfig_v44",
"assigned" : "2017-12-01T13:00:52.276-0600"
}
},
{
"event" : "addConfiguration",
"timestamp" : "2017-12-01T13:25:48.928-0600",
"value" : {
"name" : "FTBFConfig_v45",
"assigned" : "2017-12-01T13:25:48.928-0600"
}
},
{
"event" : "addConfiguration",
"timestamp" : "2017-12-01T13:35:43.666-0600",
"value" : {
"name" : "FTBFConfig_v46",
"assigned" : "2017-12-01T13:35:43.666-0600"
}
},
{
"event" : "addConfiguration",
"timestamp" : "2017-12-01T14:00:51.978-0600",
"value" : {
"name" : "FTBFConfig_v47",
"assigned" : "2017-12-01T14:00:51.978-0600"
}
},
{
"event" : "addConfiguration",
"timestamp" : "2017-12-01T14:03:59.330-0600",
"value" : {
"name" : "FTBFConfig_v48",
"assigned" : "2017-12-01T14:03:59.330-0600"
}
},
{
"event" : "addConfiguration",
"timestamp" : "2017-12-01T15:31:59.478-0600",
"value" : {
"name" : "FTBFConfig_v49",
"assigned" : "2017-12-01T15:31:59.478-0600"
}
},
{
"event" : "addConfiguration",
"timestamp" : "2017-12-01T15:37:31.727-0600",
"value" : {
"name" : "FTBFConfig_v52",
"assigned" : "2017-12-01T15:37:31.727-0600"
}
},
{
"event" : "addConfiguration",
"timestamp" : "2017-12-01T15:40:58.994-0600",
"value" : {
"name" : "FTBFConfig_v53",
"assigned" : "2017-12-01T15:40:58.994-0600"
}
},
{
"event" : "addConfiguration",
"timestamp" : "2017-12-01T15:52:49.312-0600",
"value" : {
"name" : "FTBFConfig_v54",
"assigned" : "2017-12-01T15:52:49.312-0600"
}
},
{
"event" : "addConfiguration",
"timestamp" : "2017-12-01T15:54:34.460-0600",
"value" : {
"name" : "FTBFConfig_v55",
"assigned" : "2017-12-01T15:54:34.459-0600"
}
},
{
"event" : "addConfiguration",
"timestamp" : "2017-12-01T15:55:34.031-0600",
"value" : {
"name" : "FTBFConfig_v56",
"assigned" : "2017-12-01T15:55:34.031-0600"
}
},
{
"event" : "addConfiguration",
"timestamp" : "2017-12-01T15:56:39.865-0600",
"value" : {
"name" : "FTBFConfig_v57",
"assigned" : "2017-12-01T15:56:39.865-0600"
}
},
{
"event" : "addConfiguration",
"timestamp" : "2017-12-01T15:57:37.927-0600",
"value" : {
"name" : "FTBFConfig_v58",
"assigned" : "2017-12-01T15:57:37.927-0600"
}
},
{
"event" : "addConfiguration",
"timestamp" : "2017-12-01T15:58:29.841-0600",
"value" : {
"name" : "FTBFConfig_v59",
"assigned" : "2017-12-01T15:58:29.841-0600"
}
},
{
"event" : "addConfiguration",
"timestamp" : "2017-12-01T15:59:31.048-0600",
"value" : {
"name" : "FTBFConfig_v60",
"assigned" : "2017-12-01T15:59:31.048-0600"
}
},
{
"event" : "addConfiguration",
"timestamp" : "2017-12-01T16:19:40.877-0600",
"value" : {
"name" : "FTBFConfig_v61",
"assigned" : "2017-12-01T16:19:40.877-0600"
}
},
{
"event" : "addConfiguration",
"timestamp" : "2017-12-01T16:22:03.360-0600",
"value" : {
"name" : "FTBFConfig_v62",
"assigned" : "2017-12-01T16:22:03.360-0600"
}
},
{
"event" : "addConfiguration",
"timestamp" : "2017-12-01T16:31:23.987-0600",
"value" : {
"name" : "FTBFConfig_v63",
"assigned" : "2017-12-01T16:31:23.986-0600"
}
},
{
"event" : "addConfiguration",
"timestamp" : "2017-12-01T17:06:31.209-0600",
"value" : {
"name" : "FTBFConfig_v64",
"assigned" : "2017-12-01T17:06:31.209-0600"
}
},
{
"event" : "addConfiguration",
"timestamp" : "2017-12-01T17:32:43.338-0600",
"value" : {
"name" : "FTBFConfig_v65",
"assigned" : "2017-12-01T17:32:43.338-0600"
}
},
{
"event" : "addConfiguration",
"timestamp" : "2017-12-01T20:38:49.839-0600",
"value" : {
"name" : "FTBFConfig_v66",
"assigned" : "2017-12-01T20:38:49.839-0600"
}
},
{
"event" : "addConfiguration",
"timestamp" : "2017-12-01T21:25:01.186-0600",
"value" : {
"name" : "FTBFConfig_v67",
"assigned" : "2017-12-01T21:25:01.186-0600"
}
},
{
"event" : "addConfiguration",
"timestamp" : "2017-12-01T21:43:00.873-0600",
"value" : {
"name" : "FTBFConfig_v68",
"assigned" : "2017-12-01T21:43:00.873-0600"
}
},
{
"event" : "addConfiguration",
"timestamp" : "2017-12-01T21:44:59.472-0600",
"value" : {
"name" : "FTBFConfig_v69",
"assigned" : "2017-12-01T21:44:59.472-0600"
}
},
{
"event" : "addConfiguration",
"timestamp" : "2017-12-01T21:59:18.728-0600",
"value" : {
"name" : "FTBFConfig_v70",
"assigned" : "2017-12-01T21:59:18.727-0600"
}
},
{
"event" : "addConfiguration",
"timestamp" : "2017-12-01T22:00:05.459-0600",
"value" : {
"name" : "FTBFConfigNim_v0",
"assigned" : "2017-12-01T22:00:05.459-0600"
}
},
{
"event" : "addConfiguration",
"timestamp" : "2017-12-01T22:13:07.227-0600",
"value" : {
"name" : "FTBFConfigNim_v1",
"assigned" : "2017-12-01T22:13:07.227-0600"
}
},
{
"event" : "addConfiguration",
"timestamp" : "2017-12-01T22:15:54.472-0600",
"value" : {
"name" : "FTBFConfigNim_v2",
"assigned" : "2017-12-01T22:15:54.472-0600"
}
},
{
"event" : "addConfiguration",
"timestamp" : "2017-12-01T22:17:02.870-0600",
"value" : {
"name" : "FTBFConfigNim_v3",
"assigned" : "2017-12-01T22:17:02.870-0600"
}
},
{
"event" : "addConfiguration",
"timestamp" : "2017-12-01T22:19:05.544-0600",
"value" : {
"name" : "FTBFConfigNim_v4",
"assigned" : "2017-12-01T22:19:05.544-0600"
}
},
{
"event" : "addConfiguration",
"timestamp" : "2017-12-01T22:21:56.296-0600",
"value" : {
"name" : "FTBFConfigNim_v5",
"assigned" : "2017-12-01T22:21:56.296-0600"
}
},
{
"event" : "addConfiguration",
"timestamp" : "2017-12-01T22:23:12.432-0600",
"value" : {
"name" : "FTBFConfigNim_v6",
"assigned" : "2017-12-01T22:23:12.432-0600"
}
},
{
"event" : "addConfiguration",
"timestamp" : "2017-12-01T22:25:16.273-0600",
"value" : {
"name" : "FTBFConfigNim_v7",
"assigned" : "2017-12-01T22:25:16.273-0600"
}
},
{
"event" : "addConfiguration",
"timestamp" : "2017-12-01T22:27:03.956-0600",
"value" : {
"name" : "FTBFConfigNim_v8",
"assigned" : "2017-12-01T22:27:03.956-0600"
}
},
{
"event" : "addConfiguration",
"timestamp" : "2017-12-01T22:29:28.076-0600",
"value" : {
"name" : "FTBFConfigNim_v9",
"assigned" : "2017-12-01T22:29:28.076-0600"
}
},
{
"event" : "addConfiguration",
"timestamp" : "2017-12-01T22:52:33.285-0600",
"value" : {
"name" : "FTBFConfigNim_v10",
"assigned" : "2017-12-01T22:52:33.285-0600"
}
},
{
"event" : "addConfiguration",
"timestamp" : "2017-12-01T22:57:28.070-0600",
"value" : {
"name" : "FTBFConfigNim_v11",
"assigned" : "2017-12-01T22:57:28.070-0600"
}
},
{
"event" : "addConfiguration",
"timestamp" : "2017-12-01T23:00:06.265-0600",
"value" : {
"name" : "FTBFConfigNim_v12",
"assigned" : "2017-12-01T23:00:06.265-0600"
}
},
{
"event" : "addConfiguration",
"timestamp" : "2017-12-01T23:52:34.395-0600",
"value" : {
"name" : "FTBFConfigNim_v13",
"assigned" : "2017-12-01T23:52:34.395-0600"
}
},
{
"event" : "addConfiguration",
"timestamp" : "2017-12-01T23:58:08.824-0600",
"value" : {
"name" : "FTBFConfigNim_v14",
"assigned" : "2017-12-01T23:58:08.823-0600"
}
},
{
"event" : "addConfiguration",
"timestamp" : "2017-12-02T00:00:33.076-0600",
"value" : {
"name" : "FTBFConfigNim_v15",
"assigned" : "2017-12-02T00:00:33.075-0600"
}
},
{
"event" : "addConfiguration",
"timestamp" : "2017-12-02T00:13:08.236-0600",
"value" : {
"name" : "FTBFConfigNim_v16",
"assigned" : "2017-12-02T00:13:08.235-0600"
}
},
{
"event" : "addConfiguration",
"timestamp" : "2017-12-02T00:28:27.194-0600",
"value" : {
"name" : "FTBFConfigNim_v17",
"assigned" : "2017-12-02T00:28:27.194-0600"
}
},
{
"event" : "addConfiguration",
"timestamp" : "2017-12-02T00:29:33.254-0600",
"value" : {
"name" : "FTBFConfigNim_v18",
"assigned" : "2017-12-02T00:29:33.254-0600"
}
},
{
"event" : "addConfiguration",
"timestamp" : "2017-12-02T00:31:11.475-0600",
"value" : {
"name" : "FTBFConfigNim_v19",
"assigned" : "2017-12-02T00:31:11.475-0600"
}
},
{
"event" : "addConfiguration",
"timestamp" : "2017-12-02T00:57:26.285-0600",
"value" : {
"name" : "FTBFConfigNim_v20",
"assigned" : "2017-12-02T00:57:26.285-0600"
}
},
{
"event" : "addConfiguration",
"timestamp" : "2017-12-02T10:58:00.829-0600",
"value" : {
"name" : "FTBFConfigNim_v21",
"assigned" : "2017-12-02T10:58:00.829-0600"
}
},
{
"event" : "addConfiguration",
"timestamp" : "2017-12-02T11:08:17.031-0600",
"value" : {
"name" : "FTBFConfigNim_v22",
"assigned" : "2017-12-02T11:08:17.031-0600"
}
},
{
"event" : "addConfiguration",
"timestamp" : "2017-12-02T11:12:38.587-0600",
"value" : {
"name" : "FTBFConfigNim_v23",
"assigned" : "2017-12-02T11:12:38.587-0600"
}
},
{
"event" : "addConfiguration",
"timestamp" : "2017-12-02T11:18:41.486-0600",
"value" : {
"name" : "FTBFConfigNim_v24",
"assigned" : "2017-12-02T11:18:41.486-0600"
}
},
{
"event" : "addConfiguration",
"timestamp" : "2017-12-02T11:27:04.675-0600",
"value" : {
"name" : "FTBFConfigNim_v25",
"assigned" : "2017-12-02T11:27:04.675-0600"
}
},
{
"event" : "addConfiguration",
"timestamp" : "2017-12-02T11:38:35.725-0600",
"value" : {
"name" : "FTBFConfigNim_v26",
"assigned" : "2017-12-02T11:38:35.725-0600"
}
},
{
"event" : "addConfiguration",
"timestamp" : "2017-12-02T11:49:06.918-0600",
"value" : {
"name" : "FTBFConfigNim_v27",
"assigned" : "2017-12-02T11:49:06.918-0600"
}
},
{
"event" : "addConfiguration",
"timestamp" : "2017-12-02T11:55:08.378-0600",
"value" : {
"name" : "FTBFConfigNim_v28",
"assigned" : "2017-12-02T11:55:08.378-0600"
}
},
{
"event" : "addConfiguration",
"timestamp" : "2017-12-02T12:06:25.213-0600",
"value" : {
"name" : "FTBFConfigNim_v29",
"assigned" : "2017-12-02T12:06:25.213-0600"
}
},
{
"event" : "addConfiguration",
"timestamp" : "2017-12-02T12:24:13.865-0600",
"value" : {
"name" : "FTBFConfig_v71",
"assigned" : "2017-12-02T12:24:13.865-0600"
}
},
{
"event" : "addConfiguration",
"timestamp" : "2017-12-02T12:43:34.716-0600",
"value" : {
"name" : "FTBFConfig_v72",
"assigned" : "2017-12-02T12:43:34.716-0600"
}
},
{
"event" : "addConfiguration",
"timestamp" : "2017-12-02T13:55:34.382-0600",
"value" : {
"name" : "FTBFConfig_v73",
"assigned" : "2017-12-02T13:55:34.382-0600"
}
},
{
"event" : "addConfiguration",
"timestamp" : "2017-12-02T14:09:06.754-0600",
"value" : {
"name" : "FTBFConfig_v74",
"assigned" : "2017-12-02T14:09:06.754-0600"
}
},
{
"event" : "addConfiguration",
"timestamp" : "2017-12-02T14:12:17.512-0600",
"value" : {
"name" : "FTBFConfig_v75",
"assigned" : "2017-12-02T14:12:17.512-0600"
}
},
{
"event" : "addConfiguration",
"timestamp" : "2017-12-02T19:05:52.594-0600",
"value" : {
"name" : "FTBFConfig_v76",
"assigned" : "2017-12-02T19:05:52.594-0600"
}
},
{
"event" : "addConfiguration",
"timestamp" : "2017-12-02T19:12:12.461-0600",
"value" : {
"name" : "FTBFConfig_v77",
"assigned" : "2017-12-02T19:12:12.461-0600"
}
},
{
"event" : "addConfiguration",
"timestamp" : "2017-12-03T14:03:47.603-0600",
"value" : {
"name" : "FTBFConfig_v78",
"assigned" : "2017-12-03T14:03:47.603-0600"
}
},
{
"event" : "addConfiguration",
"timestamp" : "2017-12-03T14:09:05.853-0600",
"value" : {
"name" : "FTBFConfig_v79",
"assigned" : "2017-12-03T14:09:05.853-0600"
}
},
{
"event" : "addConfiguration",
"timestamp" : "2017-12-03T14:11:09.601-0600",
"value" : {
"name" : "FTBFConfig_v80",
"assigned" : "2017-12-03T14:11:09.601-0600"
}
},
{
"event" : "addConfiguration",
"timestamp" : "2017-12-03T14:22:32.640-0600",
"value" : {
"name" : "FTBFConfig_v81",
"assigned" : "2017-12-03T14:22:32.640-0600"
}
},
{
"event" : "addConfiguration",
"timestamp" : "2017-12-03T14:40:37.426-0600",
"value" : {
"name" : "FTBFConfig_v82",
"assigned" : "2017-12-03T14:40:37.426-0600"
}
},
{
"event" : "addConfiguration",
"timestamp" : "2017-12-03T14:45:04.795-0600",
"value" : {
"name" : "FTBFConfig_v83",
"assigned" : "2017-12-03T14:45:04.794-0600"
}
},
{
"event" : "addConfiguration",
"timestamp" : "2017-12-04T14:51:30.126-0600",
"value" : {
"name" : "FTBFConfig_v84",
"assigned" : "2017-12-04T14:51:30.126-0600"
}
},
{
"event" : "addConfiguration",
"timestamp" : "2017-12-04T14:55:43.302-0600",
"value" : {
"name" : "FTBFConfig_v85",
"assigned" : "2017-12-04T14:55:43.302-0600"
}
},
{
"event" : "addConfiguration",
"timestamp" : "2017-12-04T16:51:06.327-0600",
"value" : {
"name" : "FTBFConfig_v86",
"assigned" : "2017-12-04T16:51:06.327-0600"
}
},
{
"event" : "addConfiguration",
"timestamp" : "2017-12-04T16:56:46.967-0600",
"value" : {
"name" : "FTBFConfig_v87",
"assigned" : "2017-12-04T16:56:46.966-0600"
}
},
{
"event" : "addConfiguration",
"timestamp" : "2017-12-04T17:01:11.693-0600",
"value" : {
"name" : "FTBFConfig_v88",
"assigned" : "2017-12-04T17:01:11.693-0600"
}
},
{
"event" : "addConfiguration",
"timestamp" : "2017-12-04T17:03:56.805-0600",
"value" : {
"name" : "FTBFConfig_v89",
"assigned" : "2017-12-04T17:03:56.805-0600"
}
},
{
"event" : "addConfiguration",
"timestamp" : "2017-12-04T17:07:16.439-0600",
"value" : {
"name" : "FTBFConfig_v90",
"assigned" : "2017-12-04T17:07:16.439-0600"
}
},
{
"event" : "addConfiguration",
"timestamp" : "2017-12-04T17:09:25.566-0600",
"value" : {
"name" : "FTBFConfig_v91",
"assigned" : "2017-12-04T17:09:25.566-0600"
}
},
{
"event" : "addConfiguration",
"timestamp" : "2017-12-04T17:11:38.061-0600",
"value" : {
"name" : "FTBFConfig_v92",
"assigned" : "2017-12-04T17:11:38.060-0600"
}
},
{
"event" : "addConfiguration",
"timestamp" : "2017-12-04T21:05:20.641-0600",
"value" : {
"name" : "FTBFConfig_v93",
"assigned" : "2017-12-04T21:05:20.640-0600"
}
},
{
"event" : "addConfiguration",
"timestamp" : "2017-12-04T21:17:11.583-0600",
"value" : {
"name" : "FTBFConfig_v94",
"assigned" : "2017-12-04T21:17:11.583-0600"
}
},
{
"event" : "addConfiguration",
"timestamp" : "2017-12-04T21:41:17.248-0600",
"value" : {
"name" : "FTBFConfig_v95",
"assigned" : "2017-12-04T21:41:17.248-0600"
}
},
{
"event" : "addConfiguration",
"timestamp" : "2017-12-04T22:39:01.892-0600",
"value" : {
"name" : "FTBFConfig_v96",
"assigned" : "2017-12-04T22:39:01.892-0600"
}
},
{
"event" : "addConfiguration",
"timestamp" : "2017-12-04T23:01:12.391-0600",
"value" : {
"name" : "FTBFConfig_v97",
"assigned" : "2017-12-04T23:01:12.390-0600"
}
},
{
"event" : "addConfiguration",
"timestamp" : "2017-12-07T11:07:46.398-0600",
"value" : {
"name" : "FTBFConfig_v98",
"assigned" : "2017-12-07T11:07:46.398-0600"
}
},
{
"event" : "addConfiguration",
"timestamp" : "2017-12-07T11:49:59.086-0600",
"value" : {
"name" : "FTBFConfig_v99",
"assigned" : "2017-12-07T11:49:59.086-0600"
}
},
{
"event" : "addConfiguration",
"timestamp" : "2017-12-07T11:58:25.817-0600",
"value" : {
"name" : "FTBFConfig_v100",
"assigned" : "2017-12-07T11:58:25.817-0600"
}
},
{
"event" : "addConfiguration",
"timestamp" : "2017-12-08T13:30:47.983-0600",
"value" : {
"name" : "FTBFConfig_v101",
"assigned" : "2017-12-08T13:30:47.983-0600"
}
},
{
"event" : "addConfiguration",
"timestamp" : "2017-12-08T13:32:34.847-0600",
"value" : {
"name" : "FTBFConfig_v102",
"assigned" : "2017-12-08T13:32:34.847-0600"
}
},
{
"event" : "addConfiguration",
"timestamp" : "2017-12-12T11:03:04.656-0600",
"value" : {
"name" : "FTBFConfig_v103",
"assigned" : "2017-12-12T11:03:04.656-0600"
}
},
{
"event" : "addConfiguration",
"timestamp" : "2017-12-12T13:50:59.094-0600",
"value" : {
"name" : "FTBFConfig_v104",
"assigned" : "2017-12-12T13:50:59.094-0600"
}
},
{
"event" : "addConfiguration",
"timestamp" : "2017-12-12T15:25:05.096-0600",
"value" : {
"name" : "FTBFConfig_v105",
"assigned" : "2017-12-12T15:25:05.096-0600"
}
},
{
"event" : "addConfiguration",
"timestamp" : "2017-12-13T10:24:23.451-0600",
"value" : {
"name" : "FTBFConfig_v106",
"assigned" : "2017-12-13T10:24:23.451-0600"
}
},
{
"event" : "addConfiguration",
"timestamp" : "2017-12-13T10:27:02.179-0600",
"value" : {
"name" : "FTBFConfig_v107",
"assigned" : "2017-12-13T10:27:02.179-0600"
}
},
{
"event" : "addConfiguration",
"timestamp" : "2018-02-01T21:14:25.741-0600",
"value" : {
"name" : "FTBFConfig_v108",
"assigned" : "2018-02-01T21:14:25.741-0600"
}
},
{
"event" : "addConfiguration",
"timestamp" : "2018-02-01T21:21:02.875-0600",
"value" : {
"name" : "FTBFConfig_v109",
"assigned" : "2018-02-01T21:21:02.875-0600"
}
},
{
"event" : "addConfiguration",
"timestamp" : "2018-02-02T11:25:33.838-0600",
"value" : {
"name" : "FTBFConfig_v110",
"assigned" : "2018-02-02T11:25:33.838-0600"
}
},
{
"event" : "addConfiguration",
"timestamp" : "2018-02-02T11:37:12.656-0600",
"value" : {
"name" : "FTBFConfig_v111",
"assigned" : "2018-02-02T11:37:12.656-0600"
}
},
{
"event" : "addConfiguration",
"timestamp" : "2018-02-02T11:47:15.164-0600",
"value" : {
"name" : "FTBFConfig_v112",
"assigned" : "2018-02-02T11:47:15.163-0600"
}
},
{
"event" : "addConfiguration",
"timestamp" : "2018-02-02T11:53:36.414-0600",
"value" : {
"name" : "FTBFConfig_v113",
"assigned" : "2018-02-02T11:53:36.414-0600"
}
},
{
"event" : "addConfiguration",
"timestamp" : "2018-02-02T12:00:52.514-0600",
"value" : {
"name" : "FTBFConfig_v114",
"assigned" : "2018-02-02T12:00:52.514-0600"
}
},
{
"event" : "addConfiguration",
"timestamp" : "2018-02-02T12:27:13.989-0600",
"value" : {
"name" : "FTBFConfig_v115",
"assigned" : "2018-02-02T12:27:13.988-0600"
}
},
{
"event" : "addConfiguration",
"timestamp" : "2018-02-02T14:28:53.512-0600",
"value" : {
"name" : "FTBFConfig_v116",
"assigned" : "2018-02-02T14:28:53.511-0600"
}
},
{
"event" : "addConfiguration",
"timestamp" : "2018-02-02T14:30:19.850-0600",
"value" : {
"name" : "FTBFConfig_v117",
"assigned" : "2018-02-02T14:30:19.849-0600"
}
},
{
"event" : "addConfiguration",
"timestamp" : "2018-02-02T14:34:01.117-0600",
"value" : {
"name" : "FTBFConfig_v118",
"assigned" : "2018-02-02T14:34:01.117-0600"
}
},
{
"event" : "addConfiguration",
"timestamp" : "2018-02-02T14:36:27.714-0600",
"value" : {
"name" : "FTBFConfig_v119",
"assigned" : "2018-02-02T14:36:27.713-0600"
}
},
{
"event" : "addConfiguration",
"timestamp" : "2018-02-02T14:38:41.051-0600",
"value" : {
"name" : "FTBFConfig_v120",
"assigned" : "2018-02-02T14:38:41.051-0600"
}
},
{
"event" : "addConfiguration",
"timestamp" : "2018-02-02T14:41:50.366-0600",
"value" : {
"name" : "FTBFConfig_v121",
"assigned" : "2018-02-02T14:41:50.366-0600"
}
},
{
"event" : "addConfiguration",
"timestamp" : "2018-02-02T14:50:24.449-0600",
"value" : {
"name" : "FTBFConfig_v122",
"assigned" : "2018-02-02T14:50:24.449-0600"
}
},
{
"event" : "addConfiguration",
"timestamp" : "2018-02-02T14:52:57.302-0600",
"value" : {
"name" : "FTBFConfig_v123",
"assigned" : "2018-02-02T14:52:57.301-0600"
}
},
{
"event" : "addConfiguration",
"timestamp" : "2018-02-02T14:59:50.623-0600",
"value" : {
"name" : "FTBFConfig_v124",
"assigned" : "2018-02-02T14:59:50.622-0600"
}
},
{
"event" : "addConfiguration",
"timestamp" : "2018-02-02T15:04:08.734-0600",
"value" : {
"name" : "FTBFConfig_v125",
"assigned" : "2018-02-02T15:04:08.733-0600"
}
},
{
"event" : "addConfiguration",
"timestamp" : "2018-02-02T15:50:11.954-0600",
"value" : {
"name" : "FTBFConfig_v126",
"assigned" : "2018-02-02T15:50:11.954-0600"
}
},
{
"event" : "addConfiguration",
"timestamp" : "2018-02-02T15:51:31.436-0600",
"value" : {
"name" : "FTBFConfig_v127",
"assigned" : "2018-02-02T15:51:31.436-0600"
}
},
{
"event" : "addConfiguration",
"timestamp" : "2018-02-02T15:52:36.592-0600",
"value" : {
"name" : "FTBFConfig_v128",
"assigned" : "2018-02-02T15:52:36.591-0600"
}
},
{
"event" : "addConfiguration",
"timestamp" : "2018-02-02T16:02:45.496-0600",
"value" : {
"name" : "FTBFConfig_v129",
"assigned" : "2018-02-02T16:02:45.495-0600"
}
},
{
"event" : "addConfiguration",
"timestamp" : "2018-02-02T16:08:45.035-0600",
"value" : {
"name" : "FTBFConfig_v130",
"assigned" : "2018-02-02T16:08:45.035-0600"
}
},
{
"event" : "addConfiguration",
"timestamp" : "2018-02-02T16:11:30.887-0600",
"value" : {
"name" : "FTBFConfig_v131",
"assigned" : "2018-02-02T16:11:30.887-0600"
}
},
{
"event" : "addConfiguration",
"timestamp" : "2018-02-02T16:12:58.750-0600",
"value" : {
"name" : "FTBFConfig_v132",
"assigned" : "2018-02-02T16:12:58.750-0600"
}
},
{
"event" : "addConfiguration",
"timestamp" : "2018-02-02T16:14:29.339-0600",
"value" : {
"name" : "FTBFConfig_v133",
"assigned" : "2018-02-02T16:14:29.339-0600"
}
},
{
"event" : "addConfiguration",
"timestamp" : "2018-02-02T16:26:22.246-0600",
"value" : {
"name" : "FTBFConfig_v134",
"assigned" : "2018-02-02T16:26:22.246-0600"
}
},
{
"event" : "addConfiguration",
"timestamp" : "2018-02-02T16:27:09.358-0600",
"value" : {
"name" : "FTBFConfig_v135",
"assigned" : "2018-02-02T16:27:09.358-0600"
}
},
{
"event" : "addConfiguration",
"timestamp" : "2018-02-02T16:29:30.717-0600",
"value" : {
"name" : "FTBFConfig_v136",
"assigned" : "2018-02-02T16:29:30.717-0600"
}
},
{
"event" : "addConfiguration",
"timestamp" : "2018-02-02T16:31:41.321-0600",
"value" : {
"name" : "FTBFConfig_v137",
"assigned" : "2018-02-02T16:31:41.321-0600"
}
},
{
"event" : "addConfiguration",
"timestamp" : "2018-02-02T16:34:13.991-0600",
"value" : {
"name" : "FTBFConfig_v138",
"assigned" : "2018-02-02T16:34:13.990-0600"
}
},
{
"event" : "addConfiguration",
"timestamp" : "2018-02-02T17:39:30.040-0600",
"value" : {
"name" : "FTBFConfig_v139",
"assigned" : "2018-02-02T17:39:30.040-0600"
}
},
{
"event" : "addConfiguration",
"timestamp" : "2018-02-02T17:42:52.219-0600",
"value" : {
"name" : "FTBFConfig_v140",
"assigned" : "2018-02-02T17:42:52.219-0600"
}
},
{
"event" : "addConfiguration",
"timestamp" : "2018-02-02T17:47:37.404-0600",
"value" : {
"name" : "FTBFConfig_v141",
"assigned" : "2018-02-02T17:47:37.404-0600"
}
},
{
"event" : "addConfiguration",
"timestamp" : "2018-02-02T17:54:01.427-0600",
"value" : {
"name" : "FTBFConfig_v142",
"assigned" : "2018-02-02T17:54:01.426-0600"
}
}
],
"created" : "2017-11-15T12:42:28.956-0600"
},
"_id" : {
"$oid" : "eed9ea083421453c97d3cce9"
},
"collection" : "DataManagerSupervisorConfiguration",
"aliases" : {
"active" : [

],
"history" : [

]
},
"runs" : [

],
"attachments" : [

],
"configtype" : "notprovided"
}