{
"document" : {
"data" : {
"NAME" : "ROHDE_SCHWARZ_POWER_SUPPLY_TABLE",
"COMMENT" : "No comment.",
"AUTHOR" : "admin",
"CREATION_TIME" : 1600705858,
"COL_TYPES" : {
"POWER_SUPPLY_UID" : "STRING",
"STATUS" : "STRING",
"MODEL" : "STRING",
"CONNECTION" : "STRING",
"IP_ADDRESS" : "STRING",
"PORT" : "NUMBER",
"LINK_TO_POWER_SUPPLY_CHANNEL_TABLE" : "STRING",
"LINK_TO_POWER_SUPPLY_GROUP_UID" : "STRING",
"COMMENT_DESCRIPTION" : "STRING",
"AUTHOR" : "STRING",
"RECORD_INSERTION_TIME" : "TIMESTAMP WITH TIMEZONE"
},
"DATA_SET" : [
{
"POWER_SUPPLY_UID" : "TestStandModule",
"STATUS" : "Off",
"MODEL" : "DEFAULT",
"CONNECTION" : "Ethernet",
"IP_ADDRESS" : "DEFAULT",
"PORT" : "10001",
"LINK_TO_POWER_SUPPLY_CHANNEL_TABLE" : "RohdeSchwarzPowerSupplyChannelTable",
"LINK_TO_POWER_SUPPLY_GROUP_UID" : "TestStandModule",
"COMMENT_DESCRIPTION" : "No Comment",
"AUTHOR" : "admin",
"RECORD_INSERTION_TIME" : "1600705858"
}
]
},
"metadata" : {

},
"search" : [

]
},
"comments" : [

],
"origin" : {
"source" : "template",
"name" : "notprovided",
"format" : "json",
"created" : "2020-09-21T11:30:58.131-0500",
"rawdata" : [

]
},
"version" : "2",
"entities" : [
{
"name" : "OTSROOT",
"assigned" : "2020-09-21T11:30:58.132-0500"
}
],
"configurations" : [
{
"name" : "notprovided",
"assigned" : "2020-09-21T11:30:58.132-0500"
}
],
"changelog" : "notprovided",
"bookkeeping" : {
"isdeleted" : false,
"isreadonly" : false,
"updates" : [
{
"event" : "addConfiguration",
"timestamp" : "2020-09-21T11:30:58.132-0500",
"value" : {
"name" : "notprovided",
"assigned" : "2020-09-21T11:30:58.132-0500"
}
},
{
"event" : "setVersion",
"timestamp" : "2020-09-21T11:30:58.132-0500",
"value" : {
"name" : "2",
"assigned" : "2020-09-21T11:30:58.132-0500"
}
},
{
"event" : "setCollection",
"timestamp" : "2020-09-21T11:30:58.132-0500",
"value" : {
"name" : "RohdeSchwarzPowerSupplyTable",
"assigned" : "2020-09-21T11:30:58.132-0500"
}
},
{
"event" : "addEntity",
"timestamp" : "2020-09-21T11:30:58.132-0500",
"value" : {
"name" : "OTSROOT",
"assigned" : "2020-09-21T11:30:58.132-0500"
}
}
],
"created" : "2020-09-21T11:30:58.131-0500"
},
"_id" : {
"$oid" : "f2a3611c87ca4e60a0f45874"
},
"collection" : "RohdeSchwarzPowerSupplyTable",
"aliases" : {
"active" : [

],
"history" : [

]
},
"runs" : [

],
"attachments" : [

],
"configtype" : "notprovided"
}