{
"ouid" : [
"90b15844a3c34f9bb4ce86a4",
"b2cc1d5db84641abb2510a89",
"f1f532911ada4087800a01ff",
"f2a3611c87ca4e60a0f45874"
],
"version" : {
"0" : [
"90b15844a3c34f9bb4ce86a4"
],
"1" : [
"f1f532911ada4087800a01ff"
],
"2" : [
"f2a3611c87ca4e60a0f45874"
],
"3" : [
"b2cc1d5db84641abb2510a89"
]
},
"configurations.name" : {
"notprovided" : [
"90b15844a3c34f9bb4ce86a4",
"b2cc1d5db84641abb2510a89",
"f1f532911ada4087800a01ff",
"f2a3611c87ca4e60a0f45874"
],
"DefaultConfig_v20" : [
"90b15844a3c34f9bb4ce86a4"
],
"DefaultConfig_v21" : [
"90b15844a3c34f9bb4ce86a4"
],
"DefaultConfig_v22" : [
"90b15844a3c34f9bb4ce86a4"
],
"DefaultConfig_v23" : [
"90b15844a3c34f9bb4ce86a4"
],
"DefaultConfig_v24" : [
"90b15844a3c34f9bb4ce86a4"
],
"DefaultConfig_v25" : [
"b2cc1d5db84641abb2510a89"
],
"DefaultConfig_v26" : [
"b2cc1d5db84641abb2510a89"
],
"DefaultConfig_v27" : [
"b2cc1d5db84641abb2510a89"
],
"DefaultConfig_v28" : [
"b2cc1d5db84641abb2510a89"
],
"DefaultConfig_v29" : [
"b2cc1d5db84641abb2510a89"
],
"DefaultConfig_v30" : [
"b2cc1d5db84641abb2510a89"
],
"DefaultConfig_v31" : [
"b2cc1d5db84641abb2510a89"
],
"DefaultConfig_v32" : [
"b2cc1d5db84641abb2510a89"
],
"DefaultConfig_v33" : [
"b2cc1d5db84641abb2510a89"
],
"DefaultConfig_v34" : [
"b2cc1d5db84641abb2510a89"
]
},
"entities.name" : {
"OTSROOT" : [
"90b15844a3c34f9bb4ce86a4",
"b2cc1d5db84641abb2510a89",
"f1f532911ada4087800a01ff",
"f2a3611c87ca4e60a0f45874"
]
},
"aliases.active.name" : {

},
"runs.name" : {

},
"configurations.assigned" : {
"notprovided" : [
"2020-09-14T17:55:58.886-0500",
"2020-09-21T11:29:19.668-0500",
"2020-09-21T11:30:58.132-0500",
"2020-09-21T11:33:21.167-0500"
],
"DefaultConfig_v20" : [
"2020-09-14T18:00:24.007-0500"
],
"DefaultConfig_v21" : [
"2020-09-15T15:14:57.500-0500"
],
"DefaultConfig_v22" : [
"2020-09-15T15:18:54.612-0500"
],
"DefaultConfig_v23" : [
"2020-09-15T15:27:51.548-0500"
],
"DefaultConfig_v24" : [
"2020-09-15T15:52:13.026-0500"
],
"DefaultConfig_v25" : [
"2020-09-21T11:41:58.738-0500"
],
"DefaultConfig_v26" : [
"2020-09-21T11:54:29.578-0500"
],
"DefaultConfig_v27" : [
"2020-10-06T14:45:41.668-0500"
],
"DefaultConfig_v28" : [
"2020-10-06T15:04:20.207-0500"
],
"DefaultConfig_v29" : [
"2020-10-07T16:45:36.360-0500"
],
"DefaultConfig_v30" : [
"2020-10-07T17:03:30.503-0500"
],
"DefaultConfig_v31" : [
"2020-11-04T20:42:37.500-0600"
],
"DefaultConfig_v32" : [
"2020-11-11T11:26:55.120-0600"
],
"DefaultConfig_v33" : [
"2021-01-18T20:04:39.507-0600"
],
"DefaultConfig_v34" : [
"2021-01-18T20:05:19.984-0600"
]
}
}