{
"document" : {
"data" : {
"NAME" : "FECMS_BURNIN_BOX_INTERFACE_TABLE",
"COMMENT" : "No comment.",
"AUTHOR" : "admin",
"CREATION_TIME" : 1537471346,
"COL_TYPES" : {
"INTERFACE_ID" : "VARCHAR2",
"STATUS" : "VARCHAR2",
"INTERFACE_IP_ADDRESS" : "VARCHAR2",
"INTERFACE_PORT" : "NUMBER",
"HOST_IP_ADDRESS" : "VARCHAR2",
"HOST_PORT" : "NUMBER",
"STREAM_TO_IP_ADDRESS" : "VARCHAR2",
"STREAM_TO_PORT" : "NUMBER",
"SET_TEMPERATURE" : "NUMBER",
"LOW_TOLERANCE" : "NUMBER",
"HIGH_TOLERANCE" : "NUMBER",
"STOP_TEMPERATURE" : "NUMBER",
"COMMENT_DESCRIPTION" : "VARCHAR2",
"AUTHOR" : "VARCHAR2",
"RECORD_INSERTION_TIME" : "TIMESTAMP WITH TIMEZONE"
},
"DATA_SET" : [
{
"INTERFACE_ID" : "FEBurninBox0",
"STATUS" : "On",
"INTERFACE_IP_ADDRESS" : "192.168.133.241",
"INTERFACE_PORT" : "5000",
"HOST_IP_ADDRESS" : "127.0.0.1",
"HOST_PORT" : "10000",
"STREAM_TO_IP_ADDRESS" : "192.168.133.100",
"STREAM_TO_PORT" : "50000",
"SET_TEMPERATURE" : "-35.0",
"LOW_TOLERANCE" : "0.3",
"HIGH_TOLERANCE" : "0.1",
"STOP_TEMPERATURE" : "25",
"COMMENT_DESCRIPTION" : "No Comment",
"AUTHOR" : "admin",
"RECORD_INSERTION_TIME" : "1537471346"
}
]
},
"metadata" : {

},
"search" : [

]
},
"comments" : [

],
"origin" : {
"source" : "template",
"name" : "notprovided",
"format" : "json",
"created" : "2018-09-20T14:22:26.188-0500",
"rawdata" : [

]
},
"version" : "14",
"entities" : [
{
"name" : "OTSROOT",
"assigned" : "2018-09-20T14:22:26.198-0500"
}
],
"tables" : [
{
"name" : "notprovided",
"assigned" : "2018-09-20T14:22:26.196-0500"
},
{
"name" : "BurninBoxConfig_v16",
"assigned" : "2018-09-20T14:22:27.155-0500"
}
],
"changelog" : "notprovided",
"bookkeeping" : {
"isdeleted" : false,
"isreadonly" : false,
"updates" : [
{
"event" : "addTable",
"timestamp" : "2018-09-20T14:22:26.197-0500",
"value" : {
"name" : "notprovided",
"assigned" : "2018-09-20T14:22:26.196-0500"
}
},
{
"event" : "setVersion",
"timestamp" : "2018-09-20T14:22:26.197-0500",
"value" : {
"name" : "14",
"assigned" : "2018-09-20T14:22:26.197-0500"
}
},
{
"event" : "setCollection",
"timestamp" : "2018-09-20T14:22:26.197-0500",
"value" : {
"name" : "FECMSBurninBoxInterfaceTable",
"assigned" : "2018-09-20T14:22:26.197-0500"
}
},
{
"event" : "addEntity",
"timestamp" : "2018-09-20T14:22:26.198-0500",
"value" : {
"name" : "OTSROOT",
"assigned" : "2018-09-20T14:22:26.198-0500"
}
},
{
"event" : "addTable",
"timestamp" : "2018-09-20T14:22:27.155-0500",
"value" : {
"name" : "BurninBoxConfig_v16",
"assigned" : "2018-09-20T14:22:27.155-0500"
}
}
],
"created" : "2018-09-20T14:22:26.188-0500"
},
"_id" : {
"$oid" : "4e1f35aa56794bae916af52d"
},
"collection" : "FECMSBurninBoxInterfaceTable",
"aliases" : {
"active" : [

],
"history" : [

]
},
"runs" : [

],
"attachments" : [

],
"configtype" : "notprovided"
}