{
"document" : {
"data" : {
"NAME" : "FECMS_BURNIN_BOX_INTERFACE_TABLE",
"COMMENT" : "No comment.",
"AUTHOR" : "admin",
"CREATION_TIME" : 1563567598,
"COL_TYPES" : {
"INTERFACE_ID" : "VARCHAR2",
"STATUS" : "VARCHAR2",
"INTERFACE_IP_ADDRESS" : "VARCHAR2",
"INTERFACE_PORT" : "NUMBER",
"HOST_IP_ADDRESS" : "VARCHAR2",
"HOST_PORT" : "NUMBER",
"STREAM_TO_IP_ADDRESS" : "VARCHAR2",
"STREAM_TO_PORT" : "NUMBER",
"SET_TEMPERATURE" : "NUMBER",
"LOW_TOLERANCE" : "NUMBER",
"HIGH_TOLERANCE" : "NUMBER",
"STOP_TEMPERATURE" : "NUMBER",
"COMMENT_DESCRIPTION" : "VARCHAR2",
"AUTHOR" : "VARCHAR2",
"RECORD_INSERTION_TIME" : "TIMESTAMP WITH TIMEZONE"
},
"DATA_SET" : [
{
"INTERFACE_ID" : "FEBurninBox0",
"STATUS" : "On",
"INTERFACE_IP_ADDRESS" : "192.168.0.101",
"INTERFACE_PORT" : "5000",
"HOST_IP_ADDRESS" : "127.0.0.1",
"HOST_PORT" : "10000",
"STREAM_TO_IP_ADDRESS" : "192.168.0.101",
"STREAM_TO_PORT" : "50000",
"SET_TEMPERATURE" : "0.0",
"LOW_TOLERANCE" : "0.3",
"HIGH_TOLERANCE" : "0.1",
"STOP_TEMPERATURE" : "25",
"COMMENT_DESCRIPTION" : "No Comment",
"AUTHOR" : "admin",
"RECORD_INSERTION_TIME" : "1563567586"
}
]
},
"metadata" : {

},
"search" : [

]
},
"comments" : [

],
"origin" : {
"source" : "template",
"name" : "notprovided",
"format" : "json",
"created" : "2019-07-19T15:19:58.354-0500",
"rawdata" : [

]
},
"version" : "21",
"entities" : [
{
"name" : "OTSROOT",
"assigned" : "2019-07-19T15:19:58.355-0500"
}
],
"configurations" : [
{
"name" : "notprovided",
"assigned" : "2019-07-19T15:19:58.354-0500"
},
{
"name" : "BurninBoxConfig_v25",
"assigned" : "2019-07-19T15:25:10.889-0500"
},
{
"name" : "BurninBoxConfig_v26",
"assigned" : "2019-07-24T14:34:10.361-0500"
},
{
"name" : "BurninBoxConfig_v27",
"assigned" : "2019-07-24T14:47:23.586-0500"
},
{
"name" : "BurninBoxConfig_v28",
"assigned" : "2019-07-24T14:48:41.078-0500"
},
{
"name" : "BurninBoxConfig_v29",
"assigned" : "2020-06-29T10:55:10.587-0500"
}
],
"changelog" : "notprovided",
"bookkeeping" : {
"isdeleted" : false,
"isreadonly" : false,
"updates" : [
{
"event" : "addConfiguration",
"timestamp" : "2019-07-19T15:19:58.355-0500",
"value" : {
"name" : "notprovided",
"assigned" : "2019-07-19T15:19:58.354-0500"
}
},
{
"event" : "setVersion",
"timestamp" : "2019-07-19T15:19:58.355-0500",
"value" : {
"name" : "21",
"assigned" : "2019-07-19T15:19:58.355-0500"
}
},
{
"event" : "setCollection",
"timestamp" : "2019-07-19T15:19:58.355-0500",
"value" : {
"name" : "FECMSBurninBoxInterfaceTable",
"assigned" : "2019-07-19T15:19:58.355-0500"
}
},
{
"event" : "addEntity",
"timestamp" : "2019-07-19T15:19:58.355-0500",
"value" : {
"name" : "OTSROOT",
"assigned" : "2019-07-19T15:19:58.355-0500"
}
},
{
"event" : "addConfiguration",
"timestamp" : "2019-07-19T15:25:10.889-0500",
"value" : {
"name" : "BurninBoxConfig_v25",
"assigned" : "2019-07-19T15:25:10.889-0500"
}
},
{
"event" : "addConfiguration",
"timestamp" : "2019-07-24T14:34:10.361-0500",
"value" : {
"name" : "BurninBoxConfig_v26",
"assigned" : "2019-07-24T14:34:10.361-0500"
}
},
{
"event" : "addConfiguration",
"timestamp" : "2019-07-24T14:47:23.586-0500",
"value" : {
"name" : "BurninBoxConfig_v27",
"assigned" : "2019-07-24T14:47:23.586-0500"
}
},
{
"event" : "addConfiguration",
"timestamp" : "2019-07-24T14:48:41.078-0500",
"value" : {
"name" : "BurninBoxConfig_v28",
"assigned" : "2019-07-24T14:48:41.078-0500"
}
},
{
"event" : "addConfiguration",
"timestamp" : "2020-06-29T10:55:10.587-0500",
"value" : {
"name" : "BurninBoxConfig_v29",
"assigned" : "2020-06-29T10:55:10.587-0500"
}
}
],
"created" : "2019-07-19T15:19:58.354-0500"
},
"_id" : {
"$oid" : "c121f01d531a41e48e2da3fb"
},
"collection" : "FECMSBurninBoxInterfaceTable",
"aliases" : {
"active" : [

],
"history" : [

]
},
"runs" : [

],
"attachments" : [

],
"configtype" : "notprovided"
}