{
"document" : {
"data" : {
"NAME" : "FECMS_BURNIN_BOX_INTERFACE_TABLE",
"COMMENT" : "No comment.",
"AUTHOR" : "admin",
"CREATION_TIME" : 1551377107,
"COL_TYPES" : {
"INTERFACE_ID" : "VARCHAR2",
"STATUS" : "VARCHAR2",
"INTERFACE_IP_ADDRESS" : "VARCHAR2",
"INTERFACE_PORT" : "NUMBER",
"HOST_IP_ADDRESS" : "VARCHAR2",
"HOST_PORT" : "NUMBER",
"STREAM_TO_IP_ADDRESS" : "VARCHAR2",
"STREAM_TO_PORT" : "NUMBER",
"SET_TEMPERATURE" : "NUMBER",
"LOW_TOLERANCE" : "NUMBER",
"HIGH_TOLERANCE" : "NUMBER",
"STOP_TEMPERATURE" : "NUMBER",
"COMMENT_DESCRIPTION" : "VARCHAR2",
"AUTHOR" : "VARCHAR2",
"RECORD_INSERTION_TIME" : "TIMESTAMP WITH TIMEZONE"
},
"DATA_SET" : [
{
"INTERFACE_ID" : "FEBurninBox0",
"STATUS" : "On",
"INTERFACE_IP_ADDRESS" : "192.168.0.241",
"INTERFACE_PORT" : "5000",
"HOST_IP_ADDRESS" : "127.0.0.1",
"HOST_PORT" : "10000",
"STREAM_TO_IP_ADDRESS" : "192.168.0.101",
"STREAM_TO_PORT" : "50000",
"SET_TEMPERATURE" : "0.0",
"LOW_TOLERANCE" : "0.3",
"HIGH_TOLERANCE" : "0.1",
"STOP_TEMPERATURE" : "25",
"COMMENT_DESCRIPTION" : "No Comment",
"AUTHOR" : "admin",
"RECORD_INSERTION_TIME" : "1551377100"
}
]
},
"metadata" : {

},
"search" : [

]
},
"comments" : [

],
"origin" : {
"source" : "template",
"name" : "notprovided",
"format" : "json",
"created" : "2019-02-28T12:05:07.195-0600",
"rawdata" : [

]
},
"version" : "20",
"entities" : [
{
"name" : "OTSROOT",
"assigned" : "2019-02-28T12:05:07.196-0600"
}
],
"tables" : [
{
"name" : "notprovided",
"assigned" : "2019-02-28T12:05:07.196-0600"
},
{
"name" : "BurninBoxConfig_v22",
"assigned" : "2019-02-28T12:05:08.091-0600"
},
{
"name" : "BurninBoxConfig_v23",
"assigned" : "2019-02-28T13:57:09.700-0600"
}
],
"changelog" : "notprovided",
"bookkeeping" : {
"isdeleted" : false,
"isreadonly" : false,
"updates" : [
{
"event" : "addTable",
"timestamp" : "2019-02-28T12:05:07.196-0600",
"value" : {
"name" : "notprovided",
"assigned" : "2019-02-28T12:05:07.196-0600"
}
},
{
"event" : "setVersion",
"timestamp" : "2019-02-28T12:05:07.196-0600",
"value" : {
"name" : "20",
"assigned" : "2019-02-28T12:05:07.196-0600"
}
},
{
"event" : "setCollection",
"timestamp" : "2019-02-28T12:05:07.196-0600",
"value" : {
"name" : "FECMSBurninBoxInterfaceTable",
"assigned" : "2019-02-28T12:05:07.196-0600"
}
},
{
"event" : "addEntity",
"timestamp" : "2019-02-28T12:05:07.196-0600",
"value" : {
"name" : "OTSROOT",
"assigned" : "2019-02-28T12:05:07.196-0600"
}
},
{
"event" : "addTable",
"timestamp" : "2019-02-28T12:05:08.091-0600",
"value" : {
"name" : "BurninBoxConfig_v22",
"assigned" : "2019-02-28T12:05:08.091-0600"
}
},
{
"event" : "addTable",
"timestamp" : "2019-02-28T13:57:09.700-0600",
"value" : {
"name" : "BurninBoxConfig_v23",
"assigned" : "2019-02-28T13:57:09.700-0600"
}
},
{
"event" : "addConfiguration",
"timestamp" : "2019-07-19T15:24:15.778-0500",
"value" : {
"name" : "BurninBoxConfig_v24",
"assigned" : "2019-07-19T15:24:15.778-0500"
}
}
],
"created" : "2019-02-28T12:05:07.195-0600"
},
"_id" : {
"$oid" : "d13948686a8149d6b7014003"
},
"collection" : "FECMSBurninBoxInterfaceTable",
"aliases" : {
"active" : [

],
"history" : [

]
},
"runs" : [

],
"attachments" : [

],
"configtype" : "notprovided",
"configurations" : [
{
"name" : "BurninBoxConfig_v24",
"assigned" : "2019-07-19T15:24:15.778-0500"
}
]
}