{
"document" : {
"data" : {
"NAME" : "FECMS_BURNIN_BOX_INTERFACE_TABLE",
"COMMENT" : "No comment.",
"AUTHOR" : "admin",
"CREATION_TIME" : 1595606406,
"COL_TYPES" : {
"INTERFACE_ID" : "STRING",
"STATUS" : "STRING",
"INTERFACE_IP_ADDRESS" : "STRING",
"INTERFACE_PORT" : "NUMBER",
"HOST_IP_ADDRESS" : "STRING",
"HOST_PORT" : "NUMBER",
"STREAM_TO_IP_ADDRESS" : "STRING",
"STREAM_TO_PORT" : "NUMBER",
"SET_TEMPERATURE" : "NUMBER",
"LOW_TOLERANCE" : "NUMBER",
"HIGH_TOLERANCE" : "NUMBER",
"STOP_TEMPERATURE" : "NUMBER",
"COMMENT_DESCRIPTION" : "STRING",
"AUTHOR" : "STRING",
"RECORD_INSERTION_TIME" : "TIMESTAMP WITH TIMEZONE"
},
"DATA_SET" : [
{
"INTERFACE_ID" : "FEBurninBox0",
"STATUS" : "On",
"INTERFACE_IP_ADDRESS" : "192.168.0.101",
"INTERFACE_PORT" : "5001",
"HOST_IP_ADDRESS" : "127.0.0.1",
"HOST_PORT" : "20000",
"STREAM_TO_IP_ADDRESS" : "192.168.0.101",
"STREAM_TO_PORT" : "50000",
"SET_TEMPERATURE" : "0.0",
"LOW_TOLERANCE" : "0.3",
"HIGH_TOLERANCE" : "0.1",
"STOP_TEMPERATURE" : "25",
"COMMENT_DESCRIPTION" : "No Comment",
"AUTHOR" : "admin",
"RECORD_INSERTION_TIME" : "1595606400"
}
]
},
"metadata" : {

},
"search" : [

]
},
"comments" : [

],
"origin" : {
"source" : "template",
"name" : "notprovided",
"format" : "json",
"created" : "2020-07-24T11:00:06.316-0500",
"rawdata" : [

]
},
"version" : "25",
"entities" : [
{
"name" : "OTSROOT",
"assigned" : "2020-07-24T11:00:06.316-0500"
}
],
"configurations" : [
{
"name" : "notprovided",
"assigned" : "2020-07-24T11:00:06.316-0500"
},
{
"name" : "BurninBoxConfig_v33",
"assigned" : "2020-07-24T11:00:07.438-0500"
}
],
"changelog" : "notprovided",
"bookkeeping" : {
"isdeleted" : false,
"isreadonly" : false,
"updates" : [
{
"event" : "addConfiguration",
"timestamp" : "2020-07-24T11:00:06.316-0500",
"value" : {
"name" : "notprovided",
"assigned" : "2020-07-24T11:00:06.316-0500"
}
},
{
"event" : "setVersion",
"timestamp" : "2020-07-24T11:00:06.316-0500",
"value" : {
"name" : "25",
"assigned" : "2020-07-24T11:00:06.316-0500"
}
},
{
"event" : "setCollection",
"timestamp" : "2020-07-24T11:00:06.316-0500",
"value" : {
"name" : "FECMSBurninBoxInterfaceTable",
"assigned" : "2020-07-24T11:00:06.316-0500"
}
},
{
"event" : "addEntity",
"timestamp" : "2020-07-24T11:00:06.316-0500",
"value" : {
"name" : "OTSROOT",
"assigned" : "2020-07-24T11:00:06.316-0500"
}
},
{
"event" : "addConfiguration",
"timestamp" : "2020-07-24T11:00:07.438-0500",
"value" : {
"name" : "BurninBoxConfig_v33",
"assigned" : "2020-07-24T11:00:07.438-0500"
}
}
],
"created" : "2020-07-24T11:00:06.316-0500"
},
"_id" : {
"$oid" : "dcc1fa62a63f4292b21bb873"
},
"collection" : "FECMSBurninBoxInterfaceTable",
"aliases" : {
"active" : [

],
"history" : [

]
},
"runs" : [

],
"attachments" : [

],
"configtype" : "notprovided"
}