{
"document" : {
"data" : {
"NAME" : "",
"COMMENT" : "",
"AUTHOR" : "",
"CREATION_TIME" : 1550763300,
"COL_TYPES" : {
"UNUSED_UID" : "NUMBER",
"GROUP_ALIASES" : "STRING",
"COMMENT_DESCRIPTION" : "STRING",
"AUTHOR" : "STRING",
"GROUP_CREATION_TIME" : "TIMESTAMP WITH TIMEZONE"
},
"DATA_SET" : [
{
"UNUSED_UID" : "0",
"GROUP_ALIASES" : "",
"COMMENT_DESCRIPTION" : "",
"AUTHOR" : "admin",
"GROUP_CREATION_TIME" : "1575589957"
}
]
},
"metadata" : {

},
"search" : [

]
},
"comments" : [

],
"origin" : {
"source" : "template",
"name" : "notprovided",
"format" : "json",
"created" : "2019-12-05T17:52:37.210-0600",
"rawdata" : [

]
},
"version" : "55",
"entities" : [
{
"name" : "OTSROOT",
"assigned" : "2019-12-05T17:52:37.211-0600"
}
],
"configurations" : [
{
"name" : "notprovided",
"assigned" : "2019-12-05T17:52:37.211-0600"
},
{
"name" : "GroupAliasTreeEditWizBackbone_v14",
"assigned" : "2019-12-05T17:52:37.266-0600"
}
],
"changelog" : "notprovided",
"bookkeeping" : {
"isdeleted" : false,
"isreadonly" : false,
"updates" : [
{
"event" : "addConfiguration",
"timestamp" : "2019-12-05T17:52:37.211-0600",
"value" : {
"name" : "notprovided",
"assigned" : "2019-12-05T17:52:37.211-0600"
}
},
{
"event" : "setVersion",
"timestamp" : "2019-12-05T17:52:37.211-0600",
"value" : {
"name" : "55",
"assigned" : "2019-12-05T17:52:37.211-0600"
}
},
{
"event" : "setCollection",
"timestamp" : "2019-12-05T17:52:37.211-0600",
"value" : {
"name" : "TableGroupMetadata",
"assigned" : "2019-12-05T17:52:37.211-0600"
}
},
{
"event" : "addEntity",
"timestamp" : "2019-12-05T17:52:37.211-0600",
"value" : {
"name" : "OTSROOT",
"assigned" : "2019-12-05T17:52:37.211-0600"
}
},
{
"event" : "addConfiguration",
"timestamp" : "2019-12-05T17:52:37.266-0600",
"value" : {
"name" : "GroupAliasTreeEditWizBackbone_v14",
"assigned" : "2019-12-05T17:52:37.266-0600"
}
}
],
"created" : "2019-12-05T17:52:37.210-0600"
},
"_id" : {
"$oid" : "9088901f192b466ab8a409f9"
},
"collection" : "TableGroupMetadata",
"aliases" : {
"active" : [

],
"history" : [

]
},
"runs" : [

],
"attachments" : [

],
"configtype" : "notprovided"
}