{
"document" : {
"data" : {
"NAME" : "MESSAGE_FACILITY_CONFIGURATION",
"COMMENT" : "comment_ \" \" ",
"AUTHOR" : "",
"CREATION_TIME" : 1477424433,
"COL_TYPES" : {
"UID" : "VARCHAR2",
"STATUS" : "VARCHAR2",
"ENABLE_UDP_FORWARDING" : "VARCHAR2",
"FORWARD_TO_WEB_CONSOLE_GUI" : "VARCHAR2",
"WEB_CONSOLE_FORWARDING_IP_ADDRESS" : "VARCHAR2",
"WEB_CONSOLE_FORWARDING_PORT0" : "NUMBER",
"WEB_CONSOLE_FORWARDING_PORT1" : "NUMBER",
"FORWARD_TO_QT_VIEWER_GUI" : "VARCHAR2",
"QT_VIEWER_FORWARDING_IP_ADDRESS" : "VARCHAR2",
"QT_VIEWER_FORWARDING_PORT" : "NUMBER",
"COMMENT_DESCRIPTION" : "VARCHAR2",
"AUTHOR" : "VARCHAR2",
"RECORD_INSERTION_TIME" : "TIMESTAMP WITH TIMEZONE"
},
"DATA_SET" : [
{
"UID" : "MF_Entry",
"STATUS" : "On",
"ENABLE_UDP_FORWARDING" : "True",
"FORWARD_TO_WEB_CONSOLE_GUI" : "Yes",
"WEB_CONSOLE_FORWARDING_IP_ADDRESS" : "127.0.0.1",
"WEB_CONSOLE_FORWARDING_PORT0" : "30000",
"WEB_CONSOLE_FORWARDING_PORT1" : "30001",
"FORWARD_TO_QT_VIEWER_GUI" : "No",
"QT_VIEWER_FORWARDING_IP_ADDRESS" : "127.0.0.1",
"QT_VIEWER_FORWARDING_PORT" : "30000",
"COMMENT_DESCRIPTION" : "",
"AUTHOR" : "admin",
"RECORD_INSERTION_TIME" : "Tue Oct 25 14:40:33 2016 CDT"
}
]
},
"metadata" : {

},
"search" : [

]
},
"comments" : [

],
"origin" : {
"source" : "template",
"name" : "notprovided",
"format" : "json",
"created" : "Fri Jul 07 22:54:22 2017",
"rawdata" : [

]
},
"version" : "3",
"entities" : [
{
"name" : "OTSROOT",
"assigned" : "Fri Jul 07 22:54:22 2017"
}
],
"configurations" : [
{
"name" : "notprovided",
"assigned" : "Fri Jul 07 22:54:22 2017"
},
{
"name" : "OTMiniModuleContext_v3",
"assigned" : "Fri Jul 07 22:54:22 2017"
}
],
"changelog" : "notprovided",
"bookkeeping" : {
"isdeleted" : false,
"isreadonly" : false,
"updates" : [
{
"event" : "addConfiguration",
"timestamp" : "Fri Jul 07 22:54:22 2017",
"value" : {
"name" : "notprovided",
"assigned" : "Fri Jul 07 22:54:22 2017"
}
},
{
"event" : "setVersion",
"timestamp" : "Fri Jul 07 22:54:22 2017",
"value" : {
"name" : "3",
"assigned" : "Fri Jul 07 22:54:22 2017"
}
},
{
"event" : "setCollection",
"timestamp" : "Fri Jul 07 22:54:22 2017",
"value" : {
"name" : "MessageFacilityConfiguration",
"assigned" : "Fri Jul 07 22:54:22 2017"
}
},
{
"event" : "addEntity",
"timestamp" : "Fri Jul 07 22:54:22 2017",
"value" : {
"name" : "OTSROOT",
"assigned" : "Fri Jul 07 22:54:22 2017"
}
},
{
"event" : "addConfiguration",
"timestamp" : "Fri Jul 07 22:54:22 2017",
"value" : {
"name" : "OTMiniModuleContext_v3",
"assigned" : "Fri Jul 07 22:54:22 2017"
}
}
],
"created" : "Fri Jul 07 22:54:22 2017"
},
"_id" : {
"$oid" : "fede27fdf9e94d5e969cf6ab"
},
"collection" : "MessageFacilityConfiguration",
"aliases" : {
"active" : [

],
"history" : [

]
},
"runs" : [

],
"attachments" : [

],
"configtype" : "notprovided"
}