{
"document" : {
"data" : {
"NAME" : "FE_SUPERVISOR_TABLE",
"COMMENT" : "Front-end Supervisor records.",
"AUTHOR" : "admin",
"CREATION_TIME" : 1620852215,
"COL_TYPES" : {
"SUPERVISOR_UID" : "STRING",
"LINK_TO_FE_INTERFACE_TABLE" : "STRING",
"LINK_TO_FE_INTERFACE_GROUP_ID" : "STRING",
"SLOW_CONTROLS_METRIC_MANAGER_CHANNEL_NAME_PREAMBLE" : "STRING",
"DAQ_METRICS_LINK" : "STRING",
"DAQ_METRICS_LINK_GROUP_ID" : "STRING",
"COMMENT_DESCRIPTION" : "STRING",
"AUTHOR" : "STRING",
"RECORD_INSERTION_TIME" : "TIMESTAMP WITH TIMEZONE"
},
"DATA_SET" : [
{
"SUPERVISOR_UID" : "OuterTrackerFESupervisorPS0",
"LINK_TO_FE_INTERFACE_TABLE" : "FEInterfaceTable",
"LINK_TO_FE_INTERFACE_GROUP_ID" : "OuterTrackerFESupervisorPS0",
"SLOW_CONTROLS_METRIC_MANAGER_CHANNEL_NAME_PREAMBLE" : "DEFAULT",
"DAQ_METRICS_LINK" : "NO_LINK",
"DAQ_METRICS_LINK_GROUP_ID" : "DEFAULT",
"COMMENT_DESCRIPTION" : "No Comment",
"AUTHOR" : "admin",
"RECORD_INSERTION_TIME" : "1620852215"
},
{
"SUPERVISOR_UID" : "OuterTrackerFESupervisor2S0",
"LINK_TO_FE_INTERFACE_TABLE" : "FEInterfaceTable",
"LINK_TO_FE_INTERFACE_GROUP_ID" : "OuterTrackerFESupervisor2S0",
"SLOW_CONTROLS_METRIC_MANAGER_CHANNEL_NAME_PREAMBLE" : "DEFAULT",
"DAQ_METRICS_LINK" : "NO_LINK",
"DAQ_METRICS_LINK_GROUP_ID" : "DEFAULT",
"COMMENT_DESCRIPTION" : "No Comment",
"AUTHOR" : "admin",
"RECORD_INSERTION_TIME" : "1620852215"
},
{
"SUPERVISOR_UID" : "HistoMakerFESupervisor0",
"LINK_TO_FE_INTERFACE_TABLE" : "FEInterfaceTable",
"LINK_TO_FE_INTERFACE_GROUP_ID" : "HistoMakerFESupervisor0",
"SLOW_CONTROLS_METRIC_MANAGER_CHANNEL_NAME_PREAMBLE" : "DEFAULT",
"DAQ_METRICS_LINK" : "NO_LINK",
"DAQ_METRICS_LINK_GROUP_ID" : "DEFAULT",
"COMMENT_DESCRIPTION" : "No Comment",
"AUTHOR" : "admin",
"RECORD_INSERTION_TIME" : "1620852215"
}
]
},
"metadata" : {

},
"search" : [

]
},
"comments" : [

],
"origin" : {
"source" : "template",
"name" : "notprovided",
"format" : "json",
"created" : "2021-05-12T15:43:35.655-0500",
"rawdata" : [

]
},
"version" : "4",
"entities" : [
{
"name" : "OTSROOT",
"assigned" : "2021-05-12T15:43:35.656-0500"
}
],
"configurations" : [
{
"name" : "notprovided",
"assigned" : "2021-05-12T15:43:35.655-0500"
},
{
"name" : "DefaultConfig_v34",
"assigned" : "2021-05-12T15:51:23.181-0500"
},
{
"name" : "DefaultConfig_v35",
"assigned" : "2021-05-12T16:11:01.375-0500"
},
{
"name" : "DefaultConfig_v36",
"assigned" : "2021-05-14T15:34:24.732-0500"
},
{
"name" : "DefaultConfig_v37",
"assigned" : "2021-05-14T16:41:01.377-0500"
}
],
"changelog" : "notprovided",
"bookkeeping" : {
"isdeleted" : false,
"isreadonly" : false,
"updates" : [
{
"event" : "addConfiguration",
"timestamp" : "2021-05-12T15:43:35.655-0500",
"value" : {
"name" : "notprovided",
"assigned" : "2021-05-12T15:43:35.655-0500"
}
},
{
"event" : "setVersion",
"timestamp" : "2021-05-12T15:43:35.656-0500",
"value" : {
"name" : "4",
"assigned" : "2021-05-12T15:43:35.656-0500"
}
},
{
"event" : "setCollection",
"timestamp" : "2021-05-12T15:43:35.656-0500",
"value" : {
"name" : "FESupervisorTable",
"assigned" : "2021-05-12T15:43:35.656-0500"
}
},
{
"event" : "addEntity",
"timestamp" : "2021-05-12T15:43:35.656-0500",
"value" : {
"name" : "OTSROOT",
"assigned" : "2021-05-12T15:43:35.656-0500"
}
},
{
"event" : "addConfiguration",
"timestamp" : "2021-05-12T15:51:23.181-0500",
"value" : {
"name" : "DefaultConfig_v34",
"assigned" : "2021-05-12T15:51:23.181-0500"
}
},
{
"event" : "addConfiguration",
"timestamp" : "2021-05-12T16:11:01.375-0500",
"value" : {
"name" : "DefaultConfig_v35",
"assigned" : "2021-05-12T16:11:01.375-0500"
}
},
{
"event" : "addConfiguration",
"timestamp" : "2021-05-14T15:34:24.732-0500",
"value" : {
"name" : "DefaultConfig_v36",
"assigned" : "2021-05-14T15:34:24.732-0500"
}
},
{
"event" : "addConfiguration",
"timestamp" : "2021-05-14T16:41:01.377-0500",
"value" : {
"name" : "DefaultConfig_v37",
"assigned" : "2021-05-14T16:41:01.377-0500"
}
}
],
"created" : "2021-05-12T15:43:35.655-0500"
},
"_id" : {
"$oid" : "0e2136a5a3864213a5490454"
},
"collection" : "FESupervisorTable",
"aliases" : {
"active" : [

],
"history" : [

]
},
"runs" : [

],
"attachments" : [

],
"configtype" : "notprovided"
}