{
"document" : {
"data" : {
"NAME" : "FE_SUPERVISOR_TABLE",
"COMMENT" : "Front-end Supervisor records.",
"AUTHOR" : "admin",
"CREATION_TIME" : 1550767758,
"COL_TYPES" : {
"SUPERVISOR_UID" : "VARCHAR2",
"LINK_TO_FE_INTERFACE_TABLE" : "VARCHAR2",
"LINK_TO_FE_INTERFACE_GROUP_ID" : "VARCHAR2",
"COMMENT_DESCRIPTION" : "VARCHAR2",
"AUTHOR" : "VARCHAR2",
"RECORD_INSERTION_TIME" : "TIMESTAMP WITH TIMEZONE"
},
"DATA_SET" : [
{
"SUPERVISOR_UID" : "OuterTrackerFESupervisor0",
"LINK_TO_FE_INTERFACE_TABLE" : "FEInterfaceTable",
"LINK_TO_FE_INTERFACE_GROUP_ID" : "OuterTrackerFESupervisor0",
"COMMENT_DESCRIPTION" : "No Comment",
"AUTHOR" : "admin",
"RECORD_INSERTION_TIME" : "1550767758"
}
]
},
"metadata" : {

},
"search" : [

]
},
"comments" : [

],
"origin" : {
"source" : "template",
"name" : "notprovided",
"format" : "json",
"created" : "2019-02-22T16:11:42.803-0600",
"rawdata" : [

]
},
"version" : "1",
"entities" : [
{
"name" : "OTSROOT",
"assigned" : "2019-02-22T16:11:42.804-0600"
}
],
"tables" : [
{
"name" : "notprovided",
"assigned" : "2019-02-22T16:11:42.804-0600"
},
{
"name" : "DefaultConfig_v1",
"assigned" : "2019-02-22T16:11:43.072-0600"
}
],
"changelog" : "notprovided",
"bookkeeping" : {
"isdeleted" : false,
"isreadonly" : false,
"updates" : [
{
"event" : "addTable",
"timestamp" : "2019-02-22T16:11:42.804-0600",
"value" : {
"name" : "notprovided",
"assigned" : "2019-02-22T16:11:42.804-0600"
}
},
{
"event" : "setVersion",
"timestamp" : "2019-02-22T16:11:42.804-0600",
"value" : {
"name" : "1",
"assigned" : "2019-02-22T16:11:42.804-0600"
}
},
{
"event" : "setCollection",
"timestamp" : "2019-02-22T16:11:42.804-0600",
"value" : {
"name" : "FESupervisorTable",
"assigned" : "2019-02-22T16:11:42.804-0600"
}
},
{
"event" : "addEntity",
"timestamp" : "2019-02-22T16:11:42.804-0600",
"value" : {
"name" : "OTSROOT",
"assigned" : "2019-02-22T16:11:42.804-0600"
}
},
{
"event" : "addTable",
"timestamp" : "2019-02-22T16:11:43.072-0600",
"value" : {
"name" : "DefaultConfig_v1",
"assigned" : "2019-02-22T16:11:43.072-0600"
}
},
{
"event" : "addConfiguration",
"timestamp" : "2019-07-22T11:27:30.392-0500",
"value" : {
"name" : "DefaultConfig_v2",
"assigned" : "2019-07-22T11:27:30.392-0500"
}
},
{
"event" : "addConfiguration",
"timestamp" : "2019-07-22T14:43:10.271-0500",
"value" : {
"name" : "DefaultConfig_v3",
"assigned" : "2019-07-22T14:43:10.271-0500"
}
},
{
"event" : "addConfiguration",
"timestamp" : "2019-07-22T14:47:01.444-0500",
"value" : {
"name" : "DefaultConfig_v4",
"assigned" : "2019-07-22T14:47:01.444-0500"
}
},
{
"event" : "addConfiguration",
"timestamp" : "2019-07-22T15:05:41.490-0500",
"value" : {
"name" : "DefaultConfig_v5",
"assigned" : "2019-07-22T15:05:41.489-0500"
}
},
{
"event" : "addConfiguration",
"timestamp" : "2019-07-23T09:00:31.973-0500",
"value" : {
"name" : "DefaultConfig_v6",
"assigned" : "2019-07-23T09:00:31.973-0500"
}
},
{
"event" : "addConfiguration",
"timestamp" : "2019-07-23T09:04:43.699-0500",
"value" : {
"name" : "DefaultConfig_v7",
"assigned" : "2019-07-23T09:04:43.699-0500"
}
},
{
"event" : "addConfiguration",
"timestamp" : "2019-07-23T09:48:11.799-0500",
"value" : {
"name" : "DefaultConfig_v8",
"assigned" : "2019-07-23T09:48:11.799-0500"
}
},
{
"event" : "addConfiguration",
"timestamp" : "2019-08-07T11:00:29.420-0500",
"value" : {
"name" : "DefaultConfig_v9",
"assigned" : "2019-08-07T11:00:29.420-0500"
}
}
],
"created" : "2019-02-22T16:11:42.803-0600"
},
"_id" : {
"$oid" : "ad7f77053d9c45ddbd21c704"
},
"collection" : "FESupervisorTable",
"aliases" : {
"active" : [

],
"history" : [

]
},
"runs" : [

],
"attachments" : [

],
"configtype" : "notprovided",
"configurations" : [
{
"name" : "DefaultConfig_v2",
"assigned" : "2019-07-22T11:27:30.392-0500"
},
{
"name" : "DefaultConfig_v3",
"assigned" : "2019-07-22T14:43:10.271-0500"
},
{
"name" : "DefaultConfig_v4",
"assigned" : "2019-07-22T14:47:01.444-0500"
},
{
"name" : "DefaultConfig_v5",
"assigned" : "2019-07-22T15:05:41.489-0500"
},
{
"name" : "DefaultConfig_v6",
"assigned" : "2019-07-23T09:00:31.973-0500"
},
{
"name" : "DefaultConfig_v7",
"assigned" : "2019-07-23T09:04:43.699-0500"
},
{
"name" : "DefaultConfig_v8",
"assigned" : "2019-07-23T09:48:11.799-0500"
},
{
"name" : "DefaultConfig_v9",
"assigned" : "2019-08-07T11:00:29.420-0500"
}
]
}