{
"ouid" : [
"ef9b2568635647898bc20a32"
],
"version" : {
"1" : [
"ef9b2568635647898bc20a32"
]
},
"configurations.name" : {
"notprovided" : [
"ef9b2568635647898bc20a32"
],
"DefaultConfig_v1" : [
"ef9b2568635647898bc20a32"
],
"DefaultConfig_v2" : [
"ef9b2568635647898bc20a32"
],
"DefaultConfig_v3" : [
"ef9b2568635647898bc20a32"
],
"DefaultConfig_v4" : [
"ef9b2568635647898bc20a32"
],
"DefaultConfig_v5" : [
"ef9b2568635647898bc20a32"
],
"DefaultConfig_v6" : [
"ef9b2568635647898bc20a32"
],
"DefaultConfig_v7" : [
"ef9b2568635647898bc20a32"
],
"DefaultConfig_v8" : [
"ef9b2568635647898bc20a32"
],
"DefaultConfig_v9" : [
"ef9b2568635647898bc20a32"
],
"DefaultConfig_v10" : [
"ef9b2568635647898bc20a32"
],
"DefaultConfig_v11" : [
"ef9b2568635647898bc20a32"
],
"DefaultConfig_v12" : [
"ef9b2568635647898bc20a32"
]
},
"entities.name" : {
"OTSROOT" : [
"ef9b2568635647898bc20a32"
]
},
"aliases.active.name" : {

},
"runs.name" : {

},
"configurations.assigned" : {
"notprovided" : [
"2020-07-21T14:27:46.408-0500"
],
"DefaultConfig_v1" : [
"2020-07-21T14:27:46.925-0500"
],
"DefaultConfig_v2" : [
"2020-07-21T14:44:16.606-0500"
],
"DefaultConfig_v3" : [
"2020-07-21T14:57:50.472-0500"
],
"DefaultConfig_v4" : [
"2020-07-28T10:52:34.366-0500"
],
"DefaultConfig_v5" : [
"2020-09-09T19:37:59.767+0200"
],
"DefaultConfig_v6" : [
"2020-09-09T19:46:43.013+0200"
],
"DefaultConfig_v7" : [
"2020-09-09T21:28:06.537+0200"
],
"DefaultConfig_v8" : [
"2020-09-10T19:06:32.591+0200"
],
"DefaultConfig_v9" : [
"2020-09-11T17:53:12.247+0200"
],
"DefaultConfig_v10" : [
"2020-09-15T17:25:16.501+0200"
],
"DefaultConfig_v11" : [
"2020-09-15T17:39:24.123+0200"
],
"DefaultConfig_v12" : [
"2020-11-10T21:07:07.117+0100"
]
}
}