{
"document" : {
"data" : {
"NAME" : "FSSR_INTERFACE_CONFIGURATION",
"COMMENT" : "New FSSR Interface table",
"AUTHOR" : "rrivera",
"CREATION_TIME" : 1510178069,
"COL_TYPES" : {
"INTERFACE_ID" : "VARCHAR2",
"STATUS" : "VARCHAR2",
"FIRMWARE_VERSION" : "NUMBER",
"FIRMWARE_TYPE" : "VARCHAR2",
"HARDWARE_TYPE" : "VARCHAR2",
"INTERFACE_IP_ADDRESS" : "VARCHAR2",
"INTERFACE_PORT" : "NUMBER",
"HOST_IP_ADDRESS" : "VARCHAR2",
"HOST_PORT" : "NUMBER",
"STREAM_TO_IP_ADDRESS" : "VARCHAR2",
"STREAM_TO_PORT" : "NUMBER",
"CLOCK_SELECT" : "VARCHAR2",
"CLOCK_SPEED_M_HZ" : "NUMBER",
"CHANNEL_STATUS0" : "VARCHAR2",
"CHANNEL_STATUS1" : "VARCHAR2",
"CHANNEL_STATUS2" : "VARCHAR2",
"CHANNEL_STATUS3" : "VARCHAR2",
"CHANNEL_STATUS4" : "VARCHAR2",
"CHANNEL_STATUS5" : "VARCHAR2",
"COMMENT_DESCRIPTION" : "VARCHAR2",
"AUTHOR" : "VARCHAR2",
"RECORD_INSERTION_TIME" : "TIMESTAMP WITH TIMEZONE"
},
"DATA_SET" : [
{
"INTERFACE_ID" : "PurdueFSSR0",
"STATUS" : "On",
"FIRMWARE_VERSION" : "1",
"FIRMWARE_TYPE" : "PurdueFSSRFirmware",
"HARDWARE_TYPE" : "PurdueHardware",
"INTERFACE_IP_ADDRESS" : "192.168.133.20",
"INTERFACE_PORT" : "47000",
"HOST_IP_ADDRESS" : "192.168.133.1",
"HOST_PORT" : "10000",
"STREAM_TO_IP_ADDRESS" : "192.168.133.1",
"STREAM_TO_PORT" : "47000",
"CLOCK_SELECT" : "External",
"CLOCK_SPEED_M_HZ" : "13.5",
"CHANNEL_STATUS0" : "On",
"CHANNEL_STATUS1" : "Off",
"CHANNEL_STATUS2" : "Off",
"CHANNEL_STATUS3" : "Off",
"CHANNEL_STATUS4" : "Off",
"CHANNEL_STATUS5" : "Off",
"COMMENT_DESCRIPTION" : "No Comment",
"AUTHOR" : "admin",
"RECORD_INSERTION_TIME" : "1510098569"
},
{
"INTERFACE_ID" : "OtsUDPFSSR2",
"STATUS" : "On",
"FIRMWARE_VERSION" : "2",
"FIRMWARE_TYPE" : "OtsUDPFSSRFirmware",
"HARDWARE_TYPE" : "OtsUDPHardware",
"INTERFACE_IP_ADDRESS" : "192.168.133.132",
"INTERFACE_PORT" : "2001",
"HOST_IP_ADDRESS" : "192.168.133.1",
"HOST_PORT" : "10002",
"STREAM_TO_IP_ADDRESS" : "192.168.133.1",
"STREAM_TO_PORT" : "47002",
"CLOCK_SELECT" : "External",
"CLOCK_SPEED_M_HZ" : "13.5",
"CHANNEL_STATUS0" : "On",
"CHANNEL_STATUS1" : "Off",
"CHANNEL_STATUS2" : "Off",
"CHANNEL_STATUS3" : "Off",
"CHANNEL_STATUS4" : "Off",
"CHANNEL_STATUS5" : "Off",
"COMMENT_DESCRIPTION" : "No Comment",
"AUTHOR" : "rrivera",
"RECORD_INSERTION_TIME" : "1510178069"
}
]
},
"metadata" : {

},
"search" : [

]
},
"comments" : [

],
"origin" : {
"source" : "template",
"name" : "notprovided",
"format" : "json",
"created" : "2017-11-08T15:56:04.318-0600",
"rawdata" : [

]
},
"version" : "0",
"entities" : [
{
"name" : "OTSROOT",
"assigned" : "2017-11-08T15:56:04.320-0600"
}
],
"configurations" : [
{
"name" : "notprovided",
"assigned" : "2017-11-08T15:56:04.319-0600"
},
{
"name" : "FTBFConfig_v0",
"assigned" : "2017-11-08T15:56:07.306-0600"
},
{
"name" : "FTBFConfig_v1",
"assigned" : "2017-11-09T09:56:32.183-0600"
},
{
"name" : "FTBFConfig_v2",
"assigned" : "2017-11-09T10:06:01.172-0600"
}
],
"changelog" : "notprovided",
"bookkeeping" : {
"isdeleted" : false,
"isreadonly" : false,
"updates" : [
{
"event" : "addConfiguration",
"timestamp" : "2017-11-08T15:56:04.319-0600",
"value" : {
"name" : "notprovided",
"assigned" : "2017-11-08T15:56:04.319-0600"
}
},
{
"event" : "setVersion",
"timestamp" : "2017-11-08T15:56:04.319-0600",
"value" : {
"name" : "0",
"assigned" : "2017-11-08T15:56:04.319-0600"
}
},
{
"event" : "setCollection",
"timestamp" : "2017-11-08T15:56:04.320-0600",
"value" : {
"name" : "FSSRInterfaceConfiguration",
"assigned" : "2017-11-08T15:56:04.320-0600"
}
},
{
"event" : "addEntity",
"timestamp" : "2017-11-08T15:56:04.320-0600",
"value" : {
"name" : "OTSROOT",
"assigned" : "2017-11-08T15:56:04.320-0600"
}
},
{
"event" : "addConfiguration",
"timestamp" : "2017-11-08T15:56:07.306-0600",
"value" : {
"name" : "FTBFConfig_v0",
"assigned" : "2017-11-08T15:56:07.306-0600"
}
},
{
"event" : "addConfiguration",
"timestamp" : "2017-11-09T09:56:32.183-0600",
"value" : {
"name" : "FTBFConfig_v1",
"assigned" : "2017-11-09T09:56:32.183-0600"
}
},
{
"event" : "addConfiguration",
"timestamp" : "2017-11-09T10:06:01.172-0600",
"value" : {
"name" : "FTBFConfig_v2",
"assigned" : "2017-11-09T10:06:01.172-0600"
}
}
],
"created" : "2017-11-08T15:56:04.318-0600"
},
"_id" : {
"$oid" : "235a3ecdf13649d18bcf0fe9"
},
"collection" : "FSSRInterfaceConfiguration",
"aliases" : {
"active" : [

],
"history" : [

]
},
"runs" : [

],
"attachments" : [

],
"configtype" : "notprovided"
}