{
"ouid" : [
"235a3ecdf13649d18bcf0fe9",
"31f27dfdfea04ecba63d011b",
"d04c7d2f0924436ebd1a270c"
],
"version" : {
"0" : [
"235a3ecdf13649d18bcf0fe9"
],
"1" : [
"d04c7d2f0924436ebd1a270c"
],
"2" : [
"31f27dfdfea04ecba63d011b"
]
},
"configurations.name" : {
"notprovided" : [
"235a3ecdf13649d18bcf0fe9",
"31f27dfdfea04ecba63d011b",
"d04c7d2f0924436ebd1a270c"
],
"FTBFConfig_v0" : [
"235a3ecdf13649d18bcf0fe9"
],
"FTBFConfig_v1" : [
"235a3ecdf13649d18bcf0fe9"
],
"FTBFConfig_v2" : [
"235a3ecdf13649d18bcf0fe9"
],
"FTBFConfig_v3" : [
"d04c7d2f0924436ebd1a270c"
],
"FTBFConfig_v4" : [
"d04c7d2f0924436ebd1a270c"
],
"FTBFConfig_v5" : [
"d04c7d2f0924436ebd1a270c"
],
"FTBFConfig_v6" : [
"d04c7d2f0924436ebd1a270c"
],
"FTBFConfig_v7" : [
"d04c7d2f0924436ebd1a270c"
],
"FTBFConfig_v8" : [
"d04c7d2f0924436ebd1a270c"
],
"FTBFConfig_v9" : [
"d04c7d2f0924436ebd1a270c"
],
"FTBFConfig_v10" : [
"d04c7d2f0924436ebd1a270c"
],
"FTBFConfig_v11" : [
"d04c7d2f0924436ebd1a270c"
],
"FTBFConfig_v12" : [
"d04c7d2f0924436ebd1a270c"
],
"FTBFConfig_v13" : [
"d04c7d2f0924436ebd1a270c"
],
"FTBFConfig_v14" : [
"d04c7d2f0924436ebd1a270c"
],
"FTBFConfig_v15" : [
"d04c7d2f0924436ebd1a270c"
],
"FTBFConfig_v16" : [
"d04c7d2f0924436ebd1a270c"
],
"FTBFConfig_v17" : [
"d04c7d2f0924436ebd1a270c"
],
"FTBFConfig_v18" : [
"d04c7d2f0924436ebd1a270c"
],
"FTBFConfig_v19" : [
"d04c7d2f0924436ebd1a270c"
],
"FTBFConfig_v20" : [
"d04c7d2f0924436ebd1a270c"
],
"FTBFConfig_v21" : [
"d04c7d2f0924436ebd1a270c"
],
"FTBFConfig_v22" : [
"d04c7d2f0924436ebd1a270c"
],
"FTBFConfig_v23" : [
"d04c7d2f0924436ebd1a270c"
],
"FTBFConfig_v24" : [
"d04c7d2f0924436ebd1a270c"
],
"FTBFConfig_v25" : [
"d04c7d2f0924436ebd1a270c"
],
"FTBFConfig_v26" : [
"d04c7d2f0924436ebd1a270c"
],
"FTBFConfig_v27" : [
"d04c7d2f0924436ebd1a270c"
],
"FTBFConfig_v28" : [
"d04c7d2f0924436ebd1a270c"
],
"FTBFConfig_v29" : [
"d04c7d2f0924436ebd1a270c"
],
"FTBFConfig_v30" : [
"31f27dfdfea04ecba63d011b"
],
"FTBFConfig_v31" : [
"31f27dfdfea04ecba63d011b"
],
"FTBFConfig_v32" : [
"31f27dfdfea04ecba63d011b"
],
"FTBFConfig_v33" : [
"31f27dfdfea04ecba63d011b"
],
"FTBFConfig_v34" : [
"31f27dfdfea04ecba63d011b"
],
"FTBFConfig_v35" : [
"31f27dfdfea04ecba63d011b"
],
"FTBFConfig_v36" : [
"31f27dfdfea04ecba63d011b"
],
"FTBFConfig_v37" : [
"31f27dfdfea04ecba63d011b"
],
"FTBFConfig_v38" : [
"31f27dfdfea04ecba63d011b"
],
"FTBFConfig_v39" : [
"31f27dfdfea04ecba63d011b"
],
"FTBFConfig_v40" : [
"31f27dfdfea04ecba63d011b"
],
"FTBFConfig_v41" : [
"31f27dfdfea04ecba63d011b"
],
"FTBFConfig_v42" : [
"31f27dfdfea04ecba63d011b"
],
"FTBFConfig_v43" : [
"31f27dfdfea04ecba63d011b"
],
"FTBFConfig_v44" : [
"31f27dfdfea04ecba63d011b"
],
"FTBFConfig_v45" : [
"31f27dfdfea04ecba63d011b"
],
"FTBFConfig_v46" : [
"31f27dfdfea04ecba63d011b"
],
"FTBFConfig_v47" : [
"31f27dfdfea04ecba63d011b"
],
"FTBFConfig_v48" : [
"31f27dfdfea04ecba63d011b"
],
"FTBFConfig_v49" : [
"31f27dfdfea04ecba63d011b"
],
"FTBFConfig_v52" : [
"31f27dfdfea04ecba63d011b"
],
"FTBFConfig_v53" : [
"31f27dfdfea04ecba63d011b"
],
"FTBFConfig_v54" : [
"31f27dfdfea04ecba63d011b"
],
"FTBFConfig_v55" : [
"31f27dfdfea04ecba63d011b"
],
"FTBFConfig_v56" : [
"31f27dfdfea04ecba63d011b"
],
"FTBFConfig_v57" : [
"31f27dfdfea04ecba63d011b"
],
"FTBFConfig_v58" : [
"31f27dfdfea04ecba63d011b"
],
"FTBFConfig_v59" : [
"31f27dfdfea04ecba63d011b"
],
"FTBFConfig_v60" : [
"31f27dfdfea04ecba63d011b"
],
"FTBFConfig_v61" : [
"31f27dfdfea04ecba63d011b"
],
"FTBFConfig_v62" : [
"31f27dfdfea04ecba63d011b"
],
"FTBFConfig_v63" : [
"31f27dfdfea04ecba63d011b"
],
"FTBFConfig_v64" : [
"31f27dfdfea04ecba63d011b"
],
"FTBFConfig_v65" : [
"31f27dfdfea04ecba63d011b"
],
"FTBFConfig_v66" : [
"31f27dfdfea04ecba63d011b"
],
"FTBFConfig_v67" : [
"31f27dfdfea04ecba63d011b"
],
"FTBFConfig_v68" : [
"31f27dfdfea04ecba63d011b"
],
"FTBFConfig_v69" : [
"31f27dfdfea04ecba63d011b"
],
"FTBFConfig_v70" : [
"31f27dfdfea04ecba63d011b"
],
"FTBFConfigNim_v0" : [
"31f27dfdfea04ecba63d011b"
],
"FTBFConfigNim_v1" : [
"31f27dfdfea04ecba63d011b"
],
"FTBFConfigNim_v2" : [
"31f27dfdfea04ecba63d011b"
],
"FTBFConfigNim_v3" : [
"31f27dfdfea04ecba63d011b"
],
"FTBFConfigNim_v4" : [
"31f27dfdfea04ecba63d011b"
],
"FTBFConfigNim_v5" : [
"31f27dfdfea04ecba63d011b"
],
"FTBFConfigNim_v6" : [
"31f27dfdfea04ecba63d011b"
],
"FTBFConfigNim_v7" : [
"31f27dfdfea04ecba63d011b"
],
"FTBFConfigNim_v8" : [
"31f27dfdfea04ecba63d011b"
],
"FTBFConfigNim_v9" : [
"31f27dfdfea04ecba63d011b"
],
"FTBFConfigNim_v10" : [
"31f27dfdfea04ecba63d011b"
],
"FTBFConfigNim_v11" : [
"31f27dfdfea04ecba63d011b"
],
"FTBFConfigNim_v12" : [
"31f27dfdfea04ecba63d011b"
],
"FTBFConfigNim_v13" : [
"31f27dfdfea04ecba63d011b"
],
"FTBFConfigNim_v14" : [
"31f27dfdfea04ecba63d011b"
],
"FTBFConfigNim_v15" : [
"31f27dfdfea04ecba63d011b"
],
"FTBFConfigNim_v16" : [
"31f27dfdfea04ecba63d011b"
],
"FTBFConfigNim_v17" : [
"31f27dfdfea04ecba63d011b"
],
"FTBFConfigNim_v18" : [
"31f27dfdfea04ecba63d011b"
],
"FTBFConfigNim_v19" : [
"31f27dfdfea04ecba63d011b"
],
"FTBFConfigNim_v20" : [
"31f27dfdfea04ecba63d011b"
],
"FTBFConfigNim_v21" : [
"31f27dfdfea04ecba63d011b"
],
"FTBFConfigNim_v22" : [
"31f27dfdfea04ecba63d011b"
],
"FTBFConfigNim_v23" : [
"31f27dfdfea04ecba63d011b"
],
"FTBFConfigNim_v24" : [
"31f27dfdfea04ecba63d011b"
],
"FTBFConfigNim_v25" : [
"31f27dfdfea04ecba63d011b"
],
"FTBFConfigNim_v26" : [
"31f27dfdfea04ecba63d011b"
],
"FTBFConfigNim_v27" : [
"31f27dfdfea04ecba63d011b"
],
"FTBFConfigNim_v28" : [
"31f27dfdfea04ecba63d011b"
],
"FTBFConfigNim_v29" : [
"31f27dfdfea04ecba63d011b"
],
"FTBFConfig_v71" : [
"31f27dfdfea04ecba63d011b"
],
"FTBFConfig_v72" : [
"31f27dfdfea04ecba63d011b"
],
"FTBFConfig_v73" : [
"31f27dfdfea04ecba63d011b"
],
"FTBFConfig_v75" : [
"31f27dfdfea04ecba63d011b"
],
"FTBFConfig_v76" : [
"31f27dfdfea04ecba63d011b"
],
"FTBFConfig_v77" : [
"31f27dfdfea04ecba63d011b"
],
"FTBFConfig_v78" : [
"31f27dfdfea04ecba63d011b"
],
"FTBFConfig_v79" : [
"31f27dfdfea04ecba63d011b"
],
"FTBFConfig_v80" : [
"31f27dfdfea04ecba63d011b"
],
"FTBFConfig_v81" : [
"31f27dfdfea04ecba63d011b"
],
"FTBFConfig_v82" : [
"31f27dfdfea04ecba63d011b"
],
"FTBFConfig_v83" : [
"31f27dfdfea04ecba63d011b"
],
"FTBFConfig_v84" : [
"31f27dfdfea04ecba63d011b"
],
"FTBFConfig_v85" : [
"31f27dfdfea04ecba63d011b"
],
"FTBFConfig_v86" : [
"31f27dfdfea04ecba63d011b"
],
"FTBFConfig_v87" : [
"31f27dfdfea04ecba63d011b"
],
"FTBFConfig_v88" : [
"31f27dfdfea04ecba63d011b"
],
"FTBFConfig_v89" : [
"31f27dfdfea04ecba63d011b"
],
"FTBFConfig_v90" : [
"31f27dfdfea04ecba63d011b"
],
"FTBFConfig_v91" : [
"31f27dfdfea04ecba63d011b"
],
"FTBFConfig_v92" : [
"31f27dfdfea04ecba63d011b"
],
"FTBFConfig_v93" : [
"31f27dfdfea04ecba63d011b"
],
"FTBFConfig_v94" : [
"31f27dfdfea04ecba63d011b"
],
"FTBFConfig_v95" : [
"31f27dfdfea04ecba63d011b"
],
"FTBFConfig_v96" : [
"31f27dfdfea04ecba63d011b"
],
"FTBFConfig_v97" : [
"31f27dfdfea04ecba63d011b"
],
"FTBFConfig_v98" : [
"31f27dfdfea04ecba63d011b"
],
"FTBFConfig_v99" : [
"31f27dfdfea04ecba63d011b"
],
"FTBFConfig_v100" : [
"31f27dfdfea04ecba63d011b"
],
"FTBFConfig_v101" : [
"31f27dfdfea04ecba63d011b"
],
"FTBFConfig_v102" : [
"31f27dfdfea04ecba63d011b"
],
"FTBFConfig_v103" : [
"31f27dfdfea04ecba63d011b"
],
"FTBFConfig_v104" : [
"31f27dfdfea04ecba63d011b"
],
"FTBFConfig_v105" : [
"31f27dfdfea04ecba63d011b"
],
"FTBFConfig_v106" : [
"31f27dfdfea04ecba63d011b"
],
"FTBFConfig_v107" : [
"31f27dfdfea04ecba63d011b"
],
"FTBFConfig_v108" : [
"31f27dfdfea04ecba63d011b"
],
"FTBFConfig_v109" : [
"31f27dfdfea04ecba63d011b"
],
"FTBFConfig_v110" : [
"31f27dfdfea04ecba63d011b"
],
"FTBFConfig_v111" : [
"31f27dfdfea04ecba63d011b"
],
"FTBFConfig_v112" : [
"31f27dfdfea04ecba63d011b"
],
"FTBFConfig_v113" : [
"31f27dfdfea04ecba63d011b"
],
"FTBFConfig_v114" : [
"31f27dfdfea04ecba63d011b"
],
"FTBFConfig_v115" : [
"31f27dfdfea04ecba63d011b"
],
"FTBFConfig_v116" : [
"31f27dfdfea04ecba63d011b"
],
"FTBFConfig_v117" : [
"31f27dfdfea04ecba63d011b"
],
"FTBFConfig_v118" : [
"31f27dfdfea04ecba63d011b"
],
"FTBFConfig_v119" : [
"31f27dfdfea04ecba63d011b"
],
"FTBFConfig_v120" : [
"31f27dfdfea04ecba63d011b"
],
"FTBFConfig_v121" : [
"31f27dfdfea04ecba63d011b"
],
"FTBFConfig_v122" : [
"31f27dfdfea04ecba63d011b"
],
"FTBFConfig_v123" : [
"31f27dfdfea04ecba63d011b"
],
"FTBFConfig_v124" : [
"31f27dfdfea04ecba63d011b"
],
"FTBFConfig_v125" : [
"31f27dfdfea04ecba63d011b"
],
"FTBFConfig_v126" : [
"31f27dfdfea04ecba63d011b"
],
"FTBFConfig_v127" : [
"31f27dfdfea04ecba63d011b"
],
"FTBFConfig_v128" : [
"31f27dfdfea04ecba63d011b"
],
"FTBFConfig_v129" : [
"31f27dfdfea04ecba63d011b"
],
"FTBFConfig_v130" : [
"31f27dfdfea04ecba63d011b"
],
"FTBFConfig_v131" : [
"31f27dfdfea04ecba63d011b"
],
"FTBFConfig_v132" : [
"31f27dfdfea04ecba63d011b"
],
"FTBFConfig_v133" : [
"31f27dfdfea04ecba63d011b"
],
"FTBFConfig_v134" : [
"31f27dfdfea04ecba63d011b"
],
"FTBFConfig_v135" : [
"31f27dfdfea04ecba63d011b"
],
"FTBFConfig_v136" : [
"31f27dfdfea04ecba63d011b"
],
"FTBFConfig_v137" : [
"31f27dfdfea04ecba63d011b"
],
"FTBFConfig_v138" : [
"31f27dfdfea04ecba63d011b"
],
"FTBFConfig_v139" : [
"31f27dfdfea04ecba63d011b"
],
"FTBFConfig_v140" : [
"31f27dfdfea04ecba63d011b"
],
"FTBFConfig_v141" : [
"31f27dfdfea04ecba63d011b"
],
"FTBFConfig_v142" : [
"31f27dfdfea04ecba63d011b"
]
},
"entities.name" : {
"OTSROOT" : [
"235a3ecdf13649d18bcf0fe9",
"31f27dfdfea04ecba63d011b",
"d04c7d2f0924436ebd1a270c"
]
},
"aliases.active.name" : {

},
"runs.name" : {

},
"configurations.assigned" : {
"notprovided" : [
"2017-11-08T15:56:04.319-0600",
"2017-11-09T10:37:08.779-0600",
"2017-11-20T14:50:48.955-0600"
],
"FTBFConfig_v0" : [
"2017-11-08T15:56:07.306-0600"
],
"FTBFConfig_v1" : [
"2017-11-09T09:56:32.183-0600"
],
"FTBFConfig_v2" : [
"2017-11-09T10:06:01.172-0600"
],
"FTBFConfig_v3" : [
"2017-11-09T10:37:12.760-0600"
],
"FTBFConfig_v4" : [
"2017-11-15T11:30:11.625-0600"
],
"FTBFConfig_v5" : [
"2017-11-15T11:54:58.504-0600"
],
"FTBFConfig_v6" : [
"2017-11-15T11:57:51.106-0600"
],
"FTBFConfig_v7" : [
"2017-11-15T12:42:33.567-0600"
],
"FTBFConfig_v8" : [
"2017-11-15T13:01:04.613-0600"
],
"FTBFConfig_v9" : [
"2017-11-15T13:02:57.992-0600"
],
"FTBFConfig_v10" : [
"2017-11-15T13:04:25.567-0600"
],
"FTBFConfig_v11" : [
"2017-11-15T13:07:53.119-0600"
],
"FTBFConfig_v12" : [
"2017-11-15T13:12:00.557-0600"
],
"FTBFConfig_v13" : [
"2017-11-15T13:13:54.556-0600"
],
"FTBFConfig_v14" : [
"2017-11-15T13:27:35.338-0600"
],
"FTBFConfig_v15" : [
"2017-11-15T13:35:48.547-0600"
],
"FTBFConfig_v16" : [
"2017-11-15T13:36:53.149-0600"
],
"FTBFConfig_v17" : [
"2017-11-15T15:33:31.734-0600"
],
"FTBFConfig_v18" : [
"2017-11-15T15:35:35.371-0600"
],
"FTBFConfig_v19" : [
"2017-11-15T15:38:04.217-0600"
],
"FTBFConfig_v20" : [
"2017-11-15T16:26:32.228-0600"
],
"FTBFConfig_v21" : [
"2017-11-16T09:22:33.067-0600"
],
"FTBFConfig_v22" : [
"2017-11-17T10:23:29.271-0600"
],
"FTBFConfig_v23" : [
"2017-11-17T17:26:46.922-0600"
],
"FTBFConfig_v24" : [
"2017-11-17T17:58:27.469-0600"
],
"FTBFConfig_v25" : [
"2017-11-17T18:24:47.190-0600"
],
"FTBFConfig_v26" : [
"2017-11-17T18:32:25.237-0600"
],
"FTBFConfig_v27" : [
"2017-11-17T18:43:32.352-0600"
],
"FTBFConfig_v28" : [
"2017-11-17T18:48:34.497-0600"
],
"FTBFConfig_v29" : [
"2017-11-20T14:48:32.627-0600"
],
"FTBFConfig_v30" : [
"2017-11-20T15:39:57.675-0600"
],
"FTBFConfig_v31" : [
"2017-11-20T16:41:03.716-0600"
],
"FTBFConfig_v32" : [
"2017-11-20T18:55:36.662-0600"
],
"FTBFConfig_v33" : [
"2017-11-20T18:57:31.989-0600"
],
"FTBFConfig_v34" : [
"2017-11-29T17:50:41.447-0600"
],
"FTBFConfig_v35" : [
"2017-11-29T18:00:34.499-0600"
],
"FTBFConfig_v36" : [
"2017-11-29T18:35:13.116-0600"
],
"FTBFConfig_v37" : [
"2017-12-01T09:36:20.045-0600"
],
"FTBFConfig_v38" : [
"2017-12-01T09:52:02.959-0600"
],
"FTBFConfig_v39" : [
"2017-12-01T11:52:00.232-0600"
],
"FTBFConfig_v40" : [
"2017-12-01T12:18:22.368-0600"
],
"FTBFConfig_v41" : [
"2017-12-01T12:21:04.335-0600"
],
"FTBFConfig_v42" : [
"2017-12-01T12:43:23.829-0600"
],
"FTBFConfig_v43" : [
"2017-12-01T12:58:01.813-0600"
],
"FTBFConfig_v44" : [
"2017-12-01T13:00:54.280-0600"
],
"FTBFConfig_v45" : [
"2017-12-01T13:25:50.889-0600"
],
"FTBFConfig_v46" : [
"2017-12-01T13:35:45.732-0600"
],
"FTBFConfig_v47" : [
"2017-12-01T14:00:53.833-0600"
],
"FTBFConfig_v48" : [
"2017-12-01T14:04:01.188-0600"
],
"FTBFConfig_v49" : [
"2017-12-01T15:32:01.375-0600"
],
"FTBFConfig_v52" : [
"2017-12-01T15:37:34.645-0600"
],
"FTBFConfig_v53" : [
"2017-12-01T15:41:00.908-0600"
],
"FTBFConfig_v54" : [
"2017-12-01T15:52:51.205-0600"
],
"FTBFConfig_v55" : [
"2017-12-01T15:54:36.425-0600"
],
"FTBFConfig_v56" : [
"2017-12-01T15:55:35.991-0600"
],
"FTBFConfig_v57" : [
"2017-12-01T15:56:41.831-0600"
],
"FTBFConfig_v58" : [
"2017-12-01T15:57:39.955-0600"
],
"FTBFConfig_v59" : [
"2017-12-01T15:58:31.795-0600"
],
"FTBFConfig_v60" : [
"2017-12-01T15:59:33.056-0600"
],
"FTBFConfig_v61" : [
"2017-12-01T16:19:42.918-0600"
],
"FTBFConfig_v62" : [
"2017-12-01T16:22:05.350-0600"
],
"FTBFConfig_v63" : [
"2017-12-01T16:31:26.012-0600"
],
"FTBFConfig_v64" : [
"2017-12-01T17:06:33.382-0600"
],
"FTBFConfig_v65" : [
"2017-12-01T17:32:45.572-0600"
],
"FTBFConfig_v66" : [
"2017-12-01T20:38:51.955-0600"
],
"FTBFConfig_v67" : [
"2017-12-01T21:25:03.274-0600"
],
"FTBFConfig_v68" : [
"2017-12-01T21:43:02.995-0600"
],
"FTBFConfig_v69" : [
"2017-12-01T21:45:01.588-0600"
],
"FTBFConfig_v70" : [
"2017-12-01T21:59:20.897-0600"
],
"FTBFConfigNim_v0" : [
"2017-12-01T22:00:07.618-0600"
],
"FTBFConfigNim_v1" : [
"2017-12-01T22:13:09.444-0600"
],
"FTBFConfigNim_v2" : [
"2017-12-01T22:15:56.632-0600"
],
"FTBFConfigNim_v3" : [
"2017-12-01T22:17:05.217-0600"
],
"FTBFConfigNim_v4" : [
"2017-12-01T22:19:07.745-0600"
],
"FTBFConfigNim_v5" : [
"2017-12-01T22:21:58.530-0600"
],
"FTBFConfigNim_v6" : [
"2017-12-01T22:23:17.046-0600"
],
"FTBFConfigNim_v7" : [
"2017-12-01T22:25:18.530-0600"
],
"FTBFConfigNim_v8" : [
"2017-12-01T22:27:06.223-0600"
],
"FTBFConfigNim_v9" : [
"2017-12-01T22:29:30.436-0600"
],
"FTBFConfigNim_v10" : [
"2017-12-01T22:52:35.877-0600"
],
"FTBFConfigNim_v11" : [
"2017-12-01T22:57:30.366-0600"
],
"FTBFConfigNim_v12" : [
"2017-12-01T23:00:08.565-0600"
],
"FTBFConfigNim_v13" : [
"2017-12-01T23:52:36.723-0600"
],
"FTBFConfigNim_v14" : [
"2017-12-01T23:58:11.198-0600"
],
"FTBFConfigNim_v15" : [
"2017-12-02T00:00:35.409-0600"
],
"FTBFConfigNim_v16" : [
"2017-12-02T00:13:10.649-0600"
],
"FTBFConfigNim_v17" : [
"2017-12-02T00:28:29.545-0600"
],
"FTBFConfigNim_v18" : [
"2017-12-02T00:29:35.634-0600"
],
"FTBFConfigNim_v19" : [
"2017-12-02T00:31:14.501-0600"
],
"FTBFConfigNim_v20" : [
"2017-12-02T00:57:28.685-0600"
],
"FTBFConfigNim_v21" : [
"2017-12-02T10:58:03.252-0600"
],
"FTBFConfigNim_v22" : [
"2017-12-02T11:08:19.423-0600"
],
"FTBFConfigNim_v23" : [
"2017-12-02T11:12:41.062-0600"
],
"FTBFConfigNim_v24" : [
"2017-12-02T11:18:43.945-0600"
],
"FTBFConfigNim_v25" : [
"2017-12-02T11:27:07.151-0600"
],
"FTBFConfigNim_v26" : [
"2017-12-02T11:38:38.211-0600"
],
"FTBFConfigNim_v27" : [
"2017-12-02T11:49:09.440-0600"
],
"FTBFConfigNim_v28" : [
"2017-12-02T11:55:10.955-0600"
],
"FTBFConfigNim_v29" : [
"2017-12-02T12:06:27.765-0600"
],
"FTBFConfig_v71" : [
"2017-12-02T12:24:16.400-0600"
],
"FTBFConfig_v72" : [
"2017-12-02T12:43:37.324-0600"
],
"FTBFConfig_v73" : [
"2017-12-02T13:55:37.014-0600"
],
"FTBFConfig_v75" : [
"2017-12-02T14:12:20.207-0600"
],
"FTBFConfig_v76" : [
"2017-12-02T19:05:55.217-0600"
],
"FTBFConfig_v77" : [
"2017-12-02T19:12:15.046-0600"
],
"FTBFConfig_v78" : [
"2017-12-03T14:03:50.200-0600"
],
"FTBFConfig_v79" : [
"2017-12-03T14:09:08.495-0600"
],
"FTBFConfig_v80" : [
"2017-12-03T14:11:12.289-0600"
],
"FTBFConfig_v81" : [
"2017-12-03T14:22:35.294-0600"
],
"FTBFConfig_v82" : [
"2017-12-03T14:40:40.120-0600"
],
"FTBFConfig_v83" : [
"2017-12-03T14:45:07.492-0600"
],
"FTBFConfig_v84" : [
"2017-12-04T14:51:32.732-0600"
],
"FTBFConfig_v85" : [
"2017-12-04T14:55:45.963-0600"
],
"FTBFConfig_v86" : [
"2017-12-04T16:51:09.026-0600"
],
"FTBFConfig_v87" : [
"2017-12-04T16:56:49.660-0600"
],
"FTBFConfig_v88" : [
"2017-12-04T17:01:14.434-0600"
],
"FTBFConfig_v89" : [
"2017-12-04T17:03:59.554-0600"
],
"FTBFConfig_v90" : [
"2017-12-04T17:07:19.221-0600"
],
"FTBFConfig_v91" : [
"2017-12-04T17:09:28.374-0600"
],
"FTBFConfig_v92" : [
"2017-12-04T17:11:40.890-0600"
],
"FTBFConfig_v93" : [
"2017-12-04T21:05:23.403-0600"
],
"FTBFConfig_v94" : [
"2017-12-04T21:17:14.430-0600"
],
"FTBFConfig_v95" : [
"2017-12-04T21:41:20.033-0600"
],
"FTBFConfig_v96" : [
"2017-12-04T22:39:04.707-0600"
],
"FTBFConfig_v97" : [
"2017-12-04T23:01:15.231-0600"
],
"FTBFConfig_v98" : [
"2017-12-07T11:07:49.217-0600"
],
"FTBFConfig_v99" : [
"2017-12-07T11:50:01.880-0600"
],
"FTBFConfig_v100" : [
"2017-12-07T11:58:28.626-0600"
],
"FTBFConfig_v101" : [
"2017-12-08T13:30:50.810-0600"
],
"FTBFConfig_v102" : [
"2017-12-08T13:32:37.704-0600"
],
"FTBFConfig_v103" : [
"2017-12-12T11:03:07.516-0600"
],
"FTBFConfig_v104" : [
"2017-12-12T13:51:02.111-0600"
],
"FTBFConfig_v105" : [
"2017-12-12T15:25:08.074-0600"
],
"FTBFConfig_v106" : [
"2017-12-13T10:24:26.377-0600"
],
"FTBFConfig_v107" : [
"2017-12-13T10:27:05.057-0600"
],
"FTBFConfig_v108" : [
"2018-02-01T21:14:28.833-0600"
],
"FTBFConfig_v109" : [
"2018-02-01T21:21:05.962-0600"
],
"FTBFConfig_v110" : [
"2018-02-02T11:25:36.996-0600"
],
"FTBFConfig_v111" : [
"2018-02-02T11:37:15.795-0600"
],
"FTBFConfig_v112" : [
"2018-02-02T11:47:18.306-0600"
],
"FTBFConfig_v113" : [
"2018-02-02T11:53:39.558-0600"
],
"FTBFConfig_v114" : [
"2018-02-02T12:00:55.696-0600"
],
"FTBFConfig_v115" : [
"2018-02-02T12:27:17.152-0600"
],
"FTBFConfig_v116" : [
"2018-02-02T14:28:56.689-0600"
],
"FTBFConfig_v117" : [
"2018-02-02T14:30:23.054-0600"
],
"FTBFConfig_v118" : [
"2018-02-02T14:34:04.303-0600"
],
"FTBFConfig_v119" : [
"2018-02-02T14:36:30.908-0600"
],
"FTBFConfig_v120" : [
"2018-02-02T14:38:44.328-0600"
],
"FTBFConfig_v121" : [
"2018-02-02T14:41:53.594-0600"
],
"FTBFConfig_v122" : [
"2018-02-02T14:50:27.686-0600"
],
"FTBFConfig_v123" : [
"2018-02-02T14:53:00.568-0600"
],
"FTBFConfig_v124" : [
"2018-02-02T14:59:53.886-0600"
],
"FTBFConfig_v125" : [
"2018-02-02T15:04:12.013-0600"
],
"FTBFConfig_v126" : [
"2018-02-02T15:50:15.343-0600"
],
"FTBFConfig_v127" : [
"2018-02-02T15:51:34.739-0600"
],
"FTBFConfig_v128" : [
"2018-02-02T15:52:39.907-0600"
],
"FTBFConfig_v129" : [
"2018-02-02T16:02:48.840-0600"
],
"FTBFConfig_v130" : [
"2018-02-02T16:08:48.399-0600"
],
"FTBFConfig_v131" : [
"2018-02-02T16:11:34.253-0600"
],
"FTBFConfig_v132" : [
"2018-02-02T16:13:02.140-0600"
],
"FTBFConfig_v133" : [
"2018-02-02T16:14:32.787-0600"
],
"FTBFConfig_v134" : [
"2018-02-02T16:26:25.652-0600"
],
"FTBFConfig_v135" : [
"2018-02-02T16:27:12.782-0600"
],
"FTBFConfig_v136" : [
"2018-02-02T16:29:34.142-0600"
],
"FTBFConfig_v137" : [
"2018-02-02T16:31:44.803-0600"
],
"FTBFConfig_v138" : [
"2018-02-02T16:34:17.452-0600"
],
"FTBFConfig_v139" : [
"2018-02-02T17:39:33.511-0600"
],
"FTBFConfig_v140" : [
"2018-02-02T17:42:55.716-0600"
],
"FTBFConfig_v141" : [
"2018-02-02T17:47:40.935-0600"
],
"FTBFConfig_v142" : [
"2018-02-02T17:54:04.932-0600"
]
}
}