{
"ouid" : [
"16e8b6d4fcbd43bfbce696ca",
"8677d5e9efb841ee80ae4296",
"d5701deb7c224dc68e12fa85",
"d77320a5562348a480adb5c2"
],
"version" : {
"1" : [
"8677d5e9efb841ee80ae4296"
],
"2" : [
"16e8b6d4fcbd43bfbce696ca"
],
"3" : [
"d77320a5562348a480adb5c2"
],
"4" : [
"d5701deb7c224dc68e12fa85"
]
},
"configurations.name" : {
"notprovided" : [
"16e8b6d4fcbd43bfbce696ca",
"8677d5e9efb841ee80ae4296",
"d5701deb7c224dc68e12fa85",
"d77320a5562348a480adb5c2"
],
"DefaultConfig_v1" : [
"8677d5e9efb841ee80ae4296"
],
"DefaultConfig_v2" : [
"16e8b6d4fcbd43bfbce696ca"
],
"DefaultConfig_v3" : [
"16e8b6d4fcbd43bfbce696ca"
],
"DefaultConfig_v4" : [
"16e8b6d4fcbd43bfbce696ca"
],
"DefaultConfig_v5" : [
"16e8b6d4fcbd43bfbce696ca"
],
"DefaultConfig_v6" : [
"16e8b6d4fcbd43bfbce696ca"
],
"DefaultConfig_v7" : [
"16e8b6d4fcbd43bfbce696ca"
],
"DefaultConfig_v8" : [
"16e8b6d4fcbd43bfbce696ca"
],
"DefaultConfig_v9" : [
"16e8b6d4fcbd43bfbce696ca"
],
"DefaultConfig_v10" : [
"d77320a5562348a480adb5c2"
],
"DefaultConfig_v11" : [
"d77320a5562348a480adb5c2"
],
"DefaultConfig_v12" : [
"d77320a5562348a480adb5c2"
],
"DefaultConfig_v13" : [
"d77320a5562348a480adb5c2"
],
"DefaultConfig_v14" : [
"d77320a5562348a480adb5c2"
],
"DefaultConfig_v15" : [
"d77320a5562348a480adb5c2"
],
"DefaultConfig_v16" : [
"d77320a5562348a480adb5c2"
],
"DefaultConfig_v17" : [
"d77320a5562348a480adb5c2"
],
"DefaultConfig_v18" : [
"d77320a5562348a480adb5c2"
],
"DefaultConfig_v19" : [
"d77320a5562348a480adb5c2"
],
"DefaultConfig_v20" : [
"d77320a5562348a480adb5c2"
],
"DefaultConfig_v21" : [
"d77320a5562348a480adb5c2"
],
"DefaultConfig_v22" : [
"d77320a5562348a480adb5c2"
],
"DefaultConfig_v23" : [
"d77320a5562348a480adb5c2"
],
"DefaultConfig_v24" : [
"d77320a5562348a480adb5c2"
],
"DefaultConfig_v25" : [
"d77320a5562348a480adb5c2"
],
"DefaultConfig_v26" : [
"d77320a5562348a480adb5c2"
],
"DefaultConfig_v27" : [
"d77320a5562348a480adb5c2"
],
"DefaultConfig_v28" : [
"d77320a5562348a480adb5c2"
],
"DefaultConfig_v29" : [
"d77320a5562348a480adb5c2"
],
"DefaultConfig_v30" : [
"d77320a5562348a480adb5c2"
],
"DefaultConfig_v31" : [
"d77320a5562348a480adb5c2"
],
"DefaultConfig_v32" : [
"d77320a5562348a480adb5c2"
],
"DefaultConfig_v33" : [
"d77320a5562348a480adb5c2"
],
"DefaultConfig_v34" : [
"d5701deb7c224dc68e12fa85"
],
"DefaultConfig_v35" : [
"d5701deb7c224dc68e12fa85"
],
"DefaultConfig_v36" : [
"d5701deb7c224dc68e12fa85"
],
"DefaultConfig_v37" : [
"d5701deb7c224dc68e12fa85"
]
},
"entities.name" : {
"OTSROOT" : [
"16e8b6d4fcbd43bfbce696ca",
"8677d5e9efb841ee80ae4296",
"d5701deb7c224dc68e12fa85",
"d77320a5562348a480adb5c2"
]
},
"aliases.active.name" : {

},
"runs.name" : {

},
"configurations.assigned" : {
"notprovided" : [
"2019-02-22T16:11:42.726-0600",
"2019-07-22T11:24:55.404-0500",
"2019-11-20T15:12:18.222-0600",
"2021-05-12T15:45:21.041-0500"
],
"DefaultConfig_v1" : [
"2019-02-22T16:11:43.015-0600"
],
"DefaultConfig_v2" : [
"2019-07-22T11:27:30.289-0500"
],
"DefaultConfig_v3" : [
"2019-07-22T14:43:10.155-0500"
],
"DefaultConfig_v4" : [
"2019-07-22T14:47:01.321-0500"
],
"DefaultConfig_v5" : [
"2019-07-22T15:05:41.390-0500"
],
"DefaultConfig_v6" : [
"2019-07-23T09:00:31.869-0500"
],
"DefaultConfig_v7" : [
"2019-07-23T09:04:43.577-0500"
],
"DefaultConfig_v8" : [
"2019-07-23T09:48:11.681-0500"
],
"DefaultConfig_v9" : [
"2019-08-07T11:00:29.277-0500"
],
"DefaultConfig_v10" : [
"2019-11-20T15:25:38.472-0600"
],
"DefaultConfig_v11" : [
"2019-11-20T15:28:12.495-0600"
],
"DefaultConfig_v12" : [
"2019-11-20T15:58:29.785-0600"
],
"DefaultConfig_v13" : [
"2019-11-20T16:23:03.499-0600"
],
"DefaultConfig_v14" : [
"2019-11-20T16:24:45.622-0600"
],
"DefaultConfig_v15" : [
"2019-11-20T16:27:46.460-0600"
],
"DefaultConfig_v16" : [
"2019-11-20T16:42:10.995-0600"
],
"DefaultConfig_v17" : [
"2019-12-09T19:33:37.579-0600"
],
"DefaultConfig_v18" : [
"2019-12-10T14:21:51.073-0600"
],
"DefaultConfig_v19" : [
"2021-04-29T11:28:51.790-0500"
],
"DefaultConfig_v20" : [
"2021-04-29T11:36:29.801-0500"
],
"DefaultConfig_v21" : [
"2021-04-29T11:56:50.147-0500"
],
"DefaultConfig_v22" : [
"2021-04-29T12:03:11.800-0500"
],
"DefaultConfig_v23" : [
"2021-04-29T12:06:21.628-0500"
],
"DefaultConfig_v24" : [
"2021-04-29T13:06:39.277-0500"
],
"DefaultConfig_v25" : [
"2021-04-30T09:33:57.096-0500"
],
"DefaultConfig_v26" : [
"2021-04-30T09:34:32.667-0500"
],
"DefaultConfig_v27" : [
"2021-04-30T09:36:19.425-0500"
],
"DefaultConfig_v28" : [
"2021-04-30T11:59:06.022-0500"
],
"DefaultConfig_v29" : [
"2021-04-30T12:10:52.524-0500"
],
"DefaultConfig_v30" : [
"2021-04-30T12:11:38.827-0500"
],
"DefaultConfig_v31" : [
"2021-05-06T17:42:15.352-0500"
],
"DefaultConfig_v32" : [
"2021-05-10T10:42:47.156-0500"
],
"DefaultConfig_v33" : [
"2021-05-10T11:08:52.946-0500"
],
"DefaultConfig_v34" : [
"2021-05-12T15:51:23.030-0500"
],
"DefaultConfig_v35" : [
"2021-05-12T16:11:01.212-0500"
],
"DefaultConfig_v36" : [
"2021-05-14T15:34:24.596-0500"
],
"DefaultConfig_v37" : [
"2021-05-14T16:41:01.232-0500"
]
}
}