{
"document" : {
"data" : {
"NAME" : "DATA_MANAGER_SUPERVISOR_CONFIGURATION",
"COMMENT" : "Data Manager and Visualizer Data Manager",
"AUTHOR" : "admin",
"CREATION_TIME" : 1499006322,
"COL_TYPES" : {
"SUPERVISOR_UID" : "VARCHAR2",
"LINK_TO_DATA_MANAGER_TABLE" : "VARCHAR2",
"LINK_TO_DATA_MANAGER_GROUP_ID" : "VARCHAR2",
"COMMENT_DESCRIPTION" : "VARCHAR2",
"AUTHOR" : "VARCHAR2",
"RECORD_INSERTION_TIME" : "TIMESTAMP WITH TIMEZONE"
},
"DATA_SET" : [
{
"SUPERVISOR_UID" : "DataManagerSupervisor0",
"LINK_TO_DATA_MANAGER_TABLE" : "DataManagerConfiguration",
"LINK_TO_DATA_MANAGER_GROUP_ID" : "DMGroup0",
"COMMENT_DESCRIPTION" : "No Comment",
"AUTHOR" : "admin",
"RECORD_INSERTION_TIME" : "1479771599"
},
{
"SUPERVISOR_UID" : "VisualSupervisor0",
"LINK_TO_DATA_MANAGER_TABLE" : "DataManagerConfiguration",
"LINK_TO_DATA_MANAGER_GROUP_ID" : "DMVisualizerGroup0",
"COMMENT_DESCRIPTION" : "No Comment",
"AUTHOR" : "admin",
"RECORD_INSERTION_TIME" : "1479825977"
}
]
},
"metadata" : {

},
"search" : [

]
},
"comments" : [

],
"origin" : {
"source" : "template",
"name" : "notprovided",
"format" : "json",
"created" : "Fri Jul 07 22:54:21 2017",
"rawdata" : [

]
},
"version" : "2",
"entities" : [
{
"name" : "OTSROOT",
"assigned" : "Fri Jul 07 22:54:21 2017"
}
],
"configurations" : [
{
"name" : "notprovided",
"assigned" : "Fri Jul 07 22:54:21 2017"
},
{
"name" : "OTMiniModuleConfiguration_v2",
"assigned" : "Fri Jul 07 22:54:21 2017"
}
],
"changelog" : "notprovided",
"bookkeeping" : {
"isdeleted" : false,
"isreadonly" : false,
"updates" : [
{
"event" : "addConfiguration",
"timestamp" : "Fri Jul 07 22:54:21 2017",
"value" : {
"name" : "notprovided",
"assigned" : "Fri Jul 07 22:54:21 2017"
}
},
{
"event" : "setVersion",
"timestamp" : "Fri Jul 07 22:54:21 2017",
"value" : {
"name" : "2",
"assigned" : "Fri Jul 07 22:54:21 2017"
}
},
{
"event" : "setCollection",
"timestamp" : "Fri Jul 07 22:54:21 2017",
"value" : {
"name" : "DataManagerSupervisorConfiguration",
"assigned" : "Fri Jul 07 22:54:21 2017"
}
},
{
"event" : "addEntity",
"timestamp" : "Fri Jul 07 22:54:21 2017",
"value" : {
"name" : "OTSROOT",
"assigned" : "Fri Jul 07 22:54:21 2017"
}
},
{
"event" : "addConfiguration",
"timestamp" : "Fri Jul 07 22:54:21 2017",
"value" : {
"name" : "OTMiniModuleConfiguration_v2",
"assigned" : "Fri Jul 07 22:54:21 2017"
}
}
],
"created" : "Fri Jul 07 22:54:21 2017"
},
"_id" : {
"$oid" : "16d4bb0afacf4cd1a99bc8c3"
},
"collection" : "DataManagerSupervisorConfiguration",
"aliases" : {
"active" : [

],
"history" : [

]
},
"runs" : [

],
"attachments" : [

],
"configtype" : "notprovided"
}