{
"document" : {
"data" : {
"NAME" : "FE_HISTO_MAKER_INTERFACE_TABLE",
"COMMENT" : "No comment.",
"AUTHOR" : "admin",
"CREATION_TIME" : 1574288840,
"COL_TYPES" : {
"INTERFACE_ID" : "STRING",
"FIRMWARE_VERSION" : "NUMBER",
"SERVER_PORT" : "NUMBER",
"COMMENT_DESCRIPTION" : "STRING",
"AUTHOR" : "STRING",
"RECORD_INSERTION_TIME" : "TIMESTAMP WITH TIMEZONE"
},
"DATA_SET" : [
{
"INTERFACE_ID" : "HistoMakerFEInterface0",
"FIRMWARE_VERSION" : "0",
"SERVER_PORT" : "6000",
"COMMENT_DESCRIPTION" : "No Comment",
"AUTHOR" : "admin",
"RECORD_INSERTION_TIME" : "1574288840"
}
]
},
"metadata" : {

},
"search" : [

]
},
"comments" : [

],
"origin" : {
"source" : "template",
"name" : "notprovided",
"format" : "json",
"created" : "2019-11-20T16:27:20.966-0600",
"rawdata" : [

]
},
"version" : "1",
"entities" : [
{
"name" : "OTSROOT",
"assigned" : "2019-11-20T16:27:20.967-0600"
}
],
"configurations" : [
{
"name" : "notprovided",
"assigned" : "2019-11-20T16:27:20.967-0600"
},
{
"name" : "DefaultConfig_v15",
"assigned" : "2019-11-20T16:27:46.421-0600"
},
{
"name" : "DefaultConfig_v16",
"assigned" : "2019-11-20T16:42:10.959-0600"
},
{
"name" : "DefaultConfig_v17",
"assigned" : "2019-12-09T19:33:37.529-0600"
},
{
"name" : "DefaultConfig_v18",
"assigned" : "2019-12-10T14:21:50.737-0600"
}
],
"changelog" : "notprovided",
"bookkeeping" : {
"isdeleted" : false,
"isreadonly" : false,
"updates" : [
{
"event" : "addConfiguration",
"timestamp" : "2019-11-20T16:27:20.967-0600",
"value" : {
"name" : "notprovided",
"assigned" : "2019-11-20T16:27:20.967-0600"
}
},
{
"event" : "setVersion",
"timestamp" : "2019-11-20T16:27:20.967-0600",
"value" : {
"name" : "1",
"assigned" : "2019-11-20T16:27:20.967-0600"
}
},
{
"event" : "setCollection",
"timestamp" : "2019-11-20T16:27:20.967-0600",
"value" : {
"name" : "FEHistoMakerInterfaceTable",
"assigned" : "2019-11-20T16:27:20.967-0600"
}
},
{
"event" : "addEntity",
"timestamp" : "2019-11-20T16:27:20.967-0600",
"value" : {
"name" : "OTSROOT",
"assigned" : "2019-11-20T16:27:20.967-0600"
}
},
{
"event" : "addConfiguration",
"timestamp" : "2019-11-20T16:27:46.421-0600",
"value" : {
"name" : "DefaultConfig_v15",
"assigned" : "2019-11-20T16:27:46.421-0600"
}
},
{
"event" : "addConfiguration",
"timestamp" : "2019-11-20T16:42:10.959-0600",
"value" : {
"name" : "DefaultConfig_v16",
"assigned" : "2019-11-20T16:42:10.959-0600"
}
},
{
"event" : "addConfiguration",
"timestamp" : "2019-12-09T19:33:37.529-0600",
"value" : {
"name" : "DefaultConfig_v17",
"assigned" : "2019-12-09T19:33:37.529-0600"
}
},
{
"event" : "addConfiguration",
"timestamp" : "2019-12-10T14:21:50.737-0600",
"value" : {
"name" : "DefaultConfig_v18",
"assigned" : "2019-12-10T14:21:50.737-0600"
}
}
],
"created" : "2019-11-20T16:27:20.966-0600"
},
"_id" : {
"$oid" : "944fcc2232d343f08b71b2e2"
},
"collection" : "FEHistoMakerInterfaceTable",
"aliases" : {
"active" : [

],
"history" : [

]
},
"runs" : [

],
"attachments" : [

],
"configtype" : "notprovided"
}