{
"document" : {
"data" : {
"NAME" : "TCP_DATA_LISTENER_PRODUCER_TABLE",
"COMMENT" : "No comment.",
"AUTHOR" : "admin",
"CREATION_TIME" : 1599080718,
"COL_TYPES" : {
"PROCESSOR_UID" : "STRING",
"BUFFER_SIZE" : "NUMBER",
"SERVER_IP_ADDRESS" : "STRING",
"SERVER_PORT" : "NUMBER",
"DATA_TYPE" : "STRING",
"COMMENT_DESCRIPTION" : "STRING",
"AUTHOR" : "STRING",
"RECORD_INSERTION_TIME" : "TIMESTAMP WITH TIMEZONE"
},
"DATA_SET" : [
{
"PROCESSOR_UID" : "VBListener0",
"BUFFER_SIZE" : "1000",
"SERVER_IP_ADDRESS" : "127.0.0.1",
"SERVER_PORT" : "50000",
"DATA_TYPE" : "Packet",
"COMMENT_DESCRIPTION" : "No Comment",
"AUTHOR" : "admin",
"RECORD_INSERTION_TIME" : "1599080713"
}
]
},
"metadata" : {

},
"search" : [

]
},
"comments" : [

],
"origin" : {
"source" : "template",
"name" : "notprovided",
"format" : "json",
"created" : "2020-09-02T16:05:18.315-0500",
"rawdata" : [

]
},
"version" : "1",
"entities" : [
{
"name" : "OTSROOT",
"assigned" : "2020-09-02T16:05:18.315-0500"
}
],
"configurations" : [
{
"name" : "notprovided",
"assigned" : "2020-09-02T16:05:18.315-0500"
},
{
"name" : "BurninBoxConfiguration_v7",
"assigned" : "2020-09-02T16:05:19.521-0500"
},
{
"name" : "BurninBoxConfiguration_v8",
"assigned" : "2020-10-05T17:05:55.617-0500"
},
{
"name" : "BurninBoxConfiguration_v9",
"assigned" : "2020-10-05T17:09:48.660-0500"
},
{
"name" : "BurninBoxConfiguration_v10",
"assigned" : "2020-10-05T17:11:02.526-0500"
},
{
"name" : "BurninBoxConfiguration_v11",
"assigned" : "2020-10-05T17:39:04.171-0500"
},
{
"name" : "BurninBoxConfiguration_v12",
"assigned" : "2020-10-05T17:43:06.405-0500"
},
{
"name" : "BurninBoxConfiguration_v14",
"assigned" : "2020-10-09T15:30:46.945-0500"
}
],
"changelog" : "notprovided",
"bookkeeping" : {
"isdeleted" : false,
"isreadonly" : false,
"updates" : [
{
"event" : "addConfiguration",
"timestamp" : "2020-09-02T16:05:18.315-0500",
"value" : {
"name" : "notprovided",
"assigned" : "2020-09-02T16:05:18.315-0500"
}
},
{
"event" : "setVersion",
"timestamp" : "2020-09-02T16:05:18.315-0500",
"value" : {
"name" : "1",
"assigned" : "2020-09-02T16:05:18.315-0500"
}
},
{
"event" : "setCollection",
"timestamp" : "2020-09-02T16:05:18.315-0500",
"value" : {
"name" : "TCPDataListenerProducerTable",
"assigned" : "2020-09-02T16:05:18.315-0500"
}
},
{
"event" : "addEntity",
"timestamp" : "2020-09-02T16:05:18.316-0500",
"value" : {
"name" : "OTSROOT",
"assigned" : "2020-09-02T16:05:18.315-0500"
}
},
{
"event" : "addConfiguration",
"timestamp" : "2020-09-02T16:05:19.521-0500",
"value" : {
"name" : "BurninBoxConfiguration_v7",
"assigned" : "2020-09-02T16:05:19.521-0500"
}
},
{
"event" : "addConfiguration",
"timestamp" : "2020-10-05T17:05:55.617-0500",
"value" : {
"name" : "BurninBoxConfiguration_v8",
"assigned" : "2020-10-05T17:05:55.617-0500"
}
},
{
"event" : "addConfiguration",
"timestamp" : "2020-10-05T17:09:48.660-0500",
"value" : {
"name" : "BurninBoxConfiguration_v9",
"assigned" : "2020-10-05T17:09:48.660-0500"
}
},
{
"event" : "addConfiguration",
"timestamp" : "2020-10-05T17:11:02.526-0500",
"value" : {
"name" : "BurninBoxConfiguration_v10",
"assigned" : "2020-10-05T17:11:02.526-0500"
}
},
{
"event" : "addConfiguration",
"timestamp" : "2020-10-05T17:39:04.171-0500",
"value" : {
"name" : "BurninBoxConfiguration_v11",
"assigned" : "2020-10-05T17:39:04.171-0500"
}
},
{
"event" : "addConfiguration",
"timestamp" : "2020-10-05T17:43:06.405-0500",
"value" : {
"name" : "BurninBoxConfiguration_v12",
"assigned" : "2020-10-05T17:43:06.405-0500"
}
},
{
"event" : "addConfiguration",
"timestamp" : "2020-10-09T15:30:46.945-0500",
"value" : {
"name" : "BurninBoxConfiguration_v14",
"assigned" : "2020-10-09T15:30:46.945-0500"
}
}
],
"created" : "2020-09-02T16:05:18.315-0500"
},
"_id" : {
"$oid" : "59c1abf088e44742b4f67c2b"
},
"collection" : "TCPDataListenerProducerTable",
"aliases" : {
"active" : [

],
"history" : [

]
},
"runs" : [

],
"attachments" : [

],
"configtype" : "notprovided"
}