{
"ouid" : [
"29c1808ad3104d4bb664b7e2",
"44c2161f408348e79890e86b",
"7bf042d4b92f402ca2b5935e",
"906c23a6931244e08657169d",
"986aba66b09342beb0067825"
],
"version" : {
"0" : [
"986aba66b09342beb0067825"
],
"1" : [
"44c2161f408348e79890e86b"
],
"2" : [
"7bf042d4b92f402ca2b5935e"
],
"3" : [
"29c1808ad3104d4bb664b7e2"
],
"4" : [
"906c23a6931244e08657169d"
]
},
"configurations.name" : {
"notprovided" : [
"29c1808ad3104d4bb664b7e2",
"44c2161f408348e79890e86b",
"7bf042d4b92f402ca2b5935e",
"906c23a6931244e08657169d",
"986aba66b09342beb0067825"
],
"iterateDefaultGroup_v0" : [
"986aba66b09342beb0067825"
],
"iterateDefaultGroup_v1" : [
"44c2161f408348e79890e86b"
],
"iterateDefaultGroup_v2" : [
"7bf042d4b92f402ca2b5935e"
],
"iterateDefaultGroup_v3" : [
"7bf042d4b92f402ca2b5935e"
],
"iterateDefaultGroup_v4" : [
"7bf042d4b92f402ca2b5935e"
],
"iterateDefaultGroup_v5" : [
"7bf042d4b92f402ca2b5935e"
],
"iterateDefaultGroup_v6" : [
"7bf042d4b92f402ca2b5935e"
],
"iterateDefaultGroup_v7" : [
"7bf042d4b92f402ca2b5935e"
],
"iterateDefaultGroup_v8" : [
"7bf042d4b92f402ca2b5935e"
],
"iterateDefaultGroup_v9" : [
"7bf042d4b92f402ca2b5935e"
],
"iterateDefaultGroup_v10" : [
"29c1808ad3104d4bb664b7e2"
],
"iterateDefaultGroup_v11" : [
"906c23a6931244e08657169d"
],
"iterateDefaultGroup_v12" : [
"906c23a6931244e08657169d"
]
},
"entities.name" : {
"OTSROOT" : [
"29c1808ad3104d4bb664b7e2",
"44c2161f408348e79890e86b",
"7bf042d4b92f402ca2b5935e",
"906c23a6931244e08657169d",
"986aba66b09342beb0067825"
]
},
"aliases.active.name" : {

},
"runs.name" : {

},
"configurations.assigned" : {
"notprovided" : [
"2020-07-21T14:47:39.380-0500",
"2020-07-21T15:25:07.378-0500",
"2020-07-21T15:28:03.740-0500",
"2020-07-28T13:15:24.509-0500",
"2020-07-28T13:20:56.150-0500"
],
"iterateDefaultGroup_v0" : [
"2020-07-21T14:47:39.951-0500"
],
"iterateDefaultGroup_v1" : [
"2020-07-21T15:25:08.340-0500"
],
"iterateDefaultGroup_v2" : [
"2020-07-21T15:28:04.742-0500"
],
"iterateDefaultGroup_v3" : [
"2020-07-21T15:42:21.137-0500"
],
"iterateDefaultGroup_v4" : [
"2020-07-21T15:45:04.086-0500"
],
"iterateDefaultGroup_v5" : [
"2020-07-21T15:57:34.056-0500"
],
"iterateDefaultGroup_v6" : [
"2020-07-28T10:52:35.535-0500"
],
"iterateDefaultGroup_v7" : [
"2020-07-28T13:01:37.246-0500"
],
"iterateDefaultGroup_v8" : [
"2020-07-28T13:03:27.418-0500"
],
"iterateDefaultGroup_v9" : [
"2020-07-28T13:12:58.413-0500"
],
"iterateDefaultGroup_v10" : [
"2020-07-28T13:15:25.651-0500"
],
"iterateDefaultGroup_v11" : [
"2020-07-28T13:20:57.603-0500"
],
"iterateDefaultGroup_v12" : [
"2020-07-28T13:27:38.185-0500"
]
}
}