{
"document" : {
"data" : {
"NAME" : "ARTDAQ_DAQ_DESTINATION_CONFIGURATION",
"COMMENT" : "No comment.",
"AUTHOR" : "admin",
"CREATION_TIME" : 1510773115,
"COL_TYPES" : {
"DESTINATION_GROUP_ID" : "VARCHAR2",
"DESTINATION_UID" : "VARCHAR2",
"DESTINATION_KEY" : "VARCHAR2",
"TRANSFER_PLUGIN_TYPE" : "VARCHAR2",
"DESTINATION_ARTDAQ_CONTEXT_LINK" : "VARCHAR2",
"DESTINATION_ARTDAQ_CONTEXT_LINK_UID" : "VARCHAR2",
"ARTDAQ_GLOBAL_CONFIGURATION_LINK" : "VARCHAR2",
"ARTDAQ_GLOBAL_CONFIGURATION_LINK_UID" : "VARCHAR2",
"COMMENT_DESCRIPTION" : "VARCHAR2",
"AUTHOR" : "VARCHAR2",
"RECORD_INSERTION_TIME" : "TIMESTAMP WITH TIMEZONE"
},
"DATA_SET" : [
{
"DESTINATION_GROUP_ID" : "",
"DESTINATION_UID" : "d2destination0",
"DESTINATION_KEY" : "d2",
"TRANSFER_PLUGIN_TYPE" : "MPI",
"DESTINATION_ARTDAQ_CONTEXT_LINK" : "XDAQContextConfiguration",
"DESTINATION_ARTDAQ_CONTEXT_LINK_UID" : "ARTDAQEventBuilder0",
"ARTDAQ_GLOBAL_CONFIGURATION_LINK" : "ARTDAQGlobalConfiguration",
"ARTDAQ_GLOBAL_CONFIGURATION_LINK_UID" : "artdaq0",
"COMMENT_DESCRIPTION" : "No Comment",
"AUTHOR" : "DEFAULT",
"RECORD_INSERTION_TIME" : "0"
},
{
"DESTINATION_GROUP_ID" : "aggregator0destinations",
"DESTINATION_UID" : "dispatcherDestination0",
"DESTINATION_KEY" : "transfer_to_dispatcher",
"TRANSFER_PLUGIN_TYPE" : "Shmem",
"DESTINATION_ARTDAQ_CONTEXT_LINK" : "NO_LINK",
"DESTINATION_ARTDAQ_CONTEXT_LINK_UID" : "DEFAULT",
"ARTDAQ_GLOBAL_CONFIGURATION_LINK" : "ARTDAQGlobalConfiguration",
"ARTDAQ_GLOBAL_CONFIGURATION_LINK_UID" : "artdaq0",
"COMMENT_DESCRIPTION" : "No Comment",
"AUTHOR" : "DEFAULT",
"RECORD_INSERTION_TIME" : "0"
},
{
"DESTINATION_GROUP_ID" : "reader0DestGroup | readerStripsOnly0DestGroup",
"DESTINATION_UID" : "readerStripsOnlyDestination0",
"DESTINATION_KEY" : "d3",
"TRANSFER_PLUGIN_TYPE" : "MPI",
"DESTINATION_ARTDAQ_CONTEXT_LINK" : "XDAQContextConfiguration",
"DESTINATION_ARTDAQ_CONTEXT_LINK_UID" : "ARTDAQEventBuilderStripsOnly0",
"ARTDAQ_GLOBAL_CONFIGURATION_LINK" : "ARTDAQGlobalConfiguration",
"ARTDAQ_GLOBAL_CONFIGURATION_LINK_UID" : "artdaq0",
"COMMENT_DESCRIPTION" : "No Comment",
"AUTHOR" : "admin",
"RECORD_INSERTION_TIME" : "1510772868"
}
]
},
"metadata" : {

},
"search" : [

]
},
"comments" : [

],
"origin" : {
"source" : "template",
"name" : "notprovided",
"format" : "json",
"created" : "2017-11-15T13:11:55.576-0600",
"rawdata" : [

]
},
"version" : "2",
"entities" : [
{
"name" : "OTSROOT",
"assigned" : "2017-11-15T13:11:55.578-0600"
}
],
"configurations" : [
{
"name" : "notprovided",
"assigned" : "2017-11-15T13:11:55.577-0600"
},
{
"name" : "FTBFConfig_v12",
"assigned" : "2017-11-15T13:11:57.801-0600"
},
{
"name" : "FTBFConfig_v13",
"assigned" : "2017-11-15T13:13:51.762-0600"
},
{
"name" : "FTBFConfig_v14",
"assigned" : "2017-11-15T13:27:25.585-0600"
},
{
"name" : "FTBFConfig_v15",
"assigned" : "2017-11-15T13:35:45.715-0600"
},
{
"name" : "FTBFConfig_v16",
"assigned" : "2017-11-15T13:36:50.345-0600"
},
{
"name" : "FTBFConfig_v17",
"assigned" : "2017-11-15T15:33:28.881-0600"
},
{
"name" : "FTBFConfig_v18",
"assigned" : "2017-11-15T15:35:32.485-0600"
},
{
"name" : "FTBFConfig_v19",
"assigned" : "2017-11-15T15:38:01.325-0600"
},
{
"name" : "FTBFConfig_v20",
"assigned" : "2017-11-15T16:26:28.991-0600"
},
{
"name" : "FTBFConfig_v21",
"assigned" : "2017-11-16T09:22:30.122-0600"
},
{
"name" : "FTBFConfig_v22",
"assigned" : "2017-11-17T10:23:26.316-0600"
},
{
"name" : "FTBFConfig_v23",
"assigned" : "2017-11-17T17:26:43.827-0600"
},
{
"name" : "FTBFConfig_v24",
"assigned" : "2017-11-17T17:58:24.283-0600"
},
{
"name" : "FTBFConfig_v25",
"assigned" : "2017-11-17T18:24:43.966-0600"
},
{
"name" : "FTBFConfig_v26",
"assigned" : "2017-11-17T18:32:20.925-0600"
},
{
"name" : "FTBFConfig_v27",
"assigned" : "2017-11-17T18:43:28.048-0600"
},
{
"name" : "FTBFConfig_v28",
"assigned" : "2017-11-17T18:48:30.031-0600"
},
{
"name" : "FTBFConfig_v29",
"assigned" : "2017-11-20T14:48:29.255-0600"
},
{
"name" : "FTBFConfig_v30",
"assigned" : "2017-11-20T15:39:54.438-0600"
},
{
"name" : "FTBFConfig_v31",
"assigned" : "2017-11-20T16:41:00.419-0600"
},
{
"name" : "FTBFConfig_v32",
"assigned" : "2017-11-20T18:55:33.233-0600"
},
{
"name" : "FTBFConfig_v33",
"assigned" : "2017-11-20T18:57:28.533-0600"
},
{
"name" : "FTBFConfig_v34",
"assigned" : "2017-11-29T17:50:38.013-0600"
},
{
"name" : "FTBFConfig_v35",
"assigned" : "2017-11-29T18:00:30.880-0600"
},
{
"name" : "FTBFConfig_v36",
"assigned" : "2017-11-29T18:35:09.730-0600"
},
{
"name" : "FTBFConfig_v37",
"assigned" : "2017-12-01T09:36:15.938-0600"
},
{
"name" : "FTBFConfig_v38",
"assigned" : "2017-12-01T09:51:59.311-0600"
},
{
"name" : "FTBFConfig_v39",
"assigned" : "2017-12-01T11:51:56.527-0600"
},
{
"name" : "FTBFConfig_v40",
"assigned" : "2017-12-01T12:18:18.510-0600"
},
{
"name" : "FTBFConfig_v41",
"assigned" : "2017-12-01T12:21:00.645-0600"
},
{
"name" : "FTBFConfig_v42",
"assigned" : "2017-12-01T12:43:19.779-0600"
},
{
"name" : "FTBFConfig_v43",
"assigned" : "2017-12-01T12:57:57.010-0600"
},
{
"name" : "FTBFConfig_v44",
"assigned" : "2017-12-01T13:00:49.786-0600"
},
{
"name" : "FTBFConfig_v45",
"assigned" : "2017-12-01T13:25:46.715-0600"
},
{
"name" : "FTBFConfig_v46",
"assigned" : "2017-12-01T13:35:41.550-0600"
},
{
"name" : "FTBFConfig_v47",
"assigned" : "2017-12-01T14:00:49.912-0600"
},
{
"name" : "FTBFConfig_v48",
"assigned" : "2017-12-01T14:03:57.164-0600"
},
{
"name" : "FTBFConfig_v49",
"assigned" : "2017-12-01T15:31:57.361-0600"
},
{
"name" : "FTBFConfig_v51",
"assigned" : "2017-12-01T15:37:13.806-0600"
},
{
"name" : "FTBFConfig_v52",
"assigned" : "2017-12-01T15:37:28.438-0600"
},
{
"name" : "FTBFConfig_v53",
"assigned" : "2017-12-01T15:40:56.887-0600"
},
{
"name" : "FTBFConfig_v54",
"assigned" : "2017-12-01T15:52:47.197-0600"
},
{
"name" : "FTBFConfig_v55",
"assigned" : "2017-12-01T15:54:32.326-0600"
},
{
"name" : "FTBFConfig_v56",
"assigned" : "2017-12-01T15:55:31.855-0600"
},
{
"name" : "FTBFConfig_v57",
"assigned" : "2017-12-01T15:56:37.650-0600"
},
{
"name" : "FTBFConfig_v58",
"assigned" : "2017-12-01T15:57:35.729-0600"
},
{
"name" : "FTBFConfig_v59",
"assigned" : "2017-12-01T15:58:27.625-0600"
},
{
"name" : "FTBFConfig_v60",
"assigned" : "2017-12-01T15:59:28.813-0600"
},
{
"name" : "FTBFConfig_v61",
"assigned" : "2017-12-01T16:19:38.545-0600"
},
{
"name" : "FTBFConfig_v62",
"assigned" : "2017-12-01T16:22:01.093-0600"
},
{
"name" : "FTBFConfig_v63",
"assigned" : "2017-12-01T16:31:21.706-0600"
},
{
"name" : "FTBFConfig_v64",
"assigned" : "2017-12-01T17:06:28.597-0600"
},
{
"name" : "FTBFConfig_v65",
"assigned" : "2017-12-01T17:32:40.946-0600"
},
{
"name" : "FTBFConfig_v66",
"assigned" : "2017-12-01T20:38:47.324-0600"
},
{
"name" : "FTBFConfig_v67",
"assigned" : "2017-12-01T21:24:58.794-0600"
},
{
"name" : "FTBFConfig_v68",
"assigned" : "2017-12-01T21:42:58.445-0600"
},
{
"name" : "FTBFConfig_v69",
"assigned" : "2017-12-01T21:44:57.089-0600"
},
{
"name" : "FTBFConfig_v70",
"assigned" : "2017-12-01T21:59:16.295-0600"
},
{
"name" : "FTBFConfigNim_v0",
"assigned" : "2017-12-01T22:00:03.009-0600"
},
{
"name" : "FTBFConfigNim_v1",
"assigned" : "2017-12-01T22:13:04.734-0600"
},
{
"name" : "FTBFConfigNim_v2",
"assigned" : "2017-12-01T22:15:51.946-0600"
},
{
"name" : "FTBFConfigNim_v3",
"assigned" : "2017-12-01T22:17:00.008-0600"
},
{
"name" : "FTBFConfigNim_v4",
"assigned" : "2017-12-01T22:19:03.038-0600"
},
{
"name" : "FTBFConfigNim_v5",
"assigned" : "2017-12-01T22:21:53.739-0600"
},
{
"name" : "FTBFConfigNim_v6",
"assigned" : "2017-12-01T22:23:09.890-0600"
},
{
"name" : "FTBFConfigNim_v7",
"assigned" : "2017-12-01T22:25:13.657-0600"
},
{
"name" : "FTBFConfigNim_v8",
"assigned" : "2017-12-01T22:27:01.233-0600"
},
{
"name" : "FTBFConfigNim_v9",
"assigned" : "2017-12-01T22:29:25.480-0600"
},
{
"name" : "FTBFConfigNim_v10",
"assigned" : "2017-12-01T22:52:30.583-0600"
},
{
"name" : "FTBFConfigNim_v11",
"assigned" : "2017-12-01T22:57:25.374-0600"
},
{
"name" : "FTBFConfigNim_v12",
"assigned" : "2017-12-01T23:00:03.631-0600"
},
{
"name" : "FTBFConfigNim_v13",
"assigned" : "2017-12-01T23:52:31.743-0600"
},
{
"name" : "FTBFConfigNim_v14",
"assigned" : "2017-12-01T23:58:06.140-0600"
},
{
"name" : "FTBFConfigNim_v15",
"assigned" : "2017-12-02T00:00:30.419-0600"
},
{
"name" : "FTBFConfigNim_v16",
"assigned" : "2017-12-02T00:13:05.534-0600"
},
{
"name" : "FTBFConfigNim_v17",
"assigned" : "2017-12-02T00:28:24.513-0600"
},
{
"name" : "FTBFConfigNim_v18",
"assigned" : "2017-12-02T00:29:30.549-0600"
},
{
"name" : "FTBFConfigNim_v19",
"assigned" : "2017-12-02T00:31:07.333-0600"
},
{
"name" : "FTBFConfigNim_v20",
"assigned" : "2017-12-02T00:57:23.528-0600"
},
{
"name" : "FTBFConfigNim_v21",
"assigned" : "2017-12-02T10:57:58.078-0600"
},
{
"name" : "FTBFConfigNim_v22",
"assigned" : "2017-12-02T11:08:14.241-0600"
},
{
"name" : "FTBFConfigNim_v23",
"assigned" : "2017-12-02T11:12:35.803-0600"
},
{
"name" : "FTBFConfigNim_v24",
"assigned" : "2017-12-02T11:18:38.621-0600"
},
{
"name" : "FTBFConfigNim_v25",
"assigned" : "2017-12-02T11:27:01.859-0600"
},
{
"name" : "FTBFConfigNim_v26",
"assigned" : "2017-12-02T11:38:32.898-0600"
},
{
"name" : "FTBFConfigNim_v27",
"assigned" : "2017-12-02T11:49:04.027-0600"
},
{
"name" : "FTBFConfigNim_v28",
"assigned" : "2017-12-02T11:55:05.487-0600"
},
{
"name" : "FTBFConfigNim_v29",
"assigned" : "2017-12-02T12:06:22.308-0600"
},
{
"name" : "FTBFConfig_v71",
"assigned" : "2017-12-02T12:24:10.946-0600"
},
{
"name" : "FTBFConfig_v72",
"assigned" : "2017-12-02T12:43:31.747-0600"
},
{
"name" : "FTBFConfig_v73",
"assigned" : "2017-12-02T13:55:31.334-0600"
},
{
"name" : "FTBFConfig_v74",
"assigned" : "2017-12-02T14:09:03.623-0600"
},
{
"name" : "FTBFConfig_v75",
"assigned" : "2017-12-02T14:12:14.474-0600"
},
{
"name" : "FTBFConfig_v76",
"assigned" : "2017-12-02T19:05:49.571-0600"
},
{
"name" : "FTBFConfig_v77",
"assigned" : "2017-12-02T19:12:09.386-0600"
},
{
"name" : "FTBFConfig_v78",
"assigned" : "2017-12-03T14:03:44.568-0600"
},
{
"name" : "FTBFConfig_v79",
"assigned" : "2017-12-03T14:09:02.751-0600"
},
{
"name" : "FTBFConfig_v80",
"assigned" : "2017-12-03T14:11:06.508-0600"
},
{
"name" : "FTBFConfig_v81",
"assigned" : "2017-12-03T14:22:29.536-0600"
},
{
"name" : "FTBFConfig_v82",
"assigned" : "2017-12-03T14:40:34.313-0600"
},
{
"name" : "FTBFConfig_v83",
"assigned" : "2017-12-03T14:45:01.653-0600"
},
{
"name" : "FTBFConfig_v84",
"assigned" : "2017-12-04T14:51:27.039-0600"
},
{
"name" : "FTBFConfig_v85",
"assigned" : "2017-12-04T14:55:40.211-0600"
},
{
"name" : "FTBFConfig_v86",
"assigned" : "2017-12-04T16:51:03.173-0600"
},
{
"name" : "FTBFConfig_v87",
"assigned" : "2017-12-04T16:56:43.788-0600"
},
{
"name" : "FTBFConfig_v88",
"assigned" : "2017-12-04T17:01:08.489-0600"
},
{
"name" : "FTBFConfig_v89",
"assigned" : "2017-12-04T17:03:53.581-0600"
},
{
"name" : "FTBFConfig_v90",
"assigned" : "2017-12-04T17:07:13.205-0600"
},
{
"name" : "FTBFConfig_v91",
"assigned" : "2017-12-04T17:09:22.318-0600"
},
{
"name" : "FTBFConfig_v92",
"assigned" : "2017-12-04T17:11:34.784-0600"
},
{
"name" : "FTBFConfig_v93",
"assigned" : "2017-12-04T21:05:17.425-0600"
},
{
"name" : "FTBFConfig_v94",
"assigned" : "2017-12-04T21:17:08.246-0600"
},
{
"name" : "FTBFConfig_v95",
"assigned" : "2017-12-04T21:41:13.973-0600"
},
{
"name" : "FTBFConfig_v96",
"assigned" : "2017-12-04T22:38:58.584-0600"
},
{
"name" : "FTBFConfig_v97",
"assigned" : "2017-12-04T23:01:09.096-0600"
},
{
"name" : "FTBFConfig_v98",
"assigned" : "2017-12-07T11:07:43.113-0600"
},
{
"name" : "FTBFConfig_v99",
"assigned" : "2017-12-07T11:49:55.790-0600"
},
{
"name" : "FTBFConfig_v100",
"assigned" : "2017-12-07T11:58:22.508-0600"
},
{
"name" : "FTBFConfig_v101",
"assigned" : "2017-12-08T13:30:44.593-0600"
},
{
"name" : "FTBFConfig_v102",
"assigned" : "2017-12-08T13:32:31.481-0600"
},
{
"name" : "FTBFConfig_v103",
"assigned" : "2017-12-12T11:03:01.260-0600"
},
{
"name" : "FTBFConfig_v104",
"assigned" : "2017-12-12T13:50:55.555-0600"
},
{
"name" : "FTBFConfig_v105",
"assigned" : "2017-12-12T15:25:01.569-0600"
},
{
"name" : "FTBFConfig_v106",
"assigned" : "2017-12-13T10:24:20.007-0600"
},
{
"name" : "FTBFConfig_v107",
"assigned" : "2017-12-13T10:26:58.764-0600"
},
{
"name" : "FTBFConfig_v108",
"assigned" : "2018-02-01T21:14:22.102-0600"
},
{
"name" : "FTBFConfig_v109",
"assigned" : "2018-02-01T21:20:59.198-0600"
},
{
"name" : "FTBFConfig_v110",
"assigned" : "2018-02-02T11:25:30.145-0600"
},
{
"name" : "FTBFConfig_v111",
"assigned" : "2018-02-02T11:37:08.979-0600"
},
{
"name" : "FTBFConfig_v112",
"assigned" : "2018-02-02T11:47:11.426-0600"
},
{
"name" : "FTBFConfig_v113",
"assigned" : "2018-02-02T11:53:32.681-0600"
},
{
"name" : "FTBFConfig_v114",
"assigned" : "2018-02-02T12:00:48.741-0600"
},
{
"name" : "FTBFConfig_v115",
"assigned" : "2018-02-02T12:27:10.233-0600"
},
{
"name" : "FTBFConfig_v116",
"assigned" : "2018-02-02T14:28:49.756-0600"
},
{
"name" : "FTBFConfig_v117",
"assigned" : "2018-02-02T14:30:16.073-0600"
},
{
"name" : "FTBFConfig_v118",
"assigned" : "2018-02-02T14:33:57.277-0600"
},
{
"name" : "FTBFConfig_v119",
"assigned" : "2018-02-02T14:36:23.890-0600"
},
{
"name" : "FTBFConfig_v120",
"assigned" : "2018-02-02T14:38:37.248-0600"
},
{
"name" : "FTBFConfig_v121",
"assigned" : "2018-02-02T14:41:46.562-0600"
},
{
"name" : "FTBFConfig_v122",
"assigned" : "2018-02-02T14:50:20.583-0600"
},
{
"name" : "FTBFConfig_v123",
"assigned" : "2018-02-02T14:52:53.421-0600"
},
{
"name" : "FTBFConfig_v124",
"assigned" : "2018-02-02T14:59:46.743-0600"
},
{
"name" : "FTBFConfig_v125",
"assigned" : "2018-02-02T15:04:04.844-0600"
},
{
"name" : "FTBFConfig_v126",
"assigned" : "2018-02-02T15:50:08.038-0600"
},
{
"name" : "FTBFConfig_v127",
"assigned" : "2018-02-02T15:51:27.510-0600"
},
{
"name" : "FTBFConfig_v128",
"assigned" : "2018-02-02T15:52:32.682-0600"
},
{
"name" : "FTBFConfig_v129",
"assigned" : "2018-02-02T16:02:41.551-0600"
},
{
"name" : "FTBFConfig_v130",
"assigned" : "2018-02-02T16:08:41.072-0600"
},
{
"name" : "FTBFConfig_v131",
"assigned" : "2018-02-02T16:11:26.872-0600"
},
{
"name" : "FTBFConfig_v132",
"assigned" : "2018-02-02T16:12:54.713-0600"
},
{
"name" : "FTBFConfig_v133",
"assigned" : "2018-02-02T16:14:25.275-0600"
},
{
"name" : "FTBFConfig_v134",
"assigned" : "2018-02-02T16:26:18.195-0600"
},
{
"name" : "FTBFConfig_v135",
"assigned" : "2018-02-02T16:27:05.308-0600"
},
{
"name" : "FTBFConfig_v136",
"assigned" : "2018-02-02T16:29:26.657-0600"
},
{
"name" : "FTBFConfig_v137",
"assigned" : "2018-02-02T16:31:37.126-0600"
},
{
"name" : "FTBFConfig_v138",
"assigned" : "2018-02-02T16:34:09.858-0600"
},
{
"name" : "FTBFConfig_v139",
"assigned" : "2018-02-02T17:39:25.887-0600"
},
{
"name" : "FTBFConfig_v140",
"assigned" : "2018-02-02T17:42:48.059-0600"
},
{
"name" : "FTBFConfig_v141",
"assigned" : "2018-02-02T17:47:33.223-0600"
},
{
"name" : "FTBFConfig_v142",
"assigned" : "2018-02-02T17:53:57.224-0600"
}
],
"changelog" : "notprovided",
"bookkeeping" : {
"isdeleted" : false,
"isreadonly" : false,
"updates" : [
{
"event" : "addConfiguration",
"timestamp" : "2017-11-15T13:11:55.577-0600",
"value" : {
"name" : "notprovided",
"assigned" : "2017-11-15T13:11:55.577-0600"
}
},
{
"event" : "setVersion",
"timestamp" : "2017-11-15T13:11:55.577-0600",
"value" : {
"name" : "2",
"assigned" : "2017-11-15T13:11:55.577-0600"
}
},
{
"event" : "setCollection",
"timestamp" : "2017-11-15T13:11:55.578-0600",
"value" : {
"name" : "ARTDAQDaqDestinationConfiguration",
"assigned" : "2017-11-15T13:11:55.578-0600"
}
},
{
"event" : "addEntity",
"timestamp" : "2017-11-15T13:11:55.578-0600",
"value" : {
"name" : "OTSROOT",
"assigned" : "2017-11-15T13:11:55.578-0600"
}
},
{
"event" : "addConfiguration",
"timestamp" : "2017-11-15T13:11:57.801-0600",
"value" : {
"name" : "FTBFConfig_v12",
"assigned" : "2017-11-15T13:11:57.801-0600"
}
},
{
"event" : "addConfiguration",
"timestamp" : "2017-11-15T13:13:51.762-0600",
"value" : {
"name" : "FTBFConfig_v13",
"assigned" : "2017-11-15T13:13:51.762-0600"
}
},
{
"event" : "addConfiguration",
"timestamp" : "2017-11-15T13:27:25.586-0600",
"value" : {
"name" : "FTBFConfig_v14",
"assigned" : "2017-11-15T13:27:25.585-0600"
}
},
{
"event" : "addConfiguration",
"timestamp" : "2017-11-15T13:35:45.715-0600",
"value" : {
"name" : "FTBFConfig_v15",
"assigned" : "2017-11-15T13:35:45.715-0600"
}
},
{
"event" : "addConfiguration",
"timestamp" : "2017-11-15T13:36:50.345-0600",
"value" : {
"name" : "FTBFConfig_v16",
"assigned" : "2017-11-15T13:36:50.345-0600"
}
},
{
"event" : "addConfiguration",
"timestamp" : "2017-11-15T15:33:28.881-0600",
"value" : {
"name" : "FTBFConfig_v17",
"assigned" : "2017-11-15T15:33:28.881-0600"
}
},
{
"event" : "addConfiguration",
"timestamp" : "2017-11-15T15:35:32.485-0600",
"value" : {
"name" : "FTBFConfig_v18",
"assigned" : "2017-11-15T15:35:32.485-0600"
}
},
{
"event" : "addConfiguration",
"timestamp" : "2017-11-15T15:38:01.325-0600",
"value" : {
"name" : "FTBFConfig_v19",
"assigned" : "2017-11-15T15:38:01.325-0600"
}
},
{
"event" : "addConfiguration",
"timestamp" : "2017-11-15T16:26:28.991-0600",
"value" : {
"name" : "FTBFConfig_v20",
"assigned" : "2017-11-15T16:26:28.991-0600"
}
},
{
"event" : "addConfiguration",
"timestamp" : "2017-11-16T09:22:30.122-0600",
"value" : {
"name" : "FTBFConfig_v21",
"assigned" : "2017-11-16T09:22:30.122-0600"
}
},
{
"event" : "addConfiguration",
"timestamp" : "2017-11-17T10:23:26.316-0600",
"value" : {
"name" : "FTBFConfig_v22",
"assigned" : "2017-11-17T10:23:26.316-0600"
}
},
{
"event" : "addConfiguration",
"timestamp" : "2017-11-17T17:26:43.827-0600",
"value" : {
"name" : "FTBFConfig_v23",
"assigned" : "2017-11-17T17:26:43.827-0600"
}
},
{
"event" : "addConfiguration",
"timestamp" : "2017-11-17T17:58:24.283-0600",
"value" : {
"name" : "FTBFConfig_v24",
"assigned" : "2017-11-17T17:58:24.283-0600"
}
},
{
"event" : "addConfiguration",
"timestamp" : "2017-11-17T18:24:43.966-0600",
"value" : {
"name" : "FTBFConfig_v25",
"assigned" : "2017-11-17T18:24:43.966-0600"
}
},
{
"event" : "addConfiguration",
"timestamp" : "2017-11-17T18:32:20.925-0600",
"value" : {
"name" : "FTBFConfig_v26",
"assigned" : "2017-11-17T18:32:20.925-0600"
}
},
{
"event" : "addConfiguration",
"timestamp" : "2017-11-17T18:43:28.048-0600",
"value" : {
"name" : "FTBFConfig_v27",
"assigned" : "2017-11-17T18:43:28.048-0600"
}
},
{
"event" : "addConfiguration",
"timestamp" : "2017-11-17T18:48:30.031-0600",
"value" : {
"name" : "FTBFConfig_v28",
"assigned" : "2017-11-17T18:48:30.031-0600"
}
},
{
"event" : "addConfiguration",
"timestamp" : "2017-11-20T14:48:29.256-0600",
"value" : {
"name" : "FTBFConfig_v29",
"assigned" : "2017-11-20T14:48:29.255-0600"
}
},
{
"event" : "addConfiguration",
"timestamp" : "2017-11-20T15:39:54.438-0600",
"value" : {
"name" : "FTBFConfig_v30",
"assigned" : "2017-11-20T15:39:54.438-0600"
}
},
{
"event" : "addConfiguration",
"timestamp" : "2017-11-20T16:41:00.419-0600",
"value" : {
"name" : "FTBFConfig_v31",
"assigned" : "2017-11-20T16:41:00.419-0600"
}
},
{
"event" : "addConfiguration",
"timestamp" : "2017-11-20T18:55:33.233-0600",
"value" : {
"name" : "FTBFConfig_v32",
"assigned" : "2017-11-20T18:55:33.233-0600"
}
},
{
"event" : "addConfiguration",
"timestamp" : "2017-11-20T18:57:28.533-0600",
"value" : {
"name" : "FTBFConfig_v33",
"assigned" : "2017-11-20T18:57:28.533-0600"
}
},
{
"event" : "addConfiguration",
"timestamp" : "2017-11-29T17:50:38.013-0600",
"value" : {
"name" : "FTBFConfig_v34",
"assigned" : "2017-11-29T17:50:38.013-0600"
}
},
{
"event" : "addConfiguration",
"timestamp" : "2017-11-29T18:00:30.880-0600",
"value" : {
"name" : "FTBFConfig_v35",
"assigned" : "2017-11-29T18:00:30.880-0600"
}
},
{
"event" : "addConfiguration",
"timestamp" : "2017-11-29T18:35:09.730-0600",
"value" : {
"name" : "FTBFConfig_v36",
"assigned" : "2017-11-29T18:35:09.730-0600"
}
},
{
"event" : "addConfiguration",
"timestamp" : "2017-12-01T09:36:15.938-0600",
"value" : {
"name" : "FTBFConfig_v37",
"assigned" : "2017-12-01T09:36:15.938-0600"
}
},
{
"event" : "addConfiguration",
"timestamp" : "2017-12-01T09:51:59.311-0600",
"value" : {
"name" : "FTBFConfig_v38",
"assigned" : "2017-12-01T09:51:59.311-0600"
}
},
{
"event" : "addConfiguration",
"timestamp" : "2017-12-01T11:51:56.527-0600",
"value" : {
"name" : "FTBFConfig_v39",
"assigned" : "2017-12-01T11:51:56.527-0600"
}
},
{
"event" : "addConfiguration",
"timestamp" : "2017-12-01T12:18:18.510-0600",
"value" : {
"name" : "FTBFConfig_v40",
"assigned" : "2017-12-01T12:18:18.510-0600"
}
},
{
"event" : "addConfiguration",
"timestamp" : "2017-12-01T12:21:00.645-0600",
"value" : {
"name" : "FTBFConfig_v41",
"assigned" : "2017-12-01T12:21:00.645-0600"
}
},
{
"event" : "addConfiguration",
"timestamp" : "2017-12-01T12:43:19.779-0600",
"value" : {
"name" : "FTBFConfig_v42",
"assigned" : "2017-12-01T12:43:19.779-0600"
}
},
{
"event" : "addConfiguration",
"timestamp" : "2017-12-01T12:57:57.010-0600",
"value" : {
"name" : "FTBFConfig_v43",
"assigned" : "2017-12-01T12:57:57.010-0600"
}
},
{
"event" : "addConfiguration",
"timestamp" : "2017-12-01T13:00:49.786-0600",
"value" : {
"name" : "FTBFConfig_v44",
"assigned" : "2017-12-01T13:00:49.786-0600"
}
},
{
"event" : "addConfiguration",
"timestamp" : "2017-12-01T13:25:46.715-0600",
"value" : {
"name" : "FTBFConfig_v45",
"assigned" : "2017-12-01T13:25:46.715-0600"
}
},
{
"event" : "addConfiguration",
"timestamp" : "2017-12-01T13:35:41.550-0600",
"value" : {
"name" : "FTBFConfig_v46",
"assigned" : "2017-12-01T13:35:41.550-0600"
}
},
{
"event" : "addConfiguration",
"timestamp" : "2017-12-01T14:00:49.912-0600",
"value" : {
"name" : "FTBFConfig_v47",
"assigned" : "2017-12-01T14:00:49.912-0600"
}
},
{
"event" : "addConfiguration",
"timestamp" : "2017-12-01T14:03:57.164-0600",
"value" : {
"name" : "FTBFConfig_v48",
"assigned" : "2017-12-01T14:03:57.164-0600"
}
},
{
"event" : "addConfiguration",
"timestamp" : "2017-12-01T15:31:57.361-0600",
"value" : {
"name" : "FTBFConfig_v49",
"assigned" : "2017-12-01T15:31:57.361-0600"
}
},
{
"event" : "addConfiguration",
"timestamp" : "2017-12-01T15:37:13.806-0600",
"value" : {
"name" : "FTBFConfig_v51",
"assigned" : "2017-12-01T15:37:13.806-0600"
}
},
{
"event" : "addConfiguration",
"timestamp" : "2017-12-01T15:37:28.438-0600",
"value" : {
"name" : "FTBFConfig_v52",
"assigned" : "2017-12-01T15:37:28.438-0600"
}
},
{
"event" : "addConfiguration",
"timestamp" : "2017-12-01T15:40:56.887-0600",
"value" : {
"name" : "FTBFConfig_v53",
"assigned" : "2017-12-01T15:40:56.887-0600"
}
},
{
"event" : "addConfiguration",
"timestamp" : "2017-12-01T15:52:47.197-0600",
"value" : {
"name" : "FTBFConfig_v54",
"assigned" : "2017-12-01T15:52:47.197-0600"
}
},
{
"event" : "addConfiguration",
"timestamp" : "2017-12-01T15:54:32.326-0600",
"value" : {
"name" : "FTBFConfig_v55",
"assigned" : "2017-12-01T15:54:32.326-0600"
}
},
{
"event" : "addConfiguration",
"timestamp" : "2017-12-01T15:55:31.855-0600",
"value" : {
"name" : "FTBFConfig_v56",
"assigned" : "2017-12-01T15:55:31.855-0600"
}
},
{
"event" : "addConfiguration",
"timestamp" : "2017-12-01T15:56:37.650-0600",
"value" : {
"name" : "FTBFConfig_v57",
"assigned" : "2017-12-01T15:56:37.650-0600"
}
},
{
"event" : "addConfiguration",
"timestamp" : "2017-12-01T15:57:35.729-0600",
"value" : {
"name" : "FTBFConfig_v58",
"assigned" : "2017-12-01T15:57:35.729-0600"
}
},
{
"event" : "addConfiguration",
"timestamp" : "2017-12-01T15:58:27.626-0600",
"value" : {
"name" : "FTBFConfig_v59",
"assigned" : "2017-12-01T15:58:27.625-0600"
}
},
{
"event" : "addConfiguration",
"timestamp" : "2017-12-01T15:59:28.813-0600",
"value" : {
"name" : "FTBFConfig_v60",
"assigned" : "2017-12-01T15:59:28.813-0600"
}
},
{
"event" : "addConfiguration",
"timestamp" : "2017-12-01T16:19:38.546-0600",
"value" : {
"name" : "FTBFConfig_v61",
"assigned" : "2017-12-01T16:19:38.545-0600"
}
},
{
"event" : "addConfiguration",
"timestamp" : "2017-12-01T16:22:01.093-0600",
"value" : {
"name" : "FTBFConfig_v62",
"assigned" : "2017-12-01T16:22:01.093-0600"
}
},
{
"event" : "addConfiguration",
"timestamp" : "2017-12-01T16:31:21.707-0600",
"value" : {
"name" : "FTBFConfig_v63",
"assigned" : "2017-12-01T16:31:21.706-0600"
}
},
{
"event" : "addConfiguration",
"timestamp" : "2017-12-01T17:06:28.597-0600",
"value" : {
"name" : "FTBFConfig_v64",
"assigned" : "2017-12-01T17:06:28.597-0600"
}
},
{
"event" : "addConfiguration",
"timestamp" : "2017-12-01T17:32:40.947-0600",
"value" : {
"name" : "FTBFConfig_v65",
"assigned" : "2017-12-01T17:32:40.946-0600"
}
},
{
"event" : "addConfiguration",
"timestamp" : "2017-12-01T20:38:47.324-0600",
"value" : {
"name" : "FTBFConfig_v66",
"assigned" : "2017-12-01T20:38:47.324-0600"
}
},
{
"event" : "addConfiguration",
"timestamp" : "2017-12-01T21:24:58.794-0600",
"value" : {
"name" : "FTBFConfig_v67",
"assigned" : "2017-12-01T21:24:58.794-0600"
}
},
{
"event" : "addConfiguration",
"timestamp" : "2017-12-01T21:42:58.445-0600",
"value" : {
"name" : "FTBFConfig_v68",
"assigned" : "2017-12-01T21:42:58.445-0600"
}
},
{
"event" : "addConfiguration",
"timestamp" : "2017-12-01T21:44:57.089-0600",
"value" : {
"name" : "FTBFConfig_v69",
"assigned" : "2017-12-01T21:44:57.089-0600"
}
},
{
"event" : "addConfiguration",
"timestamp" : "2017-12-01T21:59:16.295-0600",
"value" : {
"name" : "FTBFConfig_v70",
"assigned" : "2017-12-01T21:59:16.295-0600"
}
},
{
"event" : "addConfiguration",
"timestamp" : "2017-12-01T22:00:03.009-0600",
"value" : {
"name" : "FTBFConfigNim_v0",
"assigned" : "2017-12-01T22:00:03.009-0600"
}
},
{
"event" : "addConfiguration",
"timestamp" : "2017-12-01T22:13:04.734-0600",
"value" : {
"name" : "FTBFConfigNim_v1",
"assigned" : "2017-12-01T22:13:04.734-0600"
}
},
{
"event" : "addConfiguration",
"timestamp" : "2017-12-01T22:15:51.947-0600",
"value" : {
"name" : "FTBFConfigNim_v2",
"assigned" : "2017-12-01T22:15:51.946-0600"
}
},
{
"event" : "addConfiguration",
"timestamp" : "2017-12-01T22:17:00.008-0600",
"value" : {
"name" : "FTBFConfigNim_v3",
"assigned" : "2017-12-01T22:17:00.008-0600"
}
},
{
"event" : "addConfiguration",
"timestamp" : "2017-12-01T22:19:03.038-0600",
"value" : {
"name" : "FTBFConfigNim_v4",
"assigned" : "2017-12-01T22:19:03.038-0600"
}
},
{
"event" : "addConfiguration",
"timestamp" : "2017-12-01T22:21:53.739-0600",
"value" : {
"name" : "FTBFConfigNim_v5",
"assigned" : "2017-12-01T22:21:53.739-0600"
}
},
{
"event" : "addConfiguration",
"timestamp" : "2017-12-01T22:23:09.891-0600",
"value" : {
"name" : "FTBFConfigNim_v6",
"assigned" : "2017-12-01T22:23:09.890-0600"
}
},
{
"event" : "addConfiguration",
"timestamp" : "2017-12-01T22:25:13.657-0600",
"value" : {
"name" : "FTBFConfigNim_v7",
"assigned" : "2017-12-01T22:25:13.657-0600"
}
},
{
"event" : "addConfiguration",
"timestamp" : "2017-12-01T22:27:01.233-0600",
"value" : {
"name" : "FTBFConfigNim_v8",
"assigned" : "2017-12-01T22:27:01.233-0600"
}
},
{
"event" : "addConfiguration",
"timestamp" : "2017-12-01T22:29:25.480-0600",
"value" : {
"name" : "FTBFConfigNim_v9",
"assigned" : "2017-12-01T22:29:25.480-0600"
}
},
{
"event" : "addConfiguration",
"timestamp" : "2017-12-01T22:52:30.584-0600",
"value" : {
"name" : "FTBFConfigNim_v10",
"assigned" : "2017-12-01T22:52:30.583-0600"
}
},
{
"event" : "addConfiguration",
"timestamp" : "2017-12-01T22:57:25.374-0600",
"value" : {
"name" : "FTBFConfigNim_v11",
"assigned" : "2017-12-01T22:57:25.374-0600"
}
},
{
"event" : "addConfiguration",
"timestamp" : "2017-12-01T23:00:03.631-0600",
"value" : {
"name" : "FTBFConfigNim_v12",
"assigned" : "2017-12-01T23:00:03.631-0600"
}
},
{
"event" : "addConfiguration",
"timestamp" : "2017-12-01T23:52:31.743-0600",
"value" : {
"name" : "FTBFConfigNim_v13",
"assigned" : "2017-12-01T23:52:31.743-0600"
}
},
{
"event" : "addConfiguration",
"timestamp" : "2017-12-01T23:58:06.140-0600",
"value" : {
"name" : "FTBFConfigNim_v14",
"assigned" : "2017-12-01T23:58:06.140-0600"
}
},
{
"event" : "addConfiguration",
"timestamp" : "2017-12-02T00:00:30.419-0600",
"value" : {
"name" : "FTBFConfigNim_v15",
"assigned" : "2017-12-02T00:00:30.419-0600"
}
},
{
"event" : "addConfiguration",
"timestamp" : "2017-12-02T00:13:05.534-0600",
"value" : {
"name" : "FTBFConfigNim_v16",
"assigned" : "2017-12-02T00:13:05.534-0600"
}
},
{
"event" : "addConfiguration",
"timestamp" : "2017-12-02T00:28:24.513-0600",
"value" : {
"name" : "FTBFConfigNim_v17",
"assigned" : "2017-12-02T00:28:24.513-0600"
}
},
{
"event" : "addConfiguration",
"timestamp" : "2017-12-02T00:29:30.550-0600",
"value" : {
"name" : "FTBFConfigNim_v18",
"assigned" : "2017-12-02T00:29:30.549-0600"
}
},
{
"event" : "addConfiguration",
"timestamp" : "2017-12-02T00:31:07.333-0600",
"value" : {
"name" : "FTBFConfigNim_v19",
"assigned" : "2017-12-02T00:31:07.333-0600"
}
},
{
"event" : "addConfiguration",
"timestamp" : "2017-12-02T00:57:23.528-0600",
"value" : {
"name" : "FTBFConfigNim_v20",
"assigned" : "2017-12-02T00:57:23.528-0600"
}
},
{
"event" : "addConfiguration",
"timestamp" : "2017-12-02T10:57:58.078-0600",
"value" : {
"name" : "FTBFConfigNim_v21",
"assigned" : "2017-12-02T10:57:58.078-0600"
}
},
{
"event" : "addConfiguration",
"timestamp" : "2017-12-02T11:08:14.241-0600",
"value" : {
"name" : "FTBFConfigNim_v22",
"assigned" : "2017-12-02T11:08:14.241-0600"
}
},
{
"event" : "addConfiguration",
"timestamp" : "2017-12-02T11:12:35.804-0600",
"value" : {
"name" : "FTBFConfigNim_v23",
"assigned" : "2017-12-02T11:12:35.803-0600"
}
},
{
"event" : "addConfiguration",
"timestamp" : "2017-12-02T11:18:38.621-0600",
"value" : {
"name" : "FTBFConfigNim_v24",
"assigned" : "2017-12-02T11:18:38.621-0600"
}
},
{
"event" : "addConfiguration",
"timestamp" : "2017-12-02T11:27:01.859-0600",
"value" : {
"name" : "FTBFConfigNim_v25",
"assigned" : "2017-12-02T11:27:01.859-0600"
}
},
{
"event" : "addConfiguration",
"timestamp" : "2017-12-02T11:38:32.898-0600",
"value" : {
"name" : "FTBFConfigNim_v26",
"assigned" : "2017-12-02T11:38:32.898-0600"
}
},
{
"event" : "addConfiguration",
"timestamp" : "2017-12-02T11:49:04.028-0600",
"value" : {
"name" : "FTBFConfigNim_v27",
"assigned" : "2017-12-02T11:49:04.027-0600"
}
},
{
"event" : "addConfiguration",
"timestamp" : "2017-12-02T11:55:05.487-0600",
"value" : {
"name" : "FTBFConfigNim_v28",
"assigned" : "2017-12-02T11:55:05.487-0600"
}
},
{
"event" : "addConfiguration",
"timestamp" : "2017-12-02T12:06:22.308-0600",
"value" : {
"name" : "FTBFConfigNim_v29",
"assigned" : "2017-12-02T12:06:22.308-0600"
}
},
{
"event" : "addConfiguration",
"timestamp" : "2017-12-02T12:24:10.947-0600",
"value" : {
"name" : "FTBFConfig_v71",
"assigned" : "2017-12-02T12:24:10.946-0600"
}
},
{
"event" : "addConfiguration",
"timestamp" : "2017-12-02T12:43:31.747-0600",
"value" : {
"name" : "FTBFConfig_v72",
"assigned" : "2017-12-02T12:43:31.747-0600"
}
},
{
"event" : "addConfiguration",
"timestamp" : "2017-12-02T13:55:31.334-0600",
"value" : {
"name" : "FTBFConfig_v73",
"assigned" : "2017-12-02T13:55:31.334-0600"
}
},
{
"event" : "addConfiguration",
"timestamp" : "2017-12-02T14:09:03.624-0600",
"value" : {
"name" : "FTBFConfig_v74",
"assigned" : "2017-12-02T14:09:03.623-0600"
}
},
{
"event" : "addConfiguration",
"timestamp" : "2017-12-02T14:12:14.474-0600",
"value" : {
"name" : "FTBFConfig_v75",
"assigned" : "2017-12-02T14:12:14.474-0600"
}
},
{
"event" : "addConfiguration",
"timestamp" : "2017-12-02T19:05:49.571-0600",
"value" : {
"name" : "FTBFConfig_v76",
"assigned" : "2017-12-02T19:05:49.571-0600"
}
},
{
"event" : "addConfiguration",
"timestamp" : "2017-12-02T19:12:09.386-0600",
"value" : {
"name" : "FTBFConfig_v77",
"assigned" : "2017-12-02T19:12:09.386-0600"
}
},
{
"event" : "addConfiguration",
"timestamp" : "2017-12-03T14:03:44.568-0600",
"value" : {
"name" : "FTBFConfig_v78",
"assigned" : "2017-12-03T14:03:44.568-0600"
}
},
{
"event" : "addConfiguration",
"timestamp" : "2017-12-03T14:09:02.751-0600",
"value" : {
"name" : "FTBFConfig_v79",
"assigned" : "2017-12-03T14:09:02.751-0600"
}
},
{
"event" : "addConfiguration",
"timestamp" : "2017-12-03T14:11:06.508-0600",
"value" : {
"name" : "FTBFConfig_v80",
"assigned" : "2017-12-03T14:11:06.508-0600"
}
},
{
"event" : "addConfiguration",
"timestamp" : "2017-12-03T14:22:29.536-0600",
"value" : {
"name" : "FTBFConfig_v81",
"assigned" : "2017-12-03T14:22:29.536-0600"
}
},
{
"event" : "addConfiguration",
"timestamp" : "2017-12-03T14:40:34.313-0600",
"value" : {
"name" : "FTBFConfig_v82",
"assigned" : "2017-12-03T14:40:34.313-0600"
}
},
{
"event" : "addConfiguration",
"timestamp" : "2017-12-03T14:45:01.653-0600",
"value" : {
"name" : "FTBFConfig_v83",
"assigned" : "2017-12-03T14:45:01.653-0600"
}
},
{
"event" : "addConfiguration",
"timestamp" : "2017-12-04T14:51:27.039-0600",
"value" : {
"name" : "FTBFConfig_v84",
"assigned" : "2017-12-04T14:51:27.039-0600"
}
},
{
"event" : "addConfiguration",
"timestamp" : "2017-12-04T14:55:40.211-0600",
"value" : {
"name" : "FTBFConfig_v85",
"assigned" : "2017-12-04T14:55:40.211-0600"
}
},
{
"event" : "addConfiguration",
"timestamp" : "2017-12-04T16:51:03.173-0600",
"value" : {
"name" : "FTBFConfig_v86",
"assigned" : "2017-12-04T16:51:03.173-0600"
}
},
{
"event" : "addConfiguration",
"timestamp" : "2017-12-04T16:56:43.788-0600",
"value" : {
"name" : "FTBFConfig_v87",
"assigned" : "2017-12-04T16:56:43.788-0600"
}
},
{
"event" : "addConfiguration",
"timestamp" : "2017-12-04T17:01:08.489-0600",
"value" : {
"name" : "FTBFConfig_v88",
"assigned" : "2017-12-04T17:01:08.489-0600"
}
},
{
"event" : "addConfiguration",
"timestamp" : "2017-12-04T17:03:53.582-0600",
"value" : {
"name" : "FTBFConfig_v89",
"assigned" : "2017-12-04T17:03:53.581-0600"
}
},
{
"event" : "addConfiguration",
"timestamp" : "2017-12-04T17:07:13.205-0600",
"value" : {
"name" : "FTBFConfig_v90",
"assigned" : "2017-12-04T17:07:13.205-0600"
}
},
{
"event" : "addConfiguration",
"timestamp" : "2017-12-04T17:09:22.318-0600",
"value" : {
"name" : "FTBFConfig_v91",
"assigned" : "2017-12-04T17:09:22.318-0600"
}
},
{
"event" : "addConfiguration",
"timestamp" : "2017-12-04T17:11:34.784-0600",
"value" : {
"name" : "FTBFConfig_v92",
"assigned" : "2017-12-04T17:11:34.784-0600"
}
},
{
"event" : "addConfiguration",
"timestamp" : "2017-12-04T21:05:17.425-0600",
"value" : {
"name" : "FTBFConfig_v93",
"assigned" : "2017-12-04T21:05:17.425-0600"
}
},
{
"event" : "addConfiguration",
"timestamp" : "2017-12-04T21:17:08.246-0600",
"value" : {
"name" : "FTBFConfig_v94",
"assigned" : "2017-12-04T21:17:08.246-0600"
}
},
{
"event" : "addConfiguration",
"timestamp" : "2017-12-04T21:41:13.973-0600",
"value" : {
"name" : "FTBFConfig_v95",
"assigned" : "2017-12-04T21:41:13.973-0600"
}
},
{
"event" : "addConfiguration",
"timestamp" : "2017-12-04T22:38:58.584-0600",
"value" : {
"name" : "FTBFConfig_v96",
"assigned" : "2017-12-04T22:38:58.584-0600"
}
},
{
"event" : "addConfiguration",
"timestamp" : "2017-12-04T23:01:09.096-0600",
"value" : {
"name" : "FTBFConfig_v97",
"assigned" : "2017-12-04T23:01:09.096-0600"
}
},
{
"event" : "addConfiguration",
"timestamp" : "2017-12-07T11:07:43.113-0600",
"value" : {
"name" : "FTBFConfig_v98",
"assigned" : "2017-12-07T11:07:43.113-0600"
}
},
{
"event" : "addConfiguration",
"timestamp" : "2017-12-07T11:49:55.790-0600",
"value" : {
"name" : "FTBFConfig_v99",
"assigned" : "2017-12-07T11:49:55.790-0600"
}
},
{
"event" : "addConfiguration",
"timestamp" : "2017-12-07T11:58:22.508-0600",
"value" : {
"name" : "FTBFConfig_v100",
"assigned" : "2017-12-07T11:58:22.508-0600"
}
},
{
"event" : "addConfiguration",
"timestamp" : "2017-12-08T13:30:44.594-0600",
"value" : {
"name" : "FTBFConfig_v101",
"assigned" : "2017-12-08T13:30:44.593-0600"
}
},
{
"event" : "addConfiguration",
"timestamp" : "2017-12-08T13:32:31.481-0600",
"value" : {
"name" : "FTBFConfig_v102",
"assigned" : "2017-12-08T13:32:31.481-0600"
}
},
{
"event" : "addConfiguration",
"timestamp" : "2017-12-12T11:03:01.260-0600",
"value" : {
"name" : "FTBFConfig_v103",
"assigned" : "2017-12-12T11:03:01.260-0600"
}
},
{
"event" : "addConfiguration",
"timestamp" : "2017-12-12T13:50:55.555-0600",
"value" : {
"name" : "FTBFConfig_v104",
"assigned" : "2017-12-12T13:50:55.555-0600"
}
},
{
"event" : "addConfiguration",
"timestamp" : "2017-12-12T15:25:01.569-0600",
"value" : {
"name" : "FTBFConfig_v105",
"assigned" : "2017-12-12T15:25:01.569-0600"
}
},
{
"event" : "addConfiguration",
"timestamp" : "2017-12-13T10:24:20.008-0600",
"value" : {
"name" : "FTBFConfig_v106",
"assigned" : "2017-12-13T10:24:20.007-0600"
}
},
{
"event" : "addConfiguration",
"timestamp" : "2017-12-13T10:26:58.764-0600",
"value" : {
"name" : "FTBFConfig_v107",
"assigned" : "2017-12-13T10:26:58.764-0600"
}
},
{
"event" : "addConfiguration",
"timestamp" : "2018-02-01T21:14:22.102-0600",
"value" : {
"name" : "FTBFConfig_v108",
"assigned" : "2018-02-01T21:14:22.102-0600"
}
},
{
"event" : "addConfiguration",
"timestamp" : "2018-02-01T21:20:59.198-0600",
"value" : {
"name" : "FTBFConfig_v109",
"assigned" : "2018-02-01T21:20:59.198-0600"
}
},
{
"event" : "addConfiguration",
"timestamp" : "2018-02-02T11:25:30.146-0600",
"value" : {
"name" : "FTBFConfig_v110",
"assigned" : "2018-02-02T11:25:30.145-0600"
}
},
{
"event" : "addConfiguration",
"timestamp" : "2018-02-02T11:37:08.979-0600",
"value" : {
"name" : "FTBFConfig_v111",
"assigned" : "2018-02-02T11:37:08.979-0600"
}
},
{
"event" : "addConfiguration",
"timestamp" : "2018-02-02T11:47:11.426-0600",
"value" : {
"name" : "FTBFConfig_v112",
"assigned" : "2018-02-02T11:47:11.426-0600"
}
},
{
"event" : "addConfiguration",
"timestamp" : "2018-02-02T11:53:32.681-0600",
"value" : {
"name" : "FTBFConfig_v113",
"assigned" : "2018-02-02T11:53:32.681-0600"
}
},
{
"event" : "addConfiguration",
"timestamp" : "2018-02-02T12:00:48.741-0600",
"value" : {
"name" : "FTBFConfig_v114",
"assigned" : "2018-02-02T12:00:48.741-0600"
}
},
{
"event" : "addConfiguration",
"timestamp" : "2018-02-02T12:27:10.233-0600",
"value" : {
"name" : "FTBFConfig_v115",
"assigned" : "2018-02-02T12:27:10.233-0600"
}
},
{
"event" : "addConfiguration",
"timestamp" : "2018-02-02T14:28:49.756-0600",
"value" : {
"name" : "FTBFConfig_v116",
"assigned" : "2018-02-02T14:28:49.756-0600"
}
},
{
"event" : "addConfiguration",
"timestamp" : "2018-02-02T14:30:16.074-0600",
"value" : {
"name" : "FTBFConfig_v117",
"assigned" : "2018-02-02T14:30:16.073-0600"
}
},
{
"event" : "addConfiguration",
"timestamp" : "2018-02-02T14:33:57.277-0600",
"value" : {
"name" : "FTBFConfig_v118",
"assigned" : "2018-02-02T14:33:57.277-0600"
}
},
{
"event" : "addConfiguration",
"timestamp" : "2018-02-02T14:36:23.890-0600",
"value" : {
"name" : "FTBFConfig_v119",
"assigned" : "2018-02-02T14:36:23.890-0600"
}
},
{
"event" : "addConfiguration",
"timestamp" : "2018-02-02T14:38:37.248-0600",
"value" : {
"name" : "FTBFConfig_v120",
"assigned" : "2018-02-02T14:38:37.248-0600"
}
},
{
"event" : "addConfiguration",
"timestamp" : "2018-02-02T14:41:46.562-0600",
"value" : {
"name" : "FTBFConfig_v121",
"assigned" : "2018-02-02T14:41:46.562-0600"
}
},
{
"event" : "addConfiguration",
"timestamp" : "2018-02-02T14:50:20.583-0600",
"value" : {
"name" : "FTBFConfig_v122",
"assigned" : "2018-02-02T14:50:20.583-0600"
}
},
{
"event" : "addConfiguration",
"timestamp" : "2018-02-02T14:52:53.421-0600",
"value" : {
"name" : "FTBFConfig_v123",
"assigned" : "2018-02-02T14:52:53.421-0600"
}
},
{
"event" : "addConfiguration",
"timestamp" : "2018-02-02T14:59:46.744-0600",
"value" : {
"name" : "FTBFConfig_v124",
"assigned" : "2018-02-02T14:59:46.743-0600"
}
},
{
"event" : "addConfiguration",
"timestamp" : "2018-02-02T15:04:04.844-0600",
"value" : {
"name" : "FTBFConfig_v125",
"assigned" : "2018-02-02T15:04:04.844-0600"
}
},
{
"event" : "addConfiguration",
"timestamp" : "2018-02-02T15:50:08.038-0600",
"value" : {
"name" : "FTBFConfig_v126",
"assigned" : "2018-02-02T15:50:08.038-0600"
}
},
{
"event" : "addConfiguration",
"timestamp" : "2018-02-02T15:51:27.511-0600",
"value" : {
"name" : "FTBFConfig_v127",
"assigned" : "2018-02-02T15:51:27.510-0600"
}
},
{
"event" : "addConfiguration",
"timestamp" : "2018-02-02T15:52:32.682-0600",
"value" : {
"name" : "FTBFConfig_v128",
"assigned" : "2018-02-02T15:52:32.682-0600"
}
},
{
"event" : "addConfiguration",
"timestamp" : "2018-02-02T16:02:41.552-0600",
"value" : {
"name" : "FTBFConfig_v129",
"assigned" : "2018-02-02T16:02:41.551-0600"
}
},
{
"event" : "addConfiguration",
"timestamp" : "2018-02-02T16:08:41.072-0600",
"value" : {
"name" : "FTBFConfig_v130",
"assigned" : "2018-02-02T16:08:41.072-0600"
}
},
{
"event" : "addConfiguration",
"timestamp" : "2018-02-02T16:11:26.872-0600",
"value" : {
"name" : "FTBFConfig_v131",
"assigned" : "2018-02-02T16:11:26.872-0600"
}
},
{
"event" : "addConfiguration",
"timestamp" : "2018-02-02T16:12:54.713-0600",
"value" : {
"name" : "FTBFConfig_v132",
"assigned" : "2018-02-02T16:12:54.713-0600"
}
},
{
"event" : "addConfiguration",
"timestamp" : "2018-02-02T16:14:25.275-0600",
"value" : {
"name" : "FTBFConfig_v133",
"assigned" : "2018-02-02T16:14:25.275-0600"
}
},
{
"event" : "addConfiguration",
"timestamp" : "2018-02-02T16:26:18.195-0600",
"value" : {
"name" : "FTBFConfig_v134",
"assigned" : "2018-02-02T16:26:18.195-0600"
}
},
{
"event" : "addConfiguration",
"timestamp" : "2018-02-02T16:27:05.308-0600",
"value" : {
"name" : "FTBFConfig_v135",
"assigned" : "2018-02-02T16:27:05.308-0600"
}
},
{
"event" : "addConfiguration",
"timestamp" : "2018-02-02T16:29:26.657-0600",
"value" : {
"name" : "FTBFConfig_v136",
"assigned" : "2018-02-02T16:29:26.657-0600"
}
},
{
"event" : "addConfiguration",
"timestamp" : "2018-02-02T16:31:37.126-0600",
"value" : {
"name" : "FTBFConfig_v137",
"assigned" : "2018-02-02T16:31:37.126-0600"
}
},
{
"event" : "addConfiguration",
"timestamp" : "2018-02-02T16:34:09.858-0600",
"value" : {
"name" : "FTBFConfig_v138",
"assigned" : "2018-02-02T16:34:09.858-0600"
}
},
{
"event" : "addConfiguration",
"timestamp" : "2018-02-02T17:39:25.888-0600",
"value" : {
"name" : "FTBFConfig_v139",
"assigned" : "2018-02-02T17:39:25.887-0600"
}
},
{
"event" : "addConfiguration",
"timestamp" : "2018-02-02T17:42:48.059-0600",
"value" : {
"name" : "FTBFConfig_v140",
"assigned" : "2018-02-02T17:42:48.059-0600"
}
},
{
"event" : "addConfiguration",
"timestamp" : "2018-02-02T17:47:33.223-0600",
"value" : {
"name" : "FTBFConfig_v141",
"assigned" : "2018-02-02T17:47:33.223-0600"
}
},
{
"event" : "addConfiguration",
"timestamp" : "2018-02-02T17:53:57.225-0600",
"value" : {
"name" : "FTBFConfig_v142",
"assigned" : "2018-02-02T17:53:57.224-0600"
}
}
],
"created" : "2017-11-15T13:11:55.576-0600"
},
"_id" : {
"$oid" : "a1f8932c2eff44709ba2ef98"
},
"collection" : "ARTDAQDaqDestinationConfiguration",
"aliases" : {
"active" : [

],
"history" : [

]
},
"runs" : [

],
"attachments" : [

],
"configtype" : "notprovided"
}