{
"document" : {
"data" : {
"NAME" : "DATA_PROCESSOR_TABLE",
"COMMENT" : "No comment.",
"AUTHOR" : "admin",
"CREATION_TIME" : 1574285291,
"COL_TYPES" : {
"DATA_PROCESSOR_GROUP_ID" : "STRING",
"PROCESSOR_UID" : "STRING",
"PROCESSOR_TYPE" : "STRING",
"PROCESSOR_PLUGIN_NAME" : "STRING",
"LINK_TO_PROCESSOR_TABLE" : "STRING",
"LINK_TO_PROCESSOR_UID" : "STRING",
"STATUS" : "STRING",
"COMMENT_DESCRIPTION" : "STRING",
"AUTHOR" : "STRING",
"RECORD_INSERTION_TIME" : "TIMESTAMP WITH TIMEZONE"
},
"DATA_SET" : [
{
"DATA_PROCESSOR_GROUP_ID" : "OuterTrackerDataBuffer0",
"PROCESSOR_UID" : "OuterTrackerDataBuffer0Listener0",
"PROCESSOR_TYPE" : "Producer",
"PROCESSOR_PLUGIN_NAME" : "UDPDataListenerProducer",
"LINK_TO_PROCESSOR_TABLE" : "UDPDataListenerProducerTable",
"LINK_TO_PROCESSOR_UID" : "OuterTrackerDataBuffer0Listener0",
"STATUS" : "On",
"COMMENT_DESCRIPTION" : "",
"AUTHOR" : "admin",
"RECORD_INSERTION_TIME" : "1550771721"
},
{
"DATA_PROCESSOR_GROUP_ID" : "OuterTrackerDataBuffer0",
"PROCESSOR_UID" : "OuterTrackerDataBuffer0RawDataSaver0",
"PROCESSOR_TYPE" : "Consumer",
"PROCESSOR_PLUGIN_NAME" : "RawDataSaverConsumer",
"LINK_TO_PROCESSOR_TABLE" : "RawDataSaverConsumerTable",
"LINK_TO_PROCESSOR_UID" : "OuterTrackerDataBuffer0RawDataSaver0",
"STATUS" : "On",
"COMMENT_DESCRIPTION" : "",
"AUTHOR" : "admin",
"RECORD_INSERTION_TIME" : "1550866562"
},
{
"DATA_PROCESSOR_GROUP_ID" : "VisualDataBuffer",
"PROCESSOR_UID" : "VisualDataBufferListener",
"PROCESSOR_TYPE" : "Producer",
"PROCESSOR_PLUGIN_NAME" : "TCPDataListenerProducer",
"LINK_TO_PROCESSOR_TABLE" : "UDPDataListenerProducerTable",
"LINK_TO_PROCESSOR_UID" : "VisualDataBufferListener",
"STATUS" : "On",
"COMMENT_DESCRIPTION" : "",
"AUTHOR" : "admin",
"RECORD_INSERTION_TIME" : "1563824820"
},
{
"DATA_PROCESSOR_GROUP_ID" : "VisualDataBuffer",
"PROCESSOR_UID" : "VisualDataBufferOTDQMHistos",
"PROCESSOR_TYPE" : "Consumer",
"PROCESSOR_PLUGIN_NAME" : "DQMMiddlewareHistosConsumer",
"LINK_TO_PROCESSOR_TABLE" : "OTDQMHistosConsumerTable",
"LINK_TO_PROCESSOR_UID" : "VisualDataBufferOTDQMHistos",
"STATUS" : "Off",
"COMMENT_DESCRIPTION" : "",
"AUTHOR" : "admin",
"RECORD_INSERTION_TIME" : "1574285275"
},
{
"DATA_PROCESSOR_GROUP_ID" : "VisualDataBuffer",
"PROCESSOR_UID" : "VisualDataBufferDQMHistoMakerHistos",
"PROCESSOR_TYPE" : "Consumer",
"PROCESSOR_PLUGIN_NAME" : "DQMHistoMakerConsumer",
"LINK_TO_PROCESSOR_TABLE" : "DQMHistoMakerConsumerTable",
"LINK_TO_PROCESSOR_UID" : "VisualDataBufferHistoMakerHistos",
"STATUS" : "On",
"COMMENT_DESCRIPTION" : "",
"AUTHOR" : "admin",
"RECORD_INSERTION_TIME" : "1574284689"
}
]
},
"metadata" : {

},
"search" : [

]
},
"comments" : [

],
"origin" : {
"source" : "template",
"name" : "notprovided",
"format" : "json",
"created" : "2019-11-20T15:28:11.782-0600",
"rawdata" : [

]
},
"version" : "5",
"entities" : [
{
"name" : "OTSROOT",
"assigned" : "2019-11-20T15:28:11.783-0600"
}
],
"configurations" : [
{
"name" : "notprovided",
"assigned" : "2019-11-20T15:28:11.783-0600"
},
{
"name" : "DefaultConfig_v11",
"assigned" : "2019-11-20T15:28:12.412-0600"
},
{
"name" : "DefaultConfig_v13",
"assigned" : "2019-11-20T16:23:03.421-0600"
}
],
"changelog" : "notprovided",
"bookkeeping" : {
"isdeleted" : false,
"isreadonly" : false,
"updates" : [
{
"event" : "addConfiguration",
"timestamp" : "2019-11-20T15:28:11.783-0600",
"value" : {
"name" : "notprovided",
"assigned" : "2019-11-20T15:28:11.783-0600"
}
},
{
"event" : "setVersion",
"timestamp" : "2019-11-20T15:28:11.783-0600",
"value" : {
"name" : "5",
"assigned" : "2019-11-20T15:28:11.783-0600"
}
},
{
"event" : "setCollection",
"timestamp" : "2019-11-20T15:28:11.783-0600",
"value" : {
"name" : "DataProcessorTable",
"assigned" : "2019-11-20T15:28:11.783-0600"
}
},
{
"event" : "addEntity",
"timestamp" : "2019-11-20T15:28:11.783-0600",
"value" : {
"name" : "OTSROOT",
"assigned" : "2019-11-20T15:28:11.783-0600"
}
},
{
"event" : "addConfiguration",
"timestamp" : "2019-11-20T15:28:12.412-0600",
"value" : {
"name" : "DefaultConfig_v11",
"assigned" : "2019-11-20T15:28:12.412-0600"
}
},
{
"event" : "addConfiguration",
"timestamp" : "2019-11-20T16:23:03.421-0600",
"value" : {
"name" : "DefaultConfig_v13",
"assigned" : "2019-11-20T16:23:03.421-0600"
}
}
],
"created" : "2019-11-20T15:28:11.782-0600"
},
"_id" : {
"$oid" : "aed8aada404241f9bc852d82"
},
"collection" : "DataProcessorTable",
"aliases" : {
"active" : [

],
"history" : [

]
},
"runs" : [

],
"attachments" : [

],
"configtype" : "notprovided"
}