{
"document" : {
"data" : {
"NAME" : "ARTDAQ_GLOBAL_CONFIGURATION",
"COMMENT" : "",
"AUTHOR" : "admin",
"CREATION_TIME" : 1504798799,
"COL_TYPES" : {
"ARTDAQ_UID" : "VARCHAR2",
"PROCESS_NAME_FOR_BUILDERS" : "VARCHAR2",
"PROCESS_NAME_FOR_AGGREGATORS" : "VARCHAR2",
"MAX_FRAGMENT_SIZE_WORDS" : "NUMBER",
"COMMENT_DESCRIPTION" : "VARCHAR2",
"AUTHOR" : "VARCHAR2",
"RECORD_INSERTION_TIME" : "TIMESTAMP WITH TIMEZONE"
},
"DATA_SET" : [
{
"ARTDAQ_UID" : "artdaq0",
"PROCESS_NAME_FOR_BUILDERS" : "DAQ",
"PROCESS_NAME_FOR_AGGREGATORS" : "DAQAG",
"MAX_FRAGMENT_SIZE_WORDS" : "2097152",
"COMMENT_DESCRIPTION" : "global parameters for an artdaq system",
"AUTHOR" : "DEFAULT",
"RECORD_INSERTION_TIME" : "0"
}
]
},
"metadata" : {

},
"search" : [

]
},
"comments" : [

],
"origin" : {
"source" : "template",
"name" : "notprovided",
"format" : "json",
"created" : "2017-11-08T15:56:02.898-0600",
"rawdata" : [

]
},
"version" : "0",
"entities" : [
{
"name" : "OTSROOT",
"assigned" : "2017-11-08T15:56:02.899-0600"
}
],
"configurations" : [
{
"name" : "notprovided",
"assigned" : "2017-11-08T15:56:02.898-0600"
},
{
"name" : "FTBFConfig_v0",
"assigned" : "2017-11-08T15:56:05.561-0600"
},
{
"name" : "FTBFConfig_v1",
"assigned" : "2017-11-09T09:56:30.129-0600"
},
{
"name" : "FTBFConfig_v2",
"assigned" : "2017-11-09T10:05:59.089-0600"
},
{
"name" : "FTBFConfig_v3",
"assigned" : "2017-11-09T10:37:10.643-0600"
},
{
"name" : "FTBFConfig_v4",
"assigned" : "2017-11-15T11:30:09.413-0600"
},
{
"name" : "FTBFConfig_v5",
"assigned" : "2017-11-15T11:54:56.200-0600"
},
{
"name" : "FTBFConfig_v6",
"assigned" : "2017-11-15T11:57:48.827-0600"
},
{
"name" : "FTBFConfig_v7",
"assigned" : "2017-11-15T12:42:31.231-0600"
},
{
"name" : "FTBFConfig_v8",
"assigned" : "2017-11-15T13:01:02.207-0600"
},
{
"name" : "FTBFConfig_v9",
"assigned" : "2017-11-15T13:02:55.611-0600"
},
{
"name" : "FTBFConfig_v10",
"assigned" : "2017-11-15T13:04:23.183-0600"
},
{
"name" : "FTBFConfig_v11",
"assigned" : "2017-11-15T13:07:50.681-0600"
},
{
"name" : "FTBFConfig_v12",
"assigned" : "2017-11-15T13:11:58.121-0600"
},
{
"name" : "FTBFConfig_v13",
"assigned" : "2017-11-15T13:13:52.051-0600"
},
{
"name" : "FTBFConfig_v14",
"assigned" : "2017-11-15T13:27:26.476-0600"
},
{
"name" : "FTBFConfig_v15",
"assigned" : "2017-11-15T13:35:46.016-0600"
},
{
"name" : "FTBFConfig_v16",
"assigned" : "2017-11-15T13:36:50.643-0600"
},
{
"name" : "FTBFConfig_v17",
"assigned" : "2017-11-15T15:33:29.189-0600"
},
{
"name" : "FTBFConfig_v18",
"assigned" : "2017-11-15T15:35:32.798-0600"
},
{
"name" : "FTBFConfig_v19",
"assigned" : "2017-11-15T15:38:01.642-0600"
},
{
"name" : "FTBFConfig_v20",
"assigned" : "2017-11-15T16:26:29.397-0600"
},
{
"name" : "FTBFConfig_v21",
"assigned" : "2017-11-16T09:22:30.443-0600"
},
{
"name" : "FTBFConfig_v22",
"assigned" : "2017-11-17T10:23:26.643-0600"
},
{
"name" : "FTBFConfig_v23",
"assigned" : "2017-11-17T17:26:44.163-0600"
},
{
"name" : "FTBFConfig_v24",
"assigned" : "2017-11-17T17:58:24.624-0600"
},
{
"name" : "FTBFConfig_v25",
"assigned" : "2017-11-17T18:24:44.315-0600"
},
{
"name" : "FTBFConfig_v26",
"assigned" : "2017-11-17T18:32:21.390-0600"
},
{
"name" : "FTBFConfig_v27",
"assigned" : "2017-11-17T18:43:28.526-0600"
},
{
"name" : "FTBFConfig_v28",
"assigned" : "2017-11-17T18:48:30.511-0600"
},
{
"name" : "FTBFConfig_v29",
"assigned" : "2017-11-20T14:48:29.621-0600"
},
{
"name" : "FTBFConfig_v30",
"assigned" : "2017-11-20T15:39:54.794-0600"
},
{
"name" : "FTBFConfig_v31",
"assigned" : "2017-11-20T16:41:00.772-0600"
},
{
"name" : "FTBFConfig_v32",
"assigned" : "2017-11-20T18:55:33.625-0600"
},
{
"name" : "FTBFConfig_v33",
"assigned" : "2017-11-20T18:57:28.922-0600"
},
{
"name" : "FTBFConfig_v34",
"assigned" : "2017-11-29T17:50:38.414-0600"
},
{
"name" : "FTBFConfig_v35",
"assigned" : "2017-11-29T18:00:31.252-0600"
},
{
"name" : "FTBFConfig_v36",
"assigned" : "2017-11-29T18:35:10.099-0600"
},
{
"name" : "FTBFConfig_v37",
"assigned" : "2017-12-01T09:36:16.324-0600"
},
{
"name" : "FTBFConfig_v38",
"assigned" : "2017-12-01T09:51:59.711-0600"
},
{
"name" : "FTBFConfig_v39",
"assigned" : "2017-12-01T11:51:56.923-0600"
},
{
"name" : "FTBFConfig_v40",
"assigned" : "2017-12-01T12:18:18.913-0600"
},
{
"name" : "FTBFConfig_v41",
"assigned" : "2017-12-01T12:21:01.057-0600"
},
{
"name" : "FTBFConfig_v42",
"assigned" : "2017-12-01T12:43:20.201-0600"
},
{
"name" : "FTBFConfig_v43",
"assigned" : "2017-12-01T12:57:57.486-0600"
},
{
"name" : "FTBFConfig_v44",
"assigned" : "2017-12-01T13:00:50.335-0600"
},
{
"name" : "FTBFConfig_v45",
"assigned" : "2017-12-01T13:25:47.235-0600"
},
{
"name" : "FTBFConfig_v46",
"assigned" : "2017-12-01T13:35:42.074-0600"
},
{
"name" : "FTBFConfig_v47",
"assigned" : "2017-12-01T14:00:50.349-0600"
},
{
"name" : "FTBFConfig_v48",
"assigned" : "2017-12-01T14:03:57.604-0600"
},
{
"name" : "FTBFConfig_v49",
"assigned" : "2017-12-01T15:31:57.812-0600"
},
{
"name" : "FTBFConfig_v52",
"assigned" : "2017-12-01T15:37:29.126-0600"
},
{
"name" : "FTBFConfig_v53",
"assigned" : "2017-12-01T15:40:57.335-0600"
},
{
"name" : "FTBFConfig_v54",
"assigned" : "2017-12-01T15:52:47.640-0600"
},
{
"name" : "FTBFConfig_v55",
"assigned" : "2017-12-01T15:54:32.783-0600"
},
{
"name" : "FTBFConfig_v56",
"assigned" : "2017-12-01T15:55:32.311-0600"
},
{
"name" : "FTBFConfig_v57",
"assigned" : "2017-12-01T15:56:38.105-0600"
},
{
"name" : "FTBFConfig_v58",
"assigned" : "2017-12-01T15:57:36.202-0600"
},
{
"name" : "FTBFConfig_v59",
"assigned" : "2017-12-01T15:58:28.099-0600"
},
{
"name" : "FTBFConfig_v60",
"assigned" : "2017-12-01T15:59:29.281-0600"
},
{
"name" : "FTBFConfig_v61",
"assigned" : "2017-12-01T16:19:39.039-0600"
},
{
"name" : "FTBFConfig_v62",
"assigned" : "2017-12-01T16:22:01.569-0600"
},
{
"name" : "FTBFConfig_v63",
"assigned" : "2017-12-01T16:31:22.185-0600"
},
{
"name" : "FTBFConfig_v64",
"assigned" : "2017-12-01T17:06:29.360-0600"
},
{
"name" : "FTBFConfig_v65",
"assigned" : "2017-12-01T17:32:41.511-0600"
},
{
"name" : "FTBFConfig_v66",
"assigned" : "2017-12-01T20:38:47.815-0600"
},
{
"name" : "FTBFConfig_v67",
"assigned" : "2017-12-01T21:24:59.294-0600"
},
{
"name" : "FTBFConfig_v68",
"assigned" : "2017-12-01T21:42:58.946-0600"
},
{
"name" : "FTBFConfig_v69",
"assigned" : "2017-12-01T21:44:57.594-0600"
},
{
"name" : "FTBFConfig_v70",
"assigned" : "2017-12-01T21:59:16.822-0600"
},
{
"name" : "FTBFConfigNim_v0",
"assigned" : "2017-12-01T22:00:03.523-0600"
},
{
"name" : "FTBFConfigNim_v1",
"assigned" : "2017-12-01T22:13:05.250-0600"
},
{
"name" : "FTBFConfigNim_v2",
"assigned" : "2017-12-01T22:15:52.485-0600"
},
{
"name" : "FTBFConfigNim_v3",
"assigned" : "2017-12-01T22:17:00.616-0600"
},
{
"name" : "FTBFConfigNim_v4",
"assigned" : "2017-12-01T22:19:03.575-0600"
},
{
"name" : "FTBFConfigNim_v5",
"assigned" : "2017-12-01T22:21:54.292-0600"
},
{
"name" : "FTBFConfigNim_v6",
"assigned" : "2017-12-01T22:23:10.439-0600"
},
{
"name" : "FTBFConfigNim_v7",
"assigned" : "2017-12-01T22:25:14.225-0600"
},
{
"name" : "FTBFConfigNim_v8",
"assigned" : "2017-12-01T22:27:01.777-0600"
},
{
"name" : "FTBFConfigNim_v9",
"assigned" : "2017-12-01T22:29:26.032-0600"
},
{
"name" : "FTBFConfigNim_v10",
"assigned" : "2017-12-01T22:52:31.148-0600"
},
{
"name" : "FTBFConfigNim_v11",
"assigned" : "2017-12-01T22:57:25.931-0600"
},
{
"name" : "FTBFConfigNim_v12",
"assigned" : "2017-12-01T23:00:04.200-0600"
},
{
"name" : "FTBFConfigNim_v13",
"assigned" : "2017-12-01T23:52:32.314-0600"
},
{
"name" : "FTBFConfigNim_v14",
"assigned" : "2017-12-01T23:58:06.699-0600"
},
{
"name" : "FTBFConfigNim_v15",
"assigned" : "2017-12-02T00:00:30.979-0600"
},
{
"name" : "FTBFConfigNim_v16",
"assigned" : "2017-12-02T00:13:06.117-0600"
},
{
"name" : "FTBFConfigNim_v17",
"assigned" : "2017-12-02T00:28:25.075-0600"
},
{
"name" : "FTBFConfigNim_v18",
"assigned" : "2017-12-02T00:29:31.123-0600"
},
{
"name" : "FTBFConfigNim_v19",
"assigned" : "2017-12-02T00:31:08.031-0600"
},
{
"name" : "FTBFConfigNim_v20",
"assigned" : "2017-12-02T00:57:24.109-0600"
},
{
"name" : "FTBFConfigNim_v21",
"assigned" : "2017-12-02T10:57:58.661-0600"
},
{
"name" : "FTBFConfigNim_v22",
"assigned" : "2017-12-02T11:08:14.832-0600"
},
{
"name" : "FTBFConfigNim_v23",
"assigned" : "2017-12-02T11:12:36.394-0600"
},
{
"name" : "FTBFConfigNim_v24",
"assigned" : "2017-12-02T11:18:39.294-0600"
},
{
"name" : "FTBFConfigNim_v25",
"assigned" : "2017-12-02T11:27:02.448-0600"
},
{
"name" : "FTBFConfigNim_v26",
"assigned" : "2017-12-02T11:38:33.488-0600"
},
{
"name" : "FTBFConfigNim_v27",
"assigned" : "2017-12-02T11:49:04.631-0600"
},
{
"name" : "FTBFConfigNim_v28",
"assigned" : "2017-12-02T11:55:06.095-0600"
},
{
"name" : "FTBFConfigNim_v29",
"assigned" : "2017-12-02T12:06:22.923-0600"
},
{
"name" : "FTBFConfig_v71",
"assigned" : "2017-12-02T12:24:11.556-0600"
},
{
"name" : "FTBFConfig_v72",
"assigned" : "2017-12-02T12:43:32.387-0600"
},
{
"name" : "FTBFConfig_v73",
"assigned" : "2017-12-02T13:55:31.978-0600"
},
{
"name" : "FTBFConfig_v74",
"assigned" : "2017-12-02T14:09:04.279-0600"
},
{
"name" : "FTBFConfig_v75",
"assigned" : "2017-12-02T14:12:15.116-0600"
},
{
"name" : "FTBFConfig_v76",
"assigned" : "2017-12-02T19:05:50.205-0600"
},
{
"name" : "FTBFConfig_v77",
"assigned" : "2017-12-02T19:12:10.022-0600"
},
{
"name" : "FTBFConfig_v78",
"assigned" : "2017-12-03T14:03:45.206-0600"
},
{
"name" : "FTBFConfig_v79",
"assigned" : "2017-12-03T14:09:03.397-0600"
},
{
"name" : "FTBFConfig_v80",
"assigned" : "2017-12-03T14:11:07.166-0600"
},
{
"name" : "FTBFConfig_v81",
"assigned" : "2017-12-03T14:22:30.187-0600"
},
{
"name" : "FTBFConfig_v82",
"assigned" : "2017-12-03T14:40:34.967-0600"
},
{
"name" : "FTBFConfig_v83",
"assigned" : "2017-12-03T14:45:02.325-0600"
},
{
"name" : "FTBFConfig_v84",
"assigned" : "2017-12-04T14:51:27.692-0600"
},
{
"name" : "FTBFConfig_v85",
"assigned" : "2017-12-04T14:55:40.864-0600"
},
{
"name" : "FTBFConfig_v86",
"assigned" : "2017-12-04T16:51:03.836-0600"
},
{
"name" : "FTBFConfig_v87",
"assigned" : "2017-12-04T16:56:44.449-0600"
},
{
"name" : "FTBFConfig_v88",
"assigned" : "2017-12-04T17:01:09.169-0600"
},
{
"name" : "FTBFConfig_v89",
"assigned" : "2017-12-04T17:03:54.261-0600"
},
{
"name" : "FTBFConfig_v90",
"assigned" : "2017-12-04T17:07:13.888-0600"
},
{
"name" : "FTBFConfig_v91",
"assigned" : "2017-12-04T17:09:23.002-0600"
},
{
"name" : "FTBFConfig_v92",
"assigned" : "2017-12-04T17:11:35.487-0600"
},
{
"name" : "FTBFConfig_v93",
"assigned" : "2017-12-04T21:05:18.102-0600"
},
{
"name" : "FTBFConfig_v94",
"assigned" : "2017-12-04T21:17:08.946-0600"
},
{
"name" : "FTBFConfig_v95",
"assigned" : "2017-12-04T21:41:14.677-0600"
},
{
"name" : "FTBFConfig_v96",
"assigned" : "2017-12-04T22:38:59.281-0600"
},
{
"name" : "FTBFConfig_v97",
"assigned" : "2017-12-04T23:01:09.790-0600"
},
{
"name" : "FTBFConfig_v98",
"assigned" : "2017-12-07T11:07:43.815-0600"
},
{
"name" : "FTBFConfig_v99",
"assigned" : "2017-12-07T11:49:56.485-0600"
},
{
"name" : "FTBFConfig_v100",
"assigned" : "2017-12-07T11:58:23.200-0600"
},
{
"name" : "FTBFConfig_v101",
"assigned" : "2017-12-08T13:30:45.299-0600"
},
{
"name" : "FTBFConfig_v102",
"assigned" : "2017-12-08T13:32:32.190-0600"
},
{
"name" : "FTBFConfig_v103",
"assigned" : "2017-12-12T11:03:01.974-0600"
},
{
"name" : "FTBFConfig_v104",
"assigned" : "2017-12-12T13:50:56.296-0600"
},
{
"name" : "FTBFConfig_v105",
"assigned" : "2017-12-12T15:25:02.322-0600"
},
{
"name" : "FTBFConfig_v106",
"assigned" : "2017-12-13T10:24:20.737-0600"
},
{
"name" : "FTBFConfig_v107",
"assigned" : "2017-12-13T10:26:59.494-0600"
},
{
"name" : "FTBFConfig_v108",
"assigned" : "2018-02-01T21:14:22.869-0600"
},
{
"name" : "FTBFConfig_v109",
"assigned" : "2018-02-01T21:20:59.982-0600"
},
{
"name" : "FTBFConfig_v110",
"assigned" : "2018-02-02T11:25:30.922-0600"
},
{
"name" : "FTBFConfig_v111",
"assigned" : "2018-02-02T11:37:09.756-0600"
},
{
"name" : "FTBFConfig_v112",
"assigned" : "2018-02-02T11:47:12.222-0600"
},
{
"name" : "FTBFConfig_v113",
"assigned" : "2018-02-02T11:53:33.471-0600"
},
{
"name" : "FTBFConfig_v114",
"assigned" : "2018-02-02T12:00:49.557-0600"
},
{
"name" : "FTBFConfig_v115",
"assigned" : "2018-02-02T12:27:11.037-0600"
},
{
"name" : "FTBFConfig_v116",
"assigned" : "2018-02-02T14:28:50.560-0600"
},
{
"name" : "FTBFConfig_v117",
"assigned" : "2018-02-02T14:30:16.871-0600"
},
{
"name" : "FTBFConfig_v118",
"assigned" : "2018-02-02T14:33:58.077-0600"
},
{
"name" : "FTBFConfig_v119",
"assigned" : "2018-02-02T14:36:24.692-0600"
},
{
"name" : "FTBFConfig_v120",
"assigned" : "2018-02-02T14:38:38.051-0600"
},
{
"name" : "FTBFConfig_v121",
"assigned" : "2018-02-02T14:41:47.366-0600"
},
{
"name" : "FTBFConfig_v122",
"assigned" : "2018-02-02T14:50:21.428-0600"
},
{
"name" : "FTBFConfig_v123",
"assigned" : "2018-02-02T14:52:54.233-0600"
},
{
"name" : "FTBFConfig_v124",
"assigned" : "2018-02-02T14:59:47.561-0600"
},
{
"name" : "FTBFConfig_v125",
"assigned" : "2018-02-02T15:04:05.666-0600"
},
{
"name" : "FTBFConfig_v126",
"assigned" : "2018-02-02T15:50:08.857-0600"
},
{
"name" : "FTBFConfig_v127",
"assigned" : "2018-02-02T15:51:28.337-0600"
},
{
"name" : "FTBFConfig_v128",
"assigned" : "2018-02-02T15:52:33.502-0600"
},
{
"name" : "FTBFConfig_v129",
"assigned" : "2018-02-02T16:02:42.386-0600"
},
{
"name" : "FTBFConfig_v130",
"assigned" : "2018-02-02T16:08:41.910-0600"
},
{
"name" : "FTBFConfig_v131",
"assigned" : "2018-02-02T16:11:27.720-0600"
},
{
"name" : "FTBFConfig_v132",
"assigned" : "2018-02-02T16:12:55.557-0600"
},
{
"name" : "FTBFConfig_v133",
"assigned" : "2018-02-02T16:14:26.165-0600"
},
{
"name" : "FTBFConfig_v134",
"assigned" : "2018-02-02T16:26:19.044-0600"
},
{
"name" : "FTBFConfig_v135",
"assigned" : "2018-02-02T16:27:06.163-0600"
},
{
"name" : "FTBFConfig_v136",
"assigned" : "2018-02-02T16:29:27.514-0600"
},
{
"name" : "FTBFConfig_v137",
"assigned" : "2018-02-02T16:31:37.988-0600"
},
{
"name" : "FTBFConfig_v138",
"assigned" : "2018-02-02T16:34:10.723-0600"
},
{
"name" : "FTBFConfig_v139",
"assigned" : "2018-02-02T17:39:26.790-0600"
},
{
"name" : "FTBFConfig_v140",
"assigned" : "2018-02-02T17:42:48.960-0600"
},
{
"name" : "FTBFConfig_v141",
"assigned" : "2018-02-02T17:47:34.117-0600"
},
{
"name" : "FTBFConfig_v142",
"assigned" : "2018-02-02T17:53:58.104-0600"
}
],
"changelog" : "notprovided",
"bookkeeping" : {
"isdeleted" : false,
"isreadonly" : false,
"updates" : [
{
"event" : "addConfiguration",
"timestamp" : "2017-11-08T15:56:02.898-0600",
"value" : {
"name" : "notprovided",
"assigned" : "2017-11-08T15:56:02.898-0600"
}
},
{
"event" : "setVersion",
"timestamp" : "2017-11-08T15:56:02.899-0600",
"value" : {
"name" : "0",
"assigned" : "2017-11-08T15:56:02.899-0600"
}
},
{
"event" : "setCollection",
"timestamp" : "2017-11-08T15:56:02.899-0600",
"value" : {
"name" : "ARTDAQGlobalConfiguration",
"assigned" : "2017-11-08T15:56:02.899-0600"
}
},
{
"event" : "addEntity",
"timestamp" : "2017-11-08T15:56:02.899-0600",
"value" : {
"name" : "OTSROOT",
"assigned" : "2017-11-08T15:56:02.899-0600"
}
},
{
"event" : "addConfiguration",
"timestamp" : "2017-11-08T15:56:05.561-0600",
"value" : {
"name" : "FTBFConfig_v0",
"assigned" : "2017-11-08T15:56:05.561-0600"
}
},
{
"event" : "addConfiguration",
"timestamp" : "2017-11-09T09:56:30.129-0600",
"value" : {
"name" : "FTBFConfig_v1",
"assigned" : "2017-11-09T09:56:30.129-0600"
}
},
{
"event" : "addConfiguration",
"timestamp" : "2017-11-09T10:05:59.089-0600",
"value" : {
"name" : "FTBFConfig_v2",
"assigned" : "2017-11-09T10:05:59.089-0600"
}
},
{
"event" : "addConfiguration",
"timestamp" : "2017-11-09T10:37:10.643-0600",
"value" : {
"name" : "FTBFConfig_v3",
"assigned" : "2017-11-09T10:37:10.643-0600"
}
},
{
"event" : "addConfiguration",
"timestamp" : "2017-11-15T11:30:09.413-0600",
"value" : {
"name" : "FTBFConfig_v4",
"assigned" : "2017-11-15T11:30:09.413-0600"
}
},
{
"event" : "addConfiguration",
"timestamp" : "2017-11-15T11:54:56.200-0600",
"value" : {
"name" : "FTBFConfig_v5",
"assigned" : "2017-11-15T11:54:56.200-0600"
}
},
{
"event" : "addConfiguration",
"timestamp" : "2017-11-15T11:57:48.827-0600",
"value" : {
"name" : "FTBFConfig_v6",
"assigned" : "2017-11-15T11:57:48.827-0600"
}
},
{
"event" : "addConfiguration",
"timestamp" : "2017-11-15T12:42:31.231-0600",
"value" : {
"name" : "FTBFConfig_v7",
"assigned" : "2017-11-15T12:42:31.231-0600"
}
},
{
"event" : "addConfiguration",
"timestamp" : "2017-11-15T13:01:02.207-0600",
"value" : {
"name" : "FTBFConfig_v8",
"assigned" : "2017-11-15T13:01:02.207-0600"
}
},
{
"event" : "addConfiguration",
"timestamp" : "2017-11-15T13:02:55.611-0600",
"value" : {
"name" : "FTBFConfig_v9",
"assigned" : "2017-11-15T13:02:55.611-0600"
}
},
{
"event" : "addConfiguration",
"timestamp" : "2017-11-15T13:04:23.183-0600",
"value" : {
"name" : "FTBFConfig_v10",
"assigned" : "2017-11-15T13:04:23.183-0600"
}
},
{
"event" : "addConfiguration",
"timestamp" : "2017-11-15T13:07:50.681-0600",
"value" : {
"name" : "FTBFConfig_v11",
"assigned" : "2017-11-15T13:07:50.681-0600"
}
},
{
"event" : "addConfiguration",
"timestamp" : "2017-11-15T13:11:58.121-0600",
"value" : {
"name" : "FTBFConfig_v12",
"assigned" : "2017-11-15T13:11:58.121-0600"
}
},
{
"event" : "addConfiguration",
"timestamp" : "2017-11-15T13:13:52.051-0600",
"value" : {
"name" : "FTBFConfig_v13",
"assigned" : "2017-11-15T13:13:52.051-0600"
}
},
{
"event" : "addConfiguration",
"timestamp" : "2017-11-15T13:27:26.476-0600",
"value" : {
"name" : "FTBFConfig_v14",
"assigned" : "2017-11-15T13:27:26.476-0600"
}
},
{
"event" : "addConfiguration",
"timestamp" : "2017-11-15T13:35:46.016-0600",
"value" : {
"name" : "FTBFConfig_v15",
"assigned" : "2017-11-15T13:35:46.016-0600"
}
},
{
"event" : "addConfiguration",
"timestamp" : "2017-11-15T13:36:50.643-0600",
"value" : {
"name" : "FTBFConfig_v16",
"assigned" : "2017-11-15T13:36:50.643-0600"
}
},
{
"event" : "addConfiguration",
"timestamp" : "2017-11-15T15:33:29.189-0600",
"value" : {
"name" : "FTBFConfig_v17",
"assigned" : "2017-11-15T15:33:29.189-0600"
}
},
{
"event" : "addConfiguration",
"timestamp" : "2017-11-15T15:35:32.798-0600",
"value" : {
"name" : "FTBFConfig_v18",
"assigned" : "2017-11-15T15:35:32.798-0600"
}
},
{
"event" : "addConfiguration",
"timestamp" : "2017-11-15T15:38:01.642-0600",
"value" : {
"name" : "FTBFConfig_v19",
"assigned" : "2017-11-15T15:38:01.642-0600"
}
},
{
"event" : "addConfiguration",
"timestamp" : "2017-11-15T16:26:29.397-0600",
"value" : {
"name" : "FTBFConfig_v20",
"assigned" : "2017-11-15T16:26:29.397-0600"
}
},
{
"event" : "addConfiguration",
"timestamp" : "2017-11-16T09:22:30.443-0600",
"value" : {
"name" : "FTBFConfig_v21",
"assigned" : "2017-11-16T09:22:30.443-0600"
}
},
{
"event" : "addConfiguration",
"timestamp" : "2017-11-17T10:23:26.644-0600",
"value" : {
"name" : "FTBFConfig_v22",
"assigned" : "2017-11-17T10:23:26.643-0600"
}
},
{
"event" : "addConfiguration",
"timestamp" : "2017-11-17T17:26:44.163-0600",
"value" : {
"name" : "FTBFConfig_v23",
"assigned" : "2017-11-17T17:26:44.163-0600"
}
},
{
"event" : "addConfiguration",
"timestamp" : "2017-11-17T17:58:24.624-0600",
"value" : {
"name" : "FTBFConfig_v24",
"assigned" : "2017-11-17T17:58:24.624-0600"
}
},
{
"event" : "addConfiguration",
"timestamp" : "2017-11-17T18:24:44.315-0600",
"value" : {
"name" : "FTBFConfig_v25",
"assigned" : "2017-11-17T18:24:44.315-0600"
}
},
{
"event" : "addConfiguration",
"timestamp" : "2017-11-17T18:32:21.390-0600",
"value" : {
"name" : "FTBFConfig_v26",
"assigned" : "2017-11-17T18:32:21.390-0600"
}
},
{
"event" : "addConfiguration",
"timestamp" : "2017-11-17T18:43:28.526-0600",
"value" : {
"name" : "FTBFConfig_v27",
"assigned" : "2017-11-17T18:43:28.526-0600"
}
},
{
"event" : "addConfiguration",
"timestamp" : "2017-11-17T18:48:30.511-0600",
"value" : {
"name" : "FTBFConfig_v28",
"assigned" : "2017-11-17T18:48:30.511-0600"
}
},
{
"event" : "addConfiguration",
"timestamp" : "2017-11-20T14:48:29.621-0600",
"value" : {
"name" : "FTBFConfig_v29",
"assigned" : "2017-11-20T14:48:29.621-0600"
}
},
{
"event" : "addConfiguration",
"timestamp" : "2017-11-20T15:39:54.794-0600",
"value" : {
"name" : "FTBFConfig_v30",
"assigned" : "2017-11-20T15:39:54.794-0600"
}
},
{
"event" : "addConfiguration",
"timestamp" : "2017-11-20T16:41:00.772-0600",
"value" : {
"name" : "FTBFConfig_v31",
"assigned" : "2017-11-20T16:41:00.772-0600"
}
},
{
"event" : "addConfiguration",
"timestamp" : "2017-11-20T18:55:33.625-0600",
"value" : {
"name" : "FTBFConfig_v32",
"assigned" : "2017-11-20T18:55:33.625-0600"
}
},
{
"event" : "addConfiguration",
"timestamp" : "2017-11-20T18:57:28.922-0600",
"value" : {
"name" : "FTBFConfig_v33",
"assigned" : "2017-11-20T18:57:28.922-0600"
}
},
{
"event" : "addConfiguration",
"timestamp" : "2017-11-29T17:50:38.414-0600",
"value" : {
"name" : "FTBFConfig_v34",
"assigned" : "2017-11-29T17:50:38.414-0600"
}
},
{
"event" : "addConfiguration",
"timestamp" : "2017-11-29T18:00:31.252-0600",
"value" : {
"name" : "FTBFConfig_v35",
"assigned" : "2017-11-29T18:00:31.252-0600"
}
},
{
"event" : "addConfiguration",
"timestamp" : "2017-11-29T18:35:10.099-0600",
"value" : {
"name" : "FTBFConfig_v36",
"assigned" : "2017-11-29T18:35:10.099-0600"
}
},
{
"event" : "addConfiguration",
"timestamp" : "2017-12-01T09:36:16.324-0600",
"value" : {
"name" : "FTBFConfig_v37",
"assigned" : "2017-12-01T09:36:16.324-0600"
}
},
{
"event" : "addConfiguration",
"timestamp" : "2017-12-01T09:51:59.711-0600",
"value" : {
"name" : "FTBFConfig_v38",
"assigned" : "2017-12-01T09:51:59.711-0600"
}
},
{
"event" : "addConfiguration",
"timestamp" : "2017-12-01T11:51:56.923-0600",
"value" : {
"name" : "FTBFConfig_v39",
"assigned" : "2017-12-01T11:51:56.923-0600"
}
},
{
"event" : "addConfiguration",
"timestamp" : "2017-12-01T12:18:18.913-0600",
"value" : {
"name" : "FTBFConfig_v40",
"assigned" : "2017-12-01T12:18:18.913-0600"
}
},
{
"event" : "addConfiguration",
"timestamp" : "2017-12-01T12:21:01.057-0600",
"value" : {
"name" : "FTBFConfig_v41",
"assigned" : "2017-12-01T12:21:01.057-0600"
}
},
{
"event" : "addConfiguration",
"timestamp" : "2017-12-01T12:43:20.201-0600",
"value" : {
"name" : "FTBFConfig_v42",
"assigned" : "2017-12-01T12:43:20.201-0600"
}
},
{
"event" : "addConfiguration",
"timestamp" : "2017-12-01T12:57:57.486-0600",
"value" : {
"name" : "FTBFConfig_v43",
"assigned" : "2017-12-01T12:57:57.486-0600"
}
},
{
"event" : "addConfiguration",
"timestamp" : "2017-12-01T13:00:50.335-0600",
"value" : {
"name" : "FTBFConfig_v44",
"assigned" : "2017-12-01T13:00:50.335-0600"
}
},
{
"event" : "addConfiguration",
"timestamp" : "2017-12-01T13:25:47.235-0600",
"value" : {
"name" : "FTBFConfig_v45",
"assigned" : "2017-12-01T13:25:47.235-0600"
}
},
{
"event" : "addConfiguration",
"timestamp" : "2017-12-01T13:35:42.074-0600",
"value" : {
"name" : "FTBFConfig_v46",
"assigned" : "2017-12-01T13:35:42.074-0600"
}
},
{
"event" : "addConfiguration",
"timestamp" : "2017-12-01T14:00:50.349-0600",
"value" : {
"name" : "FTBFConfig_v47",
"assigned" : "2017-12-01T14:00:50.349-0600"
}
},
{
"event" : "addConfiguration",
"timestamp" : "2017-12-01T14:03:57.604-0600",
"value" : {
"name" : "FTBFConfig_v48",
"assigned" : "2017-12-01T14:03:57.604-0600"
}
},
{
"event" : "addConfiguration",
"timestamp" : "2017-12-01T15:31:57.812-0600",
"value" : {
"name" : "FTBFConfig_v49",
"assigned" : "2017-12-01T15:31:57.812-0600"
}
},
{
"event" : "addConfiguration",
"timestamp" : "2017-12-01T15:37:29.126-0600",
"value" : {
"name" : "FTBFConfig_v52",
"assigned" : "2017-12-01T15:37:29.126-0600"
}
},
{
"event" : "addConfiguration",
"timestamp" : "2017-12-01T15:40:57.335-0600",
"value" : {
"name" : "FTBFConfig_v53",
"assigned" : "2017-12-01T15:40:57.335-0600"
}
},
{
"event" : "addConfiguration",
"timestamp" : "2017-12-01T15:52:47.641-0600",
"value" : {
"name" : "FTBFConfig_v54",
"assigned" : "2017-12-01T15:52:47.640-0600"
}
},
{
"event" : "addConfiguration",
"timestamp" : "2017-12-01T15:54:32.783-0600",
"value" : {
"name" : "FTBFConfig_v55",
"assigned" : "2017-12-01T15:54:32.783-0600"
}
},
{
"event" : "addConfiguration",
"timestamp" : "2017-12-01T15:55:32.311-0600",
"value" : {
"name" : "FTBFConfig_v56",
"assigned" : "2017-12-01T15:55:32.311-0600"
}
},
{
"event" : "addConfiguration",
"timestamp" : "2017-12-01T15:56:38.105-0600",
"value" : {
"name" : "FTBFConfig_v57",
"assigned" : "2017-12-01T15:56:38.105-0600"
}
},
{
"event" : "addConfiguration",
"timestamp" : "2017-12-01T15:57:36.202-0600",
"value" : {
"name" : "FTBFConfig_v58",
"assigned" : "2017-12-01T15:57:36.202-0600"
}
},
{
"event" : "addConfiguration",
"timestamp" : "2017-12-01T15:58:28.099-0600",
"value" : {
"name" : "FTBFConfig_v59",
"assigned" : "2017-12-01T15:58:28.099-0600"
}
},
{
"event" : "addConfiguration",
"timestamp" : "2017-12-01T15:59:29.282-0600",
"value" : {
"name" : "FTBFConfig_v60",
"assigned" : "2017-12-01T15:59:29.281-0600"
}
},
{
"event" : "addConfiguration",
"timestamp" : "2017-12-01T16:19:39.039-0600",
"value" : {
"name" : "FTBFConfig_v61",
"assigned" : "2017-12-01T16:19:39.039-0600"
}
},
{
"event" : "addConfiguration",
"timestamp" : "2017-12-01T16:22:01.569-0600",
"value" : {
"name" : "FTBFConfig_v62",
"assigned" : "2017-12-01T16:22:01.569-0600"
}
},
{
"event" : "addConfiguration",
"timestamp" : "2017-12-01T16:31:22.185-0600",
"value" : {
"name" : "FTBFConfig_v63",
"assigned" : "2017-12-01T16:31:22.185-0600"
}
},
{
"event" : "addConfiguration",
"timestamp" : "2017-12-01T17:06:29.360-0600",
"value" : {
"name" : "FTBFConfig_v64",
"assigned" : "2017-12-01T17:06:29.360-0600"
}
},
{
"event" : "addConfiguration",
"timestamp" : "2017-12-01T17:32:41.511-0600",
"value" : {
"name" : "FTBFConfig_v65",
"assigned" : "2017-12-01T17:32:41.511-0600"
}
},
{
"event" : "addConfiguration",
"timestamp" : "2017-12-01T20:38:47.815-0600",
"value" : {
"name" : "FTBFConfig_v66",
"assigned" : "2017-12-01T20:38:47.815-0600"
}
},
{
"event" : "addConfiguration",
"timestamp" : "2017-12-01T21:24:59.294-0600",
"value" : {
"name" : "FTBFConfig_v67",
"assigned" : "2017-12-01T21:24:59.294-0600"
}
},
{
"event" : "addConfiguration",
"timestamp" : "2017-12-01T21:42:58.946-0600",
"value" : {
"name" : "FTBFConfig_v68",
"assigned" : "2017-12-01T21:42:58.946-0600"
}
},
{
"event" : "addConfiguration",
"timestamp" : "2017-12-01T21:44:57.594-0600",
"value" : {
"name" : "FTBFConfig_v69",
"assigned" : "2017-12-01T21:44:57.594-0600"
}
},
{
"event" : "addConfiguration",
"timestamp" : "2017-12-01T21:59:16.822-0600",
"value" : {
"name" : "FTBFConfig_v70",
"assigned" : "2017-12-01T21:59:16.822-0600"
}
},
{
"event" : "addConfiguration",
"timestamp" : "2017-12-01T22:00:03.523-0600",
"value" : {
"name" : "FTBFConfigNim_v0",
"assigned" : "2017-12-01T22:00:03.523-0600"
}
},
{
"event" : "addConfiguration",
"timestamp" : "2017-12-01T22:13:05.250-0600",
"value" : {
"name" : "FTBFConfigNim_v1",
"assigned" : "2017-12-01T22:13:05.250-0600"
}
},
{
"event" : "addConfiguration",
"timestamp" : "2017-12-01T22:15:52.485-0600",
"value" : {
"name" : "FTBFConfigNim_v2",
"assigned" : "2017-12-01T22:15:52.485-0600"
}
},
{
"event" : "addConfiguration",
"timestamp" : "2017-12-01T22:17:00.616-0600",
"value" : {
"name" : "FTBFConfigNim_v3",
"assigned" : "2017-12-01T22:17:00.616-0600"
}
},
{
"event" : "addConfiguration",
"timestamp" : "2017-12-01T22:19:03.575-0600",
"value" : {
"name" : "FTBFConfigNim_v4",
"assigned" : "2017-12-01T22:19:03.575-0600"
}
},
{
"event" : "addConfiguration",
"timestamp" : "2017-12-01T22:21:54.292-0600",
"value" : {
"name" : "FTBFConfigNim_v5",
"assigned" : "2017-12-01T22:21:54.292-0600"
}
},
{
"event" : "addConfiguration",
"timestamp" : "2017-12-01T22:23:10.440-0600",
"value" : {
"name" : "FTBFConfigNim_v6",
"assigned" : "2017-12-01T22:23:10.439-0600"
}
},
{
"event" : "addConfiguration",
"timestamp" : "2017-12-01T22:25:14.225-0600",
"value" : {
"name" : "FTBFConfigNim_v7",
"assigned" : "2017-12-01T22:25:14.225-0600"
}
},
{
"event" : "addConfiguration",
"timestamp" : "2017-12-01T22:27:01.777-0600",
"value" : {
"name" : "FTBFConfigNim_v8",
"assigned" : "2017-12-01T22:27:01.777-0600"
}
},
{
"event" : "addConfiguration",
"timestamp" : "2017-12-01T22:29:26.033-0600",
"value" : {
"name" : "FTBFConfigNim_v9",
"assigned" : "2017-12-01T22:29:26.032-0600"
}
},
{
"event" : "addConfiguration",
"timestamp" : "2017-12-01T22:52:31.148-0600",
"value" : {
"name" : "FTBFConfigNim_v10",
"assigned" : "2017-12-01T22:52:31.148-0600"
}
},
{
"event" : "addConfiguration",
"timestamp" : "2017-12-01T22:57:25.931-0600",
"value" : {
"name" : "FTBFConfigNim_v11",
"assigned" : "2017-12-01T22:57:25.931-0600"
}
},
{
"event" : "addConfiguration",
"timestamp" : "2017-12-01T23:00:04.200-0600",
"value" : {
"name" : "FTBFConfigNim_v12",
"assigned" : "2017-12-01T23:00:04.200-0600"
}
},
{
"event" : "addConfiguration",
"timestamp" : "2017-12-01T23:52:32.314-0600",
"value" : {
"name" : "FTBFConfigNim_v13",
"assigned" : "2017-12-01T23:52:32.314-0600"
}
},
{
"event" : "addConfiguration",
"timestamp" : "2017-12-01T23:58:06.699-0600",
"value" : {
"name" : "FTBFConfigNim_v14",
"assigned" : "2017-12-01T23:58:06.699-0600"
}
},
{
"event" : "addConfiguration",
"timestamp" : "2017-12-02T00:00:30.980-0600",
"value" : {
"name" : "FTBFConfigNim_v15",
"assigned" : "2017-12-02T00:00:30.979-0600"
}
},
{
"event" : "addConfiguration",
"timestamp" : "2017-12-02T00:13:06.117-0600",
"value" : {
"name" : "FTBFConfigNim_v16",
"assigned" : "2017-12-02T00:13:06.117-0600"
}
},
{
"event" : "addConfiguration",
"timestamp" : "2017-12-02T00:28:25.075-0600",
"value" : {
"name" : "FTBFConfigNim_v17",
"assigned" : "2017-12-02T00:28:25.075-0600"
}
},
{
"event" : "addConfiguration",
"timestamp" : "2017-12-02T00:29:31.123-0600",
"value" : {
"name" : "FTBFConfigNim_v18",
"assigned" : "2017-12-02T00:29:31.123-0600"
}
},
{
"event" : "addConfiguration",
"timestamp" : "2017-12-02T00:31:08.031-0600",
"value" : {
"name" : "FTBFConfigNim_v19",
"assigned" : "2017-12-02T00:31:08.031-0600"
}
},
{
"event" : "addConfiguration",
"timestamp" : "2017-12-02T00:57:24.109-0600",
"value" : {
"name" : "FTBFConfigNim_v20",
"assigned" : "2017-12-02T00:57:24.109-0600"
}
},
{
"event" : "addConfiguration",
"timestamp" : "2017-12-02T10:57:58.661-0600",
"value" : {
"name" : "FTBFConfigNim_v21",
"assigned" : "2017-12-02T10:57:58.661-0600"
}
},
{
"event" : "addConfiguration",
"timestamp" : "2017-12-02T11:08:14.832-0600",
"value" : {
"name" : "FTBFConfigNim_v22",
"assigned" : "2017-12-02T11:08:14.832-0600"
}
},
{
"event" : "addConfiguration",
"timestamp" : "2017-12-02T11:12:36.395-0600",
"value" : {
"name" : "FTBFConfigNim_v23",
"assigned" : "2017-12-02T11:12:36.394-0600"
}
},
{
"event" : "addConfiguration",
"timestamp" : "2017-12-02T11:18:39.294-0600",
"value" : {
"name" : "FTBFConfigNim_v24",
"assigned" : "2017-12-02T11:18:39.294-0600"
}
},
{
"event" : "addConfiguration",
"timestamp" : "2017-12-02T11:27:02.449-0600",
"value" : {
"name" : "FTBFConfigNim_v25",
"assigned" : "2017-12-02T11:27:02.448-0600"
}
},
{
"event" : "addConfiguration",
"timestamp" : "2017-12-02T11:38:33.488-0600",
"value" : {
"name" : "FTBFConfigNim_v26",
"assigned" : "2017-12-02T11:38:33.488-0600"
}
},
{
"event" : "addConfiguration",
"timestamp" : "2017-12-02T11:49:04.632-0600",
"value" : {
"name" : "FTBFConfigNim_v27",
"assigned" : "2017-12-02T11:49:04.631-0600"
}
},
{
"event" : "addConfiguration",
"timestamp" : "2017-12-02T11:55:06.095-0600",
"value" : {
"name" : "FTBFConfigNim_v28",
"assigned" : "2017-12-02T11:55:06.095-0600"
}
},
{
"event" : "addConfiguration",
"timestamp" : "2017-12-02T12:06:22.923-0600",
"value" : {
"name" : "FTBFConfigNim_v29",
"assigned" : "2017-12-02T12:06:22.923-0600"
}
},
{
"event" : "addConfiguration",
"timestamp" : "2017-12-02T12:24:11.556-0600",
"value" : {
"name" : "FTBFConfig_v71",
"assigned" : "2017-12-02T12:24:11.556-0600"
}
},
{
"event" : "addConfiguration",
"timestamp" : "2017-12-02T12:43:32.388-0600",
"value" : {
"name" : "FTBFConfig_v72",
"assigned" : "2017-12-02T12:43:32.387-0600"
}
},
{
"event" : "addConfiguration",
"timestamp" : "2017-12-02T13:55:31.978-0600",
"value" : {
"name" : "FTBFConfig_v73",
"assigned" : "2017-12-02T13:55:31.978-0600"
}
},
{
"event" : "addConfiguration",
"timestamp" : "2017-12-02T14:09:04.279-0600",
"value" : {
"name" : "FTBFConfig_v74",
"assigned" : "2017-12-02T14:09:04.279-0600"
}
},
{
"event" : "addConfiguration",
"timestamp" : "2017-12-02T14:12:15.116-0600",
"value" : {
"name" : "FTBFConfig_v75",
"assigned" : "2017-12-02T14:12:15.116-0600"
}
},
{
"event" : "addConfiguration",
"timestamp" : "2017-12-02T19:05:50.205-0600",
"value" : {
"name" : "FTBFConfig_v76",
"assigned" : "2017-12-02T19:05:50.205-0600"
}
},
{
"event" : "addConfiguration",
"timestamp" : "2017-12-02T19:12:10.022-0600",
"value" : {
"name" : "FTBFConfig_v77",
"assigned" : "2017-12-02T19:12:10.022-0600"
}
},
{
"event" : "addConfiguration",
"timestamp" : "2017-12-03T14:03:45.206-0600",
"value" : {
"name" : "FTBFConfig_v78",
"assigned" : "2017-12-03T14:03:45.206-0600"
}
},
{
"event" : "addConfiguration",
"timestamp" : "2017-12-03T14:09:03.397-0600",
"value" : {
"name" : "FTBFConfig_v79",
"assigned" : "2017-12-03T14:09:03.397-0600"
}
},
{
"event" : "addConfiguration",
"timestamp" : "2017-12-03T14:11:07.167-0600",
"value" : {
"name" : "FTBFConfig_v80",
"assigned" : "2017-12-03T14:11:07.166-0600"
}
},
{
"event" : "addConfiguration",
"timestamp" : "2017-12-03T14:22:30.187-0600",
"value" : {
"name" : "FTBFConfig_v81",
"assigned" : "2017-12-03T14:22:30.187-0600"
}
},
{
"event" : "addConfiguration",
"timestamp" : "2017-12-03T14:40:34.967-0600",
"value" : {
"name" : "FTBFConfig_v82",
"assigned" : "2017-12-03T14:40:34.967-0600"
}
},
{
"event" : "addConfiguration",
"timestamp" : "2017-12-03T14:45:02.326-0600",
"value" : {
"name" : "FTBFConfig_v83",
"assigned" : "2017-12-03T14:45:02.325-0600"
}
},
{
"event" : "addConfiguration",
"timestamp" : "2017-12-04T14:51:27.692-0600",
"value" : {
"name" : "FTBFConfig_v84",
"assigned" : "2017-12-04T14:51:27.692-0600"
}
},
{
"event" : "addConfiguration",
"timestamp" : "2017-12-04T14:55:40.864-0600",
"value" : {
"name" : "FTBFConfig_v85",
"assigned" : "2017-12-04T14:55:40.864-0600"
}
},
{
"event" : "addConfiguration",
"timestamp" : "2017-12-04T16:51:03.836-0600",
"value" : {
"name" : "FTBFConfig_v86",
"assigned" : "2017-12-04T16:51:03.836-0600"
}
},
{
"event" : "addConfiguration",
"timestamp" : "2017-12-04T16:56:44.450-0600",
"value" : {
"name" : "FTBFConfig_v87",
"assigned" : "2017-12-04T16:56:44.449-0600"
}
},
{
"event" : "addConfiguration",
"timestamp" : "2017-12-04T17:01:09.169-0600",
"value" : {
"name" : "FTBFConfig_v88",
"assigned" : "2017-12-04T17:01:09.169-0600"
}
},
{
"event" : "addConfiguration",
"timestamp" : "2017-12-04T17:03:54.261-0600",
"value" : {
"name" : "FTBFConfig_v89",
"assigned" : "2017-12-04T17:03:54.261-0600"
}
},
{
"event" : "addConfiguration",
"timestamp" : "2017-12-04T17:07:13.888-0600",
"value" : {
"name" : "FTBFConfig_v90",
"assigned" : "2017-12-04T17:07:13.888-0600"
}
},
{
"event" : "addConfiguration",
"timestamp" : "2017-12-04T17:09:23.002-0600",
"value" : {
"name" : "FTBFConfig_v91",
"assigned" : "2017-12-04T17:09:23.002-0600"
}
},
{
"event" : "addConfiguration",
"timestamp" : "2017-12-04T17:11:35.487-0600",
"value" : {
"name" : "FTBFConfig_v92",
"assigned" : "2017-12-04T17:11:35.487-0600"
}
},
{
"event" : "addConfiguration",
"timestamp" : "2017-12-04T21:05:18.102-0600",
"value" : {
"name" : "FTBFConfig_v93",
"assigned" : "2017-12-04T21:05:18.102-0600"
}
},
{
"event" : "addConfiguration",
"timestamp" : "2017-12-04T21:17:08.946-0600",
"value" : {
"name" : "FTBFConfig_v94",
"assigned" : "2017-12-04T21:17:08.946-0600"
}
},
{
"event" : "addConfiguration",
"timestamp" : "2017-12-04T21:41:14.677-0600",
"value" : {
"name" : "FTBFConfig_v95",
"assigned" : "2017-12-04T21:41:14.677-0600"
}
},
{
"event" : "addConfiguration",
"timestamp" : "2017-12-04T22:38:59.281-0600",
"value" : {
"name" : "FTBFConfig_v96",
"assigned" : "2017-12-04T22:38:59.281-0600"
}
},
{
"event" : "addConfiguration",
"timestamp" : "2017-12-04T23:01:09.790-0600",
"value" : {
"name" : "FTBFConfig_v97",
"assigned" : "2017-12-04T23:01:09.790-0600"
}
},
{
"event" : "addConfiguration",
"timestamp" : "2017-12-07T11:07:43.815-0600",
"value" : {
"name" : "FTBFConfig_v98",
"assigned" : "2017-12-07T11:07:43.815-0600"
}
},
{
"event" : "addConfiguration",
"timestamp" : "2017-12-07T11:49:56.485-0600",
"value" : {
"name" : "FTBFConfig_v99",
"assigned" : "2017-12-07T11:49:56.485-0600"
}
},
{
"event" : "addConfiguration",
"timestamp" : "2017-12-07T11:58:23.200-0600",
"value" : {
"name" : "FTBFConfig_v100",
"assigned" : "2017-12-07T11:58:23.200-0600"
}
},
{
"event" : "addConfiguration",
"timestamp" : "2017-12-08T13:30:45.299-0600",
"value" : {
"name" : "FTBFConfig_v101",
"assigned" : "2017-12-08T13:30:45.299-0600"
}
},
{
"event" : "addConfiguration",
"timestamp" : "2017-12-08T13:32:32.191-0600",
"value" : {
"name" : "FTBFConfig_v102",
"assigned" : "2017-12-08T13:32:32.190-0600"
}
},
{
"event" : "addConfiguration",
"timestamp" : "2017-12-12T11:03:01.974-0600",
"value" : {
"name" : "FTBFConfig_v103",
"assigned" : "2017-12-12T11:03:01.974-0600"
}
},
{
"event" : "addConfiguration",
"timestamp" : "2017-12-12T13:50:56.297-0600",
"value" : {
"name" : "FTBFConfig_v104",
"assigned" : "2017-12-12T13:50:56.296-0600"
}
},
{
"event" : "addConfiguration",
"timestamp" : "2017-12-12T15:25:02.322-0600",
"value" : {
"name" : "FTBFConfig_v105",
"assigned" : "2017-12-12T15:25:02.322-0600"
}
},
{
"event" : "addConfiguration",
"timestamp" : "2017-12-13T10:24:20.737-0600",
"value" : {
"name" : "FTBFConfig_v106",
"assigned" : "2017-12-13T10:24:20.737-0600"
}
},
{
"event" : "addConfiguration",
"timestamp" : "2017-12-13T10:26:59.494-0600",
"value" : {
"name" : "FTBFConfig_v107",
"assigned" : "2017-12-13T10:26:59.494-0600"
}
},
{
"event" : "addConfiguration",
"timestamp" : "2018-02-01T21:14:22.869-0600",
"value" : {
"name" : "FTBFConfig_v108",
"assigned" : "2018-02-01T21:14:22.869-0600"
}
},
{
"event" : "addConfiguration",
"timestamp" : "2018-02-01T21:20:59.982-0600",
"value" : {
"name" : "FTBFConfig_v109",
"assigned" : "2018-02-01T21:20:59.982-0600"
}
},
{
"event" : "addConfiguration",
"timestamp" : "2018-02-02T11:25:30.922-0600",
"value" : {
"name" : "FTBFConfig_v110",
"assigned" : "2018-02-02T11:25:30.922-0600"
}
},
{
"event" : "addConfiguration",
"timestamp" : "2018-02-02T11:37:09.756-0600",
"value" : {
"name" : "FTBFConfig_v111",
"assigned" : "2018-02-02T11:37:09.756-0600"
}
},
{
"event" : "addConfiguration",
"timestamp" : "2018-02-02T11:47:12.222-0600",
"value" : {
"name" : "FTBFConfig_v112",
"assigned" : "2018-02-02T11:47:12.222-0600"
}
},
{
"event" : "addConfiguration",
"timestamp" : "2018-02-02T11:53:33.472-0600",
"value" : {
"name" : "FTBFConfig_v113",
"assigned" : "2018-02-02T11:53:33.471-0600"
}
},
{
"event" : "addConfiguration",
"timestamp" : "2018-02-02T12:00:49.557-0600",
"value" : {
"name" : "FTBFConfig_v114",
"assigned" : "2018-02-02T12:00:49.557-0600"
}
},
{
"event" : "addConfiguration",
"timestamp" : "2018-02-02T12:27:11.038-0600",
"value" : {
"name" : "FTBFConfig_v115",
"assigned" : "2018-02-02T12:27:11.037-0600"
}
},
{
"event" : "addConfiguration",
"timestamp" : "2018-02-02T14:28:50.560-0600",
"value" : {
"name" : "FTBFConfig_v116",
"assigned" : "2018-02-02T14:28:50.560-0600"
}
},
{
"event" : "addConfiguration",
"timestamp" : "2018-02-02T14:30:16.871-0600",
"value" : {
"name" : "FTBFConfig_v117",
"assigned" : "2018-02-02T14:30:16.871-0600"
}
},
{
"event" : "addConfiguration",
"timestamp" : "2018-02-02T14:33:58.078-0600",
"value" : {
"name" : "FTBFConfig_v118",
"assigned" : "2018-02-02T14:33:58.077-0600"
}
},
{
"event" : "addConfiguration",
"timestamp" : "2018-02-02T14:36:24.692-0600",
"value" : {
"name" : "FTBFConfig_v119",
"assigned" : "2018-02-02T14:36:24.692-0600"
}
},
{
"event" : "addConfiguration",
"timestamp" : "2018-02-02T14:38:38.051-0600",
"value" : {
"name" : "FTBFConfig_v120",
"assigned" : "2018-02-02T14:38:38.051-0600"
}
},
{
"event" : "addConfiguration",
"timestamp" : "2018-02-02T14:41:47.366-0600",
"value" : {
"name" : "FTBFConfig_v121",
"assigned" : "2018-02-02T14:41:47.366-0600"
}
},
{
"event" : "addConfiguration",
"timestamp" : "2018-02-02T14:50:21.429-0600",
"value" : {
"name" : "FTBFConfig_v122",
"assigned" : "2018-02-02T14:50:21.428-0600"
}
},
{
"event" : "addConfiguration",
"timestamp" : "2018-02-02T14:52:54.233-0600",
"value" : {
"name" : "FTBFConfig_v123",
"assigned" : "2018-02-02T14:52:54.233-0600"
}
},
{
"event" : "addConfiguration",
"timestamp" : "2018-02-02T14:59:47.562-0600",
"value" : {
"name" : "FTBFConfig_v124",
"assigned" : "2018-02-02T14:59:47.561-0600"
}
},
{
"event" : "addConfiguration",
"timestamp" : "2018-02-02T15:04:05.667-0600",
"value" : {
"name" : "FTBFConfig_v125",
"assigned" : "2018-02-02T15:04:05.666-0600"
}
},
{
"event" : "addConfiguration",
"timestamp" : "2018-02-02T15:50:08.857-0600",
"value" : {
"name" : "FTBFConfig_v126",
"assigned" : "2018-02-02T15:50:08.857-0600"
}
},
{
"event" : "addConfiguration",
"timestamp" : "2018-02-02T15:51:28.338-0600",
"value" : {
"name" : "FTBFConfig_v127",
"assigned" : "2018-02-02T15:51:28.337-0600"
}
},
{
"event" : "addConfiguration",
"timestamp" : "2018-02-02T15:52:33.502-0600",
"value" : {
"name" : "FTBFConfig_v128",
"assigned" : "2018-02-02T15:52:33.502-0600"
}
},
{
"event" : "addConfiguration",
"timestamp" : "2018-02-02T16:02:42.387-0600",
"value" : {
"name" : "FTBFConfig_v129",
"assigned" : "2018-02-02T16:02:42.386-0600"
}
},
{
"event" : "addConfiguration",
"timestamp" : "2018-02-02T16:08:41.911-0600",
"value" : {
"name" : "FTBFConfig_v130",
"assigned" : "2018-02-02T16:08:41.910-0600"
}
},
{
"event" : "addConfiguration",
"timestamp" : "2018-02-02T16:11:27.720-0600",
"value" : {
"name" : "FTBFConfig_v131",
"assigned" : "2018-02-02T16:11:27.720-0600"
}
},
{
"event" : "addConfiguration",
"timestamp" : "2018-02-02T16:12:55.557-0600",
"value" : {
"name" : "FTBFConfig_v132",
"assigned" : "2018-02-02T16:12:55.557-0600"
}
},
{
"event" : "addConfiguration",
"timestamp" : "2018-02-02T16:14:26.166-0600",
"value" : {
"name" : "FTBFConfig_v133",
"assigned" : "2018-02-02T16:14:26.165-0600"
}
},
{
"event" : "addConfiguration",
"timestamp" : "2018-02-02T16:26:19.044-0600",
"value" : {
"name" : "FTBFConfig_v134",
"assigned" : "2018-02-02T16:26:19.044-0600"
}
},
{
"event" : "addConfiguration",
"timestamp" : "2018-02-02T16:27:06.163-0600",
"value" : {
"name" : "FTBFConfig_v135",
"assigned" : "2018-02-02T16:27:06.163-0600"
}
},
{
"event" : "addConfiguration",
"timestamp" : "2018-02-02T16:29:27.514-0600",
"value" : {
"name" : "FTBFConfig_v136",
"assigned" : "2018-02-02T16:29:27.514-0600"
}
},
{
"event" : "addConfiguration",
"timestamp" : "2018-02-02T16:31:37.988-0600",
"value" : {
"name" : "FTBFConfig_v137",
"assigned" : "2018-02-02T16:31:37.988-0600"
}
},
{
"event" : "addConfiguration",
"timestamp" : "2018-02-02T16:34:10.723-0600",
"value" : {
"name" : "FTBFConfig_v138",
"assigned" : "2018-02-02T16:34:10.723-0600"
}
},
{
"event" : "addConfiguration",
"timestamp" : "2018-02-02T17:39:26.790-0600",
"value" : {
"name" : "FTBFConfig_v139",
"assigned" : "2018-02-02T17:39:26.790-0600"
}
},
{
"event" : "addConfiguration",
"timestamp" : "2018-02-02T17:42:48.960-0600",
"value" : {
"name" : "FTBFConfig_v140",
"assigned" : "2018-02-02T17:42:48.960-0600"
}
},
{
"event" : "addConfiguration",
"timestamp" : "2018-02-02T17:47:34.117-0600",
"value" : {
"name" : "FTBFConfig_v141",
"assigned" : "2018-02-02T17:47:34.117-0600"
}
},
{
"event" : "addConfiguration",
"timestamp" : "2018-02-02T17:53:58.104-0600",
"value" : {
"name" : "FTBFConfig_v142",
"assigned" : "2018-02-02T17:53:58.104-0600"
}
}
],
"created" : "2017-11-08T15:56:02.898-0600"
},
"_id" : {
"$oid" : "d128e78177a945418597d79a"
},
"collection" : "ARTDAQGlobalConfiguration",
"aliases" : {
"active" : [

],
"history" : [

]
},
"runs" : [

],
"attachments" : [

],
"configtype" : "notprovided"
}