{
"document" : {
"data" : {
"NAME" : "POWER_SUPPLY_TO_DETECTOR_TABLE",
"COMMENT" : "No comment.",
"AUTHOR" : "admin",
"CREATION_TIME" : 1600202833,
"COL_TYPES" : {
"FE_INTERFACE_GROUP_ID" : "STRING",
"CHANNEL_UID" : "STRING",
"LINK_TO_CHANNEL_TABLE" : "STRING",
"LINK_TO_CHANNEL_UID" : "STRING",
"CHANNEL_GROUP" : "STRING",
"TURN_ON_SEQUENCE" : "NUMBER",
"TURN_OFF_SEQUENCE" : "NUMBER",
"COMMENT_DESCRIPTION" : "STRING",
"AUTHOR" : "STRING",
"RECORD_INSERTION_TIME" : "TIMESTAMP WITH TIMEZONE"
},
"DATA_SET" : [
{
"FE_INTERFACE_GROUP_ID" : "PowerSupplyFEInterface0",
"CHANNEL_UID" : "LV_Module1A",
"LINK_TO_CHANNEL_TABLE" : "CAENPowerSupplyChannelTable",
"LINK_TO_CHANNEL_UID" : "LV_Module1",
"CHANNEL_GROUP" : "Module1A",
"TURN_ON_SEQUENCE" : "1",
"TURN_OFF_SEQUENCE" : "2",
"COMMENT_DESCRIPTION" : "No Comment",
"AUTHOR" : "admin",
"RECORD_INSERTION_TIME" : "1600202833"
},
{
"FE_INTERFACE_GROUP_ID" : "PowerSupplyFEInterface0",
"CHANNEL_UID" : "HV_Module1A",
"LINK_TO_CHANNEL_TABLE" : "CAENPowerSupplyChannelTable",
"LINK_TO_CHANNEL_UID" : "HV_Module1",
"CHANNEL_GROUP" : "Module1A",
"TURN_ON_SEQUENCE" : "2",
"TURN_OFF_SEQUENCE" : "1",
"COMMENT_DESCRIPTION" : "No Comment",
"AUTHOR" : "admin",
"RECORD_INSERTION_TIME" : "1600202833"
},
{
"FE_INTERFACE_GROUP_ID" : "PowerSupplyFEInterface0",
"CHANNEL_UID" : "LV_Module2A",
"LINK_TO_CHANNEL_TABLE" : "CAENPowerSupplyChannelTable",
"LINK_TO_CHANNEL_UID" : "LV_Module2",
"CHANNEL_GROUP" : "Module2A",
"TURN_ON_SEQUENCE" : "1",
"TURN_OFF_SEQUENCE" : "2",
"COMMENT_DESCRIPTION" : "No Comment",
"AUTHOR" : "admin",
"RECORD_INSERTION_TIME" : "1600202833"
},
{
"FE_INTERFACE_GROUP_ID" : "PowerSupplyFEInterface0",
"CHANNEL_UID" : "HV_Module2A",
"LINK_TO_CHANNEL_TABLE" : "CAENPowerSupplyChannelTable",
"LINK_TO_CHANNEL_UID" : "LV_Module1",
"CHANNEL_GROUP" : "Module2A",
"TURN_ON_SEQUENCE" : "2",
"TURN_OFF_SEQUENCE" : "1",
"COMMENT_DESCRIPTION" : "No Comment",
"AUTHOR" : "admin",
"RECORD_INSERTION_TIME" : "1600202833"
}
]
},
"metadata" : {

},
"search" : [

]
},
"comments" : [

],
"origin" : {
"source" : "template",
"name" : "notprovided",
"format" : "json",
"created" : "2020-09-15T15:47:13.544-0500",
"rawdata" : [

]
},
"version" : "4",
"entities" : [
{
"name" : "OTSROOT",
"assigned" : "2020-09-15T15:47:13.544-0500"
}
],
"configurations" : [
{
"name" : "notprovided",
"assigned" : "2020-09-15T15:47:13.544-0500"
},
{
"name" : "DefaultConfig_v24",
"assigned" : "2020-09-15T15:52:12.947-0500"
},
{
"name" : "DefaultConfig_v25",
"assigned" : "2020-09-21T11:41:58.656-0500"
},
{
"name" : "DefaultConfig_v26",
"assigned" : "2020-09-21T11:54:29.428-0500"
},
{
"name" : "DefaultConfig_v27",
"assigned" : "2020-10-06T14:45:41.508-0500"
},
{
"name" : "DefaultConfig_v28",
"assigned" : "2020-10-06T15:04:20.045-0500"
},
{
"name" : "DefaultConfig_v29",
"assigned" : "2020-10-07T16:45:36.194-0500"
},
{
"name" : "DefaultConfig_v30",
"assigned" : "2020-10-07T17:03:30.342-0500"
},
{
"name" : "DefaultConfig_v31",
"assigned" : "2020-11-04T20:42:37.340-0600"
},
{
"name" : "DefaultConfig_v32",
"assigned" : "2020-11-11T11:26:54.948-0600"
},
{
"name" : "DefaultConfig_v33",
"assigned" : "2021-01-18T20:04:39.329-0600"
},
{
"name" : "DefaultConfig_v34",
"assigned" : "2021-01-18T20:05:19.793-0600"
}
],
"changelog" : "notprovided",
"bookkeeping" : {
"isdeleted" : false,
"isreadonly" : false,
"updates" : [
{
"event" : "addConfiguration",
"timestamp" : "2020-09-15T15:47:13.544-0500",
"value" : {
"name" : "notprovided",
"assigned" : "2020-09-15T15:47:13.544-0500"
}
},
{
"event" : "setVersion",
"timestamp" : "2020-09-15T15:47:13.544-0500",
"value" : {
"name" : "4",
"assigned" : "2020-09-15T15:47:13.544-0500"
}
},
{
"event" : "setCollection",
"timestamp" : "2020-09-15T15:47:13.544-0500",
"value" : {
"name" : "PowerSupplyToDetectorTable",
"assigned" : "2020-09-15T15:47:13.544-0500"
}
},
{
"event" : "addEntity",
"timestamp" : "2020-09-15T15:47:13.544-0500",
"value" : {
"name" : "OTSROOT",
"assigned" : "2020-09-15T15:47:13.544-0500"
}
},
{
"event" : "addConfiguration",
"timestamp" : "2020-09-15T15:52:12.947-0500",
"value" : {
"name" : "DefaultConfig_v24",
"assigned" : "2020-09-15T15:52:12.947-0500"
}
},
{
"event" : "addConfiguration",
"timestamp" : "2020-09-21T11:41:58.656-0500",
"value" : {
"name" : "DefaultConfig_v25",
"assigned" : "2020-09-21T11:41:58.656-0500"
}
},
{
"event" : "addConfiguration",
"timestamp" : "2020-09-21T11:54:29.428-0500",
"value" : {
"name" : "DefaultConfig_v26",
"assigned" : "2020-09-21T11:54:29.428-0500"
}
},
{
"event" : "addConfiguration",
"timestamp" : "2020-10-06T14:45:41.508-0500",
"value" : {
"name" : "DefaultConfig_v27",
"assigned" : "2020-10-06T14:45:41.508-0500"
}
},
{
"event" : "addConfiguration",
"timestamp" : "2020-10-06T15:04:20.045-0500",
"value" : {
"name" : "DefaultConfig_v28",
"assigned" : "2020-10-06T15:04:20.045-0500"
}
},
{
"event" : "addConfiguration",
"timestamp" : "2020-10-07T16:45:36.194-0500",
"value" : {
"name" : "DefaultConfig_v29",
"assigned" : "2020-10-07T16:45:36.194-0500"
}
},
{
"event" : "addConfiguration",
"timestamp" : "2020-10-07T17:03:30.342-0500",
"value" : {
"name" : "DefaultConfig_v30",
"assigned" : "2020-10-07T17:03:30.342-0500"
}
},
{
"event" : "addConfiguration",
"timestamp" : "2020-11-04T20:42:37.340-0600",
"value" : {
"name" : "DefaultConfig_v31",
"assigned" : "2020-11-04T20:42:37.340-0600"
}
},
{
"event" : "addConfiguration",
"timestamp" : "2020-11-11T11:26:54.949-0600",
"value" : {
"name" : "DefaultConfig_v32",
"assigned" : "2020-11-11T11:26:54.948-0600"
}
},
{
"event" : "addConfiguration",
"timestamp" : "2021-01-18T20:04:39.329-0600",
"value" : {
"name" : "DefaultConfig_v33",
"assigned" : "2021-01-18T20:04:39.329-0600"
}
},
{
"event" : "addConfiguration",
"timestamp" : "2021-01-18T20:05:19.793-0600",
"value" : {
"name" : "DefaultConfig_v34",
"assigned" : "2021-01-18T20:05:19.793-0600"
}
}
],
"created" : "2020-09-15T15:47:13.544-0500"
},
"_id" : {
"$oid" : "a430f46b8202450d83b44607"
},
"collection" : "PowerSupplyToDetectorTable",
"aliases" : {
"active" : [

],
"history" : [

]
},
"runs" : [

],
"attachments" : [

],
"configtype" : "notprovided"
}