{
"ouid" : [
"fbbff49ee24849e691195d16"
],
"version" : {
"0" : [
"fbbff49ee24849e691195d16"
]
},
"configurations.name" : {
"notprovided" : [
"fbbff49ee24849e691195d16"
],
"FTBFConfig_v0" : [
"fbbff49ee24849e691195d16"
],
"FTBFConfig_v1" : [
"fbbff49ee24849e691195d16"
],
"FTBFConfig_v2" : [
"fbbff49ee24849e691195d16"
],
"FTBFConfig_v3" : [
"fbbff49ee24849e691195d16"
],
"FTBFConfig_v4" : [
"fbbff49ee24849e691195d16"
],
"FTBFConfig_v5" : [
"fbbff49ee24849e691195d16"
],
"FTBFConfig_v6" : [
"fbbff49ee24849e691195d16"
],
"FTBFConfig_v7" : [
"fbbff49ee24849e691195d16"
],
"FTBFConfig_v8" : [
"fbbff49ee24849e691195d16"
],
"FTBFConfig_v9" : [
"fbbff49ee24849e691195d16"
],
"FTBFConfig_v10" : [
"fbbff49ee24849e691195d16"
],
"FTBFConfig_v11" : [
"fbbff49ee24849e691195d16"
],
"FTBFConfig_v12" : [
"fbbff49ee24849e691195d16"
],
"FTBFConfig_v13" : [
"fbbff49ee24849e691195d16"
],
"FTBFConfig_v14" : [
"fbbff49ee24849e691195d16"
],
"FTBFConfig_v15" : [
"fbbff49ee24849e691195d16"
],
"FTBFConfig_v16" : [
"fbbff49ee24849e691195d16"
],
"FTBFConfig_v17" : [
"fbbff49ee24849e691195d16"
],
"FTBFConfig_v18" : [
"fbbff49ee24849e691195d16"
],
"FTBFConfig_v19" : [
"fbbff49ee24849e691195d16"
],
"FTBFConfig_v20" : [
"fbbff49ee24849e691195d16"
],
"FTBFConfig_v21" : [
"fbbff49ee24849e691195d16"
],
"FTBFConfig_v22" : [
"fbbff49ee24849e691195d16"
],
"FTBFConfig_v23" : [
"fbbff49ee24849e691195d16"
],
"FTBFConfig_v24" : [
"fbbff49ee24849e691195d16"
],
"FTBFConfig_v25" : [
"fbbff49ee24849e691195d16"
],
"FTBFConfig_v26" : [
"fbbff49ee24849e691195d16"
],
"FTBFConfig_v27" : [
"fbbff49ee24849e691195d16"
],
"FTBFConfig_v28" : [
"fbbff49ee24849e691195d16"
],
"FTBFConfig_v29" : [
"fbbff49ee24849e691195d16"
],
"FTBFConfig_v30" : [
"fbbff49ee24849e691195d16"
],
"FTBFConfig_v31" : [
"fbbff49ee24849e691195d16"
],
"FTBFConfig_v32" : [
"fbbff49ee24849e691195d16"
],
"FTBFConfig_v33" : [
"fbbff49ee24849e691195d16"
],
"FTBFConfig_v34" : [
"fbbff49ee24849e691195d16"
],
"FTBFConfig_v35" : [
"fbbff49ee24849e691195d16"
],
"FTBFConfig_v36" : [
"fbbff49ee24849e691195d16"
],
"FTBFConfig_v37" : [
"fbbff49ee24849e691195d16"
],
"FTBFConfig_v38" : [
"fbbff49ee24849e691195d16"
],
"FTBFConfig_v39" : [
"fbbff49ee24849e691195d16"
],
"FTBFConfig_v40" : [
"fbbff49ee24849e691195d16"
],
"FTBFConfig_v41" : [
"fbbff49ee24849e691195d16"
],
"FTBFConfig_v42" : [
"fbbff49ee24849e691195d16"
],
"FTBFConfig_v43" : [
"fbbff49ee24849e691195d16"
],
"FTBFConfig_v44" : [
"fbbff49ee24849e691195d16"
],
"FTBFConfig_v45" : [
"fbbff49ee24849e691195d16"
],
"FTBFConfig_v46" : [
"fbbff49ee24849e691195d16"
],
"FTBFConfig_v47" : [
"fbbff49ee24849e691195d16"
],
"FTBFConfig_v48" : [
"fbbff49ee24849e691195d16"
],
"FTBFConfig_v49" : [
"fbbff49ee24849e691195d16"
],
"FTBFConfig_v52" : [
"fbbff49ee24849e691195d16"
],
"FTBFConfig_v53" : [
"fbbff49ee24849e691195d16"
],
"FTBFConfig_v54" : [
"fbbff49ee24849e691195d16"
],
"FTBFConfig_v55" : [
"fbbff49ee24849e691195d16"
],
"FTBFConfig_v56" : [
"fbbff49ee24849e691195d16"
],
"FTBFConfig_v57" : [
"fbbff49ee24849e691195d16"
],
"FTBFConfig_v58" : [
"fbbff49ee24849e691195d16"
],
"FTBFConfig_v59" : [
"fbbff49ee24849e691195d16"
],
"FTBFConfig_v60" : [
"fbbff49ee24849e691195d16"
],
"FTBFConfig_v61" : [
"fbbff49ee24849e691195d16"
],
"FTBFConfig_v62" : [
"fbbff49ee24849e691195d16"
],
"FTBFConfig_v63" : [
"fbbff49ee24849e691195d16"
],
"FTBFConfig_v64" : [
"fbbff49ee24849e691195d16"
],
"FTBFConfig_v65" : [
"fbbff49ee24849e691195d16"
],
"FTBFConfig_v66" : [
"fbbff49ee24849e691195d16"
],
"FTBFConfig_v67" : [
"fbbff49ee24849e691195d16"
],
"FTBFConfig_v68" : [
"fbbff49ee24849e691195d16"
],
"FTBFConfig_v69" : [
"fbbff49ee24849e691195d16"
],
"FTBFConfig_v70" : [
"fbbff49ee24849e691195d16"
],
"FTBFConfigNim_v0" : [
"fbbff49ee24849e691195d16"
],
"FTBFConfigNim_v1" : [
"fbbff49ee24849e691195d16"
],
"FTBFConfigNim_v2" : [
"fbbff49ee24849e691195d16"
],
"FTBFConfigNim_v3" : [
"fbbff49ee24849e691195d16"
],
"FTBFConfigNim_v4" : [
"fbbff49ee24849e691195d16"
],
"FTBFConfigNim_v5" : [
"fbbff49ee24849e691195d16"
],
"FTBFConfigNim_v6" : [
"fbbff49ee24849e691195d16"
],
"FTBFConfigNim_v7" : [
"fbbff49ee24849e691195d16"
],
"FTBFConfigNim_v8" : [
"fbbff49ee24849e691195d16"
],
"FTBFConfigNim_v9" : [
"fbbff49ee24849e691195d16"
],
"FTBFConfigNim_v10" : [
"fbbff49ee24849e691195d16"
],
"FTBFConfigNim_v11" : [
"fbbff49ee24849e691195d16"
],
"FTBFConfigNim_v12" : [
"fbbff49ee24849e691195d16"
],
"FTBFConfigNim_v13" : [
"fbbff49ee24849e691195d16"
],
"FTBFConfigNim_v14" : [
"fbbff49ee24849e691195d16"
],
"FTBFConfigNim_v15" : [
"fbbff49ee24849e691195d16"
],
"FTBFConfigNim_v16" : [
"fbbff49ee24849e691195d16"
],
"FTBFConfigNim_v17" : [
"fbbff49ee24849e691195d16"
],
"FTBFConfigNim_v18" : [
"fbbff49ee24849e691195d16"
],
"FTBFConfigNim_v19" : [
"fbbff49ee24849e691195d16"
],
"FTBFConfigNim_v20" : [
"fbbff49ee24849e691195d16"
],
"FTBFConfigNim_v21" : [
"fbbff49ee24849e691195d16"
],
"FTBFConfigNim_v22" : [
"fbbff49ee24849e691195d16"
],
"FTBFConfigNim_v23" : [
"fbbff49ee24849e691195d16"
],
"FTBFConfigNim_v24" : [
"fbbff49ee24849e691195d16"
],
"FTBFConfigNim_v25" : [
"fbbff49ee24849e691195d16"
],
"FTBFConfigNim_v26" : [
"fbbff49ee24849e691195d16"
],
"FTBFConfigNim_v27" : [
"fbbff49ee24849e691195d16"
],
"FTBFConfigNim_v28" : [
"fbbff49ee24849e691195d16"
],
"FTBFConfigNim_v29" : [
"fbbff49ee24849e691195d16"
],
"FTBFConfig_v71" : [
"fbbff49ee24849e691195d16"
],
"FTBFConfig_v72" : [
"fbbff49ee24849e691195d16"
],
"FTBFConfig_v73" : [
"fbbff49ee24849e691195d16"
],
"FTBFConfig_v74" : [
"fbbff49ee24849e691195d16"
],
"FTBFConfig_v75" : [
"fbbff49ee24849e691195d16"
],
"FTBFConfig_v76" : [
"fbbff49ee24849e691195d16"
],
"FTBFConfig_v77" : [
"fbbff49ee24849e691195d16"
],
"FTBFConfig_v78" : [
"fbbff49ee24849e691195d16"
],
"FTBFConfig_v79" : [
"fbbff49ee24849e691195d16"
],
"FTBFConfig_v80" : [
"fbbff49ee24849e691195d16"
],
"FTBFConfig_v81" : [
"fbbff49ee24849e691195d16"
],
"FTBFConfig_v82" : [
"fbbff49ee24849e691195d16"
],
"FTBFConfig_v83" : [
"fbbff49ee24849e691195d16"
],
"FTBFConfig_v84" : [
"fbbff49ee24849e691195d16"
],
"FTBFConfig_v85" : [
"fbbff49ee24849e691195d16"
],
"FTBFConfig_v86" : [
"fbbff49ee24849e691195d16"
],
"FTBFConfig_v87" : [
"fbbff49ee24849e691195d16"
],
"FTBFConfig_v88" : [
"fbbff49ee24849e691195d16"
],
"FTBFConfig_v89" : [
"fbbff49ee24849e691195d16"
],
"FTBFConfig_v90" : [
"fbbff49ee24849e691195d16"
],
"FTBFConfig_v91" : [
"fbbff49ee24849e691195d16"
],
"FTBFConfig_v92" : [
"fbbff49ee24849e691195d16"
],
"FTBFConfig_v93" : [
"fbbff49ee24849e691195d16"
],
"FTBFConfig_v94" : [
"fbbff49ee24849e691195d16"
],
"FTBFConfig_v95" : [
"fbbff49ee24849e691195d16"
],
"FTBFConfig_v96" : [
"fbbff49ee24849e691195d16"
],
"FTBFConfig_v97" : [
"fbbff49ee24849e691195d16"
],
"FTBFConfig_v98" : [
"fbbff49ee24849e691195d16"
],
"FTBFConfig_v99" : [
"fbbff49ee24849e691195d16"
],
"FTBFConfig_v100" : [
"fbbff49ee24849e691195d16"
],
"FTBFConfig_v101" : [
"fbbff49ee24849e691195d16"
],
"FTBFConfig_v102" : [
"fbbff49ee24849e691195d16"
],
"FTBFConfig_v103" : [
"fbbff49ee24849e691195d16"
],
"FTBFConfig_v104" : [
"fbbff49ee24849e691195d16"
],
"FTBFConfig_v105" : [
"fbbff49ee24849e691195d16"
],
"FTBFConfig_v106" : [
"fbbff49ee24849e691195d16"
],
"FTBFConfig_v107" : [
"fbbff49ee24849e691195d16"
],
"FTBFConfig_v108" : [
"fbbff49ee24849e691195d16"
],
"FTBFConfig_v109" : [
"fbbff49ee24849e691195d16"
],
"FTBFConfig_v110" : [
"fbbff49ee24849e691195d16"
],
"FTBFConfig_v111" : [
"fbbff49ee24849e691195d16"
],
"FTBFConfig_v112" : [
"fbbff49ee24849e691195d16"
],
"FTBFConfig_v113" : [
"fbbff49ee24849e691195d16"
],
"FTBFConfig_v114" : [
"fbbff49ee24849e691195d16"
],
"FTBFConfig_v115" : [
"fbbff49ee24849e691195d16"
],
"FTBFConfig_v116" : [
"fbbff49ee24849e691195d16"
],
"FTBFConfig_v117" : [
"fbbff49ee24849e691195d16"
],
"FTBFConfig_v118" : [
"fbbff49ee24849e691195d16"
],
"FTBFConfig_v119" : [
"fbbff49ee24849e691195d16"
],
"FTBFConfig_v120" : [
"fbbff49ee24849e691195d16"
],
"FTBFConfig_v121" : [
"fbbff49ee24849e691195d16"
],
"FTBFConfig_v122" : [
"fbbff49ee24849e691195d16"
],
"FTBFConfig_v123" : [
"fbbff49ee24849e691195d16"
],
"FTBFConfig_v124" : [
"fbbff49ee24849e691195d16"
],
"FTBFConfig_v125" : [
"fbbff49ee24849e691195d16"
],
"FTBFConfig_v126" : [
"fbbff49ee24849e691195d16"
],
"FTBFConfig_v127" : [
"fbbff49ee24849e691195d16"
],
"FTBFConfig_v128" : [
"fbbff49ee24849e691195d16"
],
"FTBFConfig_v129" : [
"fbbff49ee24849e691195d16"
],
"FTBFConfig_v130" : [
"fbbff49ee24849e691195d16"
],
"FTBFConfig_v131" : [
"fbbff49ee24849e691195d16"
],
"FTBFConfig_v132" : [
"fbbff49ee24849e691195d16"
],
"FTBFConfig_v133" : [
"fbbff49ee24849e691195d16"
],
"FTBFConfig_v134" : [
"fbbff49ee24849e691195d16"
],
"FTBFConfig_v135" : [
"fbbff49ee24849e691195d16"
],
"FTBFConfig_v136" : [
"fbbff49ee24849e691195d16"
],
"FTBFConfig_v137" : [
"fbbff49ee24849e691195d16"
],
"FTBFConfig_v138" : [
"fbbff49ee24849e691195d16"
],
"FTBFConfig_v139" : [
"fbbff49ee24849e691195d16"
],
"FTBFConfig_v140" : [
"fbbff49ee24849e691195d16"
],
"FTBFConfig_v141" : [
"fbbff49ee24849e691195d16"
],
"FTBFConfig_v142" : [
"fbbff49ee24849e691195d16"
]
},
"entities.name" : {
"OTSROOT" : [
"fbbff49ee24849e691195d16"
]
},
"aliases.active.name" : {

},
"runs.name" : {

},
"configurations.assigned" : {
"notprovided" : [
"2017-11-08T15:56:03.350-0600"
],
"FTBFConfig_v0" : [
"2017-11-08T15:56:06.097-0600"
],
"FTBFConfig_v1" : [
"2017-11-09T09:56:30.866-0600"
],
"FTBFConfig_v2" : [
"2017-11-09T10:05:59.838-0600"
],
"FTBFConfig_v3" : [
"2017-11-09T10:37:11.401-0600"
],
"FTBFConfig_v4" : [
"2017-11-15T11:30:10.211-0600"
],
"FTBFConfig_v5" : [
"2017-11-15T11:54:57.015-0600"
],
"FTBFConfig_v6" : [
"2017-11-15T11:57:49.650-0600"
],
"FTBFConfig_v7" : [
"2017-11-15T12:42:32.044-0600"
],
"FTBFConfig_v8" : [
"2017-11-15T13:01:03.125-0600"
],
"FTBFConfig_v9" : [
"2017-11-15T13:02:56.457-0600"
],
"FTBFConfig_v10" : [
"2017-11-15T13:04:24.045-0600"
],
"FTBFConfig_v11" : [
"2017-11-15T13:07:51.537-0600"
],
"FTBFConfig_v12" : [
"2017-11-15T13:11:59.009-0600"
],
"FTBFConfig_v13" : [
"2017-11-15T13:13:52.948-0600"
],
"FTBFConfig_v14" : [
"2017-11-15T13:27:29.164-0600"
],
"FTBFConfig_v15" : [
"2017-11-15T13:35:46.954-0600"
],
"FTBFConfig_v16" : [
"2017-11-15T13:36:51.565-0600"
],
"FTBFConfig_v17" : [
"2017-11-15T15:33:30.106-0600"
],
"FTBFConfig_v18" : [
"2017-11-15T15:35:33.725-0600"
],
"FTBFConfig_v19" : [
"2017-11-15T15:38:02.582-0600"
],
"FTBFConfig_v20" : [
"2017-11-15T16:26:30.448-0600"
],
"FTBFConfig_v21" : [
"2017-11-16T09:22:31.387-0600"
],
"FTBFConfig_v22" : [
"2017-11-17T10:23:27.604-0600"
],
"FTBFConfig_v23" : [
"2017-11-17T17:26:45.157-0600"
],
"FTBFConfig_v24" : [
"2017-11-17T17:58:25.663-0600"
],
"FTBFConfig_v25" : [
"2017-11-17T18:24:45.328-0600"
],
"FTBFConfig_v26" : [
"2017-11-17T18:32:22.798-0600"
],
"FTBFConfig_v27" : [
"2017-11-17T18:43:29.969-0600"
],
"FTBFConfig_v28" : [
"2017-11-17T18:48:32.006-0600"
],
"FTBFConfig_v29" : [
"2017-11-20T14:48:30.719-0600"
],
"FTBFConfig_v30" : [
"2017-11-20T15:39:55.845-0600"
],
"FTBFConfig_v31" : [
"2017-11-20T16:41:01.844-0600"
],
"FTBFConfig_v32" : [
"2017-11-20T18:55:34.783-0600"
],
"FTBFConfig_v33" : [
"2017-11-20T18:57:30.063-0600"
],
"FTBFConfig_v34" : [
"2017-11-29T17:50:39.549-0600"
],
"FTBFConfig_v35" : [
"2017-11-29T18:00:32.504-0600"
],
"FTBFConfig_v36" : [
"2017-11-29T18:35:11.223-0600"
],
"FTBFConfig_v37" : [
"2017-12-01T09:36:17.576-0600"
],
"FTBFConfig_v38" : [
"2017-12-01T09:52:00.918-0600"
],
"FTBFConfig_v39" : [
"2017-12-01T11:51:58.172-0600"
],
"FTBFConfig_v40" : [
"2017-12-01T12:18:20.145-0600"
],
"FTBFConfig_v41" : [
"2017-12-01T12:21:02.274-0600"
],
"FTBFConfig_v42" : [
"2017-12-01T12:43:21.524-0600"
],
"FTBFConfig_v43" : [
"2017-12-01T12:57:59.298-0600"
],
"FTBFConfig_v44" : [
"2017-12-01T13:00:51.908-0600"
],
"FTBFConfig_v45" : [
"2017-12-01T13:25:48.602-0600"
],
"FTBFConfig_v46" : [
"2017-12-01T13:35:43.348-0600"
],
"FTBFConfig_v47" : [
"2017-12-01T14:00:51.656-0600"
],
"FTBFConfig_v48" : [
"2017-12-01T14:03:58.992-0600"
],
"FTBFConfig_v49" : [
"2017-12-01T15:31:59.140-0600"
],
"FTBFConfig_v52" : [
"2017-12-01T15:37:31.211-0600"
],
"FTBFConfig_v53" : [
"2017-12-01T15:40:58.657-0600"
],
"FTBFConfig_v54" : [
"2017-12-01T15:52:48.987-0600"
],
"FTBFConfig_v55" : [
"2017-12-01T15:54:34.125-0600"
],
"FTBFConfig_v56" : [
"2017-12-01T15:55:33.694-0600"
],
"FTBFConfig_v57" : [
"2017-12-01T15:56:39.522-0600"
],
"FTBFConfig_v58" : [
"2017-12-01T15:57:37.581-0600"
],
"FTBFConfig_v59" : [
"2017-12-01T15:58:29.493-0600"
],
"FTBFConfig_v60" : [
"2017-12-01T15:59:30.692-0600"
],
"FTBFConfig_v61" : [
"2017-12-01T16:19:40.456-0600"
],
"FTBFConfig_v62" : [
"2017-12-01T16:22:03.005-0600"
],
"FTBFConfig_v63" : [
"2017-12-01T16:31:23.631-0600"
],
"FTBFConfig_v64" : [
"2017-12-01T17:06:30.845-0600"
],
"FTBFConfig_v65" : [
"2017-12-01T17:32:42.967-0600"
],
"FTBFConfig_v66" : [
"2017-12-01T20:38:49.475-0600"
],
"FTBFConfig_v67" : [
"2017-12-01T21:25:00.814-0600"
],
"FTBFConfig_v68" : [
"2017-12-01T21:43:00.505-0600"
],
"FTBFConfig_v69" : [
"2017-12-01T21:44:59.105-0600"
],
"FTBFConfig_v70" : [
"2017-12-01T21:59:18.351-0600"
],
"FTBFConfigNim_v0" : [
"2017-12-01T22:00:05.078-0600"
],
"FTBFConfigNim_v1" : [
"2017-12-01T22:13:06.832-0600"
],
"FTBFConfigNim_v2" : [
"2017-12-01T22:15:54.082-0600"
],
"FTBFConfigNim_v3" : [
"2017-12-01T22:17:02.400-0600"
],
"FTBFConfigNim_v4" : [
"2017-12-01T22:19:05.151-0600"
],
"FTBFConfigNim_v5" : [
"2017-12-01T22:21:55.899-0600"
],
"FTBFConfigNim_v6" : [
"2017-12-01T22:23:12.037-0600"
],
"FTBFConfigNim_v7" : [
"2017-12-01T22:25:15.860-0600"
],
"FTBFConfigNim_v8" : [
"2017-12-01T22:27:03.500-0600"
],
"FTBFConfigNim_v9" : [
"2017-12-01T22:29:27.662-0600"
],
"FTBFConfigNim_v10" : [
"2017-12-01T22:52:32.812-0600"
],
"FTBFConfigNim_v11" : [
"2017-12-01T22:57:27.636-0600"
],
"FTBFConfigNim_v12" : [
"2017-12-01T23:00:05.854-0600"
],
"FTBFConfigNim_v13" : [
"2017-12-01T23:52:33.980-0600"
],
"FTBFConfigNim_v14" : [
"2017-12-01T23:58:08.396-0600"
],
"FTBFConfigNim_v15" : [
"2017-12-02T00:00:32.658-0600"
],
"FTBFConfigNim_v16" : [
"2017-12-02T00:13:07.808-0600"
],
"FTBFConfigNim_v17" : [
"2017-12-02T00:28:26.769-0600"
],
"FTBFConfigNim_v18" : [
"2017-12-02T00:29:32.831-0600"
],
"FTBFConfigNim_v19" : [
"2017-12-02T00:31:10.525-0600"
],
"FTBFConfigNim_v20" : [
"2017-12-02T00:57:25.867-0600"
],
"FTBFConfigNim_v21" : [
"2017-12-02T10:58:00.400-0600"
],
"FTBFConfigNim_v22" : [
"2017-12-02T11:08:16.592-0600"
],
"FTBFConfigNim_v23" : [
"2017-12-02T11:12:38.139-0600"
],
"FTBFConfigNim_v24" : [
"2017-12-02T11:18:41.052-0600"
],
"FTBFConfigNim_v25" : [
"2017-12-02T11:27:04.234-0600"
],
"FTBFConfigNim_v26" : [
"2017-12-02T11:38:35.280-0600"
],
"FTBFConfigNim_v27" : [
"2017-12-02T11:49:06.469-0600"
],
"FTBFConfigNim_v28" : [
"2017-12-02T11:55:07.923-0600"
],
"FTBFConfigNim_v29" : [
"2017-12-02T12:06:24.766-0600"
],
"FTBFConfig_v71" : [
"2017-12-02T12:24:13.407-0600"
],
"FTBFConfig_v72" : [
"2017-12-02T12:43:34.258-0600"
],
"FTBFConfig_v73" : [
"2017-12-02T13:55:33.907-0600"
],
"FTBFConfig_v74" : [
"2017-12-02T14:09:06.243-0600"
],
"FTBFConfig_v75" : [
"2017-12-02T14:12:17.033-0600"
],
"FTBFConfig_v76" : [
"2017-12-02T19:05:52.113-0600"
],
"FTBFConfig_v77" : [
"2017-12-02T19:12:11.988-0600"
],
"FTBFConfig_v78" : [
"2017-12-03T14:03:47.126-0600"
],
"FTBFConfig_v79" : [
"2017-12-03T14:09:05.375-0600"
],
"FTBFConfig_v80" : [
"2017-12-03T14:11:09.121-0600"
],
"FTBFConfig_v81" : [
"2017-12-03T14:22:32.154-0600"
],
"FTBFConfig_v82" : [
"2017-12-03T14:40:36.937-0600"
],
"FTBFConfig_v83" : [
"2017-12-03T14:45:04.304-0600"
],
"FTBFConfig_v84" : [
"2017-12-04T14:51:29.645-0600"
],
"FTBFConfig_v85" : [
"2017-12-04T14:55:42.812-0600"
],
"FTBFConfig_v86" : [
"2017-12-04T16:51:05.828-0600"
],
"FTBFConfig_v87" : [
"2017-12-04T16:56:46.473-0600"
],
"FTBFConfig_v88" : [
"2017-12-04T17:01:11.188-0600"
],
"FTBFConfig_v89" : [
"2017-12-04T17:03:56.304-0600"
],
"FTBFConfig_v90" : [
"2017-12-04T17:07:15.928-0600"
],
"FTBFConfig_v91" : [
"2017-12-04T17:09:25.054-0600"
],
"FTBFConfig_v92" : [
"2017-12-04T17:11:37.539-0600"
],
"FTBFConfig_v93" : [
"2017-12-04T21:05:20.132-0600"
],
"FTBFConfig_v94" : [
"2017-12-04T21:17:11.061-0600"
],
"FTBFConfig_v95" : [
"2017-12-04T21:41:16.734-0600"
],
"FTBFConfig_v96" : [
"2017-12-04T22:39:01.369-0600"
],
"FTBFConfig_v97" : [
"2017-12-04T23:01:11.874-0600"
],
"FTBFConfig_v98" : [
"2017-12-07T11:07:45.887-0600"
],
"FTBFConfig_v99" : [
"2017-12-07T11:49:58.568-0600"
],
"FTBFConfig_v100" : [
"2017-12-07T11:58:25.295-0600"
],
"FTBFConfig_v101" : [
"2017-12-08T13:30:47.456-0600"
],
"FTBFConfig_v102" : [
"2017-12-08T13:32:34.321-0600"
],
"FTBFConfig_v103" : [
"2017-12-12T11:03:04.117-0600"
],
"FTBFConfig_v104" : [
"2017-12-12T13:50:58.527-0600"
],
"FTBFConfig_v105" : [
"2017-12-12T15:25:04.553-0600"
],
"FTBFConfig_v106" : [
"2017-12-13T10:24:22.899-0600"
],
"FTBFConfig_v107" : [
"2017-12-13T10:27:01.648-0600"
],
"FTBFConfig_v108" : [
"2018-02-01T21:14:25.171-0600"
],
"FTBFConfig_v109" : [
"2018-02-01T21:21:02.300-0600"
],
"FTBFConfig_v110" : [
"2018-02-02T11:25:33.263-0600"
],
"FTBFConfig_v111" : [
"2018-02-02T11:37:12.077-0600"
],
"FTBFConfig_v112" : [
"2018-02-02T11:47:14.578-0600"
],
"FTBFConfig_v113" : [
"2018-02-02T11:53:35.829-0600"
],
"FTBFConfig_v114" : [
"2018-02-02T12:00:51.924-0600"
],
"FTBFConfig_v115" : [
"2018-02-02T12:27:13.398-0600"
],
"FTBFConfig_v116" : [
"2018-02-02T14:28:52.921-0600"
],
"FTBFConfig_v117" : [
"2018-02-02T14:30:19.257-0600"
],
"FTBFConfig_v118" : [
"2018-02-02T14:34:00.521-0600"
],
"FTBFConfig_v119" : [
"2018-02-02T14:36:27.118-0600"
],
"FTBFConfig_v120" : [
"2018-02-02T14:38:40.453-0600"
],
"FTBFConfig_v121" : [
"2018-02-02T14:41:49.765-0600"
],
"FTBFConfig_v122" : [
"2018-02-02T14:50:23.847-0600"
],
"FTBFConfig_v123" : [
"2018-02-02T14:52:56.679-0600"
],
"FTBFConfig_v124" : [
"2018-02-02T14:59:50.012-0600"
],
"FTBFConfig_v125" : [
"2018-02-02T15:04:08.119-0600"
],
"FTBFConfig_v126" : [
"2018-02-02T15:50:11.305-0600"
],
"FTBFConfig_v127" : [
"2018-02-02T15:51:30.816-0600"
],
"FTBFConfig_v128" : [
"2018-02-02T15:52:35.975-0600"
],
"FTBFConfig_v129" : [
"2018-02-02T16:02:44.873-0600"
],
"FTBFConfig_v130" : [
"2018-02-02T16:08:44.409-0600"
],
"FTBFConfig_v131" : [
"2018-02-02T16:11:30.261-0600"
],
"FTBFConfig_v132" : [
"2018-02-02T16:12:58.110-0600"
],
"FTBFConfig_v133" : [
"2018-02-02T16:14:28.707-0600"
],
"FTBFConfig_v134" : [
"2018-02-02T16:26:21.592-0600"
],
"FTBFConfig_v135" : [
"2018-02-02T16:27:08.701-0600"
],
"FTBFConfig_v136" : [
"2018-02-02T16:29:30.077-0600"
],
"FTBFConfig_v137" : [
"2018-02-02T16:31:40.677-0600"
],
"FTBFConfig_v138" : [
"2018-02-02T16:34:13.345-0600"
],
"FTBFConfig_v139" : [
"2018-02-02T17:39:29.389-0600"
],
"FTBFConfig_v140" : [
"2018-02-02T17:42:51.567-0600"
],
"FTBFConfig_v141" : [
"2018-02-02T17:47:36.748-0600"
],
"FTBFConfig_v142" : [
"2018-02-02T17:54:00.771-0600"
]
}
}