{
"document" : {
"data" : {
"NAME" : "GROUP_ALIASES_TABLE",
"COMMENT" : "Default Backbone.",
"AUTHOR" : "admin",
"CREATION_TIME" : 1619802699,
"COL_TYPES" : {
"GROUP_KEY_ALIAS" : "STRING",
"GROUP_NAME" : "STRING",
"GROUP_KEY" : "STRING",
"COMMENT_DESCRIPTION" : "STRING",
"AUTHOR" : "STRING",
"RECORD_INSERTION_TIME" : "TIMESTAMP WITH TIMEZONE"
},
"DATA_SET" : [
{
"GROUP_KEY_ALIAS" : "OuterTrackerContext",
"GROUP_NAME" : "DefaultContext",
"GROUP_KEY" : "21",
"COMMENT_DESCRIPTION" : "This Group Alias was automatically setup by the server.",
"AUTHOR" : "admin",
"RECORD_INSERTION_TIME" : "1619720440"
},
{
"GROUP_KEY_ALIAS" : "T992Config",
"GROUP_NAME" : "DefaultConfig",
"GROUP_KEY" : "30",
"COMMENT_DESCRIPTION" : "This Group Alias was automatically setup by the server.",
"AUTHOR" : "admin",
"RECORD_INSERTION_TIME" : "1619802699"
}
]
},
"metadata" : {

},
"search" : [

]
},
"comments" : [

],
"origin" : {
"source" : "template",
"name" : "notprovided",
"format" : "json",
"created" : "2021-04-30T12:11:39.438-0500",
"rawdata" : [

]
},
"version" : "56",
"entities" : [
{
"name" : "OTSROOT",
"assigned" : "2021-04-30T12:11:39.439-0500"
}
],
"configurations" : [
{
"name" : "notprovided",
"assigned" : "2021-04-30T12:11:39.439-0500"
},
{
"name" : "GroupAliasTreeEditWizBackbone_v26",
"assigned" : "2021-04-30T12:11:40.023-0500"
}
],
"changelog" : "notprovided",
"bookkeeping" : {
"isdeleted" : false,
"isreadonly" : false,
"updates" : [
{
"event" : "addConfiguration",
"timestamp" : "2021-04-30T12:11:39.439-0500",
"value" : {
"name" : "notprovided",
"assigned" : "2021-04-30T12:11:39.439-0500"
}
},
{
"event" : "setVersion",
"timestamp" : "2021-04-30T12:11:39.439-0500",
"value" : {
"name" : "56",
"assigned" : "2021-04-30T12:11:39.439-0500"
}
},
{
"event" : "setCollection",
"timestamp" : "2021-04-30T12:11:39.439-0500",
"value" : {
"name" : "GroupAliasesTable",
"assigned" : "2021-04-30T12:11:39.439-0500"
}
},
{
"event" : "addEntity",
"timestamp" : "2021-04-30T12:11:39.439-0500",
"value" : {
"name" : "OTSROOT",
"assigned" : "2021-04-30T12:11:39.439-0500"
}
},
{
"event" : "addConfiguration",
"timestamp" : "2021-04-30T12:11:40.023-0500",
"value" : {
"name" : "GroupAliasTreeEditWizBackbone_v26",
"assigned" : "2021-04-30T12:11:40.023-0500"
}
}
],
"created" : "2021-04-30T12:11:39.439-0500"
},
"_id" : {
"$oid" : "34959371a8024241af05dda9"
},
"collection" : "GroupAliasesTable",
"aliases" : {
"active" : [

],
"history" : [

]
},
"runs" : [

],
"attachments" : [

],
"configtype" : "notprovided"
}