{
"document" : {
"data" : {
"NAME" : "GROUP_ALIASES_TABLE",
"COMMENT" : "Default Backbone.",
"AUTHOR" : "admin",
"CREATION_TIME" : 1550871908,
"COL_TYPES" : {
"GROUP_KEY_ALIAS" : "VARCHAR2",
"GROUP_NAME" : "VARCHAR2",
"GROUP_KEY" : "VARCHAR2",
"COMMENT_DESCRIPTION" : "VARCHAR2",
"AUTHOR" : "VARCHAR2",
"RECORD_INSERTION_TIME" : "TIMESTAMP WITH TIMEZONE"
},
"DATA_SET" : [
{
"GROUP_KEY_ALIAS" : "OuterTrackerContext",
"GROUP_NAME" : "DefaultContext",
"GROUP_KEY" : "4",
"COMMENT_DESCRIPTION" : "This Group Alias was automatically setup by the server.",
"AUTHOR" : "admin",
"RECORD_INSERTION_TIME" : "1550870917"
},
{
"GROUP_KEY_ALIAS" : "OuterTrackerTable",
"GROUP_NAME" : "DefaultConfig",
"GROUP_KEY" : "7",
"COMMENT_DESCRIPTION" : "This Group Alias was automatically setup by the server.",
"AUTHOR" : "admin",
"RECORD_INSERTION_TIME" : "1550871908"
}
]
},
"metadata" : {

},
"search" : [

]
},
"comments" : [

],
"origin" : {
"source" : "template",
"name" : "notprovided",
"format" : "json",
"created" : "2019-02-22T16:11:43.626-0600",
"rawdata" : [

]
},
"version" : "3",
"entities" : [
{
"name" : "OTSROOT",
"assigned" : "2019-02-22T16:11:43.627-0600"
}
],
"tables" : [
{
"name" : "notprovided",
"assigned" : "2019-02-22T16:11:43.627-0600"
},
{
"name" : "GroupAliasTreeEditWizBackbone_v3",
"assigned" : "2019-02-22T16:11:43.696-0600"
}
],
"changelog" : "notprovided",
"bookkeeping" : {
"isdeleted" : false,
"isreadonly" : false,
"updates" : [
{
"event" : "addTable",
"timestamp" : "2019-02-22T16:11:43.627-0600",
"value" : {
"name" : "notprovided",
"assigned" : "2019-02-22T16:11:43.627-0600"
}
},
{
"event" : "setVersion",
"timestamp" : "2019-02-22T16:11:43.627-0600",
"value" : {
"name" : "3",
"assigned" : "2019-02-22T16:11:43.627-0600"
}
},
{
"event" : "setCollection",
"timestamp" : "2019-02-22T16:11:43.627-0600",
"value" : {
"name" : "GroupAliasesTable",
"assigned" : "2019-02-22T16:11:43.627-0600"
}
},
{
"event" : "addEntity",
"timestamp" : "2019-02-22T16:11:43.627-0600",
"value" : {
"name" : "OTSROOT",
"assigned" : "2019-02-22T16:11:43.627-0600"
}
},
{
"event" : "addTable",
"timestamp" : "2019-02-22T16:11:43.696-0600",
"value" : {
"name" : "GroupAliasTreeEditWizBackbone_v3",
"assigned" : "2019-02-22T16:11:43.696-0600"
}
}
],
"created" : "2019-02-22T16:11:43.626-0600"
},
"_id" : {
"$oid" : "63b2199bfc844b24a31a1fb8"
},
"collection" : "GroupAliasesTable",
"aliases" : {
"active" : [

],
"history" : [

]
},
"runs" : [

],
"attachments" : [

],
"configtype" : "notprovided"
}