{
"document" : {
"data" : {
"NAME" : "DESKTOP_ICON_CONFIGURATION",
"COMMENT" : "Desktop icon definitions.",
"AUTHOR" : "admin",
"CREATION_TIME" : 1512058336,
"COL_TYPES" : {
"ICON_NAME" : "VARCHAR2",
"STATUS" : "VARCHAR2",
"CAPTION" : "VARCHAR2",
"ALTERNATE_TEXT" : "VARCHAR2",
"FORCE_ONLY_ONE_INSTANCE" : "VARCHAR2",
"REQUIRED_PERMISSION_LEVEL" : "VARCHAR2",
"IMAGE_URL" : "VARCHAR2",
"WINDOW_CONTENT_URL" : "VARCHAR2",
"LINK_TO_APPLICATION_TABLE" : "VARCHAR2",
"LINK_TO_APPLICATION_UID" : "VARCHAR2",
"LINK_TO_PARAMETER_TABLE" : "VARCHAR2",
"LINK_TO_PARAMETER_UID" : "VARCHAR2",
"FOLDER_PATH" : "VARCHAR2",
"COMMENT_DESCRIPTION" : "VARCHAR2",
"AUTHOR" : "VARCHAR2",
"RECORD_INSERTION_TIME" : "TIMESTAMP WITH TIMEZONE"
},
"DATA_SET" : [
{
"ICON_NAME" : "FSM",
"STATUS" : "On",
"CAPTION" : "State Machine",
"ALTERNATE_TEXT" : "FSM",
"FORCE_ONLY_ONE_INSTANCE" : "True",
"REQUIRED_PERMISSION_LEVEL" : "1",
"IMAGE_URL" : "icon-Physics.gif",
"WINDOW_CONTENT_URL" : "/WebPath/html/StateMachine.html?fsm_name=OtherRuns0",
"LINK_TO_APPLICATION_TABLE" : "NO_LINK",
"LINK_TO_APPLICATION_UID" : "DEFAULT",
"LINK_TO_PARAMETER_TABLE" : "NO_LINK",
"LINK_TO_PARAMETER_UID" : "DEFAULT",
"FOLDER_PATH" : "DEFAULT",
"COMMENT_DESCRIPTION" : "",
"AUTHOR" : "admin",
"RECORD_INSERTION_TIME" : "1492542398"
},
{
"ICON_NAME" : "Chat",
"STATUS" : "On",
"CAPTION" : "Chat",
"ALTERNATE_TEXT" : "CHAT",
"FORCE_ONLY_ONE_INSTANCE" : "True",
"REQUIRED_PERMISSION_LEVEL" : "1",
"IMAGE_URL" : "icon-Chat.png",
"WINDOW_CONTENT_URL" : "/urn:xdaq-application:lid=",
"LINK_TO_APPLICATION_TABLE" : "XDAQApplicationConfiguration",
"LINK_TO_APPLICATION_UID" : "ChatSupervisor",
"LINK_TO_PARAMETER_TABLE" : "NO_LINK",
"LINK_TO_PARAMETER_UID" : "DEFAULT",
"FOLDER_PATH" : "DEFAULT",
"COMMENT_DESCRIPTION" : "The id number will be appended from the linked XDAQ supervisor urn",
"AUTHOR" : "admin",
"RECORD_INSERTION_TIME" : "1492542398"
},
{
"ICON_NAME" : "Logbook",
"STATUS" : "On",
"CAPTION" : "Logbook",
"ALTERNATE_TEXT" : "LOG",
"FORCE_ONLY_ONE_INSTANCE" : "True",
"REQUIRED_PERMISSION_LEVEL" : "1",
"IMAGE_URL" : "icon-Logbook.png",
"WINDOW_CONTENT_URL" : "/urn:xdaq-application:lid=",
"LINK_TO_APPLICATION_TABLE" : "XDAQApplicationConfiguration",
"LINK_TO_APPLICATION_UID" : "LogbookSupervisor",
"LINK_TO_PARAMETER_TABLE" : "NO_LINK",
"LINK_TO_PARAMETER_UID" : "DEFAULT",
"FOLDER_PATH" : "DEFAULT",
"COMMENT_DESCRIPTION" : "lid number must match XDAQ supervisor urn",
"AUTHOR" : "rrivera",
"RECORD_INSERTION_TIME" : "1509464607"
},
{
"ICON_NAME" : "Visualizer",
"STATUS" : "On",
"CAPTION" : "Visualizer",
"ALTERNATE_TEXT" : "VIS",
"FORCE_ONLY_ONE_INSTANCE" : "False",
"REQUIRED_PERMISSION_LEVEL" : "1",
"IMAGE_URL" : "icon-Visualizer.png",
"WINDOW_CONTENT_URL" : "/WebPath/html/Visualization.html?urn=",
"LINK_TO_APPLICATION_TABLE" : "XDAQApplicationConfiguration",
"LINK_TO_APPLICATION_UID" : "VisualSupervisor",
"LINK_TO_PARAMETER_TABLE" : "NO_LINK",
"LINK_TO_PARAMETER_UID" : "DEFAULT",
"FOLDER_PATH" : "DEFAULT",
"COMMENT_DESCRIPTION" : "urn must match XDAQ supervisor urn",
"AUTHOR" : "rrivera",
"RECORD_INSERTION_TIME" : "1510697724"
},
{
"ICON_NAME" : "MacroMaker",
"STATUS" : "On",
"CAPTION" : "Macro Maker",
"ALTERNATE_TEXT" : "MM",
"FORCE_ONLY_ONE_INSTANCE" : "True",
"REQUIRED_PERMISSION_LEVEL" : "1",
"IMAGE_URL" : "icon-MacroMaker.png",
"WINDOW_CONTENT_URL" : "/WebPath/html/MacroMaker.html?urn=",
"LINK_TO_APPLICATION_TABLE" : "XDAQApplicationConfiguration",
"LINK_TO_APPLICATION_UID" : "MacroMakerSupervisor",
"LINK_TO_PARAMETER_TABLE" : "NO_LINK",
"LINK_TO_PARAMETER_UID" : "DEFAULT",
"FOLDER_PATH" : "DEFAULT",
"COMMENT_DESCRIPTION" : "lid number must match XDAQ supervisor urn",
"AUTHOR" : "rrivera",
"RECORD_INSERTION_TIME" : "1510338138"
},
{
"ICON_NAME" : "Console",
"STATUS" : "On",
"CAPTION" : "Console",
"ALTERNATE_TEXT" : "CON",
"FORCE_ONLY_ONE_INSTANCE" : "True",
"REQUIRED_PERMISSION_LEVEL" : "255",
"IMAGE_URL" : "icon-Console.png",
"WINDOW_CONTENT_URL" : "/WebPath/html/Console.html?urn=",
"LINK_TO_APPLICATION_TABLE" : "XDAQApplicationConfiguration",
"LINK_TO_APPLICATION_UID" : "ConsoleSupervisor",
"LINK_TO_PARAMETER_TABLE" : "NO_LINK",
"LINK_TO_PARAMETER_UID" : "DEFAULT",
"FOLDER_PATH" : "DEFAULT",
"COMMENT_DESCRIPTION" : "urn must match XDAQ supervisor urn",
"AUTHOR" : "rrivera",
"RECORD_INSERTION_TIME" : "1510338931"
},
{
"ICON_NAME" : "ConfigureGUI",
"STATUS" : "On",
"CAPTION" : "Configure",
"ALTERNATE_TEXT" : "CFG",
"FORCE_ONLY_ONE_INSTANCE" : "False",
"REQUIRED_PERMISSION_LEVEL" : "10",
"IMAGE_URL" : "icon-Configure.png",
"WINDOW_CONTENT_URL" : "/urn:xdaq-application:lid=",
"LINK_TO_APPLICATION_TABLE" : "XDAQApplicationConfiguration",
"LINK_TO_APPLICATION_UID" : "ConfigurationGUISupervisor",
"LINK_TO_PARAMETER_TABLE" : "NO_LINK",
"LINK_TO_PARAMETER_UID" : "DEFAULT",
"FOLDER_PATH" : "DEFAULT",
"COMMENT_DESCRIPTION" : "lid number must match XDAQ supervisor urn",
"AUTHOR" : "rrivera",
"RECORD_INSERTION_TIME" : "1510338138"
},
{
"ICON_NAME" : "FESubConfigGUI",
"STATUS" : "On",
"CAPTION" : "Front-ends",
"ALTERNATE_TEXT" : "CFG",
"FORCE_ONLY_ONE_INSTANCE" : "False",
"REQUIRED_PERMISSION_LEVEL" : "10",
"IMAGE_URL" : "icon-Configure.png",
"WINDOW_CONTENT_URL" : "/WebPath/html/ConfigurationGUI_subset.html?urn=",
"LINK_TO_APPLICATION_TABLE" : "XDAQApplicationConfiguration",
"LINK_TO_APPLICATION_UID" : "ConfigurationGUISupervisor",
"LINK_TO_PARAMETER_TABLE" : "DesktopWindowParameterConfiguration",
"LINK_TO_PARAMETER_UID" : "FE_Cfg_params",
"FOLDER_PATH" : "Config Subsets",
"COMMENT_DESCRIPTION" : "lid number must match XDAQ supervisor urn",
"AUTHOR" : "rrivera",
"RECORD_INSERTION_TIME" : "1510338138"
},
{
"ICON_NAME" : "DPSubConfigGUI",
"STATUS" : "On",
"CAPTION" : "Data Processors",
"ALTERNATE_TEXT" : "CFG",
"FORCE_ONLY_ONE_INSTANCE" : "False",
"REQUIRED_PERMISSION_LEVEL" : "10",
"IMAGE_URL" : "icon-Configure.png",
"WINDOW_CONTENT_URL" : "/WebPath/html/ConfigurationGUI_subset.html?urn=",
"LINK_TO_APPLICATION_TABLE" : "XDAQApplicationConfiguration",
"LINK_TO_APPLICATION_UID" : "ConfigurationGUISupervisor",
"LINK_TO_PARAMETER_TABLE" : "DesktopWindowParameterConfiguration",
"LINK_TO_PARAMETER_UID" : "DP_Cfg_params",
"FOLDER_PATH" : "Config Subsets",
"COMMENT_DESCRIPTION" : "Data Processors config subset",
"AUTHOR" : "rrivera",
"RECORD_INSERTION_TIME" : "1510338138"
},
{
"ICON_NAME" : "ControlsDashboard",
"STATUS" : "Off",
"CAPTION" : "Controls Dashboard",
"ALTERNATE_TEXT" : "CTRLS",
"FORCE_ONLY_ONE_INSTANCE" : "False",
"REQUIRED_PERMISSION_LEVEL" : "1",
"IMAGE_URL" : "icon-ControlsDashboard.png",
"WINDOW_CONTENT_URL" : "/WebPath/html/SlowControlsDashboard.html?urn=",
"LINK_TO_APPLICATION_TABLE" : "XDAQApplicationConfiguration",
"LINK_TO_APPLICATION_UID" : "ControlsDashboardSupervisor",
"LINK_TO_PARAMETER_TABLE" : "NO_LINK",
"LINK_TO_PARAMETER_UID" : "DEFAULT",
"FOLDER_PATH" : "DEFAULT",
"COMMENT_DESCRIPTION" : "urn must match XDAQ supervisor urn",
"AUTHOR" : "rrivera",
"RECORD_INSERTION_TIME" : "1510338138"
},
{
"ICON_NAME" : "NOvALog",
"STATUS" : "Off",
"CAPTION" : "NOvA Log",
"ALTERNATE_TEXT" : "NOVA",
"FORCE_ONLY_ONE_INSTANCE" : "True",
"REQUIRED_PERMISSION_LEVEL" : "1",
"IMAGE_URL" : "0",
"WINDOW_CONTENT_URL" : "http://dbweb6.fnal.gov:8080/ECL/nova/E/index",
"LINK_TO_APPLICATION_TABLE" : "NO_LINK",
"LINK_TO_APPLICATION_UID" : "DEFAULT",
"LINK_TO_PARAMETER_TABLE" : "NO_LINK",
"LINK_TO_PARAMETER_UID" : "DEFAULT",
"FOLDER_PATH" : "DEFAULT",
"COMMENT_DESCRIPTION" : "0 means use ALT for icon",
"AUTHOR" : "rrivera",
"RECORD_INSERTION_TIME" : "1510338138"
},
{
"ICON_NAME" : "FEMacroTest",
"STATUS" : "Off",
"CAPTION" : "FE Macro Test",
"ALTERNATE_TEXT" : "FE-Mac",
"FORCE_ONLY_ONE_INSTANCE" : "True",
"REQUIRED_PERMISSION_LEVEL" : "1",
"IMAGE_URL" : "0",
"WINDOW_CONTENT_URL" : "/WebPath/html/FEMacroTest.html?urn=",
"LINK_TO_APPLICATION_TABLE" : "XDAQApplicationConfiguration",
"LINK_TO_APPLICATION_UID" : "MacroMakerSupervisor",
"LINK_TO_PARAMETER_TABLE" : "NO_LINK",
"LINK_TO_PARAMETER_UID" : "DEFAULT",
"FOLDER_PATH" : "DEFAULT",
"COMMENT_DESCRIPTION" : "lid number must match XDAQ supervisor urn",
"AUTHOR" : "rrivera",
"RECORD_INSERTION_TIME" : "1510338931"
},
{
"ICON_NAME" : "NIMPlus",
"STATUS" : "On",
"CAPTION" : "NIM+",
"ALTERNATE_TEXT" : "NIM+",
"FORCE_ONLY_ONE_INSTANCE" : "False",
"REQUIRED_PERMISSION_LEVEL" : "1",
"IMAGE_URL" : "icon-Configure.png",
"WINDOW_CONTENT_URL" : "/WebPath/NimPlusWebPath/html/NimPlus_app.html",
"LINK_TO_APPLICATION_TABLE" : "XDAQApplicationConfiguration",
"LINK_TO_APPLICATION_UID" : "ConfigurationGUISupervisor",
"LINK_TO_PARAMETER_TABLE" : "NO_LINK",
"LINK_TO_PARAMETER_UID" : "DEFAULT",
"FOLDER_PATH" : "Config Subsets",
"COMMENT_DESCRIPTION" : "Ben's NIM+ web app",
"AUTHOR" : "rrivera",
"RECORD_INSERTION_TIME" : "1510339093"
},
{
"ICON_NAME" : "AcceleratorStatus",
"STATUS" : "On",
"CAPTION" : "Status",
"ALTERNATE_TEXT" : "Accelerator",
"FORCE_ONLY_ONE_INSTANCE" : "True",
"REQUIRED_PERMISSION_LEVEL" : "1",
"IMAGE_URL" : "0",
"WINDOW_CONTENT_URL" : "http://www-bd.fnal.gov/notifyservlet/www?project=&refresh=on&infolinks=top",
"LINK_TO_APPLICATION_TABLE" : "NO_LINK",
"LINK_TO_APPLICATION_UID" : "DEFAULT",
"LINK_TO_PARAMETER_TABLE" : "NO_LINK",
"LINK_TO_PARAMETER_UID" : "DEFAULT",
"FOLDER_PATH" : "FTBF Extras",
"COMMENT_DESCRIPTION" : "Link to FNAL accelerator status.",
"AUTHOR" : "rrivera",
"RECORD_INSERTION_TIME" : "1510339029"
},
{
"ICON_NAME" : "AccLogbook",
"STATUS" : "On",
"CAPTION" : "Elog",
"ALTERNATE_TEXT" : "Accelerator",
"FORCE_ONLY_ONE_INSTANCE" : "False",
"REQUIRED_PERMISSION_LEVEL" : "1",
"IMAGE_URL" : "0",
"WINDOW_CONTENT_URL" : "https://www-bd.fnal.gov/Elog/?orLogName=Operations",
"LINK_TO_APPLICATION_TABLE" : "NO_LINK",
"LINK_TO_APPLICATION_UID" : "DEFAULT",
"LINK_TO_PARAMETER_TABLE" : "NO_LINK",
"LINK_TO_PARAMETER_UID" : "DEFAULT",
"FOLDER_PATH" : "FTBF Extras",
"COMMENT_DESCRIPTION" : "Link to FNAL accelerator elog.",
"AUTHOR" : "rrivera",
"RECORD_INSERTION_TIME" : "1510339029"
},
{
"ICON_NAME" : "FTBFLogbook",
"STATUS" : "On",
"CAPTION" : "Elog",
"ALTERNATE_TEXT" : "FTBF",
"FORCE_ONLY_ONE_INSTANCE" : "False",
"REQUIRED_PERMISSION_LEVEL" : "1",
"IMAGE_URL" : "0",
"WINDOW_CONTENT_URL" : "http://dbweb6.fnal.gov:8080/ECL/test_beam/E/index",
"LINK_TO_APPLICATION_TABLE" : "NO_LINK",
"LINK_TO_APPLICATION_UID" : "DEFAULT",
"LINK_TO_PARAMETER_TABLE" : "NO_LINK",
"LINK_TO_PARAMETER_UID" : "DEFAULT",
"FOLDER_PATH" : "FTBF Extras",
"COMMENT_DESCRIPTION" : "Link to FNAL test beam elog.",
"AUTHOR" : "rrivera",
"RECORD_INSERTION_TIME" : "1510339029"
},
{
"ICON_NAME" : "FTBFStatus",
"STATUS" : "On",
"CAPTION" : "Status",
"ALTERNATE_TEXT" : "FTBF",
"FORCE_ONLY_ONE_INSTANCE" : "False",
"REQUIRED_PERMISSION_LEVEL" : "1",
"IMAGE_URL" : "0",
"WINDOW_CONTENT_URL" : "https://www-bd.fnal.gov/synoptic/display/MTest/FTBF_Status",
"LINK_TO_APPLICATION_TABLE" : "NO_LINK",
"LINK_TO_APPLICATION_UID" : "DEFAULT",
"LINK_TO_PARAMETER_TABLE" : "NO_LINK",
"LINK_TO_PARAMETER_UID" : "DEFAULT",
"FOLDER_PATH" : "FTBF Extras",
"COMMENT_DESCRIPTION" : "No Comment",
"AUTHOR" : "rrivera",
"RECORD_INSERTION_TIME" : "1510680076"
},
{
"ICON_NAME" : "SmartLaunch",
"STATUS" : "On",
"CAPTION" : "Smart Launch",
"ALTERNATE_TEXT" : "LAUNCH",
"FORCE_ONLY_ONE_INSTANCE" : "True",
"REQUIRED_PERMISSION_LEVEL" : "255",
"IMAGE_URL" : "/WebPath/FTBFWebPath/images/icon-Rocket.png",
"WINDOW_CONTENT_URL" : "/WebPath/FTBFWebPath/html/SmartLaunch.html",
"LINK_TO_APPLICATION_TABLE" : "XDAQApplicationConfiguration",
"LINK_TO_APPLICATION_UID" : "ConfigurationGUISupervisor",
"LINK_TO_PARAMETER_TABLE" : "NO_LINK",
"LINK_TO_PARAMETER_UID" : "DEFAULT",
"FOLDER_PATH" : "DEFAULT",
"COMMENT_DESCRIPTION" : "Smart Launch web app",
"AUTHOR" : "rrivera",
"RECORD_INSERTION_TIME" : "1510680076"
},
{
"ICON_NAME" : "DTC Supervisor",
"STATUS" : "On",
"CAPTION" : "DTC Supervisor",
"ALTERNATE_TEXT" : "OT",
"FORCE_ONLY_ONE_INSTANCE" : "True",
"REQUIRED_PERMISSION_LEVEL" : "1",
"IMAGE_URL" : "0",
"WINDOW_CONTENT_URL" : "http://ftbftracker02.fnal.gov:2020/urn:xdaq-application:lid=51/MainPage",
"LINK_TO_APPLICATION_TABLE" : "NO_LINK",
"LINK_TO_APPLICATION_UID" : "DEFAULT",
"LINK_TO_PARAMETER_TABLE" : "NO_LINK",
"LINK_TO_PARAMETER_UID" : "DEFAULT",
"FOLDER_PATH" : "FTBF Extras",
"COMMENT_DESCRIPTION" : "No Comment",
"AUTHOR" : "admin",
"RECORD_INSERTION_TIME" : "1512058336"
}
]
},
"metadata" : {

},
"search" : [

]
},
"comments" : [

],
"origin" : {
"source" : "template",
"name" : "notprovided",
"format" : "json",
"created" : "2017-11-30T10:12:16.547-0600",
"rawdata" : [

]
},
"version" : "10",
"entities" : [
{
"name" : "OTSROOT",
"assigned" : "2017-11-30T10:12:16.555-0600"
}
],
"configurations" : [
{
"name" : "notprovided",
"assigned" : "2017-11-30T10:12:16.550-0600"
},
{
"name" : "FTBFContext_v40",
"assigned" : "2017-11-30T10:12:19.167-0600"
},
{
"name" : "FTBFContext_v41",
"assigned" : "2017-12-01T15:35:08.993-0600"
},
{
"name" : "FTBFContext_v42",
"assigned" : "2017-12-01T15:41:37.441-0600"
},
{
"name" : "FTBFContext_v44",
"assigned" : "2017-12-01T17:07:56.213-0600"
},
{
"name" : "FTBFContext_v45",
"assigned" : "2017-12-01T17:10:13.595-0600"
},
{
"name" : "FTBFContext_v46",
"assigned" : "2017-12-01T18:00:43.115-0600"
},
{
"name" : "FTBFContext_v47",
"assigned" : "2017-12-01T19:52:08.810-0600"
},
{
"name" : "FTBFContext_v48",
"assigned" : "2017-12-02T14:47:39.282-0600"
},
{
"name" : "FTBFContext_v49",
"assigned" : "2017-12-02T14:48:22.425-0600"
},
{
"name" : "FTBFContext_v50",
"assigned" : "2017-12-02T18:54:54.134-0600"
},
{
"name" : "FTBFContext_v51",
"assigned" : "2017-12-02T19:09:29.479-0600"
},
{
"name" : "FTBFContext_v52",
"assigned" : "2017-12-03T12:01:07.136-0600"
},
{
"name" : "FTBFContext_v53",
"assigned" : "2017-12-04T16:40:49.579-0600"
},
{
"name" : "FTBFContext_v54",
"assigned" : "2018-02-03T03:00:35.724-0600"
}
],
"changelog" : "notprovided",
"bookkeeping" : {
"isdeleted" : false,
"isreadonly" : false,
"updates" : [
{
"event" : "addConfiguration",
"timestamp" : "2017-11-30T10:12:16.550-0600",
"value" : {
"name" : "notprovided",
"assigned" : "2017-11-30T10:12:16.550-0600"
}
},
{
"event" : "setVersion",
"timestamp" : "2017-11-30T10:12:16.552-0600",
"value" : {
"name" : "10",
"assigned" : "2017-11-30T10:12:16.552-0600"
}
},
{
"event" : "setCollection",
"timestamp" : "2017-11-30T10:12:16.553-0600",
"value" : {
"name" : "DesktopIconConfiguration",
"assigned" : "2017-11-30T10:12:16.553-0600"
}
},
{
"event" : "addEntity",
"timestamp" : "2017-11-30T10:12:16.555-0600",
"value" : {
"name" : "OTSROOT",
"assigned" : "2017-11-30T10:12:16.555-0600"
}
},
{
"event" : "addConfiguration",
"timestamp" : "2017-11-30T10:12:19.167-0600",
"value" : {
"name" : "FTBFContext_v40",
"assigned" : "2017-11-30T10:12:19.167-0600"
}
},
{
"event" : "addConfiguration",
"timestamp" : "2017-12-01T15:35:08.994-0600",
"value" : {
"name" : "FTBFContext_v41",
"assigned" : "2017-12-01T15:35:08.993-0600"
}
},
{
"event" : "addConfiguration",
"timestamp" : "2017-12-01T15:41:37.441-0600",
"value" : {
"name" : "FTBFContext_v42",
"assigned" : "2017-12-01T15:41:37.441-0600"
}
},
{
"event" : "addConfiguration",
"timestamp" : "2017-12-01T17:07:56.213-0600",
"value" : {
"name" : "FTBFContext_v44",
"assigned" : "2017-12-01T17:07:56.213-0600"
}
},
{
"event" : "addConfiguration",
"timestamp" : "2017-12-01T17:10:13.595-0600",
"value" : {
"name" : "FTBFContext_v45",
"assigned" : "2017-12-01T17:10:13.595-0600"
}
},
{
"event" : "addConfiguration",
"timestamp" : "2017-12-01T18:00:43.116-0600",
"value" : {
"name" : "FTBFContext_v46",
"assigned" : "2017-12-01T18:00:43.115-0600"
}
},
{
"event" : "addConfiguration",
"timestamp" : "2017-12-01T19:52:08.811-0600",
"value" : {
"name" : "FTBFContext_v47",
"assigned" : "2017-12-01T19:52:08.810-0600"
}
},
{
"event" : "addConfiguration",
"timestamp" : "2017-12-02T14:47:39.282-0600",
"value" : {
"name" : "FTBFContext_v48",
"assigned" : "2017-12-02T14:47:39.282-0600"
}
},
{
"event" : "addConfiguration",
"timestamp" : "2017-12-02T14:48:22.425-0600",
"value" : {
"name" : "FTBFContext_v49",
"assigned" : "2017-12-02T14:48:22.425-0600"
}
},
{
"event" : "addConfiguration",
"timestamp" : "2017-12-02T18:54:54.134-0600",
"value" : {
"name" : "FTBFContext_v50",
"assigned" : "2017-12-02T18:54:54.134-0600"
}
},
{
"event" : "addConfiguration",
"timestamp" : "2017-12-02T19:09:29.479-0600",
"value" : {
"name" : "FTBFContext_v51",
"assigned" : "2017-12-02T19:09:29.479-0600"
}
},
{
"event" : "addConfiguration",
"timestamp" : "2017-12-03T12:01:07.136-0600",
"value" : {
"name" : "FTBFContext_v52",
"assigned" : "2017-12-03T12:01:07.136-0600"
}
},
{
"event" : "addConfiguration",
"timestamp" : "2017-12-04T16:40:49.579-0600",
"value" : {
"name" : "FTBFContext_v53",
"assigned" : "2017-12-04T16:40:49.579-0600"
}
},
{
"event" : "addConfiguration",
"timestamp" : "2018-02-03T03:00:35.724-0600",
"value" : {
"name" : "FTBFContext_v54",
"assigned" : "2018-02-03T03:00:35.724-0600"
}
}
],
"created" : "2017-11-30T10:12:16.547-0600"
},
"_id" : {
"$oid" : "860ff2494d994b10ab52476f"
},
"collection" : "DesktopIconConfiguration",
"aliases" : {
"active" : [

],
"history" : [

]
},
"runs" : [

],
"attachments" : [

],
"configtype" : "notprovided"
}