{
"ouid" : [
"07fe21ebcf21417eb78e4f2c",
"4507115690af477ebeb61f8a"
],
"version" : {
"0" : [
"4507115690af477ebeb61f8a"
],
"1" : [
"07fe21ebcf21417eb78e4f2c"
]
},
"configurations.name" : {
"notprovided" : [
"07fe21ebcf21417eb78e4f2c",
"4507115690af477ebeb61f8a"
],
"FTBFConfig_v0" : [
"4507115690af477ebeb61f8a"
],
"FTBFConfig_v1" : [
"4507115690af477ebeb61f8a"
],
"FTBFConfig_v2" : [
"4507115690af477ebeb61f8a"
],
"FTBFConfig_v3" : [
"4507115690af477ebeb61f8a"
],
"FTBFConfig_v4" : [
"4507115690af477ebeb61f8a"
],
"FTBFConfig_v5" : [
"4507115690af477ebeb61f8a"
],
"FTBFConfig_v6" : [
"4507115690af477ebeb61f8a"
],
"FTBFConfig_v7" : [
"4507115690af477ebeb61f8a"
],
"FTBFConfig_v8" : [
"4507115690af477ebeb61f8a"
],
"FTBFConfig_v9" : [
"4507115690af477ebeb61f8a"
],
"FTBFConfig_v10" : [
"4507115690af477ebeb61f8a"
],
"FTBFConfig_v11" : [
"4507115690af477ebeb61f8a"
],
"FTBFConfig_v12" : [
"4507115690af477ebeb61f8a"
],
"FTBFConfig_v13" : [
"4507115690af477ebeb61f8a"
],
"FTBFConfig_v14" : [
"4507115690af477ebeb61f8a"
],
"FTBFConfig_v15" : [
"4507115690af477ebeb61f8a"
],
"FTBFConfig_v16" : [
"4507115690af477ebeb61f8a"
],
"FTBFConfig_v17" : [
"4507115690af477ebeb61f8a"
],
"FTBFConfig_v18" : [
"4507115690af477ebeb61f8a"
],
"FTBFConfig_v19" : [
"4507115690af477ebeb61f8a"
],
"FTBFConfig_v20" : [
"4507115690af477ebeb61f8a"
],
"FTBFConfig_v21" : [
"4507115690af477ebeb61f8a"
],
"FTBFConfig_v22" : [
"4507115690af477ebeb61f8a"
],
"FTBFConfig_v23" : [
"4507115690af477ebeb61f8a"
],
"FTBFConfig_v24" : [
"4507115690af477ebeb61f8a"
],
"FTBFConfig_v25" : [
"4507115690af477ebeb61f8a"
],
"FTBFConfig_v26" : [
"4507115690af477ebeb61f8a"
],
"FTBFConfig_v27" : [
"4507115690af477ebeb61f8a"
],
"FTBFConfig_v28" : [
"4507115690af477ebeb61f8a"
],
"FTBFConfig_v29" : [
"4507115690af477ebeb61f8a"
],
"FTBFConfig_v30" : [
"4507115690af477ebeb61f8a"
],
"FTBFConfig_v31" : [
"4507115690af477ebeb61f8a"
],
"FTBFConfig_v32" : [
"4507115690af477ebeb61f8a"
],
"FTBFConfig_v33" : [
"4507115690af477ebeb61f8a"
],
"FTBFConfig_v34" : [
"4507115690af477ebeb61f8a"
],
"FTBFConfig_v35" : [
"4507115690af477ebeb61f8a"
],
"FTBFConfig_v36" : [
"4507115690af477ebeb61f8a"
],
"FTBFConfig_v37" : [
"4507115690af477ebeb61f8a"
],
"FTBFConfig_v38" : [
"4507115690af477ebeb61f8a"
],
"FTBFConfig_v39" : [
"4507115690af477ebeb61f8a"
],
"FTBFConfig_v40" : [
"4507115690af477ebeb61f8a"
],
"FTBFConfig_v41" : [
"4507115690af477ebeb61f8a"
],
"FTBFConfig_v42" : [
"4507115690af477ebeb61f8a"
],
"FTBFConfig_v43" : [
"4507115690af477ebeb61f8a"
],
"FTBFConfig_v44" : [
"4507115690af477ebeb61f8a"
],
"FTBFConfig_v45" : [
"4507115690af477ebeb61f8a"
],
"FTBFConfig_v46" : [
"4507115690af477ebeb61f8a"
],
"FTBFConfig_v47" : [
"4507115690af477ebeb61f8a"
],
"FTBFConfig_v48" : [
"4507115690af477ebeb61f8a"
],
"FTBFConfig_v49" : [
"4507115690af477ebeb61f8a"
],
"FTBFConfig_v52" : [
"4507115690af477ebeb61f8a"
],
"FTBFConfig_v53" : [
"4507115690af477ebeb61f8a"
],
"FTBFConfig_v54" : [
"4507115690af477ebeb61f8a"
],
"FTBFConfig_v55" : [
"4507115690af477ebeb61f8a"
],
"FTBFConfig_v56" : [
"4507115690af477ebeb61f8a"
],
"FTBFConfig_v57" : [
"4507115690af477ebeb61f8a"
],
"FTBFConfig_v58" : [
"4507115690af477ebeb61f8a"
],
"FTBFConfig_v59" : [
"4507115690af477ebeb61f8a"
],
"FTBFConfig_v60" : [
"4507115690af477ebeb61f8a"
],
"FTBFConfig_v61" : [
"4507115690af477ebeb61f8a"
],
"FTBFConfig_v62" : [
"4507115690af477ebeb61f8a"
],
"FTBFConfig_v63" : [
"4507115690af477ebeb61f8a"
],
"FTBFConfig_v64" : [
"4507115690af477ebeb61f8a"
],
"FTBFConfig_v65" : [
"4507115690af477ebeb61f8a"
],
"FTBFConfig_v66" : [
"4507115690af477ebeb61f8a"
],
"FTBFConfig_v67" : [
"4507115690af477ebeb61f8a"
],
"FTBFConfig_v68" : [
"4507115690af477ebeb61f8a"
],
"FTBFConfig_v69" : [
"4507115690af477ebeb61f8a"
],
"FTBFConfig_v70" : [
"4507115690af477ebeb61f8a"
],
"FTBFConfigNim_v0" : [
"4507115690af477ebeb61f8a"
],
"FTBFConfigNim_v1" : [
"4507115690af477ebeb61f8a"
],
"FTBFConfigNim_v2" : [
"4507115690af477ebeb61f8a"
],
"FTBFConfigNim_v3" : [
"4507115690af477ebeb61f8a"
],
"FTBFConfigNim_v4" : [
"4507115690af477ebeb61f8a"
],
"FTBFConfigNim_v5" : [
"4507115690af477ebeb61f8a"
],
"FTBFConfigNim_v6" : [
"4507115690af477ebeb61f8a"
],
"FTBFConfigNim_v7" : [
"4507115690af477ebeb61f8a"
],
"FTBFConfigNim_v8" : [
"4507115690af477ebeb61f8a"
],
"FTBFConfigNim_v9" : [
"4507115690af477ebeb61f8a"
],
"FTBFConfigNim_v10" : [
"4507115690af477ebeb61f8a"
],
"FTBFConfigNim_v11" : [
"4507115690af477ebeb61f8a"
],
"FTBFConfigNim_v12" : [
"4507115690af477ebeb61f8a"
],
"FTBFConfigNim_v13" : [
"4507115690af477ebeb61f8a"
],
"FTBFConfigNim_v14" : [
"4507115690af477ebeb61f8a"
],
"FTBFConfigNim_v15" : [
"4507115690af477ebeb61f8a"
],
"FTBFConfigNim_v16" : [
"4507115690af477ebeb61f8a"
],
"FTBFConfigNim_v17" : [
"4507115690af477ebeb61f8a"
],
"FTBFConfigNim_v18" : [
"4507115690af477ebeb61f8a"
],
"FTBFConfigNim_v19" : [
"4507115690af477ebeb61f8a"
],
"FTBFConfigNim_v20" : [
"4507115690af477ebeb61f8a"
],
"FTBFConfigNim_v21" : [
"4507115690af477ebeb61f8a"
],
"FTBFConfigNim_v22" : [
"4507115690af477ebeb61f8a"
],
"FTBFConfigNim_v23" : [
"4507115690af477ebeb61f8a"
],
"FTBFConfigNim_v24" : [
"4507115690af477ebeb61f8a"
],
"FTBFConfigNim_v25" : [
"4507115690af477ebeb61f8a"
],
"FTBFConfigNim_v26" : [
"4507115690af477ebeb61f8a"
],
"FTBFConfigNim_v27" : [
"4507115690af477ebeb61f8a"
],
"FTBFConfigNim_v28" : [
"4507115690af477ebeb61f8a"
],
"FTBFConfigNim_v29" : [
"4507115690af477ebeb61f8a"
],
"FTBFConfig_v71" : [
"4507115690af477ebeb61f8a"
],
"FTBFConfig_v72" : [
"4507115690af477ebeb61f8a"
],
"FTBFConfig_v73" : [
"4507115690af477ebeb61f8a"
],
"FTBFConfig_v75" : [
"4507115690af477ebeb61f8a"
],
"FTBFConfig_v76" : [
"07fe21ebcf21417eb78e4f2c"
],
"FTBFConfig_v77" : [
"07fe21ebcf21417eb78e4f2c"
],
"FTBFConfig_v78" : [
"07fe21ebcf21417eb78e4f2c"
],
"FTBFConfig_v79" : [
"07fe21ebcf21417eb78e4f2c"
],
"FTBFConfig_v80" : [
"07fe21ebcf21417eb78e4f2c"
],
"FTBFConfig_v81" : [
"07fe21ebcf21417eb78e4f2c"
],
"FTBFConfig_v82" : [
"07fe21ebcf21417eb78e4f2c"
],
"FTBFConfig_v83" : [
"07fe21ebcf21417eb78e4f2c"
],
"FTBFConfig_v84" : [
"07fe21ebcf21417eb78e4f2c"
],
"FTBFConfig_v85" : [
"07fe21ebcf21417eb78e4f2c"
],
"FTBFConfig_v86" : [
"07fe21ebcf21417eb78e4f2c"
],
"FTBFConfig_v87" : [
"07fe21ebcf21417eb78e4f2c"
],
"FTBFConfig_v88" : [
"07fe21ebcf21417eb78e4f2c"
],
"FTBFConfig_v89" : [
"07fe21ebcf21417eb78e4f2c"
],
"FTBFConfig_v90" : [
"07fe21ebcf21417eb78e4f2c"
],
"FTBFConfig_v91" : [
"07fe21ebcf21417eb78e4f2c"
],
"FTBFConfig_v92" : [
"07fe21ebcf21417eb78e4f2c"
],
"FTBFConfig_v93" : [
"07fe21ebcf21417eb78e4f2c"
],
"FTBFConfig_v94" : [
"07fe21ebcf21417eb78e4f2c"
],
"FTBFConfig_v95" : [
"07fe21ebcf21417eb78e4f2c"
],
"FTBFConfig_v96" : [
"07fe21ebcf21417eb78e4f2c"
],
"FTBFConfig_v97" : [
"07fe21ebcf21417eb78e4f2c"
],
"FTBFConfig_v98" : [
"07fe21ebcf21417eb78e4f2c"
],
"FTBFConfig_v99" : [
"07fe21ebcf21417eb78e4f2c"
],
"FTBFConfig_v100" : [
"07fe21ebcf21417eb78e4f2c"
],
"FTBFConfig_v101" : [
"07fe21ebcf21417eb78e4f2c"
],
"FTBFConfig_v102" : [
"07fe21ebcf21417eb78e4f2c"
],
"FTBFConfig_v103" : [
"07fe21ebcf21417eb78e4f2c"
],
"FTBFConfig_v104" : [
"07fe21ebcf21417eb78e4f2c"
],
"FTBFConfig_v105" : [
"07fe21ebcf21417eb78e4f2c"
],
"FTBFConfig_v106" : [
"07fe21ebcf21417eb78e4f2c"
],
"FTBFConfig_v107" : [
"07fe21ebcf21417eb78e4f2c"
],
"FTBFConfig_v108" : [
"07fe21ebcf21417eb78e4f2c"
],
"FTBFConfig_v109" : [
"07fe21ebcf21417eb78e4f2c"
],
"FTBFConfig_v110" : [
"07fe21ebcf21417eb78e4f2c"
],
"FTBFConfig_v111" : [
"07fe21ebcf21417eb78e4f2c"
],
"FTBFConfig_v112" : [
"07fe21ebcf21417eb78e4f2c"
],
"FTBFConfig_v113" : [
"07fe21ebcf21417eb78e4f2c"
],
"FTBFConfig_v114" : [
"07fe21ebcf21417eb78e4f2c"
],
"FTBFConfig_v115" : [
"07fe21ebcf21417eb78e4f2c"
],
"FTBFConfig_v116" : [
"07fe21ebcf21417eb78e4f2c"
],
"FTBFConfig_v117" : [
"07fe21ebcf21417eb78e4f2c"
],
"FTBFConfig_v118" : [
"07fe21ebcf21417eb78e4f2c"
],
"FTBFConfig_v119" : [
"07fe21ebcf21417eb78e4f2c"
],
"FTBFConfig_v120" : [
"07fe21ebcf21417eb78e4f2c"
],
"FTBFConfig_v121" : [
"07fe21ebcf21417eb78e4f2c"
],
"FTBFConfig_v122" : [
"07fe21ebcf21417eb78e4f2c"
],
"FTBFConfig_v123" : [
"07fe21ebcf21417eb78e4f2c"
],
"FTBFConfig_v124" : [
"07fe21ebcf21417eb78e4f2c"
],
"FTBFConfig_v125" : [
"07fe21ebcf21417eb78e4f2c"
],
"FTBFConfig_v126" : [
"07fe21ebcf21417eb78e4f2c"
],
"FTBFConfig_v127" : [
"07fe21ebcf21417eb78e4f2c"
],
"FTBFConfig_v128" : [
"07fe21ebcf21417eb78e4f2c"
],
"FTBFConfig_v129" : [
"07fe21ebcf21417eb78e4f2c"
],
"FTBFConfig_v130" : [
"07fe21ebcf21417eb78e4f2c"
],
"FTBFConfig_v131" : [
"07fe21ebcf21417eb78e4f2c"
],
"FTBFConfig_v132" : [
"07fe21ebcf21417eb78e4f2c"
],
"FTBFConfig_v133" : [
"07fe21ebcf21417eb78e4f2c"
],
"FTBFConfig_v134" : [
"07fe21ebcf21417eb78e4f2c"
],
"FTBFConfig_v135" : [
"07fe21ebcf21417eb78e4f2c"
],
"FTBFConfig_v136" : [
"07fe21ebcf21417eb78e4f2c"
],
"FTBFConfig_v137" : [
"07fe21ebcf21417eb78e4f2c"
],
"FTBFConfig_v138" : [
"07fe21ebcf21417eb78e4f2c"
],
"FTBFConfig_v139" : [
"07fe21ebcf21417eb78e4f2c"
],
"FTBFConfig_v140" : [
"07fe21ebcf21417eb78e4f2c"
],
"FTBFConfig_v141" : [
"07fe21ebcf21417eb78e4f2c"
],
"FTBFConfig_v142" : [
"07fe21ebcf21417eb78e4f2c"
]
},
"entities.name" : {
"OTSROOT" : [
"07fe21ebcf21417eb78e4f2c",
"4507115690af477ebeb61f8a"
]
},
"aliases.active.name" : {

},
"runs.name" : {

},
"configurations.assigned" : {
"notprovided" : [
"2017-11-08T15:56:03.966-0600",
"2017-12-02T18:56:42.224-0600"
],
"FTBFConfig_v0" : [
"2017-11-08T15:56:06.939-0600"
],
"FTBFConfig_v1" : [
"2017-11-09T09:56:31.728-0600"
],
"FTBFConfig_v2" : [
"2017-11-09T10:06:00.714-0600"
],
"FTBFConfig_v3" : [
"2017-11-09T10:37:12.292-0600"
],
"FTBFConfig_v4" : [
"2017-11-15T11:30:11.143-0600"
],
"FTBFConfig_v5" : [
"2017-11-15T11:54:57.981-0600"
],
"FTBFConfig_v6" : [
"2017-11-15T11:57:50.609-0600"
],
"FTBFConfig_v7" : [
"2017-11-15T12:42:33.065-0600"
],
"FTBFConfig_v8" : [
"2017-11-15T13:01:04.096-0600"
],
"FTBFConfig_v9" : [
"2017-11-15T13:02:57.459-0600"
],
"FTBFConfig_v10" : [
"2017-11-15T13:04:25.050-0600"
],
"FTBFConfig_v11" : [
"2017-11-15T13:07:52.555-0600"
],
"FTBFConfig_v12" : [
"2017-11-15T13:12:00.028-0600"
],
"FTBFConfig_v13" : [
"2017-11-15T13:13:53.986-0600"
],
"FTBFConfig_v14" : [
"2017-11-15T13:27:33.267-0600"
],
"FTBFConfig_v15" : [
"2017-11-15T13:35:48.002-0600"
],
"FTBFConfig_v16" : [
"2017-11-15T13:36:52.605-0600"
],
"FTBFConfig_v17" : [
"2017-11-15T15:33:31.170-0600"
],
"FTBFConfig_v18" : [
"2017-11-15T15:35:34.787-0600"
],
"FTBFConfig_v19" : [
"2017-11-15T15:38:03.655-0600"
],
"FTBFConfig_v20" : [
"2017-11-15T16:26:31.633-0600"
],
"FTBFConfig_v21" : [
"2017-11-16T09:22:32.478-0600"
],
"FTBFConfig_v22" : [
"2017-11-17T10:23:28.699-0600"
],
"FTBFConfig_v23" : [
"2017-11-17T17:26:46.313-0600"
],
"FTBFConfig_v24" : [
"2017-11-17T17:58:26.874-0600"
],
"FTBFConfig_v25" : [
"2017-11-17T18:24:46.546-0600"
],
"FTBFConfig_v26" : [
"2017-11-17T18:32:24.412-0600"
],
"FTBFConfig_v27" : [
"2017-11-17T18:43:31.530-0600"
],
"FTBFConfig_v28" : [
"2017-11-17T18:48:33.661-0600"
],
"FTBFConfig_v29" : [
"2017-11-20T14:48:31.984-0600"
],
"FTBFConfig_v30" : [
"2017-11-20T15:39:57.042-0600"
],
"FTBFConfig_v31" : [
"2017-11-20T16:41:03.087-0600"
],
"FTBFConfig_v32" : [
"2017-11-20T18:55:36.032-0600"
],
"FTBFConfig_v33" : [
"2017-11-20T18:57:31.348-0600"
],
"FTBFConfig_v34" : [
"2017-11-29T17:50:40.804-0600"
],
"FTBFConfig_v35" : [
"2017-11-29T18:00:33.768-0600"
],
"FTBFConfig_v36" : [
"2017-11-29T18:35:12.472-0600"
],
"FTBFConfig_v37" : [
"2017-12-01T09:36:19.300-0600"
],
"FTBFConfig_v38" : [
"2017-12-01T09:52:02.257-0600"
],
"FTBFConfig_v39" : [
"2017-12-01T11:51:59.524-0600"
],
"FTBFConfig_v40" : [
"2017-12-01T12:18:21.653-0600"
],
"FTBFConfig_v41" : [
"2017-12-01T12:21:03.640-0600"
],
"FTBFConfig_v42" : [
"2017-12-01T12:43:23.092-0600"
],
"FTBFConfig_v43" : [
"2017-12-01T12:58:00.996-0600"
],
"FTBFConfig_v44" : [
"2017-12-01T13:00:53.535-0600"
],
"FTBFConfig_v45" : [
"2017-12-01T13:25:50.081-0600"
],
"FTBFConfig_v46" : [
"2017-12-01T13:35:44.919-0600"
],
"FTBFConfig_v47" : [
"2017-12-01T14:00:53.085-0600"
],
"FTBFConfig_v48" : [
"2017-12-01T14:04:00.447-0600"
],
"FTBFConfig_v49" : [
"2017-12-01T15:32:00.622-0600"
],
"FTBFConfig_v52" : [
"2017-12-01T15:37:33.476-0600"
],
"FTBFConfig_v53" : [
"2017-12-01T15:41:00.148-0600"
],
"FTBFConfig_v54" : [
"2017-12-01T15:52:50.448-0600"
],
"FTBFConfig_v55" : [
"2017-12-01T15:54:35.628-0600"
],
"FTBFConfig_v56" : [
"2017-12-01T15:55:35.215-0600"
],
"FTBFConfig_v57" : [
"2017-12-01T15:56:41.063-0600"
],
"FTBFConfig_v58" : [
"2017-12-01T15:57:39.157-0600"
],
"FTBFConfig_v59" : [
"2017-12-01T15:58:31.021-0600"
],
"FTBFConfig_v60" : [
"2017-12-01T15:59:32.258-0600"
],
"FTBFConfig_v61" : [
"2017-12-01T16:19:42.093-0600"
],
"FTBFConfig_v62" : [
"2017-12-01T16:22:04.555-0600"
],
"FTBFConfig_v63" : [
"2017-12-01T16:31:25.211-0600"
],
"FTBFConfig_v64" : [
"2017-12-01T17:06:32.549-0600"
],
"FTBFConfig_v65" : [
"2017-12-01T17:32:44.764-0600"
],
"FTBFConfig_v66" : [
"2017-12-01T20:38:51.089-0600"
],
"FTBFConfig_v67" : [
"2017-12-01T21:25:02.442-0600"
],
"FTBFConfig_v68" : [
"2017-12-01T21:43:02.144-0600"
],
"FTBFConfig_v69" : [
"2017-12-01T21:45:00.721-0600"
],
"FTBFConfig_v70" : [
"2017-12-01T21:59:20.031-0600"
],
"FTBFConfigNim_v0" : [
"2017-12-01T22:00:06.764-0600"
],
"FTBFConfigNim_v1" : [
"2017-12-01T22:13:08.550-0600"
],
"FTBFConfigNim_v2" : [
"2017-12-01T22:15:55.768-0600"
],
"FTBFConfigNim_v3" : [
"2017-12-01T22:17:04.340-0600"
],
"FTBFConfigNim_v4" : [
"2017-12-01T22:19:06.868-0600"
],
"FTBFConfigNim_v5" : [
"2017-12-01T22:21:57.648-0600"
],
"FTBFConfigNim_v6" : [
"2017-12-01T22:23:15.970-0600"
],
"FTBFConfigNim_v7" : [
"2017-12-01T22:25:17.639-0600"
],
"FTBFConfigNim_v8" : [
"2017-12-01T22:27:05.318-0600"
],
"FTBFConfigNim_v9" : [
"2017-12-01T22:29:29.457-0600"
],
"FTBFConfigNim_v10" : [
"2017-12-01T22:52:34.793-0600"
],
"FTBFConfigNim_v11" : [
"2017-12-01T22:57:29.459-0600"
],
"FTBFConfigNim_v12" : [
"2017-12-01T23:00:07.651-0600"
],
"FTBFConfigNim_v13" : [
"2017-12-01T23:52:35.798-0600"
],
"FTBFConfigNim_v14" : [
"2017-12-01T23:58:10.287-0600"
],
"FTBFConfigNim_v15" : [
"2017-12-02T00:00:34.480-0600"
],
"FTBFConfigNim_v16" : [
"2017-12-02T00:13:09.715-0600"
],
"FTBFConfigNim_v17" : [
"2017-12-02T00:28:28.613-0600"
],
"FTBFConfigNim_v18" : [
"2017-12-02T00:29:34.686-0600"
],
"FTBFConfigNim_v19" : [
"2017-12-02T00:31:13.552-0600"
],
"FTBFConfigNim_v20" : [
"2017-12-02T00:57:27.729-0600"
],
"FTBFConfigNim_v21" : [
"2017-12-02T10:58:02.285-0600"
],
"FTBFConfigNim_v22" : [
"2017-12-02T11:08:18.473-0600"
],
"FTBFConfigNim_v23" : [
"2017-12-02T11:12:40.101-0600"
],
"FTBFConfigNim_v24" : [
"2017-12-02T11:18:42.974-0600"
],
"FTBFConfigNim_v25" : [
"2017-12-02T11:27:06.176-0600"
],
"FTBFConfigNim_v26" : [
"2017-12-02T11:38:37.224-0600"
],
"FTBFConfigNim_v27" : [
"2017-12-02T11:49:08.435-0600"
],
"FTBFConfigNim_v28" : [
"2017-12-02T11:55:09.950-0600"
],
"FTBFConfigNim_v29" : [
"2017-12-02T12:06:26.755-0600"
],
"FTBFConfig_v71" : [
"2017-12-02T12:24:15.398-0600"
],
"FTBFConfig_v72" : [
"2017-12-02T12:43:36.291-0600"
],
"FTBFConfig_v73" : [
"2017-12-02T13:55:35.967-0600"
],
"FTBFConfig_v75" : [
"2017-12-02T14:12:19.157-0600"
],
"FTBFConfig_v76" : [
"2017-12-02T19:05:54.197-0600"
],
"FTBFConfig_v77" : [
"2017-12-02T19:12:14.035-0600"
],
"FTBFConfig_v78" : [
"2017-12-03T14:03:49.182-0600"
],
"FTBFConfig_v79" : [
"2017-12-03T14:09:07.447-0600"
],
"FTBFConfig_v80" : [
"2017-12-03T14:11:11.252-0600"
],
"FTBFConfig_v81" : [
"2017-12-03T14:22:34.244-0600"
],
"FTBFConfig_v82" : [
"2017-12-03T14:40:39.077-0600"
],
"FTBFConfig_v83" : [
"2017-12-03T14:45:06.416-0600"
],
"FTBFConfig_v84" : [
"2017-12-04T14:51:31.701-0600"
],
"FTBFConfig_v85" : [
"2017-12-04T14:55:44.893-0600"
],
"FTBFConfig_v86" : [
"2017-12-04T16:51:07.969-0600"
],
"FTBFConfig_v87" : [
"2017-12-04T16:56:48.604-0600"
],
"FTBFConfig_v88" : [
"2017-12-04T17:01:13.358-0600"
],
"FTBFConfig_v89" : [
"2017-12-04T17:03:58.475-0600"
],
"FTBFConfig_v90" : [
"2017-12-04T17:07:18.126-0600"
],
"FTBFConfig_v91" : [
"2017-12-04T17:09:27.275-0600"
],
"FTBFConfig_v92" : [
"2017-12-04T17:11:39.779-0600"
],
"FTBFConfig_v93" : [
"2017-12-04T21:05:22.310-0600"
],
"FTBFConfig_v94" : [
"2017-12-04T21:17:13.305-0600"
],
"FTBFConfig_v95" : [
"2017-12-04T21:41:18.939-0600"
],
"FTBFConfig_v96" : [
"2017-12-04T22:39:03.606-0600"
],
"FTBFConfig_v97" : [
"2017-12-04T23:01:14.104-0600"
],
"FTBFConfig_v98" : [
"2017-12-07T11:07:48.110-0600"
],
"FTBFConfig_v99" : [
"2017-12-07T11:50:00.768-0600"
],
"FTBFConfig_v100" : [
"2017-12-07T11:58:27.521-0600"
],
"FTBFConfig_v101" : [
"2017-12-08T13:30:49.698-0600"
],
"FTBFConfig_v102" : [
"2017-12-08T13:32:36.561-0600"
],
"FTBFConfig_v103" : [
"2017-12-12T11:03:06.387-0600"
],
"FTBFConfig_v104" : [
"2017-12-12T13:51:00.935-0600"
],
"FTBFConfig_v105" : [
"2017-12-12T15:25:06.909-0600"
],
"FTBFConfig_v106" : [
"2017-12-13T10:24:25.207-0600"
],
"FTBFConfig_v107" : [
"2017-12-13T10:27:03.926-0600"
],
"FTBFConfig_v108" : [
"2018-02-01T21:14:27.623-0600"
],
"FTBFConfig_v109" : [
"2018-02-01T21:21:04.746-0600"
],
"FTBFConfig_v110" : [
"2018-02-02T11:25:35.740-0600"
],
"FTBFConfig_v111" : [
"2018-02-02T11:37:14.570-0600"
],
"FTBFConfig_v112" : [
"2018-02-02T11:47:17.066-0600"
],
"FTBFConfig_v113" : [
"2018-02-02T11:53:38.319-0600"
],
"FTBFConfig_v114" : [
"2018-02-02T12:00:54.439-0600"
],
"FTBFConfig_v115" : [
"2018-02-02T12:27:15.911-0600"
],
"FTBFConfig_v116" : [
"2018-02-02T14:28:55.432-0600"
],
"FTBFConfig_v117" : [
"2018-02-02T14:30:21.801-0600"
],
"FTBFConfig_v118" : [
"2018-02-02T14:34:03.051-0600"
],
"FTBFConfig_v119" : [
"2018-02-02T14:36:29.652-0600"
],
"FTBFConfig_v120" : [
"2018-02-02T14:38:43.067-0600"
],
"FTBFConfig_v121" : [
"2018-02-02T14:41:52.317-0600"
],
"FTBFConfig_v122" : [
"2018-02-02T14:50:26.406-0600"
],
"FTBFConfig_v123" : [
"2018-02-02T14:52:59.291-0600"
],
"FTBFConfig_v124" : [
"2018-02-02T14:59:52.603-0600"
],
"FTBFConfig_v125" : [
"2018-02-02T15:04:10.726-0600"
],
"FTBFConfig_v126" : [
"2018-02-02T15:50:13.978-0600"
],
"FTBFConfig_v127" : [
"2018-02-02T15:51:33.443-0600"
],
"FTBFConfig_v128" : [
"2018-02-02T15:52:38.602-0600"
],
"FTBFConfig_v129" : [
"2018-02-02T16:02:47.527-0600"
],
"FTBFConfig_v130" : [
"2018-02-02T16:08:47.080-0600"
],
"FTBFConfig_v131" : [
"2018-02-02T16:11:32.931-0600"
],
"FTBFConfig_v132" : [
"2018-02-02T16:13:00.801-0600"
],
"FTBFConfig_v133" : [
"2018-02-02T16:14:31.426-0600"
],
"FTBFConfig_v134" : [
"2018-02-02T16:26:24.319-0600"
],
"FTBFConfig_v135" : [
"2018-02-02T16:27:11.432-0600"
],
"FTBFConfig_v136" : [
"2018-02-02T16:29:32.794-0600"
],
"FTBFConfig_v137" : [
"2018-02-02T16:31:43.416-0600"
],
"FTBFConfig_v138" : [
"2018-02-02T16:34:16.097-0600"
],
"FTBFConfig_v139" : [
"2018-02-02T17:39:32.147-0600"
],
"FTBFConfig_v140" : [
"2018-02-02T17:42:54.333-0600"
],
"FTBFConfig_v141" : [
"2018-02-02T17:47:39.562-0600"
],
"FTBFConfig_v142" : [
"2018-02-02T17:54:03.557-0600"
]
}
}