{
"ouid" : [
"22f46bbca3c3484cb8738e1f"
],
"version" : {
"0" : [
"22f46bbca3c3484cb8738e1f"
]
},
"configurations.name" : {
"notprovided" : [
"22f46bbca3c3484cb8738e1f"
],
"FTBFConfig_v0" : [
"22f46bbca3c3484cb8738e1f"
],
"FTBFConfig_v1" : [
"22f46bbca3c3484cb8738e1f"
],
"FTBFConfig_v2" : [
"22f46bbca3c3484cb8738e1f"
],
"FTBFConfig_v3" : [
"22f46bbca3c3484cb8738e1f"
],
"FTBFConfig_v4" : [
"22f46bbca3c3484cb8738e1f"
],
"FTBFConfig_v5" : [
"22f46bbca3c3484cb8738e1f"
],
"FTBFConfig_v6" : [
"22f46bbca3c3484cb8738e1f"
],
"FTBFConfig_v7" : [
"22f46bbca3c3484cb8738e1f"
],
"FTBFConfig_v8" : [
"22f46bbca3c3484cb8738e1f"
],
"FTBFConfig_v9" : [
"22f46bbca3c3484cb8738e1f"
],
"FTBFConfig_v10" : [
"22f46bbca3c3484cb8738e1f"
],
"FTBFConfig_v11" : [
"22f46bbca3c3484cb8738e1f"
],
"FTBFConfig_v12" : [
"22f46bbca3c3484cb8738e1f"
],
"FTBFConfig_v13" : [
"22f46bbca3c3484cb8738e1f"
],
"FTBFConfig_v14" : [
"22f46bbca3c3484cb8738e1f"
],
"FTBFConfig_v15" : [
"22f46bbca3c3484cb8738e1f"
],
"FTBFConfig_v16" : [
"22f46bbca3c3484cb8738e1f"
],
"FTBFConfig_v17" : [
"22f46bbca3c3484cb8738e1f"
],
"FTBFConfig_v18" : [
"22f46bbca3c3484cb8738e1f"
],
"FTBFConfig_v19" : [
"22f46bbca3c3484cb8738e1f"
],
"FTBFConfig_v20" : [
"22f46bbca3c3484cb8738e1f"
],
"FTBFConfig_v21" : [
"22f46bbca3c3484cb8738e1f"
],
"FTBFConfig_v22" : [
"22f46bbca3c3484cb8738e1f"
],
"FTBFConfig_v23" : [
"22f46bbca3c3484cb8738e1f"
],
"FTBFConfig_v24" : [
"22f46bbca3c3484cb8738e1f"
],
"FTBFConfig_v25" : [
"22f46bbca3c3484cb8738e1f"
],
"FTBFConfig_v26" : [
"22f46bbca3c3484cb8738e1f"
],
"FTBFConfig_v27" : [
"22f46bbca3c3484cb8738e1f"
],
"FTBFConfig_v28" : [
"22f46bbca3c3484cb8738e1f"
],
"FTBFConfig_v29" : [
"22f46bbca3c3484cb8738e1f"
],
"FTBFConfig_v30" : [
"22f46bbca3c3484cb8738e1f"
],
"FTBFConfig_v31" : [
"22f46bbca3c3484cb8738e1f"
],
"FTBFConfig_v32" : [
"22f46bbca3c3484cb8738e1f"
],
"FTBFConfig_v33" : [
"22f46bbca3c3484cb8738e1f"
],
"FTBFConfig_v34" : [
"22f46bbca3c3484cb8738e1f"
],
"FTBFConfig_v35" : [
"22f46bbca3c3484cb8738e1f"
],
"FTBFConfig_v36" : [
"22f46bbca3c3484cb8738e1f"
],
"FTBFConfig_v37" : [
"22f46bbca3c3484cb8738e1f"
],
"FTBFConfig_v38" : [
"22f46bbca3c3484cb8738e1f"
],
"FTBFConfig_v39" : [
"22f46bbca3c3484cb8738e1f"
],
"FTBFConfig_v40" : [
"22f46bbca3c3484cb8738e1f"
],
"FTBFConfig_v41" : [
"22f46bbca3c3484cb8738e1f"
],
"FTBFConfig_v42" : [
"22f46bbca3c3484cb8738e1f"
],
"FTBFConfig_v43" : [
"22f46bbca3c3484cb8738e1f"
],
"FTBFConfig_v44" : [
"22f46bbca3c3484cb8738e1f"
],
"FTBFConfig_v45" : [
"22f46bbca3c3484cb8738e1f"
],
"FTBFConfig_v46" : [
"22f46bbca3c3484cb8738e1f"
],
"FTBFConfig_v47" : [
"22f46bbca3c3484cb8738e1f"
],
"FTBFConfig_v48" : [
"22f46bbca3c3484cb8738e1f"
],
"FTBFConfig_v49" : [
"22f46bbca3c3484cb8738e1f"
],
"FTBFConfig_v51" : [
"22f46bbca3c3484cb8738e1f"
],
"FTBFConfig_v52" : [
"22f46bbca3c3484cb8738e1f"
],
"FTBFConfig_v53" : [
"22f46bbca3c3484cb8738e1f"
],
"FTBFConfig_v54" : [
"22f46bbca3c3484cb8738e1f"
],
"FTBFConfig_v55" : [
"22f46bbca3c3484cb8738e1f"
],
"FTBFConfig_v56" : [
"22f46bbca3c3484cb8738e1f"
],
"FTBFConfig_v57" : [
"22f46bbca3c3484cb8738e1f"
],
"FTBFConfig_v58" : [
"22f46bbca3c3484cb8738e1f"
],
"FTBFConfig_v59" : [
"22f46bbca3c3484cb8738e1f"
],
"FTBFConfig_v60" : [
"22f46bbca3c3484cb8738e1f"
],
"FTBFConfig_v61" : [
"22f46bbca3c3484cb8738e1f"
],
"FTBFConfig_v62" : [
"22f46bbca3c3484cb8738e1f"
],
"FTBFConfig_v63" : [
"22f46bbca3c3484cb8738e1f"
],
"FTBFConfig_v64" : [
"22f46bbca3c3484cb8738e1f"
],
"FTBFConfig_v65" : [
"22f46bbca3c3484cb8738e1f"
],
"FTBFConfig_v66" : [
"22f46bbca3c3484cb8738e1f"
],
"FTBFConfig_v67" : [
"22f46bbca3c3484cb8738e1f"
],
"FTBFConfig_v68" : [
"22f46bbca3c3484cb8738e1f"
],
"FTBFConfig_v69" : [
"22f46bbca3c3484cb8738e1f"
],
"FTBFConfig_v70" : [
"22f46bbca3c3484cb8738e1f"
],
"FTBFConfigNim_v0" : [
"22f46bbca3c3484cb8738e1f"
],
"FTBFConfigNim_v1" : [
"22f46bbca3c3484cb8738e1f"
],
"FTBFConfigNim_v2" : [
"22f46bbca3c3484cb8738e1f"
],
"FTBFConfigNim_v3" : [
"22f46bbca3c3484cb8738e1f"
],
"FTBFConfigNim_v4" : [
"22f46bbca3c3484cb8738e1f"
],
"FTBFConfigNim_v5" : [
"22f46bbca3c3484cb8738e1f"
],
"FTBFConfigNim_v6" : [
"22f46bbca3c3484cb8738e1f"
],
"FTBFConfigNim_v7" : [
"22f46bbca3c3484cb8738e1f"
],
"FTBFConfigNim_v8" : [
"22f46bbca3c3484cb8738e1f"
],
"FTBFConfigNim_v9" : [
"22f46bbca3c3484cb8738e1f"
],
"FTBFConfigNim_v10" : [
"22f46bbca3c3484cb8738e1f"
],
"FTBFConfigNim_v11" : [
"22f46bbca3c3484cb8738e1f"
],
"FTBFConfigNim_v12" : [
"22f46bbca3c3484cb8738e1f"
],
"FTBFConfigNim_v13" : [
"22f46bbca3c3484cb8738e1f"
],
"FTBFConfigNim_v14" : [
"22f46bbca3c3484cb8738e1f"
],
"FTBFConfigNim_v15" : [
"22f46bbca3c3484cb8738e1f"
],
"FTBFConfigNim_v16" : [
"22f46bbca3c3484cb8738e1f"
],
"FTBFConfigNim_v17" : [
"22f46bbca3c3484cb8738e1f"
],
"FTBFConfigNim_v18" : [
"22f46bbca3c3484cb8738e1f"
],
"FTBFConfigNim_v19" : [
"22f46bbca3c3484cb8738e1f"
],
"FTBFConfigNim_v20" : [
"22f46bbca3c3484cb8738e1f"
],
"FTBFConfigNim_v21" : [
"22f46bbca3c3484cb8738e1f"
],
"FTBFConfigNim_v22" : [
"22f46bbca3c3484cb8738e1f"
],
"FTBFConfigNim_v23" : [
"22f46bbca3c3484cb8738e1f"
],
"FTBFConfigNim_v24" : [
"22f46bbca3c3484cb8738e1f"
],
"FTBFConfigNim_v25" : [
"22f46bbca3c3484cb8738e1f"
],
"FTBFConfigNim_v26" : [
"22f46bbca3c3484cb8738e1f"
],
"FTBFConfigNim_v27" : [
"22f46bbca3c3484cb8738e1f"
],
"FTBFConfigNim_v28" : [
"22f46bbca3c3484cb8738e1f"
],
"FTBFConfigNim_v29" : [
"22f46bbca3c3484cb8738e1f"
],
"FTBFConfig_v71" : [
"22f46bbca3c3484cb8738e1f"
],
"FTBFConfig_v72" : [
"22f46bbca3c3484cb8738e1f"
],
"FTBFConfig_v73" : [
"22f46bbca3c3484cb8738e1f"
],
"FTBFConfig_v74" : [
"22f46bbca3c3484cb8738e1f"
],
"FTBFConfig_v75" : [
"22f46bbca3c3484cb8738e1f"
],
"FTBFConfig_v76" : [
"22f46bbca3c3484cb8738e1f"
],
"FTBFConfig_v77" : [
"22f46bbca3c3484cb8738e1f"
],
"FTBFConfig_v78" : [
"22f46bbca3c3484cb8738e1f"
],
"FTBFConfig_v79" : [
"22f46bbca3c3484cb8738e1f"
],
"FTBFConfig_v80" : [
"22f46bbca3c3484cb8738e1f"
],
"FTBFConfig_v81" : [
"22f46bbca3c3484cb8738e1f"
],
"FTBFConfig_v82" : [
"22f46bbca3c3484cb8738e1f"
],
"FTBFConfig_v83" : [
"22f46bbca3c3484cb8738e1f"
],
"FTBFConfig_v84" : [
"22f46bbca3c3484cb8738e1f"
],
"FTBFConfig_v85" : [
"22f46bbca3c3484cb8738e1f"
],
"FTBFConfig_v86" : [
"22f46bbca3c3484cb8738e1f"
],
"FTBFConfig_v87" : [
"22f46bbca3c3484cb8738e1f"
],
"FTBFConfig_v88" : [
"22f46bbca3c3484cb8738e1f"
],
"FTBFConfig_v89" : [
"22f46bbca3c3484cb8738e1f"
],
"FTBFConfig_v90" : [
"22f46bbca3c3484cb8738e1f"
],
"FTBFConfig_v91" : [
"22f46bbca3c3484cb8738e1f"
],
"FTBFConfig_v92" : [
"22f46bbca3c3484cb8738e1f"
],
"FTBFConfig_v93" : [
"22f46bbca3c3484cb8738e1f"
],
"FTBFConfig_v94" : [
"22f46bbca3c3484cb8738e1f"
],
"FTBFConfig_v95" : [
"22f46bbca3c3484cb8738e1f"
],
"FTBFConfig_v96" : [
"22f46bbca3c3484cb8738e1f"
],
"FTBFConfig_v97" : [
"22f46bbca3c3484cb8738e1f"
],
"FTBFConfig_v98" : [
"22f46bbca3c3484cb8738e1f"
],
"FTBFConfig_v99" : [
"22f46bbca3c3484cb8738e1f"
],
"FTBFConfig_v100" : [
"22f46bbca3c3484cb8738e1f"
],
"FTBFConfig_v101" : [
"22f46bbca3c3484cb8738e1f"
],
"FTBFConfig_v102" : [
"22f46bbca3c3484cb8738e1f"
],
"FTBFConfig_v103" : [
"22f46bbca3c3484cb8738e1f"
],
"FTBFConfig_v104" : [
"22f46bbca3c3484cb8738e1f"
],
"FTBFConfig_v105" : [
"22f46bbca3c3484cb8738e1f"
],
"FTBFConfig_v106" : [
"22f46bbca3c3484cb8738e1f"
],
"FTBFConfig_v107" : [
"22f46bbca3c3484cb8738e1f"
],
"FTBFConfig_v108" : [
"22f46bbca3c3484cb8738e1f"
],
"FTBFConfig_v109" : [
"22f46bbca3c3484cb8738e1f"
],
"FTBFConfig_v110" : [
"22f46bbca3c3484cb8738e1f"
],
"FTBFConfig_v111" : [
"22f46bbca3c3484cb8738e1f"
],
"FTBFConfig_v112" : [
"22f46bbca3c3484cb8738e1f"
],
"FTBFConfig_v113" : [
"22f46bbca3c3484cb8738e1f"
],
"FTBFConfig_v114" : [
"22f46bbca3c3484cb8738e1f"
],
"FTBFConfig_v115" : [
"22f46bbca3c3484cb8738e1f"
],
"FTBFConfig_v116" : [
"22f46bbca3c3484cb8738e1f"
],
"FTBFConfig_v117" : [
"22f46bbca3c3484cb8738e1f"
],
"FTBFConfig_v118" : [
"22f46bbca3c3484cb8738e1f"
],
"FTBFConfig_v119" : [
"22f46bbca3c3484cb8738e1f"
],
"FTBFConfig_v120" : [
"22f46bbca3c3484cb8738e1f"
],
"FTBFConfig_v121" : [
"22f46bbca3c3484cb8738e1f"
],
"FTBFConfig_v122" : [
"22f46bbca3c3484cb8738e1f"
],
"FTBFConfig_v123" : [
"22f46bbca3c3484cb8738e1f"
],
"FTBFConfig_v124" : [
"22f46bbca3c3484cb8738e1f"
],
"FTBFConfig_v125" : [
"22f46bbca3c3484cb8738e1f"
],
"FTBFConfig_v126" : [
"22f46bbca3c3484cb8738e1f"
],
"FTBFConfig_v127" : [
"22f46bbca3c3484cb8738e1f"
],
"FTBFConfig_v128" : [
"22f46bbca3c3484cb8738e1f"
],
"FTBFConfig_v129" : [
"22f46bbca3c3484cb8738e1f"
],
"FTBFConfig_v130" : [
"22f46bbca3c3484cb8738e1f"
],
"FTBFConfig_v131" : [
"22f46bbca3c3484cb8738e1f"
],
"FTBFConfig_v132" : [
"22f46bbca3c3484cb8738e1f"
],
"FTBFConfig_v133" : [
"22f46bbca3c3484cb8738e1f"
],
"FTBFConfig_v134" : [
"22f46bbca3c3484cb8738e1f"
],
"FTBFConfig_v135" : [
"22f46bbca3c3484cb8738e1f"
],
"FTBFConfig_v136" : [
"22f46bbca3c3484cb8738e1f"
],
"FTBFConfig_v137" : [
"22f46bbca3c3484cb8738e1f"
],
"FTBFConfig_v138" : [
"22f46bbca3c3484cb8738e1f"
],
"FTBFConfig_v139" : [
"22f46bbca3c3484cb8738e1f"
],
"FTBFConfig_v140" : [
"22f46bbca3c3484cb8738e1f"
],
"FTBFConfig_v141" : [
"22f46bbca3c3484cb8738e1f"
],
"FTBFConfig_v142" : [
"22f46bbca3c3484cb8738e1f"
]
},
"entities.name" : {
"OTSROOT" : [
"22f46bbca3c3484cb8738e1f"
]
},
"aliases.active.name" : {

},
"runs.name" : {

},
"configurations.assigned" : {
"notprovided" : [
"2017-11-08T15:56:02.696-0600"
],
"FTBFConfig_v0" : [
"2017-11-08T15:56:05.322-0600"
],
"FTBFConfig_v1" : [
"2017-11-09T09:56:29.813-0600"
],
"FTBFConfig_v2" : [
"2017-11-09T10:05:58.775-0600"
],
"FTBFConfig_v3" : [
"2017-11-09T10:37:10.332-0600"
],
"FTBFConfig_v4" : [
"2017-11-15T11:30:09.082-0600"
],
"FTBFConfig_v5" : [
"2017-11-15T11:54:55.855-0600"
],
"FTBFConfig_v6" : [
"2017-11-15T11:57:48.487-0600"
],
"FTBFConfig_v7" : [
"2017-11-15T12:42:30.890-0600"
],
"FTBFConfig_v8" : [
"2017-11-15T13:01:01.857-0600"
],
"FTBFConfig_v9" : [
"2017-11-15T13:02:55.228-0600"
],
"FTBFConfig_v10" : [
"2017-11-15T13:04:22.826-0600"
],
"FTBFConfig_v11" : [
"2017-11-15T13:07:50.302-0600"
],
"FTBFConfig_v12" : [
"2017-11-15T13:11:57.717-0600"
],
"FTBFConfig_v13" : [
"2017-11-15T13:13:51.691-0600"
],
"FTBFConfig_v14" : [
"2017-11-15T13:27:25.362-0600"
],
"FTBFConfig_v15" : [
"2017-11-15T13:35:45.638-0600"
],
"FTBFConfig_v16" : [
"2017-11-15T13:36:50.273-0600"
],
"FTBFConfig_v17" : [
"2017-11-15T15:33:28.808-0600"
],
"FTBFConfig_v18" : [
"2017-11-15T15:35:32.411-0600"
],
"FTBFConfig_v19" : [
"2017-11-15T15:38:01.250-0600"
],
"FTBFConfig_v20" : [
"2017-11-15T16:26:28.900-0600"
],
"FTBFConfig_v21" : [
"2017-11-16T09:22:30.038-0600"
],
"FTBFConfig_v22" : [
"2017-11-17T10:23:26.226-0600"
],
"FTBFConfig_v23" : [
"2017-11-17T17:26:43.747-0600"
],
"FTBFConfig_v24" : [
"2017-11-17T17:58:24.192-0600"
],
"FTBFConfig_v25" : [
"2017-11-17T18:24:43.879-0600"
],
"FTBFConfig_v26" : [
"2017-11-17T18:32:20.820-0600"
],
"FTBFConfig_v27" : [
"2017-11-17T18:43:27.928-0600"
],
"FTBFConfig_v28" : [
"2017-11-17T18:48:29.914-0600"
],
"FTBFConfig_v29" : [
"2017-11-20T14:48:29.162-0600"
],
"FTBFConfig_v30" : [
"2017-11-20T15:39:54.354-0600"
],
"FTBFConfig_v31" : [
"2017-11-20T16:41:00.334-0600"
],
"FTBFConfig_v32" : [
"2017-11-20T18:55:33.142-0600"
],
"FTBFConfig_v33" : [
"2017-11-20T18:57:28.442-0600"
],
"FTBFConfig_v34" : [
"2017-11-29T17:50:37.922-0600"
],
"FTBFConfig_v35" : [
"2017-11-29T18:00:30.789-0600"
],
"FTBFConfig_v36" : [
"2017-11-29T18:35:09.639-0600"
],
"FTBFConfig_v37" : [
"2017-12-01T09:36:15.843-0600"
],
"FTBFConfig_v38" : [
"2017-12-01T09:51:59.203-0600"
],
"FTBFConfig_v39" : [
"2017-12-01T11:51:56.430-0600"
],
"FTBFConfig_v40" : [
"2017-12-01T12:18:18.411-0600"
],
"FTBFConfig_v41" : [
"2017-12-01T12:21:00.545-0600"
],
"FTBFConfig_v42" : [
"2017-12-01T12:43:19.676-0600"
],
"FTBFConfig_v43" : [
"2017-12-01T12:57:56.886-0600"
],
"FTBFConfig_v44" : [
"2017-12-01T13:00:49.567-0600"
],
"FTBFConfig_v45" : [
"2017-12-01T13:25:46.587-0600"
],
"FTBFConfig_v46" : [
"2017-12-01T13:35:41.410-0600"
],
"FTBFConfig_v47" : [
"2017-12-01T14:00:49.805-0600"
],
"FTBFConfig_v48" : [
"2017-12-01T14:03:57.056-0600"
],
"FTBFConfig_v49" : [
"2017-12-01T15:31:57.253-0600"
],
"FTBFConfig_v51" : [
"2017-12-01T15:37:08.666-0600"
],
"FTBFConfig_v52" : [
"2017-12-01T15:37:28.254-0600"
],
"FTBFConfig_v53" : [
"2017-12-01T15:40:56.778-0600"
],
"FTBFConfig_v54" : [
"2017-12-01T15:52:47.088-0600"
],
"FTBFConfig_v55" : [
"2017-12-01T15:54:32.216-0600"
],
"FTBFConfig_v56" : [
"2017-12-01T15:55:31.743-0600"
],
"FTBFConfig_v57" : [
"2017-12-01T15:56:37.538-0600"
],
"FTBFConfig_v58" : [
"2017-12-01T15:57:35.618-0600"
],
"FTBFConfig_v59" : [
"2017-12-01T15:58:27.509-0600"
],
"FTBFConfig_v60" : [
"2017-12-01T15:59:28.699-0600"
],
"FTBFConfig_v61" : [
"2017-12-01T16:19:38.425-0600"
],
"FTBFConfig_v62" : [
"2017-12-01T16:22:00.976-0600"
],
"FTBFConfig_v63" : [
"2017-12-01T16:31:21.578-0600"
],
"FTBFConfig_v64" : [
"2017-12-01T17:06:28.478-0600"
],
"FTBFConfig_v65" : [
"2017-12-01T17:32:40.807-0600"
],
"FTBFConfig_v66" : [
"2017-12-01T20:38:47.203-0600"
],
"FTBFConfig_v67" : [
"2017-12-01T21:24:58.671-0600"
],
"FTBFConfig_v68" : [
"2017-12-01T21:42:58.322-0600"
],
"FTBFConfig_v69" : [
"2017-12-01T21:44:56.953-0600"
],
"FTBFConfig_v70" : [
"2017-12-01T21:59:16.171-0600"
],
"FTBFConfigNim_v0" : [
"2017-12-01T22:00:02.882-0600"
],
"FTBFConfigNim_v1" : [
"2017-12-01T22:13:04.606-0600"
],
"FTBFConfigNim_v2" : [
"2017-12-01T22:15:51.818-0600"
],
"FTBFConfigNim_v3" : [
"2017-12-01T22:16:59.881-0600"
],
"FTBFConfigNim_v4" : [
"2017-12-01T22:19:02.909-0600"
],
"FTBFConfigNim_v5" : [
"2017-12-01T22:21:53.589-0600"
],
"FTBFConfigNim_v6" : [
"2017-12-01T22:23:09.757-0600"
],
"FTBFConfigNim_v7" : [
"2017-12-01T22:25:13.524-0600"
],
"FTBFConfigNim_v8" : [
"2017-12-01T22:27:01.099-0600"
],
"FTBFConfigNim_v9" : [
"2017-12-01T22:29:25.345-0600"
],
"FTBFConfigNim_v10" : [
"2017-12-01T22:52:30.438-0600"
],
"FTBFConfigNim_v11" : [
"2017-12-01T22:57:25.239-0600"
],
"FTBFConfigNim_v12" : [
"2017-12-01T23:00:03.494-0600"
],
"FTBFConfigNim_v13" : [
"2017-12-01T23:52:31.605-0600"
],
"FTBFConfigNim_v14" : [
"2017-12-01T23:58:06.001-0600"
],
"FTBFConfigNim_v15" : [
"2017-12-02T00:00:30.281-0600"
],
"FTBFConfigNim_v16" : [
"2017-12-02T00:13:05.396-0600"
],
"FTBFConfigNim_v17" : [
"2017-12-02T00:28:24.371-0600"
],
"FTBFConfigNim_v18" : [
"2017-12-02T00:29:30.408-0600"
],
"FTBFConfigNim_v19" : [
"2017-12-02T00:31:07.192-0600"
],
"FTBFConfigNim_v20" : [
"2017-12-02T00:57:23.386-0600"
],
"FTBFConfigNim_v21" : [
"2017-12-02T10:57:57.935-0600"
],
"FTBFConfigNim_v22" : [
"2017-12-02T11:08:14.097-0600"
],
"FTBFConfigNim_v23" : [
"2017-12-02T11:12:35.659-0600"
],
"FTBFConfigNim_v24" : [
"2017-12-02T11:18:38.476-0600"
],
"FTBFConfigNim_v25" : [
"2017-12-02T11:27:01.711-0600"
],
"FTBFConfigNim_v26" : [
"2017-12-02T11:38:32.750-0600"
],
"FTBFConfigNim_v27" : [
"2017-12-02T11:49:03.878-0600"
],
"FTBFConfigNim_v28" : [
"2017-12-02T11:55:05.337-0600"
],
"FTBFConfigNim_v29" : [
"2017-12-02T12:06:22.160-0600"
],
"FTBFConfig_v71" : [
"2017-12-02T12:24:10.796-0600"
],
"FTBFConfig_v72" : [
"2017-12-02T12:43:31.591-0600"
],
"FTBFConfig_v73" : [
"2017-12-02T13:55:31.175-0600"
],
"FTBFConfig_v74" : [
"2017-12-02T14:09:03.464-0600"
],
"FTBFConfig_v75" : [
"2017-12-02T14:12:14.315-0600"
],
"FTBFConfig_v76" : [
"2017-12-02T19:05:49.414-0600"
],
"FTBFConfig_v77" : [
"2017-12-02T19:12:09.229-0600"
],
"FTBFConfig_v78" : [
"2017-12-03T14:03:44.412-0600"
],
"FTBFConfig_v79" : [
"2017-12-03T14:09:02.586-0600"
],
"FTBFConfig_v80" : [
"2017-12-03T14:11:06.348-0600"
],
"FTBFConfig_v81" : [
"2017-12-03T14:22:29.375-0600"
],
"FTBFConfig_v82" : [
"2017-12-03T14:40:34.136-0600"
],
"FTBFConfig_v83" : [
"2017-12-03T14:45:01.489-0600"
],
"FTBFConfig_v84" : [
"2017-12-04T14:51:26.881-0600"
],
"FTBFConfig_v85" : [
"2017-12-04T14:55:40.024-0600"
],
"FTBFConfig_v86" : [
"2017-12-04T16:51:03.008-0600"
],
"FTBFConfig_v87" : [
"2017-12-04T16:56:43.625-0600"
],
"FTBFConfig_v88" : [
"2017-12-04T17:01:08.322-0600"
],
"FTBFConfig_v89" : [
"2017-12-04T17:03:53.412-0600"
],
"FTBFConfig_v90" : [
"2017-12-04T17:07:13.035-0600"
],
"FTBFConfig_v91" : [
"2017-12-04T17:09:22.148-0600"
],
"FTBFConfig_v92" : [
"2017-12-04T17:11:34.607-0600"
],
"FTBFConfig_v93" : [
"2017-12-04T21:05:17.256-0600"
],
"FTBFConfig_v94" : [
"2017-12-04T21:17:08.073-0600"
],
"FTBFConfig_v95" : [
"2017-12-04T21:41:13.802-0600"
],
"FTBFConfig_v96" : [
"2017-12-04T22:38:58.411-0600"
],
"FTBFConfig_v97" : [
"2017-12-04T23:01:08.924-0600"
],
"FTBFConfig_v98" : [
"2017-12-07T11:07:42.938-0600"
],
"FTBFConfig_v99" : [
"2017-12-07T11:49:55.618-0600"
],
"FTBFConfig_v100" : [
"2017-12-07T11:58:22.335-0600"
],
"FTBFConfig_v101" : [
"2017-12-08T13:30:44.419-0600"
],
"FTBFConfig_v102" : [
"2017-12-08T13:32:31.307-0600"
],
"FTBFConfig_v103" : [
"2017-12-12T11:03:01.080-0600"
],
"FTBFConfig_v104" : [
"2017-12-12T13:50:55.373-0600"
],
"FTBFConfig_v105" : [
"2017-12-12T15:25:01.351-0600"
],
"FTBFConfig_v106" : [
"2017-12-13T10:24:19.828-0600"
],
"FTBFConfig_v107" : [
"2017-12-13T10:26:58.586-0600"
],
"FTBFConfig_v108" : [
"2018-02-01T21:14:21.912-0600"
],
"FTBFConfig_v109" : [
"2018-02-01T21:20:59.006-0600"
],
"FTBFConfig_v110" : [
"2018-02-02T11:25:29.953-0600"
],
"FTBFConfig_v111" : [
"2018-02-02T11:37:08.786-0600"
],
"FTBFConfig_v112" : [
"2018-02-02T11:47:11.232-0600"
],
"FTBFConfig_v113" : [
"2018-02-02T11:53:32.479-0600"
],
"FTBFConfig_v114" : [
"2018-02-02T12:00:48.541-0600"
],
"FTBFConfig_v115" : [
"2018-02-02T12:27:10.038-0600"
],
"FTBFConfig_v116" : [
"2018-02-02T14:28:49.559-0600"
],
"FTBFConfig_v117" : [
"2018-02-02T14:30:15.876-0600"
],
"FTBFConfig_v118" : [
"2018-02-02T14:33:57.079-0600"
],
"FTBFConfig_v119" : [
"2018-02-02T14:36:23.691-0600"
],
"FTBFConfig_v120" : [
"2018-02-02T14:38:37.049-0600"
],
"FTBFConfig_v121" : [
"2018-02-02T14:41:46.363-0600"
],
"FTBFConfig_v122" : [
"2018-02-02T14:50:20.383-0600"
],
"FTBFConfig_v123" : [
"2018-02-02T14:52:53.220-0600"
],
"FTBFConfig_v124" : [
"2018-02-02T14:59:46.542-0600"
],
"FTBFConfig_v125" : [
"2018-02-02T15:04:04.639-0600"
],
"FTBFConfig_v126" : [
"2018-02-02T15:50:07.836-0600"
],
"FTBFConfig_v127" : [
"2018-02-02T15:51:27.305-0600"
],
"FTBFConfig_v128" : [
"2018-02-02T15:52:32.466-0600"
],
"FTBFConfig_v129" : [
"2018-02-02T16:02:41.344-0600"
],
"FTBFConfig_v130" : [
"2018-02-02T16:08:40.861-0600"
],
"FTBFConfig_v131" : [
"2018-02-02T16:11:26.663-0600"
],
"FTBFConfig_v132" : [
"2018-02-02T16:12:54.502-0600"
],
"FTBFConfig_v133" : [
"2018-02-02T16:14:25.064-0600"
],
"FTBFConfig_v134" : [
"2018-02-02T16:26:17.983-0600"
],
"FTBFConfig_v135" : [
"2018-02-02T16:27:05.095-0600"
],
"FTBFConfig_v136" : [
"2018-02-02T16:29:26.406-0600"
],
"FTBFConfig_v137" : [
"2018-02-02T16:31:36.912-0600"
],
"FTBFConfig_v138" : [
"2018-02-02T16:34:09.644-0600"
],
"FTBFConfig_v139" : [
"2018-02-02T17:39:25.672-0600"
],
"FTBFConfig_v140" : [
"2018-02-02T17:42:47.841-0600"
],
"FTBFConfig_v141" : [
"2018-02-02T17:47:33.007-0600"
],
"FTBFConfig_v142" : [
"2018-02-02T17:53:56.993-0600"
]
}
}