{
"ouid" : [
"006b5c0dcc6c4ef981eb0d36",
"04ccc19ebf9f44a1af18dc9c",
"0572bd95a59a4e39b286a985",
"13b6f68c09134ece9381d1db",
"166579e73742459eb5d3cf2c",
"1c42486bf1ab40f486388095",
"1eca8b4658a142578635ad0c",
"25ea71133c1146fe8635bea1",
"2786b02f66f549039530444f",
"2ba28200357848c3b6f192b3",
"30ffd8fb35d24a2abbda151d",
"31e8a76801b5434cafea2b6e",
"39ca274ed2204dc99439471b",
"4021cf1b6c6f4fb4bb73a45b",
"418ef36760c14e18bd0bbf1d",
"4258d0dc26a64b12919f18c2",
"46677bf491f94fdda46c5ba5",
"4730a5d8c4b94661a1a5e3cf",
"4b1260b9658640a09540c88f",
"4b68bd9cf5cd44f19803d0b8",
"4bc42c0acc604c7a94eedb39",
"4fcc3b74c1a941308e67e422",
"5708a7480a774215b562f0a5",
"603bd9ff5b2541ee8dfad314",
"61f23003b0a14ffd919edb49",
"62e01317d668414cb4ace580",
"6beb26d5e4fb406484bffd22",
"6c60e11d7f7b45f195409b60",
"79157f52503e471fb58725cb",
"83b1992e04ed4878af3b9fe4",
"8ade8f28300e4ef599d7cb0e",
"90370c5734bd4656948cde75",
"93ffaf32364a40b39131c279",
"9caf376b51c44fca8d85a784",
"9d8e9d0f2d4640f8bb01c27a",
"9e943c13f5b443eca87958be",
"a35ca00105784912b6acf096",
"a4ebb2f2e5c44f4aadf3846b",
"a5de921ab4704125a1fc3e35",
"acd1532253384e5c9417856b",
"add1c2d9f38f4cc5b42699b1",
"b16fd6db4097452881f16761",
"bb0b2305b9d749df808c170a",
"bbd57295a9464712a16f764f",
"bdb911f79e224d0ba68bb468",
"beac21373b9847c5bc752292",
"c04fc3f84f8541d9991be40f",
"c1431cc6c960432595299c0b",
"c2eb844311f14b19b5b1601c",
"c4005fa3e00448abbccd1376",
"c644d63d961d4e59a9b8aa3a",
"ca7c8a9d70104cca9741880c",
"cd7d55f6fc2b4279859b6361",
"d6151dbf60544550a77185d6",
"d82650c9ab5140ee86815160",
"daae477d0f2643fa9ead78b7",
"dd8ad14a4c3141faa3ff32ea",
"e1decedee37d4b868b5b90a9",
"e25caed8a10243de89822270",
"e3ede45399f24a0aa759be9f",
"e5f0ae7cae6e4289a2add0fb",
"efaf74cff63543539683d7f4",
"f0f861ee2ac747ee89dfc72f",
"f19a77d1b1c84897b7710068",
"f599e4f1532444f49f7467b4",
"f7119058541c49389980249f",
"f90b8aa83cc64fdb9d6210c4",
"fd084412b3ef47a5a102ea81"
],
"version" : {
"0" : [
"4bc42c0acc604c7a94eedb39"
],
"1" : [
"30ffd8fb35d24a2abbda151d"
],
"2" : [
"e1decedee37d4b868b5b90a9"
],
"3" : [
"25ea71133c1146fe8635bea1"
],
"4" : [
"39ca274ed2204dc99439471b"
],
"5" : [
"cd7d55f6fc2b4279859b6361"
],
"6" : [
"c1431cc6c960432595299c0b"
],
"7" : [
"006b5c0dcc6c4ef981eb0d36"
],
"8" : [
"c644d63d961d4e59a9b8aa3a"
],
"9" : [
"90370c5734bd4656948cde75"
],
"10" : [
"efaf74cff63543539683d7f4"
],
"11" : [
"93ffaf32364a40b39131c279"
],
"12" : [
"31e8a76801b5434cafea2b6e"
],
"13" : [
"fd084412b3ef47a5a102ea81"
],
"14" : [
"a5de921ab4704125a1fc3e35"
],
"15" : [
"9e943c13f5b443eca87958be"
],
"16" : [
"418ef36760c14e18bd0bbf1d"
],
"17" : [
"c04fc3f84f8541d9991be40f"
],
"18" : [
"f19a77d1b1c84897b7710068"
],
"19" : [
"bdb911f79e224d0ba68bb468"
],
"20" : [
"13b6f68c09134ece9381d1db"
],
"21" : [
"603bd9ff5b2541ee8dfad314"
],
"22" : [
"1c42486bf1ab40f486388095"
],
"23" : [
"e3ede45399f24a0aa759be9f"
],
"24" : [
"d82650c9ab5140ee86815160"
],
"25" : [
"61f23003b0a14ffd919edb49"
],
"26" : [
"d6151dbf60544550a77185d6"
],
"27" : [
"beac21373b9847c5bc752292"
],
"28" : [
"6beb26d5e4fb406484bffd22"
],
"29" : [
"f7119058541c49389980249f"
],
"30" : [
"4730a5d8c4b94661a1a5e3cf"
],
"31" : [
"9d8e9d0f2d4640f8bb01c27a"
],
"32" : [
"2ba28200357848c3b6f192b3"
],
"33" : [
"04ccc19ebf9f44a1af18dc9c"
],
"34" : [
"acd1532253384e5c9417856b"
],
"35" : [
"8ade8f28300e4ef599d7cb0e"
],
"36" : [
"add1c2d9f38f4cc5b42699b1"
],
"37" : [
"c2eb844311f14b19b5b1601c"
],
"38" : [
"bb0b2305b9d749df808c170a"
],
"39" : [
"83b1992e04ed4878af3b9fe4"
],
"40" : [
"6c60e11d7f7b45f195409b60"
],
"41" : [
"f0f861ee2ac747ee89dfc72f"
],
"42" : [
"46677bf491f94fdda46c5ba5"
],
"43" : [
"4b1260b9658640a09540c88f"
],
"44" : [
"bbd57295a9464712a16f764f"
],
"45" : [
"4fcc3b74c1a941308e67e422"
],
"46" : [
"ca7c8a9d70104cca9741880c"
],
"47" : [
"a4ebb2f2e5c44f4aadf3846b"
],
"48" : [
"daae477d0f2643fa9ead78b7"
],
"49" : [
"c4005fa3e00448abbccd1376"
],
"50" : [
"5708a7480a774215b562f0a5"
],
"51" : [
"0572bd95a59a4e39b286a985"
],
"52" : [
"79157f52503e471fb58725cb"
],
"53" : [
"e25caed8a10243de89822270"
],
"54" : [
"2786b02f66f549039530444f"
],
"55" : [
"62e01317d668414cb4ace580"
],
"56" : [
"166579e73742459eb5d3cf2c"
],
"57" : [
"4021cf1b6c6f4fb4bb73a45b"
],
"58" : [
"4b68bd9cf5cd44f19803d0b8"
],
"59" : [
"a35ca00105784912b6acf096"
],
"60" : [
"dd8ad14a4c3141faa3ff32ea"
],
"61" : [
"1eca8b4658a142578635ad0c"
],
"62" : [
"b16fd6db4097452881f16761"
],
"63" : [
"9caf376b51c44fca8d85a784"
],
"64" : [
"e5f0ae7cae6e4289a2add0fb"
],
"65" : [
"f599e4f1532444f49f7467b4"
],
"66" : [
"f90b8aa83cc64fdb9d6210c4"
],
"67" : [
"4258d0dc26a64b12919f18c2"
]
},
"configurations.name" : {
"notprovided" : [
"006b5c0dcc6c4ef981eb0d36",
"04ccc19ebf9f44a1af18dc9c",
"0572bd95a59a4e39b286a985",
"13b6f68c09134ece9381d1db",
"166579e73742459eb5d3cf2c",
"1c42486bf1ab40f486388095",
"1eca8b4658a142578635ad0c",
"25ea71133c1146fe8635bea1",
"2786b02f66f549039530444f",
"2ba28200357848c3b6f192b3",
"30ffd8fb35d24a2abbda151d",
"31e8a76801b5434cafea2b6e",
"39ca274ed2204dc99439471b",
"4021cf1b6c6f4fb4bb73a45b",
"418ef36760c14e18bd0bbf1d",
"4258d0dc26a64b12919f18c2",
"46677bf491f94fdda46c5ba5",
"4730a5d8c4b94661a1a5e3cf",
"4b1260b9658640a09540c88f",
"4b68bd9cf5cd44f19803d0b8",
"4bc42c0acc604c7a94eedb39",
"4fcc3b74c1a941308e67e422",
"5708a7480a774215b562f0a5",
"603bd9ff5b2541ee8dfad314",
"61f23003b0a14ffd919edb49",
"62e01317d668414cb4ace580",
"6beb26d5e4fb406484bffd22",
"6c60e11d7f7b45f195409b60",
"79157f52503e471fb58725cb",
"83b1992e04ed4878af3b9fe4",
"8ade8f28300e4ef599d7cb0e",
"90370c5734bd4656948cde75",
"93ffaf32364a40b39131c279",
"9caf376b51c44fca8d85a784",
"9d8e9d0f2d4640f8bb01c27a",
"9e943c13f5b443eca87958be",
"a35ca00105784912b6acf096",
"a4ebb2f2e5c44f4aadf3846b",
"a5de921ab4704125a1fc3e35",
"acd1532253384e5c9417856b",
"add1c2d9f38f4cc5b42699b1",
"b16fd6db4097452881f16761",
"bb0b2305b9d749df808c170a",
"bbd57295a9464712a16f764f",
"bdb911f79e224d0ba68bb468",
"beac21373b9847c5bc752292",
"c04fc3f84f8541d9991be40f",
"c1431cc6c960432595299c0b",
"c2eb844311f14b19b5b1601c",
"c4005fa3e00448abbccd1376",
"c644d63d961d4e59a9b8aa3a",
"ca7c8a9d70104cca9741880c",
"cd7d55f6fc2b4279859b6361",
"d6151dbf60544550a77185d6",
"d82650c9ab5140ee86815160",
"daae477d0f2643fa9ead78b7",
"dd8ad14a4c3141faa3ff32ea",
"e1decedee37d4b868b5b90a9",
"e25caed8a10243de89822270",
"e3ede45399f24a0aa759be9f",
"e5f0ae7cae6e4289a2add0fb",
"efaf74cff63543539683d7f4",
"f0f861ee2ac747ee89dfc72f",
"f19a77d1b1c84897b7710068",
"f599e4f1532444f49f7467b4",
"f7119058541c49389980249f",
"f90b8aa83cc64fdb9d6210c4",
"fd084412b3ef47a5a102ea81"
],
"DefaultConfig_v1" : [
"30ffd8fb35d24a2abbda151d"
],
"DefaultContext_v2" : [
"e1decedee37d4b868b5b90a9"
],
"TableEditWizBackbone_v3" : [
"25ea71133c1146fe8635bea1"
],
"DefaultContext_v3" : [
"39ca274ed2204dc99439471b"
],
"GroupAliasTreeEditWizBackbone_v0" : [
"cd7d55f6fc2b4279859b6361"
],
"DefaultConfig_v2" : [
"c1431cc6c960432595299c0b"
],
"GroupAliasTreeEditWizBackbone_v1" : [
"006b5c0dcc6c4ef981eb0d36"
],
"DefaultContext_v4" : [
"c644d63d961d4e59a9b8aa3a"
],
"GroupAliasTreeEditWizBackbone_v2" : [
"90370c5734bd4656948cde75"
],
"iterateDefaultGroup_v0" : [
"efaf74cff63543539683d7f4"
],
"DefaultContext_v5" : [
"93ffaf32364a40b39131c279"
],
"GroupAliasTreeEditWizBackbone_v3" : [
"31e8a76801b5434cafea2b6e"
],
"DefaultContext_v6" : [
"fd084412b3ef47a5a102ea81"
],
"GroupAliasTreeEditWizBackbone_v4" : [
"a5de921ab4704125a1fc3e35"
],
"DefaultContext_v7" : [
"9e943c13f5b443eca87958be"
],
"GroupAliasTreeEditWizBackbone_v5" : [
"418ef36760c14e18bd0bbf1d"
],
"DefaultConfig_v3" : [
"c04fc3f84f8541d9991be40f"
],
"TableEditWizBackbone_v5" : [
"f19a77d1b1c84897b7710068"
],
"iterateDefaultGroup_v1" : [
"bdb911f79e224d0ba68bb468"
],
"iterateDefaultGroup_v2" : [
"13b6f68c09134ece9381d1db"
],
"iterateDefaultGroup_v3" : [
"603bd9ff5b2541ee8dfad314"
],
"iterateDefaultGroup_v4" : [
"1c42486bf1ab40f486388095"
],
"DefaultContext_v8" : [
"e3ede45399f24a0aa759be9f"
],
"GroupAliasTreeEditWizBackbone_v6" : [
"d82650c9ab5140ee86815160"
],
"iterateDefaultGroup_v5" : [
"61f23003b0a14ffd919edb49"
],
"DefaultConfig_v4" : [
"d6151dbf60544550a77185d6"
],
"iterateDefaultGroup_v6" : [
"beac21373b9847c5bc752292"
],
"iterateDefaultGroup_v7" : [
"6beb26d5e4fb406484bffd22"
],
"iterateDefaultGroup_v8" : [
"f7119058541c49389980249f"
],
"iterateDefaultGroup_v9" : [
"4730a5d8c4b94661a1a5e3cf"
],
"iterateDefaultGroup_v10" : [
"9d8e9d0f2d4640f8bb01c27a"
],
"iterateDefaultGroup_v11" : [
"2ba28200357848c3b6f192b3"
],
"iterateDefaultGroup_v12" : [
"04ccc19ebf9f44a1af18dc9c"
],
"DefaultConfig_v5" : [
"acd1532253384e5c9417856b"
],
"DefaultContext_v9" : [
"8ade8f28300e4ef599d7cb0e"
],
"GroupAliasTreeEditWizBackbone_v7" : [
"add1c2d9f38f4cc5b42699b1"
],
"GroupAliasTreeEditWizBackbone_v8" : [
"c2eb844311f14b19b5b1601c"
],
"GroupAliasTreeEditWizBackbone_v9" : [
"bb0b2305b9d749df808c170a"
],
"DefaultConfig_v6" : [
"83b1992e04ed4878af3b9fe4"
],
"TableEditWizBackbone_v6" : [
"6c60e11d7f7b45f195409b60"
],
"TableEditWizBackbone_v7" : [
"f0f861ee2ac747ee89dfc72f"
],
"DefaultConfig_v7" : [
"46677bf491f94fdda46c5ba5"
],
"GroupAliasTreeEditWizBackbone_v10" : [
"4b1260b9658640a09540c88f"
],
"DefaultConfig_v8" : [
"bbd57295a9464712a16f764f"
],
"GroupAliasTreeEditWizBackbone_v11" : [
"4fcc3b74c1a941308e67e422"
],
"DefaultConfig_v9" : [
"ca7c8a9d70104cca9741880c"
],
"DefaultContext_v10" : [
"a4ebb2f2e5c44f4aadf3846b"
],
"GroupAliasTreeEditWizBackbone_v12" : [
"daae477d0f2643fa9ead78b7"
],
"GroupAliasTreeEditWizBackbone_v13" : [
"c4005fa3e00448abbccd1376"
],
"GroupAliasTreeEditWizBackbone_v14" : [
"5708a7480a774215b562f0a5"
],
"GroupAliasWizBackbone_v0" : [
"0572bd95a59a4e39b286a985"
],
"DefaultConfig_v10" : [
"79157f52503e471fb58725cb"
],
"GroupAliasTreeEditWizBackbone_v15" : [
"e25caed8a10243de89822270"
],
"DefaultConfig_v11" : [
"2786b02f66f549039530444f"
],
"GroupAliasTreeEditWizBackbone_v16" : [
"62e01317d668414cb4ace580"
],
"GroupAliasTreeEditWizBackbone_v17" : [
"166579e73742459eb5d3cf2c"
],
"GroupAliasTreeEditWizBackbone_v18" : [
"4021cf1b6c6f4fb4bb73a45b"
],
"GroupAliasTreeEditWizBackbone_v19" : [
"4b68bd9cf5cd44f19803d0b8"
],
"GroupAliasTreeEditWizBackbone_v20" : [
"a35ca00105784912b6acf096"
],
"GroupAliasTreeEditWizBackbone_v21" : [
"dd8ad14a4c3141faa3ff32ea"
],
"GroupAliasTreeEditWizBackbone_v22" : [
"1eca8b4658a142578635ad0c"
],
"GroupAliasTreeEditWizBackbone_v23" : [
"b16fd6db4097452881f16761"
],
"GroupAliasTreeEditWizBackbone_v24" : [
"9caf376b51c44fca8d85a784"
],
"GroupAliasTreeEditWizBackbone_v25" : [
"e5f0ae7cae6e4289a2add0fb"
],
"GroupAliasTreeEditWizBackbone_v26" : [
"f599e4f1532444f49f7467b4"
],
"DefaultConfig_v12" : [
"f90b8aa83cc64fdb9d6210c4"
],
"GroupAliasTreeEditWizBackbone_v27" : [
"4258d0dc26a64b12919f18c2"
]
},
"entities.name" : {
"OTSROOT" : [
"006b5c0dcc6c4ef981eb0d36",
"04ccc19ebf9f44a1af18dc9c",
"0572bd95a59a4e39b286a985",
"13b6f68c09134ece9381d1db",
"166579e73742459eb5d3cf2c",
"1c42486bf1ab40f486388095",
"1eca8b4658a142578635ad0c",
"25ea71133c1146fe8635bea1",
"2786b02f66f549039530444f",
"2ba28200357848c3b6f192b3",
"30ffd8fb35d24a2abbda151d",
"31e8a76801b5434cafea2b6e",
"39ca274ed2204dc99439471b",
"4021cf1b6c6f4fb4bb73a45b",
"418ef36760c14e18bd0bbf1d",
"4258d0dc26a64b12919f18c2",
"46677bf491f94fdda46c5ba5",
"4730a5d8c4b94661a1a5e3cf",
"4b1260b9658640a09540c88f",
"4b68bd9cf5cd44f19803d0b8",
"4bc42c0acc604c7a94eedb39",
"4fcc3b74c1a941308e67e422",
"5708a7480a774215b562f0a5",
"603bd9ff5b2541ee8dfad314",
"61f23003b0a14ffd919edb49",
"62e01317d668414cb4ace580",
"6beb26d5e4fb406484bffd22",
"6c60e11d7f7b45f195409b60",
"79157f52503e471fb58725cb",
"83b1992e04ed4878af3b9fe4",
"8ade8f28300e4ef599d7cb0e",
"90370c5734bd4656948cde75",
"93ffaf32364a40b39131c279",
"9caf376b51c44fca8d85a784",
"9d8e9d0f2d4640f8bb01c27a",
"9e943c13f5b443eca87958be",
"a35ca00105784912b6acf096",
"a4ebb2f2e5c44f4aadf3846b",
"a5de921ab4704125a1fc3e35",
"acd1532253384e5c9417856b",
"add1c2d9f38f4cc5b42699b1",
"b16fd6db4097452881f16761",
"bb0b2305b9d749df808c170a",
"bbd57295a9464712a16f764f",
"bdb911f79e224d0ba68bb468",
"beac21373b9847c5bc752292",
"c04fc3f84f8541d9991be40f",
"c1431cc6c960432595299c0b",
"c2eb844311f14b19b5b1601c",
"c4005fa3e00448abbccd1376",
"c644d63d961d4e59a9b8aa3a",
"ca7c8a9d70104cca9741880c",
"cd7d55f6fc2b4279859b6361",
"d6151dbf60544550a77185d6",
"d82650c9ab5140ee86815160",
"daae477d0f2643fa9ead78b7",
"dd8ad14a4c3141faa3ff32ea",
"e1decedee37d4b868b5b90a9",
"e25caed8a10243de89822270",
"e3ede45399f24a0aa759be9f",
"e5f0ae7cae6e4289a2add0fb",
"efaf74cff63543539683d7f4",
"f0f861ee2ac747ee89dfc72f",
"f19a77d1b1c84897b7710068",
"f599e4f1532444f49f7467b4",
"f7119058541c49389980249f",
"f90b8aa83cc64fdb9d6210c4",
"fd084412b3ef47a5a102ea81"
]
},
"aliases.active.name" : {

},
"runs.name" : {

},
"configurations.assigned" : {
"notprovided" : [
"2020-07-21T14:27:46.023-0500",
"2020-07-21T14:27:46.668-0500",
"2020-07-21T14:27:47.583-0500",
"2020-07-21T14:27:48.033-0500",
"2020-07-21T14:42:50.289-0500",
"2020-07-21T14:42:51.165-0500",
"2020-07-21T14:44:16.305-0500",
"2020-07-21T14:44:17.280-0500",
"2020-07-21T14:46:44.163-0500",
"2020-07-21T14:46:45.057-0500",
"2020-07-21T14:47:39.448-0500",
"2020-07-21T14:51:16.405-0500",
"2020-07-21T14:51:17.399-0500",
"2020-07-21T14:55:16.772-0500",
"2020-07-21T14:55:17.334-0500",
"2020-07-21T14:55:56.794-0500",
"2020-07-21T14:55:57.760-0500",
"2020-07-21T14:57:50.164-0500",
"2020-07-21T14:57:51.255-0500",
"2020-07-21T15:25:07.857-0500",
"2020-07-21T15:28:04.227-0500",
"2020-07-21T15:42:20.473-0500",
"2020-07-21T15:45:03.544-0500",
"2020-07-21T15:50:01.121-0500",
"2020-07-21T15:50:02.157-0500",
"2020-07-21T15:57:33.550-0500",
"2020-07-28T10:52:34.073-0500",
"2020-07-28T10:52:35.045-0500",
"2020-07-28T13:01:36.731-0500",
"2020-07-28T13:03:26.940-0500",
"2020-07-28T13:12:57.906-0500",
"2020-07-28T13:15:25.156-0500",
"2020-07-28T13:20:57.074-0500",
"2020-07-28T13:27:37.655-0500",
"2020-09-09T19:37:59.519+0200",
"2020-09-09T19:38:00.608+0200",
"2020-09-09T19:38:01.637+0200",
"2020-09-09T19:38:02.411+0200",
"2020-09-09T19:38:35.975+0200",
"2020-09-09T19:46:42.760+0200",
"2020-09-09T19:46:43.874+0200",
"2020-09-09T19:48:58.126+0200",
"2020-09-09T21:28:06.201+0200",
"2020-09-09T21:28:07.654+0200",
"2020-09-10T19:06:32.281+0200",
"2020-09-10T19:06:33.889+0200",
"2020-09-11T17:53:11.971+0200",
"2020-09-11T17:53:13.232+0200",
"2020-09-11T17:53:14.821+0200",
"2020-09-11T17:53:15.850+0200",
"2020-09-11T17:54:34.416+0200",
"2020-09-15T15:36:53.193+0200",
"2020-09-15T17:25:16.069+0200",
"2020-09-15T17:25:17.641+0200",
"2020-09-15T17:39:23.828+0200",
"2020-09-15T17:39:25.368+0200",
"2020-09-15T18:12:26.197+0200",
"2020-09-15T21:04:23.259+0200",
"2020-09-15T21:12:51.738+0200",
"2020-09-15T21:15:00.259+0200",
"2020-09-16T09:42:55.774+0200",
"2020-09-16T09:57:26.055+0200",
"2020-09-16T11:21:36.323+0200",
"2020-09-16T17:10:19.354+0200",
"2020-09-16T17:17:46.182+0200",
"2020-09-16T17:22:54.182+0200",
"2020-11-10T21:07:06.669+0100",
"2020-11-10T21:07:09.095+0100"
],
"DefaultConfig_v1" : [
"2020-07-21T14:27:47.078-0500"
],
"DefaultContext_v2" : [
"2020-07-21T14:27:47.806-0500"
],
"TableEditWizBackbone_v3" : [
"2020-07-21T14:27:48.084-0500"
],
"DefaultContext_v3" : [
"2020-07-21T14:42:50.585-0500"
],
"GroupAliasTreeEditWizBackbone_v0" : [
"2020-07-21T14:42:51.241-0500"
],
"DefaultConfig_v2" : [
"2020-07-21T14:44:16.796-0500"
],
"GroupAliasTreeEditWizBackbone_v1" : [
"2020-07-21T14:44:17.353-0500"
],
"DefaultContext_v4" : [
"2020-07-21T14:46:44.457-0500"
],
"GroupAliasTreeEditWizBackbone_v2" : [
"2020-07-21T14:46:45.129-0500"
],
"iterateDefaultGroup_v0" : [
"2020-07-21T14:47:40.022-0500"
],
"DefaultContext_v5" : [
"2020-07-21T14:51:16.720-0500"
],
"GroupAliasTreeEditWizBackbone_v3" : [
"2020-07-21T14:51:17.467-0500"
],
"DefaultContext_v6" : [
"2020-07-21T14:55:17.063-0500"
],
"GroupAliasTreeEditWizBackbone_v4" : [
"2020-07-21T14:55:17.422-0500"
],
"DefaultContext_v7" : [
"2020-07-21T14:55:57.064-0500"
],
"GroupAliasTreeEditWizBackbone_v5" : [
"2020-07-21T14:55:57.841-0500"
],
"DefaultConfig_v3" : [
"2020-07-21T14:57:50.690-0500"
],
"TableEditWizBackbone_v5" : [
"2020-07-21T14:57:51.317-0500"
],
"iterateDefaultGroup_v1" : [
"2020-07-21T15:25:08.427-0500"
],
"iterateDefaultGroup_v2" : [
"2020-07-21T15:28:04.820-0500"
],
"iterateDefaultGroup_v3" : [
"2020-07-21T15:42:21.235-0500"
],
"iterateDefaultGroup_v4" : [
"2020-07-21T15:45:04.166-0500"
],
"DefaultContext_v8" : [
"2020-07-21T15:50:01.432-0500"
],
"GroupAliasTreeEditWizBackbone_v6" : [
"2020-07-21T15:50:02.240-0500"
],
"iterateDefaultGroup_v5" : [
"2020-07-21T15:57:34.133-0500"
],
"DefaultConfig_v4" : [
"2020-07-28T10:52:34.633-0500"
],
"iterateDefaultGroup_v6" : [
"2020-07-28T10:52:35.618-0500"
],
"iterateDefaultGroup_v7" : [
"2020-07-28T13:01:37.325-0500"
],
"iterateDefaultGroup_v8" : [
"2020-07-28T13:03:27.505-0500"
],
"iterateDefaultGroup_v9" : [
"2020-07-28T13:12:58.494-0500"
],
"iterateDefaultGroup_v10" : [
"2020-07-28T13:15:25.736-0500"
],
"iterateDefaultGroup_v11" : [
"2020-07-28T13:20:57.687-0500"
],
"iterateDefaultGroup_v12" : [
"2020-07-28T13:27:38.261-0500"
],
"DefaultConfig_v5" : [
"2020-09-09T19:37:59.929+0200"
],
"DefaultContext_v9" : [
"2020-09-09T19:38:00.834+0200"
],
"GroupAliasTreeEditWizBackbone_v7" : [
"2020-09-09T19:38:01.694+0200"
],
"GroupAliasTreeEditWizBackbone_v8" : [
"2020-09-09T19:38:02.468+0200"
],
"GroupAliasTreeEditWizBackbone_v9" : [
"2020-09-09T19:38:36.033+0200"
],
"DefaultConfig_v6" : [
"2020-09-09T19:46:43.177+0200"
],
"TableEditWizBackbone_v6" : [
"2020-09-09T19:46:43.932+0200"
],
"TableEditWizBackbone_v7" : [
"2020-09-09T19:48:58.191+0200"
],
"DefaultConfig_v7" : [
"2020-09-09T21:28:06.747+0200"
],
"GroupAliasTreeEditWizBackbone_v10" : [
"2020-09-09T21:28:07.732+0200"
],
"DefaultConfig_v8" : [
"2020-09-10T19:06:32.794+0200"
],
"GroupAliasTreeEditWizBackbone_v11" : [
"2020-09-10T19:06:33.988+0200"
],
"DefaultConfig_v9" : [
"2020-09-11T17:53:12.414+0200"
],
"DefaultContext_v10" : [
"2020-09-11T17:53:13.545+0200"
],
"GroupAliasTreeEditWizBackbone_v12" : [
"2020-09-11T17:53:14.881+0200"
],
"GroupAliasTreeEditWizBackbone_v13" : [
"2020-09-11T17:53:15.910+0200"
],
"GroupAliasTreeEditWizBackbone_v14" : [
"2020-09-11T17:54:34.509+0200"
],
"GroupAliasWizBackbone_v0" : [
"2020-09-15T15:36:53.273+0200"
],
"DefaultConfig_v10" : [
"2020-09-15T17:25:16.703+0200"
],
"GroupAliasTreeEditWizBackbone_v15" : [
"2020-09-15T17:25:17.727+0200"
],
"DefaultConfig_v11" : [
"2020-09-15T17:39:24.344+0200"
],
"GroupAliasTreeEditWizBackbone_v16" : [
"2020-09-15T17:39:25.454+0200"
],
"GroupAliasTreeEditWizBackbone_v17" : [
"2020-09-15T18:12:26.276+0200"
],
"GroupAliasTreeEditWizBackbone_v18" : [
"2020-09-15T21:04:23.323+0200"
],
"GroupAliasTreeEditWizBackbone_v19" : [
"2020-09-15T21:12:51.824+0200"
],
"GroupAliasTreeEditWizBackbone_v20" : [
"2020-09-15T21:15:00.351+0200"
],
"GroupAliasTreeEditWizBackbone_v21" : [
"2020-09-16T09:42:55.836+0200"
],
"GroupAliasTreeEditWizBackbone_v22" : [
"2020-09-16T09:57:26.118+0200"
],
"GroupAliasTreeEditWizBackbone_v23" : [
"2020-09-16T11:21:36.404+0200"
],
"GroupAliasTreeEditWizBackbone_v24" : [
"2020-09-16T17:10:19.429+0200"
],
"GroupAliasTreeEditWizBackbone_v25" : [
"2020-09-16T17:17:46.262+0200"
],
"GroupAliasTreeEditWizBackbone_v26" : [
"2020-09-16T17:22:54.287+0200"
],
"DefaultConfig_v12" : [
"2020-11-10T21:07:07.324+0100"
],
"GroupAliasTreeEditWizBackbone_v27" : [
"2020-11-10T21:07:09.161+0100"
]
}
}