{
"ouid" : [
"0352a4924e1c4c3d8de2665c",
"0726ebec44664c32bd81d2d9",
"09fe977b7eef4114925d76d6",
"25b09e8ba0024cb7a4453be4",
"4e8d7c1f489d4eaca336a05a",
"5ddf369210d3451f897c76ed",
"656898fb8f814f32ac432149",
"69973073ad784849b77e6f01",
"8076a1d361d447bca384e793",
"81674a26986046659a041a5c",
"b1f646bb488b4680ad2df978",
"b7164c1c2c9143e3a7aca08a",
"b8e8fc672f5c4621b34bbd0d",
"bb95ecf073a043ada72e5278",
"ded58733ee774b59ae3d886a",
"e88bfb4e43f24e31a8830d2b",
"f9666505acb44cdb933ca171"
],
"version" : {
"0" : [
"4e8d7c1f489d4eaca336a05a"
],
"1" : [
"8076a1d361d447bca384e793"
],
"2" : [
"656898fb8f814f32ac432149"
],
"3" : [
"bb95ecf073a043ada72e5278"
],
"4" : [
"81674a26986046659a041a5c"
],
"5" : [
"ded58733ee774b59ae3d886a"
],
"6" : [
"f9666505acb44cdb933ca171"
],
"7" : [
"0726ebec44664c32bd81d2d9"
],
"8" : [
"b1f646bb488b4680ad2df978"
],
"9" : [
"5ddf369210d3451f897c76ed"
],
"10" : [
"b7164c1c2c9143e3a7aca08a"
],
"11" : [
"09fe977b7eef4114925d76d6"
],
"12" : [
"0352a4924e1c4c3d8de2665c"
],
"13" : [
"b8e8fc672f5c4621b34bbd0d"
],
"14" : [
"25b09e8ba0024cb7a4453be4"
],
"15" : [
"69973073ad784849b77e6f01"
],
"16" : [
"e88bfb4e43f24e31a8830d2b"
]
},
"configurations.name" : {
"notprovided" : [
"0352a4924e1c4c3d8de2665c",
"0726ebec44664c32bd81d2d9",
"09fe977b7eef4114925d76d6",
"25b09e8ba0024cb7a4453be4",
"4e8d7c1f489d4eaca336a05a",
"5ddf369210d3451f897c76ed",
"656898fb8f814f32ac432149",
"69973073ad784849b77e6f01",
"8076a1d361d447bca384e793",
"81674a26986046659a041a5c",
"b1f646bb488b4680ad2df978",
"b7164c1c2c9143e3a7aca08a",
"b8e8fc672f5c4621b34bbd0d",
"bb95ecf073a043ada72e5278",
"ded58733ee774b59ae3d886a",
"e88bfb4e43f24e31a8830d2b",
"f9666505acb44cdb933ca171"
],
"BurninBoxConfiguration_v11" : [
"8076a1d361d447bca384e793"
],
"BurninBoxConfiguration_v12" : [
"8076a1d361d447bca384e793"
],
"BurninBoxConfiguration_v13" : [
"8076a1d361d447bca384e793"
],
"BurninBoxConfiguration_v14" : [
"8076a1d361d447bca384e793"
],
"BurninBoxConfiguration_v15" : [
"8076a1d361d447bca384e793"
],
"BurninBoxConfiguration_v16" : [
"8076a1d361d447bca384e793"
],
"BurninBoxConfiguration_v17" : [
"8076a1d361d447bca384e793"
],
"BurninBoxConfiguration_v18" : [
"8076a1d361d447bca384e793"
],
"BurninBoxConfiguration_v19" : [
"8076a1d361d447bca384e793"
],
"BurninBoxConfiguration_v20" : [
"8076a1d361d447bca384e793"
],
"BurninBoxConfiguration_v21" : [
"8076a1d361d447bca384e793"
],
"BurninBoxConfiguration_v22" : [
"8076a1d361d447bca384e793"
],
"BurninBoxConfiguration_v23" : [
"8076a1d361d447bca384e793"
],
"BurninBoxConfiguration_v24" : [
"8076a1d361d447bca384e793"
],
"BurninBoxConfiguration_v25" : [
"8076a1d361d447bca384e793"
],
"BurninBoxConfiguration_v26" : [
"656898fb8f814f32ac432149"
],
"BurninBoxConfiguration_v27" : [
"bb95ecf073a043ada72e5278"
],
"BurninBoxConfiguration_v28" : [
"bb95ecf073a043ada72e5278"
],
"BurninBoxConfiguration_v29" : [
"bb95ecf073a043ada72e5278"
],
"BurninBoxConfiguration_v30" : [
"bb95ecf073a043ada72e5278"
],
"BurninBoxConfiguration_v31" : [
"bb95ecf073a043ada72e5278"
],
"BurninBoxConfiguration_v32" : [
"bb95ecf073a043ada72e5278"
],
"BurninBoxConfiguration_v33" : [
"bb95ecf073a043ada72e5278"
],
"BurninBoxConfiguration_v34" : [
"bb95ecf073a043ada72e5278"
],
"BurninBoxConfiguration_v35" : [
"bb95ecf073a043ada72e5278"
],
"BurninBoxConfiguration_v36" : [
"bb95ecf073a043ada72e5278"
],
"BurninBoxConfiguration_v37" : [
"81674a26986046659a041a5c"
],
"BurninBoxConfiguration_v38" : [
"81674a26986046659a041a5c"
],
"BurninBoxConfiguration_v39" : [
"81674a26986046659a041a5c"
],
"BurninBoxConfiguration_v40" : [
"81674a26986046659a041a5c"
],
"BurninBoxConfiguration_v41" : [
"81674a26986046659a041a5c"
],
"BurninBoxConfiguration_v42" : [
"81674a26986046659a041a5c"
],
"BurninBoxConfiguration_v43" : [
"81674a26986046659a041a5c"
],
"BurninBoxConfiguration_v44" : [
"81674a26986046659a041a5c"
],
"BurninBoxConfiguration_v45" : [
"81674a26986046659a041a5c"
],
"BurninBoxConfiguration_v46" : [
"81674a26986046659a041a5c"
],
"BurninBoxConfiguration_v47" : [
"81674a26986046659a041a5c"
],
"BurninBoxConfiguration_v48" : [
"81674a26986046659a041a5c"
],
"BurninBoxConfiguration_v49" : [
"ded58733ee774b59ae3d886a"
],
"BurninBoxConfiguration_v50" : [
"ded58733ee774b59ae3d886a"
],
"BurninBoxConfiguration_v51" : [
"ded58733ee774b59ae3d886a"
],
"BurninBoxConfiguration_v52" : [
"ded58733ee774b59ae3d886a"
],
"BurninBoxConfiguration_v53" : [
"b1f646bb488b4680ad2df978"
],
"BurninBoxConfiguration_v54" : [
"5ddf369210d3451f897c76ed"
],
"BurninBoxConfiguration_v55" : [
"5ddf369210d3451f897c76ed"
],
"BurninBoxConfiguration_v56" : [
"5ddf369210d3451f897c76ed"
],
"BurninBoxConfiguration_v57" : [
"5ddf369210d3451f897c76ed"
],
"BurninBoxConfiguration_v58" : [
"5ddf369210d3451f897c76ed"
],
"BurninBoxConfiguration_v59" : [
"b7164c1c2c9143e3a7aca08a"
],
"BurninBoxConfiguration_v60" : [
"b7164c1c2c9143e3a7aca08a"
],
"BurninBoxConfiguration_v61" : [
"b7164c1c2c9143e3a7aca08a"
],
"BurninBoxConfiguration_v62" : [
"b7164c1c2c9143e3a7aca08a"
],
"BurninBoxConfiguration_v63" : [
"b7164c1c2c9143e3a7aca08a"
],
"BurninBoxConfiguration_v64" : [
"b7164c1c2c9143e3a7aca08a"
],
"BurninBoxConfiguration_v65" : [
"b7164c1c2c9143e3a7aca08a"
],
"BurninBoxConfiguration_v66" : [
"b7164c1c2c9143e3a7aca08a"
],
"BurninBoxConfiguration_v67" : [
"b7164c1c2c9143e3a7aca08a"
],
"BurninBoxConfiguration_v68" : [
"b7164c1c2c9143e3a7aca08a"
],
"BurninBoxConfiguration_v69" : [
"b7164c1c2c9143e3a7aca08a"
],
"BurninBoxConfiguration_v70" : [
"b7164c1c2c9143e3a7aca08a"
],
"BurninBoxConfiguration_v71" : [
"b7164c1c2c9143e3a7aca08a"
],
"BurninBoxConfiguration_v72" : [
"09fe977b7eef4114925d76d6"
],
"BurninBoxConfiguration_v73" : [
"b7164c1c2c9143e3a7aca08a"
],
"BurninBoxConfiguration_v74" : [
"b7164c1c2c9143e3a7aca08a"
],
"BurninBoxConfiguration_v75" : [
"09fe977b7eef4114925d76d6"
],
"BurninBoxConfiguration_v76" : [
"09fe977b7eef4114925d76d6"
],
"BurninBoxConfiguration_v77" : [
"09fe977b7eef4114925d76d6"
],
"BurninBoxConfiguration_v78" : [
"09fe977b7eef4114925d76d6"
],
"BurninBoxConfiguration_v79" : [
"09fe977b7eef4114925d76d6"
],
"BurninBoxConfiguration_v80" : [
"09fe977b7eef4114925d76d6"
],
"BurninBoxConfiguration_v81" : [
"09fe977b7eef4114925d76d6"
],
"BurninBoxConfiguration_v82" : [
"09fe977b7eef4114925d76d6"
],
"BurninBoxConfiguration_v83" : [
"09fe977b7eef4114925d76d6"
],
"BurninBoxConfiguration_v84" : [
"09fe977b7eef4114925d76d6"
],
"BurninBoxConfiguration_v85" : [
"09fe977b7eef4114925d76d6"
],
"BurninBoxConfiguration_v86" : [
"09fe977b7eef4114925d76d6"
],
"BurninBoxConfiguration_v87" : [
"09fe977b7eef4114925d76d6"
],
"BurninBoxConfiguration_v88" : [
"09fe977b7eef4114925d76d6"
],
"BurninBoxConfiguration_v89" : [
"09fe977b7eef4114925d76d6"
],
"BurninBoxConfiguration_v90" : [
"09fe977b7eef4114925d76d6"
],
"BurninBoxConfiguration_v91" : [
"09fe977b7eef4114925d76d6"
],
"BurninBoxConfiguration_v92" : [
"09fe977b7eef4114925d76d6"
],
"BurninBoxConfiguration_v93" : [
"09fe977b7eef4114925d76d6"
],
"BurninBoxConfiguration_v94" : [
"09fe977b7eef4114925d76d6"
],
"BurninBoxConfiguration_v95" : [
"09fe977b7eef4114925d76d6"
],
"BurninBoxConfiguration_v96" : [
"09fe977b7eef4114925d76d6"
],
"BurninBoxConfiguration_v97" : [
"09fe977b7eef4114925d76d6"
],
"BurninBoxConfiguration_v98" : [
"09fe977b7eef4114925d76d6"
],
"BurninBoxConfiguration_v99" : [
"09fe977b7eef4114925d76d6"
],
"BurninBoxConfiguration_v100" : [
"09fe977b7eef4114925d76d6"
],
"BurninBoxConfiguration_v101" : [
"09fe977b7eef4114925d76d6"
],
"BurninBoxConfiguration_v102" : [
"09fe977b7eef4114925d76d6"
],
"BurninBoxConfiguration_v103" : [
"09fe977b7eef4114925d76d6"
],
"BurninBoxConfiguration_v104" : [
"09fe977b7eef4114925d76d6"
],
"BurninBoxConfiguration_v105" : [
"09fe977b7eef4114925d76d6"
],
"BurninBoxConfiguration_v106" : [
"09fe977b7eef4114925d76d6"
],
"BurninBoxConfiguration_v107" : [
"09fe977b7eef4114925d76d6"
],
"BurninBoxConfiguration_v108" : [
"09fe977b7eef4114925d76d6"
],
"BurninBoxConfiguration_v109" : [
"09fe977b7eef4114925d76d6"
],
"BurninBoxConfiguration_v110" : [
"09fe977b7eef4114925d76d6"
],
"BurninBoxConfiguration_v111" : [
"09fe977b7eef4114925d76d6"
],
"BurninBoxConfiguration_v112" : [
"09fe977b7eef4114925d76d6"
],
"BurninBoxConfiguration_v113" : [
"09fe977b7eef4114925d76d6"
],
"BurninBoxConfiguration_v114" : [
"09fe977b7eef4114925d76d6"
],
"BurninBoxConfiguration_v115" : [
"09fe977b7eef4114925d76d6"
],
"BurninBoxConfiguration_v116" : [
"09fe977b7eef4114925d76d6"
],
"BurninBoxConfiguration_v117" : [
"09fe977b7eef4114925d76d6"
],
"BurninBoxConfiguration_v118" : [
"09fe977b7eef4114925d76d6"
],
"BurninBoxConfiguration_v119" : [
"09fe977b7eef4114925d76d6"
],
"BurninBoxConfiguration_v120" : [
"09fe977b7eef4114925d76d6"
],
"BurninBoxConfiguration_v121" : [
"09fe977b7eef4114925d76d6"
],
"BurninBoxConfiguration_v122" : [
"09fe977b7eef4114925d76d6"
],
"BurninBoxConfiguration_v123" : [
"09fe977b7eef4114925d76d6"
],
"BurninBoxConfiguration_v124" : [
"09fe977b7eef4114925d76d6"
],
"BurninBoxConfiguration_v125" : [
"09fe977b7eef4114925d76d6"
],
"BurninBoxConfiguration_v126" : [
"09fe977b7eef4114925d76d6"
],
"BurninBoxConfiguration_v127" : [
"09fe977b7eef4114925d76d6"
],
"BurninBoxConfiguration_v128" : [
"09fe977b7eef4114925d76d6"
],
"BurninBoxConfiguration_v129" : [
"0352a4924e1c4c3d8de2665c"
],
"BurninBoxConfiguration_v130" : [
"b8e8fc672f5c4621b34bbd0d"
],
"BurninBoxConfiguration_v131" : [
"b8e8fc672f5c4621b34bbd0d"
],
"BurninBoxConfiguration_v132" : [
"25b09e8ba0024cb7a4453be4"
],
"BurninBoxConfiguration_v133" : [
"25b09e8ba0024cb7a4453be4"
],
"BurninBoxConfiguration_v134" : [
"25b09e8ba0024cb7a4453be4"
],
"BurninBoxConfiguration_v135" : [
"25b09e8ba0024cb7a4453be4"
],
"BurninBoxConfiguration_v136" : [
"69973073ad784849b77e6f01"
],
"BurninBoxConfiguration_v137" : [
"69973073ad784849b77e6f01"
],
"BurninBoxConfiguration_v138" : [
"69973073ad784849b77e6f01"
],
"BurninBoxConfiguration_v139" : [
"69973073ad784849b77e6f01"
],
"BurninBoxConfiguration_v140" : [
"69973073ad784849b77e6f01"
],
"BurninBoxConfiguration_v141" : [
"69973073ad784849b77e6f01"
],
"BurninBoxConfiguration_v142" : [
"e88bfb4e43f24e31a8830d2b"
],
"BurninBoxConfiguration_v143" : [
"e88bfb4e43f24e31a8830d2b"
],
"BurninBoxConfiguration_v144" : [
"e88bfb4e43f24e31a8830d2b"
],
"BurninBoxConfiguration_v145" : [
"e88bfb4e43f24e31a8830d2b"
],
"BurninBoxConfiguration_v146" : [
"e88bfb4e43f24e31a8830d2b"
],
"BurninBoxConfiguration_v147" : [
"e88bfb4e43f24e31a8830d2b"
],
"BurninBoxConfiguration_v148" : [
"e88bfb4e43f24e31a8830d2b"
],
"BurninBoxConfiguration_v149" : [
"e88bfb4e43f24e31a8830d2b"
],
"BurninBoxConfiguration_v150" : [
"e88bfb4e43f24e31a8830d2b"
],
"BurninBoxConfiguration_v151" : [
"e88bfb4e43f24e31a8830d2b"
],
"BurninBoxConfiguration_v152" : [
"e88bfb4e43f24e31a8830d2b"
],
"BurninBoxConfiguration_v153" : [
"e88bfb4e43f24e31a8830d2b"
],
"BurninBoxConfiguration_v154" : [
"e88bfb4e43f24e31a8830d2b"
],
"BurninBoxConfiguration_v155" : [
"e88bfb4e43f24e31a8830d2b"
],
"BurninBoxConfiguration_v156" : [
"e88bfb4e43f24e31a8830d2b"
],
"BurninBoxConfiguration_v157" : [
"e88bfb4e43f24e31a8830d2b"
],
"BurninBoxConfiguration_v158" : [
"e88bfb4e43f24e31a8830d2b"
],
"BurninBoxConfiguration_v159" : [
"e88bfb4e43f24e31a8830d2b"
],
"BurninBoxConfiguration_v160" : [
"e88bfb4e43f24e31a8830d2b"
],
"BurninBoxConfiguration_v161" : [
"e88bfb4e43f24e31a8830d2b"
],
"BurninBoxConfiguration_v162" : [
"e88bfb4e43f24e31a8830d2b"
],
"BurninBoxConfiguration_v163" : [
"e88bfb4e43f24e31a8830d2b"
],
"BurninBoxConfiguration_v164" : [
"e88bfb4e43f24e31a8830d2b"
],
"BurninBoxConfiguration_v165" : [
"e88bfb4e43f24e31a8830d2b"
],
"BurninBoxConfiguration_v166" : [
"e88bfb4e43f24e31a8830d2b"
]
},
"entities.name" : {
"OTSROOT" : [
"0352a4924e1c4c3d8de2665c",
"0726ebec44664c32bd81d2d9",
"09fe977b7eef4114925d76d6",
"25b09e8ba0024cb7a4453be4",
"4e8d7c1f489d4eaca336a05a",
"5ddf369210d3451f897c76ed",
"656898fb8f814f32ac432149",
"69973073ad784849b77e6f01",
"8076a1d361d447bca384e793",
"81674a26986046659a041a5c",
"b1f646bb488b4680ad2df978",
"b7164c1c2c9143e3a7aca08a",
"b8e8fc672f5c4621b34bbd0d",
"bb95ecf073a043ada72e5278",
"ded58733ee774b59ae3d886a",
"e88bfb4e43f24e31a8830d2b",
"f9666505acb44cdb933ca171"
]
},
"aliases.active.name" : {

},
"runs.name" : {

},
"configurations.assigned" : {
"notprovided" : [
"2020-10-05T17:26:32.185-0500",
"2020-10-05T17:28:50.921-0500",
"2020-10-29T11:52:30.855-0500",
"2020-10-29T11:54:24.299-0500",
"2021-07-08T16:20:42.881-0500",
"2021-07-14T16:15:38.888-0500",
"2021-07-20T16:17:31.246-0500",
"2021-07-20T16:29:29.396-0500",
"2021-07-20T16:39:23.436-0500",
"2021-07-20T17:07:58.594-0500",
"2021-07-21T11:59:31.081-0500",
"2021-09-23T15:47:02.613-0500",
"2023-04-14T10:53:40.356-0500",
"2023-04-14T11:01:19.914-0500",
"2023-04-14T12:25:07.103-0500",
"2023-04-14T15:58:56.733-0500",
"2023-04-18T12:03:52.949-0500"
],
"BurninBoxConfiguration_v11" : [
"2020-10-05T17:39:03.571-0500"
],
"BurninBoxConfiguration_v12" : [
"2020-10-05T17:43:05.812-0500"
],
"BurninBoxConfiguration_v13" : [
"2020-10-09T14:43:39.754-0500"
],
"BurninBoxConfiguration_v14" : [
"2020-10-09T15:30:46.304-0500"
],
"BurninBoxConfiguration_v15" : [
"2020-10-12T10:14:43.206-0500"
],
"BurninBoxConfiguration_v16" : [
"2020-10-12T15:33:08.782-0500"
],
"BurninBoxConfiguration_v17" : [
"2020-10-19T16:16:02.294-0500"
],
"BurninBoxConfiguration_v18" : [
"2020-10-23T11:00:20.105-0500"
],
"BurninBoxConfiguration_v19" : [
"2020-10-26T11:51:21.087-0500"
],
"BurninBoxConfiguration_v20" : [
"2020-10-26T11:51:42.717-0500"
],
"BurninBoxConfiguration_v21" : [
"2020-10-26T11:56:42.194-0500"
],
"BurninBoxConfiguration_v22" : [
"2020-10-26T14:34:34.090-0500"
],
"BurninBoxConfiguration_v23" : [
"2020-10-26T14:53:01.032-0500"
],
"BurninBoxConfiguration_v24" : [
"2020-10-26T15:02:46.279-0500"
],
"BurninBoxConfiguration_v25" : [
"2020-10-27T17:42:10.089-0500"
],
"BurninBoxConfiguration_v26" : [
"2020-10-29T11:52:32.254-0500"
],
"BurninBoxConfiguration_v27" : [
"2020-10-29T11:54:26.037-0500"
],
"BurninBoxConfiguration_v28" : [
"2020-10-29T13:30:24.012-0500"
],
"BurninBoxConfiguration_v29" : [
"2020-10-29T13:45:55.446-0500"
],
"BurninBoxConfiguration_v30" : [
"2020-10-29T13:46:37.696-0500"
],
"BurninBoxConfiguration_v31" : [
"2020-10-29T13:48:02.353-0500"
],
"BurninBoxConfiguration_v32" : [
"2020-10-29T14:39:28.356-0500"
],
"BurninBoxConfiguration_v33" : [
"2021-06-30T16:17:51.348-0500"
],
"BurninBoxConfiguration_v34" : [
"2021-06-30T16:23:47.695-0500"
],
"BurninBoxConfiguration_v35" : [
"2021-07-08T14:06:13.633-0500"
],
"BurninBoxConfiguration_v36" : [
"2021-07-08T14:16:57.831-0500"
],
"BurninBoxConfiguration_v37" : [
"2021-07-08T16:20:44.351-0500"
],
"BurninBoxConfiguration_v38" : [
"2021-07-09T11:47:13.532-0500"
],
"BurninBoxConfiguration_v39" : [
"2021-07-09T11:48:45.665-0500"
],
"BurninBoxConfiguration_v40" : [
"2021-07-09T16:06:00.082-0500"
],
"BurninBoxConfiguration_v41" : [
"2021-07-12T11:04:55.093-0500"
],
"BurninBoxConfiguration_v42" : [
"2021-07-13T12:01:30.879-0500"
],
"BurninBoxConfiguration_v43" : [
"2021-07-13T12:22:05.432-0500"
],
"BurninBoxConfiguration_v44" : [
"2021-07-14T13:05:57.979-0500"
],
"BurninBoxConfiguration_v45" : [
"2021-07-14T14:26:04.138-0500"
],
"BurninBoxConfiguration_v46" : [
"2021-07-14T14:46:56.469-0500"
],
"BurninBoxConfiguration_v47" : [
"2021-07-14T15:24:33.281-0500"
],
"BurninBoxConfiguration_v48" : [
"2021-07-14T16:05:28.850-0500"
],
"BurninBoxConfiguration_v49" : [
"2021-07-14T16:15:40.478-0500"
],
"BurninBoxConfiguration_v50" : [
"2021-07-14T16:17:40.337-0500"
],
"BurninBoxConfiguration_v51" : [
"2021-07-15T11:50:33.308-0500"
],
"BurninBoxConfiguration_v52" : [
"2021-07-20T13:45:53.466-0500"
],
"BurninBoxConfiguration_v53" : [
"2021-07-20T16:41:41.639-0500"
],
"BurninBoxConfiguration_v54" : [
"2021-07-20T17:09:26.327-0500"
],
"BurninBoxConfiguration_v55" : [
"2021-07-20T17:28:39.521-0500"
],
"BurninBoxConfiguration_v56" : [
"2021-07-20T17:46:26.868-0500"
],
"BurninBoxConfiguration_v57" : [
"2021-07-21T11:50:01.416-0500"
],
"BurninBoxConfiguration_v58" : [
"2021-07-21T11:58:37.105-0500"
],
"BurninBoxConfiguration_v59" : [
"2021-07-21T11:59:32.817-0500"
],
"BurninBoxConfiguration_v60" : [
"2021-07-22T18:34:59.810-0500"
],
"BurninBoxConfiguration_v61" : [
"2021-07-23T12:33:56.141-0500"
],
"BurninBoxConfiguration_v62" : [
"2021-07-24T00:54:48.957-0500"
],
"BurninBoxConfiguration_v63" : [
"2021-07-24T12:12:50.551-0500"
],
"BurninBoxConfiguration_v64" : [
"2021-07-25T21:07:15.465-0500"
],
"BurninBoxConfiguration_v65" : [
"2021-07-26T07:43:11.332-0500"
],
"BurninBoxConfiguration_v66" : [
"2021-07-26T18:37:11.441-0500"
],
"BurninBoxConfiguration_v67" : [
"2021-07-27T08:25:40.164-0500"
],
"BurninBoxConfiguration_v68" : [
"2021-08-03T11:10:36.576-0500"
],
"BurninBoxConfiguration_v69" : [
"2021-08-04T12:21:56.937-0500"
],
"BurninBoxConfiguration_v70" : [
"2021-09-02T13:43:33.299-0500"
],
"BurninBoxConfiguration_v71" : [
"2021-09-02T14:03:36.152-0500"
],
"BurninBoxConfiguration_v72" : [
"2021-09-23T15:47:04.548-0500"
],
"BurninBoxConfiguration_v73" : [
"2021-09-23T15:47:41.501-0500"
],
"BurninBoxConfiguration_v74" : [
"2021-09-24T15:36:49.413-0500"
],
"BurninBoxConfiguration_v75" : [
"2021-09-24T15:53:22.381-0500"
],
"BurninBoxConfiguration_v76" : [
"2021-09-24T16:04:21.329-0500"
],
"BurninBoxConfiguration_v77" : [
"2021-09-24T16:28:06.157-0500"
],
"BurninBoxConfiguration_v78" : [
"2021-09-27T09:02:55.792-0500"
],
"BurninBoxConfiguration_v79" : [
"2021-09-27T14:22:24.114-0500"
],
"BurninBoxConfiguration_v80" : [
"2021-09-28T09:24:49.966-0500"
],
"BurninBoxConfiguration_v81" : [
"2021-09-30T09:14:50.255-0500"
],
"BurninBoxConfiguration_v82" : [
"2021-10-01T10:56:20.770-0500"
],
"BurninBoxConfiguration_v83" : [
"2021-10-01T11:01:40.407-0500"
],
"BurninBoxConfiguration_v84" : [
"2021-10-06T10:02:30.685-0500"
],
"BurninBoxConfiguration_v85" : [
"2021-10-07T16:32:39.770-0500"
],
"BurninBoxConfiguration_v86" : [
"2021-10-08T14:03:14.578-0500"
],
"BurninBoxConfiguration_v87" : [
"2021-10-11T16:00:55.400-0500"
],
"BurninBoxConfiguration_v88" : [
"2021-10-12T09:07:16.712-0500"
],
"BurninBoxConfiguration_v89" : [
"2021-10-12T11:11:22.402-0500"
],
"BurninBoxConfiguration_v90" : [
"2021-10-14T17:03:15.816-0500"
],
"BurninBoxConfiguration_v91" : [
"2021-10-15T10:48:30.605-0500"
],
"BurninBoxConfiguration_v92" : [
"2021-10-15T15:50:48.425-0500"
],
"BurninBoxConfiguration_v93" : [
"2021-11-03T16:30:19.366-0500"
],
"BurninBoxConfiguration_v94" : [
"2021-11-10T15:11:01.725-0600"
],
"BurninBoxConfiguration_v95" : [
"2022-04-19T14:35:55.886-0400"
],
"BurninBoxConfiguration_v96" : [
"2022-04-20T10:06:04.926-0400"
],
"BurninBoxConfiguration_v97" : [
"2022-04-20T11:23:51.643-0400"
],
"BurninBoxConfiguration_v98" : [
"2022-06-03T14:30:15.687-0500"
],
"BurninBoxConfiguration_v99" : [
"2022-06-03T14:34:08.578-0500"
],
"BurninBoxConfiguration_v100" : [
"2022-06-07T14:59:58.686-0500"
],
"BurninBoxConfiguration_v101" : [
"2022-06-07T15:05:52.921-0500"
],
"BurninBoxConfiguration_v102" : [
"2022-06-07T16:09:16.864-0500"
],
"BurninBoxConfiguration_v103" : [
"2022-06-10T10:17:25.224-0500"
],
"BurninBoxConfiguration_v104" : [
"2022-06-10T10:18:21.628-0500"
],
"BurninBoxConfiguration_v105" : [
"2022-06-13T14:13:00.445-0500"
],
"BurninBoxConfiguration_v106" : [
"2022-06-13T15:22:17.814-0500"
],
"BurninBoxConfiguration_v107" : [
"2022-06-21T15:37:13.973-0500"
],
"BurninBoxConfiguration_v108" : [
"2022-06-21T15:39:36.543-0500"
],
"BurninBoxConfiguration_v109" : [
"2022-06-30T12:02:30.931-0500"
],
"BurninBoxConfiguration_v110" : [
"2023-01-19T10:05:42.422-0600"
],
"BurninBoxConfiguration_v111" : [
"2023-01-19T10:08:19.003-0600"
],
"BurninBoxConfiguration_v112" : [
"2023-01-19T11:02:44.202-0600"
],
"BurninBoxConfiguration_v113" : [
"2023-01-20T11:51:30.149-0600"
],
"BurninBoxConfiguration_v114" : [
"2023-01-30T11:15:45.184-0600"
],
"BurninBoxConfiguration_v115" : [
"2023-03-01T10:10:33.138-0600"
],
"BurninBoxConfiguration_v116" : [
"2023-03-07T16:36:50.095-0600"
],
"BurninBoxConfiguration_v117" : [
"2023-03-09T15:31:31.180-0600"
],
"BurninBoxConfiguration_v118" : [
"2023-03-15T12:03:55.200-0500"
],
"BurninBoxConfiguration_v119" : [
"2023-03-16T14:10:40.101-0500"
],
"BurninBoxConfiguration_v120" : [
"2023-04-04T11:18:53.457-0500"
],
"BurninBoxConfiguration_v121" : [
"2023-04-04T11:19:16.634-0500"
],
"BurninBoxConfiguration_v122" : [
"2023-04-04T11:23:00.091-0500"
],
"BurninBoxConfiguration_v123" : [
"2023-04-04T13:48:50.926-0500"
],
"BurninBoxConfiguration_v124" : [
"2023-04-04T13:51:58.010-0500"
],
"BurninBoxConfiguration_v125" : [
"2023-04-04T14:30:59.378-0500"
],
"BurninBoxConfiguration_v126" : [
"2023-04-04T16:05:03.575-0500"
],
"BurninBoxConfiguration_v127" : [
"2023-04-07T10:09:31.409-0500"
],
"BurninBoxConfiguration_v128" : [
"2023-04-07T16:20:28.740-0500"
],
"BurninBoxConfiguration_v129" : [
"2023-04-14T10:53:42.965-0500"
],
"BurninBoxConfiguration_v130" : [
"2023-04-14T11:01:22.536-0500"
],
"BurninBoxConfiguration_v131" : [
"2023-04-14T11:05:24.650-0500"
],
"BurninBoxConfiguration_v132" : [
"2023-04-14T12:25:09.758-0500"
],
"BurninBoxConfiguration_v133" : [
"2023-04-14T14:03:25.870-0500"
],
"BurninBoxConfiguration_v134" : [
"2023-04-14T15:36:48.495-0500"
],
"BurninBoxConfiguration_v135" : [
"2023-04-14T15:57:02.993-0500"
],
"BurninBoxConfiguration_v136" : [
"2023-04-14T15:58:59.453-0500"
],
"BurninBoxConfiguration_v137" : [
"2023-04-14T16:18:31.649-0500"
],
"BurninBoxConfiguration_v138" : [
"2023-04-14T16:20:10.883-0500"
],
"BurninBoxConfiguration_v139" : [
"2023-04-17T15:51:47.763-0500"
],
"BurninBoxConfiguration_v140" : [
"2023-04-18T10:48:01.147-0500"
],
"BurninBoxConfiguration_v141" : [
"2023-04-18T12:02:40.236-0500"
],
"BurninBoxConfiguration_v142" : [
"2023-04-18T12:03:55.726-0500"
],
"BurninBoxConfiguration_v143" : [
"2023-04-18T13:48:30.653-0500"
],
"BurninBoxConfiguration_v144" : [
"2023-04-18T14:33:54.000-0500"
],
"BurninBoxConfiguration_v145" : [
"2023-04-18T16:14:30.517-0500"
],
"BurninBoxConfiguration_v146" : [
"2023-04-18T16:20:20.114-0500"
],
"BurninBoxConfiguration_v147" : [
"2023-04-21T15:02:46.970-0500"
],
"BurninBoxConfiguration_v148" : [
"2023-05-09T09:06:43.256-0500"
],
"BurninBoxConfiguration_v149" : [
"2023-05-11T08:26:01.323-0500"
],
"BurninBoxConfiguration_v150" : [
"2023-05-11T14:10:21.751-0500"
],
"BurninBoxConfiguration_v151" : [
"2023-05-11T14:10:58.740-0500"
],
"BurninBoxConfiguration_v152" : [
"2023-05-11T14:12:46.774-0500"
],
"BurninBoxConfiguration_v153" : [
"2023-05-19T11:54:16.624-0500"
],
"BurninBoxConfiguration_v154" : [
"2023-05-19T11:57:26.502-0500"
],
"BurninBoxConfiguration_v155" : [
"2023-05-19T13:22:52.637-0500"
],
"BurninBoxConfiguration_v156" : [
"2023-06-01T09:40:17.826-0500"
],
"BurninBoxConfiguration_v157" : [
"2023-06-01T09:58:08.881-0500"
],
"BurninBoxConfiguration_v158" : [
"2023-06-01T09:59:54.810-0500"
],
"BurninBoxConfiguration_v159" : [
"2023-06-01T10:20:00.880-0500"
],
"BurninBoxConfiguration_v160" : [
"2023-06-01T10:23:57.349-0500"
],
"BurninBoxConfiguration_v161" : [
"2023-06-01T10:27:30.279-0500"
],
"BurninBoxConfiguration_v162" : [
"2023-06-09T12:06:36.467-0500"
],
"BurninBoxConfiguration_v163" : [
"2023-06-09T12:17:05.674-0500"
],
"BurninBoxConfiguration_v164" : [
"2023-06-12T09:41:22.934-0500"
],
"BurninBoxConfiguration_v165" : [
"2023-06-12T11:53:36.093-0500"
],
"BurninBoxConfiguration_v166" : [
"2023-06-12T16:53:39.453-0500"
]
}
}