{
"document" : {
"data" : {
"NAME" : "ARTDAQ_PHYSICS_ANALYZER_PARAMETER_CONFIGURATION",
"COMMENT" : "No comment.",
"AUTHOR" : "rrivera",
"CREATION_TIME" : 1509462666,
"COL_TYPES" : {
"ANALYZER_PARAMETER_GROUP_ID" : "VARCHAR2",
"ANALYZER_PARAMETER_UID" : "VARCHAR2",
"STATUS" : "VARCHAR2",
"ANALYZER_PARAMETER_KEY" : "VARCHAR2",
"ANALYZER_PARAMETER_VALUE" : "VARCHAR2",
"COMMENT_DESCRIPTION" : "VARCHAR2",
"AUTHOR" : "VARCHAR2",
"RECORD_INSERTION_TIME" : "TIMESTAMP WITH TIMEZONE"
},
"DATA_SET" : [
{
"ANALYZER_PARAMETER_GROUP_ID" : "aggregator0PhysicsAnalyzer0PGroup | builder0PhysicsAnalyzer0PGroup",
"ANALYZER_PARAMETER_UID" : "anaylzerModuleP0",
"STATUS" : "On",
"ANALYZER_PARAMETER_KEY" : "fragment_ids",
"ANALYZER_PARAMETER_VALUE" : "[0]",
"COMMENT_DESCRIPTION" : "No Comment",
"AUTHOR" : "DEFAULT",
"RECORD_INSERTION_TIME" : "0"
},
{
"ANALYZER_PARAMETER_GROUP_ID" : "aggregator0PhysicsAnalyzer0PGroup | builder0PhysicsAnalyzer0PGroup",
"ANALYZER_PARAMETER_UID" : "anaylzerModuleP1",
"STATUS" : "On",
"ANALYZER_PARAMETER_KEY" : "fragment_type_labels",
"ANALYZER_PARAMETER_VALUE" : "[ \"DataGen\" ]",
"COMMENT_DESCRIPTION" : "No Comment",
"AUTHOR" : "DEFAULT",
"RECORD_INSERTION_TIME" : "0"
},
{
"ANALYZER_PARAMETER_GROUP_ID" : "aggregator0PhysicsAnalyzer0PGroup | builder0PhysicsAnalyzer0PGroup",
"ANALYZER_PARAMETER_UID" : "anaylzerModuleP2",
"STATUS" : "On",
"ANALYZER_PARAMETER_KEY" : "prescale",
"ANALYZER_PARAMETER_VALUE" : "60",
"COMMENT_DESCRIPTION" : "No Comment",
"AUTHOR" : "DEFAULT",
"RECORD_INSERTION_TIME" : "0"
},
{
"ANALYZER_PARAMETER_GROUP_ID" : "aggregator0PhysicsAnalyzer0PGroup | builder0PhysicsAnalyzer0PGroup",
"ANALYZER_PARAMETER_UID" : "anaylzerModuleP3",
"STATUS" : "On",
"ANALYZER_PARAMETER_KEY" : "write_to_file",
"ANALYZER_PARAMETER_VALUE" : "true",
"COMMENT_DESCRIPTION" : "No Comment",
"AUTHOR" : "DEFAULT",
"RECORD_INSERTION_TIME" : "0"
},
{
"ANALYZER_PARAMETER_GROUP_ID" : "builder0PhysicsAnalyzer0PGroup",
"ANALYZER_PARAMETER_UID" : "anaylzerModuleP4",
"STATUS" : "On",
"ANALYZER_PARAMETER_KEY" : "fileName",
"ANALYZER_PARAMETER_VALUE" : "\"/data/otsdaq/OutputData/WireChamberDQM_evb.root\"",
"COMMENT_DESCRIPTION" : "No Comment",
"AUTHOR" : "eflumerf",
"RECORD_INSERTION_TIME" : "1509378914"
},
{
"ANALYZER_PARAMETER_GROUP_ID" : "aggregator0PhysicsAnalyzer0PGroup",
"ANALYZER_PARAMETER_UID" : "anaylzerModuleP5",
"STATUS" : "On",
"ANALYZER_PARAMETER_KEY" : "fileName",
"ANALYZER_PARAMETER_VALUE" : "\"/tmp/otsdaqdemp_onmon_agg.root\"",
"COMMENT_DESCRIPTION" : "No Comment",
"AUTHOR" : "DEFAULT",
"RECORD_INSERTION_TIME" : "0"
},
{
"ANALYZER_PARAMETER_GROUP_ID" : "aggregator0PhysicsAnalyzer0PGroup | builder0PhysicsAnalyzer0PGroup",
"ANALYZER_PARAMETER_UID" : "wcDQMWriteToNetwork",
"STATUS" : "On",
"ANALYZER_PARAMETER_KEY" : "write_to_network",
"ANALYZER_PARAMETER_VALUE" : "false",
"COMMENT_DESCRIPTION" : "No Comment",
"AUTHOR" : "rrivera",
"RECORD_INSERTION_TIME" : "1509462660"
},
{
"ANALYZER_PARAMETER_GROUP_ID" : "aggregator0PhysicsAnalyzer0PGroup | builder0PhysicsAnalyzer0PGroup",
"ANALYZER_PARAMETER_UID" : "wcDQMNetworkHost",
"STATUS" : "On",
"ANALYZER_PARAMETER_KEY" : "hostname",
"ANALYZER_PARAMETER_VALUE" : "\"127.0.0.1\"",
"COMMENT_DESCRIPTION" : "No Comment",
"AUTHOR" : "rrivera",
"RECORD_INSERTION_TIME" : "1509462645"
},
{
"ANALYZER_PARAMETER_GROUP_ID" : "aggregator0PhysicsAnalyzer0PGroup | builder0PhysicsAnalyzer0PGroup",
"ANALYZER_PARAMETER_UID" : "wcDQMNetworkPort",
"STATUS" : "On",
"ANALYZER_PARAMETER_KEY" : "port",
"ANALYZER_PARAMETER_VALUE" : "45300",
"COMMENT_DESCRIPTION" : "No Comment",
"AUTHOR" : "rrivera",
"RECORD_INSERTION_TIME" : "1509462652"
}
]
},
"metadata" : {

},
"search" : [

]
},
"comments" : [

],
"origin" : {
"source" : "template",
"name" : "notprovided",
"format" : "json",
"created" : "2017-11-08T15:56:03.068-0600",
"rawdata" : [

]
},
"version" : "0",
"entities" : [
{
"name" : "OTSROOT",
"assigned" : "2017-11-08T15:56:03.070-0600"
}
],
"configurations" : [
{
"name" : "notprovided",
"assigned" : "2017-11-08T15:56:03.069-0600"
},
{
"name" : "FTBFConfig_v0",
"assigned" : "2017-11-08T15:56:05.757-0600"
},
{
"name" : "FTBFConfig_v1",
"assigned" : "2017-11-09T09:56:30.381-0600"
},
{
"name" : "FTBFConfig_v2",
"assigned" : "2017-11-09T10:05:59.349-0600"
},
{
"name" : "FTBFConfig_v3",
"assigned" : "2017-11-09T10:37:10.896-0600"
},
{
"name" : "FTBFConfig_v4",
"assigned" : "2017-11-15T11:30:09.685-0600"
},
{
"name" : "FTBFConfig_v5",
"assigned" : "2017-11-15T11:54:56.477-0600"
},
{
"name" : "FTBFConfig_v6",
"assigned" : "2017-11-15T11:57:49.095-0600"
},
{
"name" : "FTBFConfig_v7",
"assigned" : "2017-11-15T12:42:31.497-0600"
},
{
"name" : "FTBFConfig_v8",
"assigned" : "2017-11-15T13:01:02.544-0600"
},
{
"name" : "FTBFConfig_v9",
"assigned" : "2017-11-15T13:02:55.896-0600"
},
{
"name" : "FTBFConfig_v10",
"assigned" : "2017-11-15T13:04:23.476-0600"
},
{
"name" : "FTBFConfig_v11",
"assigned" : "2017-11-15T13:07:50.966-0600"
},
{
"name" : "FTBFConfig_v12",
"assigned" : "2017-11-15T13:11:58.423-0600"
},
{
"name" : "FTBFConfig_v13",
"assigned" : "2017-11-15T13:13:52.354-0600"
},
{
"name" : "FTBFConfig_v14",
"assigned" : "2017-11-15T13:27:27.343-0600"
},
{
"name" : "FTBFConfig_v15",
"assigned" : "2017-11-15T13:35:46.310-0600"
},
{
"name" : "FTBFConfig_v16",
"assigned" : "2017-11-15T13:36:50.958-0600"
},
{
"name" : "FTBFConfig_v17",
"assigned" : "2017-11-15T15:33:29.492-0600"
},
{
"name" : "FTBFConfig_v18",
"assigned" : "2017-11-15T15:35:33.104-0600"
},
{
"name" : "FTBFConfig_v19",
"assigned" : "2017-11-15T15:38:01.961-0600"
},
{
"name" : "FTBFConfig_v20",
"assigned" : "2017-11-15T16:26:29.735-0600"
},
{
"name" : "FTBFConfig_v21",
"assigned" : "2017-11-16T09:22:30.760-0600"
},
{
"name" : "FTBFConfig_v22",
"assigned" : "2017-11-17T10:23:26.969-0600"
},
{
"name" : "FTBFConfig_v23",
"assigned" : "2017-11-17T17:26:44.495-0600"
},
{
"name" : "FTBFConfig_v24",
"assigned" : "2017-11-17T17:58:24.967-0600"
},
{
"name" : "FTBFConfig_v25",
"assigned" : "2017-11-17T18:24:44.650-0600"
},
{
"name" : "FTBFConfig_v26",
"assigned" : "2017-11-17T18:32:21.879-0600"
},
{
"name" : "FTBFConfig_v27",
"assigned" : "2017-11-17T18:43:29.005-0600"
},
{
"name" : "FTBFConfig_v28",
"assigned" : "2017-11-17T18:48:30.978-0600"
},
{
"name" : "FTBFConfig_v29",
"assigned" : "2017-11-20T14:48:29.985-0600"
},
{
"name" : "FTBFConfig_v30",
"assigned" : "2017-11-20T15:39:55.146-0600"
},
{
"name" : "FTBFConfig_v31",
"assigned" : "2017-11-20T16:41:01.118-0600"
},
{
"name" : "FTBFConfig_v32",
"assigned" : "2017-11-20T18:55:34.009-0600"
},
{
"name" : "FTBFConfig_v33",
"assigned" : "2017-11-20T18:57:29.295-0600"
},
{
"name" : "FTBFConfig_v34",
"assigned" : "2017-11-29T17:50:38.812-0600"
},
{
"name" : "FTBFConfig_v35",
"assigned" : "2017-11-29T18:00:31.626-0600"
},
{
"name" : "FTBFConfig_v36",
"assigned" : "2017-11-29T18:35:10.482-0600"
},
{
"name" : "FTBFConfig_v37",
"assigned" : "2017-12-01T09:36:16.717-0600"
},
{
"name" : "FTBFConfig_v38",
"assigned" : "2017-12-01T09:52:00.116-0600"
},
{
"name" : "FTBFConfig_v39",
"assigned" : "2017-12-01T11:51:57.371-0600"
},
{
"name" : "FTBFConfig_v40",
"assigned" : "2017-12-01T12:18:19.314-0600"
},
{
"name" : "FTBFConfig_v41",
"assigned" : "2017-12-01T12:21:01.459-0600"
},
{
"name" : "FTBFConfig_v42",
"assigned" : "2017-12-01T12:43:20.643-0600"
},
{
"name" : "FTBFConfig_v43",
"assigned" : "2017-12-01T12:57:57.951-0600"
},
{
"name" : "FTBFConfig_v44",
"assigned" : "2017-12-01T13:00:50.996-0600"
},
{
"name" : "FTBFConfig_v45",
"assigned" : "2017-12-01T13:25:47.715-0600"
},
{
"name" : "FTBFConfig_v46",
"assigned" : "2017-12-01T13:35:42.506-0600"
},
{
"name" : "FTBFConfig_v47",
"assigned" : "2017-12-01T14:00:50.781-0600"
},
{
"name" : "FTBFConfig_v48",
"assigned" : "2017-12-01T14:03:58.057-0600"
},
{
"name" : "FTBFConfig_v49",
"assigned" : "2017-12-01T15:31:58.262-0600"
},
{
"name" : "FTBFConfig_v52",
"assigned" : "2017-12-01T15:37:29.826-0600"
},
{
"name" : "FTBFConfig_v53",
"assigned" : "2017-12-01T15:40:57.775-0600"
},
{
"name" : "FTBFConfig_v54",
"assigned" : "2017-12-01T15:52:48.084-0600"
},
{
"name" : "FTBFConfig_v55",
"assigned" : "2017-12-01T15:54:33.226-0600"
},
{
"name" : "FTBFConfig_v56",
"assigned" : "2017-12-01T15:55:32.769-0600"
},
{
"name" : "FTBFConfig_v57",
"assigned" : "2017-12-01T15:56:38.563-0600"
},
{
"name" : "FTBFConfig_v58",
"assigned" : "2017-12-01T15:57:36.658-0600"
},
{
"name" : "FTBFConfig_v59",
"assigned" : "2017-12-01T15:58:28.563-0600"
},
{
"name" : "FTBFConfig_v60",
"assigned" : "2017-12-01T15:59:29.748-0600"
},
{
"name" : "FTBFConfig_v61",
"assigned" : "2017-12-01T16:19:39.509-0600"
},
{
"name" : "FTBFConfig_v62",
"assigned" : "2017-12-01T16:22:02.052-0600"
},
{
"name" : "FTBFConfig_v63",
"assigned" : "2017-12-01T16:31:22.669-0600"
},
{
"name" : "FTBFConfig_v64",
"assigned" : "2017-12-01T17:06:29.843-0600"
},
{
"name" : "FTBFConfig_v65",
"assigned" : "2017-12-01T17:32:42.003-0600"
},
{
"name" : "FTBFConfig_v66",
"assigned" : "2017-12-01T20:38:48.321-0600"
},
{
"name" : "FTBFConfig_v67",
"assigned" : "2017-12-01T21:24:59.807-0600"
},
{
"name" : "FTBFConfig_v68",
"assigned" : "2017-12-01T21:42:59.479-0600"
},
{
"name" : "FTBFConfig_v69",
"assigned" : "2017-12-01T21:44:58.101-0600"
},
{
"name" : "FTBFConfig_v70",
"assigned" : "2017-12-01T21:59:17.332-0600"
},
{
"name" : "FTBFConfigNim_v0",
"assigned" : "2017-12-01T22:00:04.037-0600"
},
{
"name" : "FTBFConfigNim_v1",
"assigned" : "2017-12-01T22:13:05.768-0600"
},
{
"name" : "FTBFConfigNim_v2",
"assigned" : "2017-12-01T22:15:53.016-0600"
},
{
"name" : "FTBFConfigNim_v3",
"assigned" : "2017-12-01T22:17:01.141-0600"
},
{
"name" : "FTBFConfigNim_v4",
"assigned" : "2017-12-01T22:19:04.098-0600"
},
{
"name" : "FTBFConfigNim_v5",
"assigned" : "2017-12-01T22:21:54.824-0600"
},
{
"name" : "FTBFConfigNim_v6",
"assigned" : "2017-12-01T22:23:10.976-0600"
},
{
"name" : "FTBFConfigNim_v7",
"assigned" : "2017-12-01T22:25:14.763-0600"
},
{
"name" : "FTBFConfigNim_v8",
"assigned" : "2017-12-01T22:27:02.332-0600"
},
{
"name" : "FTBFConfigNim_v9",
"assigned" : "2017-12-01T22:29:26.578-0600"
},
{
"name" : "FTBFConfigNim_v10",
"assigned" : "2017-12-01T22:52:31.695-0600"
},
{
"name" : "FTBFConfigNim_v11",
"assigned" : "2017-12-01T22:57:26.485-0600"
},
{
"name" : "FTBFConfigNim_v12",
"assigned" : "2017-12-01T23:00:04.753-0600"
},
{
"name" : "FTBFConfigNim_v13",
"assigned" : "2017-12-01T23:52:32.869-0600"
},
{
"name" : "FTBFConfigNim_v14",
"assigned" : "2017-12-01T23:58:07.275-0600"
},
{
"name" : "FTBFConfigNim_v15",
"assigned" : "2017-12-02T00:00:31.542-0600"
},
{
"name" : "FTBFConfigNim_v16",
"assigned" : "2017-12-02T00:13:06.681-0600"
},
{
"name" : "FTBFConfigNim_v17",
"assigned" : "2017-12-02T00:28:25.634-0600"
},
{
"name" : "FTBFConfigNim_v18",
"assigned" : "2017-12-02T00:29:31.698-0600"
},
{
"name" : "FTBFConfigNim_v19",
"assigned" : "2017-12-02T00:31:08.607-0600"
},
{
"name" : "FTBFConfigNim_v20",
"assigned" : "2017-12-02T00:57:24.678-0600"
},
{
"name" : "FTBFConfigNim_v21",
"assigned" : "2017-12-02T10:57:59.234-0600"
},
{
"name" : "FTBFConfigNim_v22",
"assigned" : "2017-12-02T11:08:15.413-0600"
},
{
"name" : "FTBFConfigNim_v23",
"assigned" : "2017-12-02T11:12:36.977-0600"
},
{
"name" : "FTBFConfigNim_v24",
"assigned" : "2017-12-02T11:18:39.883-0600"
},
{
"name" : "FTBFConfigNim_v25",
"assigned" : "2017-12-02T11:27:03.038-0600"
},
{
"name" : "FTBFConfigNim_v26",
"assigned" : "2017-12-02T11:38:34.091-0600"
},
{
"name" : "FTBFConfigNim_v27",
"assigned" : "2017-12-02T11:49:05.254-0600"
},
{
"name" : "FTBFConfigNim_v28",
"assigned" : "2017-12-02T11:55:06.701-0600"
},
{
"name" : "FTBFConfigNim_v29",
"assigned" : "2017-12-02T12:06:23.533-0600"
},
{
"name" : "FTBFConfig_v71",
"assigned" : "2017-12-02T12:24:12.170-0600"
},
{
"name" : "FTBFConfig_v72",
"assigned" : "2017-12-02T12:43:33.015-0600"
},
{
"name" : "FTBFConfig_v73",
"assigned" : "2017-12-02T13:55:32.617-0600"
},
{
"name" : "FTBFConfig_v74",
"assigned" : "2017-12-02T14:09:04.932-0600"
},
{
"name" : "FTBFConfig_v75",
"assigned" : "2017-12-02T14:12:15.757-0600"
},
{
"name" : "FTBFConfig_v76",
"assigned" : "2017-12-02T19:05:50.843-0600"
},
{
"name" : "FTBFConfig_v77",
"assigned" : "2017-12-02T19:12:10.724-0600"
},
{
"name" : "FTBFConfig_v78",
"assigned" : "2017-12-03T14:03:45.852-0600"
},
{
"name" : "FTBFConfig_v79",
"assigned" : "2017-12-03T14:09:04.058-0600"
},
{
"name" : "FTBFConfig_v80",
"assigned" : "2017-12-03T14:11:07.809-0600"
},
{
"name" : "FTBFConfig_v81",
"assigned" : "2017-12-03T14:22:30.837-0600"
},
{
"name" : "FTBFConfig_v82",
"assigned" : "2017-12-03T14:40:35.634-0600"
},
{
"name" : "FTBFConfig_v83",
"assigned" : "2017-12-03T14:45:02.987-0600"
},
{
"name" : "FTBFConfig_v84",
"assigned" : "2017-12-04T14:51:28.352-0600"
},
{
"name" : "FTBFConfig_v85",
"assigned" : "2017-12-04T14:55:41.518-0600"
},
{
"name" : "FTBFConfig_v86",
"assigned" : "2017-12-04T16:51:04.504-0600"
},
{
"name" : "FTBFConfig_v87",
"assigned" : "2017-12-04T16:56:45.119-0600"
},
{
"name" : "FTBFConfig_v88",
"assigned" : "2017-12-04T17:01:09.846-0600"
},
{
"name" : "FTBFConfig_v89",
"assigned" : "2017-12-04T17:03:54.942-0600"
},
{
"name" : "FTBFConfig_v90",
"assigned" : "2017-12-04T17:07:14.573-0600"
},
{
"name" : "FTBFConfig_v91",
"assigned" : "2017-12-04T17:09:23.690-0600"
},
{
"name" : "FTBFConfig_v92",
"assigned" : "2017-12-04T17:11:36.184-0600"
},
{
"name" : "FTBFConfig_v93",
"assigned" : "2017-12-04T21:05:18.787-0600"
},
{
"name" : "FTBFConfig_v94",
"assigned" : "2017-12-04T21:17:09.645-0600"
},
{
"name" : "FTBFConfig_v95",
"assigned" : "2017-12-04T21:41:15.368-0600"
},
{
"name" : "FTBFConfig_v96",
"assigned" : "2017-12-04T22:38:59.983-0600"
},
{
"name" : "FTBFConfig_v97",
"assigned" : "2017-12-04T23:01:10.496-0600"
},
{
"name" : "FTBFConfig_v98",
"assigned" : "2017-12-07T11:07:44.509-0600"
},
{
"name" : "FTBFConfig_v99",
"assigned" : "2017-12-07T11:49:57.183-0600"
},
{
"name" : "FTBFConfig_v100",
"assigned" : "2017-12-07T11:58:23.898-0600"
},
{
"name" : "FTBFConfig_v101",
"assigned" : "2017-12-08T13:30:46.032-0600"
},
{
"name" : "FTBFConfig_v102",
"assigned" : "2017-12-08T13:32:32.898-0600"
},
{
"name" : "FTBFConfig_v103",
"assigned" : "2017-12-12T11:03:02.691-0600"
},
{
"name" : "FTBFConfig_v104",
"assigned" : "2017-12-12T13:50:57.045-0600"
},
{
"name" : "FTBFConfig_v105",
"assigned" : "2017-12-12T15:25:03.089-0600"
},
{
"name" : "FTBFConfig_v106",
"assigned" : "2017-12-13T10:24:21.464-0600"
},
{
"name" : "FTBFConfig_v107",
"assigned" : "2017-12-13T10:27:00.210-0600"
},
{
"name" : "FTBFConfig_v108",
"assigned" : "2018-02-01T21:14:23.652-0600"
},
{
"name" : "FTBFConfig_v109",
"assigned" : "2018-02-01T21:21:00.752-0600"
},
{
"name" : "FTBFConfig_v110",
"assigned" : "2018-02-02T11:25:31.712-0600"
},
{
"name" : "FTBFConfig_v111",
"assigned" : "2018-02-02T11:37:10.534-0600"
},
{
"name" : "FTBFConfig_v112",
"assigned" : "2018-02-02T11:47:13.006-0600"
},
{
"name" : "FTBFConfig_v113",
"assigned" : "2018-02-02T11:53:34.256-0600"
},
{
"name" : "FTBFConfig_v114",
"assigned" : "2018-02-02T12:00:50.358-0600"
},
{
"name" : "FTBFConfig_v115",
"assigned" : "2018-02-02T12:27:11.833-0600"
},
{
"name" : "FTBFConfig_v116",
"assigned" : "2018-02-02T14:28:51.352-0600"
},
{
"name" : "FTBFConfig_v117",
"assigned" : "2018-02-02T14:30:17.674-0600"
},
{
"name" : "FTBFConfig_v118",
"assigned" : "2018-02-02T14:33:58.878-0600"
},
{
"name" : "FTBFConfig_v119",
"assigned" : "2018-02-02T14:36:25.492-0600"
},
{
"name" : "FTBFConfig_v120",
"assigned" : "2018-02-02T14:38:38.855-0600"
},
{
"name" : "FTBFConfig_v121",
"assigned" : "2018-02-02T14:41:48.172-0600"
},
{
"name" : "FTBFConfig_v122",
"assigned" : "2018-02-02T14:50:22.239-0600"
},
{
"name" : "FTBFConfig_v123",
"assigned" : "2018-02-02T14:52:55.045-0600"
},
{
"name" : "FTBFConfig_v124",
"assigned" : "2018-02-02T14:59:48.386-0600"
},
{
"name" : "FTBFConfig_v125",
"assigned" : "2018-02-02T15:04:06.494-0600"
},
{
"name" : "FTBFConfig_v126",
"assigned" : "2018-02-02T15:50:09.679-0600"
},
{
"name" : "FTBFConfig_v127",
"assigned" : "2018-02-02T15:51:29.179-0600"
},
{
"name" : "FTBFConfig_v128",
"assigned" : "2018-02-02T15:52:34.324-0600"
},
{
"name" : "FTBFConfig_v129",
"assigned" : "2018-02-02T16:02:43.222-0600"
},
{
"name" : "FTBFConfig_v130",
"assigned" : "2018-02-02T16:08:42.749-0600"
},
{
"name" : "FTBFConfig_v131",
"assigned" : "2018-02-02T16:11:28.562-0600"
},
{
"name" : "FTBFConfig_v132",
"assigned" : "2018-02-02T16:12:56.404-0600"
},
{
"name" : "FTBFConfig_v133",
"assigned" : "2018-02-02T16:14:27.026-0600"
},
{
"name" : "FTBFConfig_v134",
"assigned" : "2018-02-02T16:26:19.899-0600"
},
{
"name" : "FTBFConfig_v135",
"assigned" : "2018-02-02T16:27:07.022-0600"
},
{
"name" : "FTBFConfig_v136",
"assigned" : "2018-02-02T16:29:28.372-0600"
},
{
"name" : "FTBFConfig_v137",
"assigned" : "2018-02-02T16:31:38.886-0600"
},
{
"name" : "FTBFConfig_v138",
"assigned" : "2018-02-02T16:34:11.612-0600"
},
{
"name" : "FTBFConfig_v139",
"assigned" : "2018-02-02T17:39:27.661-0600"
},
{
"name" : "FTBFConfig_v140",
"assigned" : "2018-02-02T17:42:49.834-0600"
},
{
"name" : "FTBFConfig_v141",
"assigned" : "2018-02-02T17:47:34.999-0600"
},
{
"name" : "FTBFConfig_v142",
"assigned" : "2018-02-02T17:53:58.983-0600"
}
],
"changelog" : "notprovided",
"bookkeeping" : {
"isdeleted" : false,
"isreadonly" : false,
"updates" : [
{
"event" : "addConfiguration",
"timestamp" : "2017-11-08T15:56:03.069-0600",
"value" : {
"name" : "notprovided",
"assigned" : "2017-11-08T15:56:03.069-0600"
}
},
{
"event" : "setVersion",
"timestamp" : "2017-11-08T15:56:03.069-0600",
"value" : {
"name" : "0",
"assigned" : "2017-11-08T15:56:03.069-0600"
}
},
{
"event" : "setCollection",
"timestamp" : "2017-11-08T15:56:03.070-0600",
"value" : {
"name" : "ARTDAQPhysicsAnalyzerParameterConfiguration",
"assigned" : "2017-11-08T15:56:03.070-0600"
}
},
{
"event" : "addEntity",
"timestamp" : "2017-11-08T15:56:03.070-0600",
"value" : {
"name" : "OTSROOT",
"assigned" : "2017-11-08T15:56:03.070-0600"
}
},
{
"event" : "addConfiguration",
"timestamp" : "2017-11-08T15:56:05.757-0600",
"value" : {
"name" : "FTBFConfig_v0",
"assigned" : "2017-11-08T15:56:05.757-0600"
}
},
{
"event" : "addConfiguration",
"timestamp" : "2017-11-09T09:56:30.381-0600",
"value" : {
"name" : "FTBFConfig_v1",
"assigned" : "2017-11-09T09:56:30.381-0600"
}
},
{
"event" : "addConfiguration",
"timestamp" : "2017-11-09T10:05:59.349-0600",
"value" : {
"name" : "FTBFConfig_v2",
"assigned" : "2017-11-09T10:05:59.349-0600"
}
},
{
"event" : "addConfiguration",
"timestamp" : "2017-11-09T10:37:10.896-0600",
"value" : {
"name" : "FTBFConfig_v3",
"assigned" : "2017-11-09T10:37:10.896-0600"
}
},
{
"event" : "addConfiguration",
"timestamp" : "2017-11-15T11:30:09.685-0600",
"value" : {
"name" : "FTBFConfig_v4",
"assigned" : "2017-11-15T11:30:09.685-0600"
}
},
{
"event" : "addConfiguration",
"timestamp" : "2017-11-15T11:54:56.478-0600",
"value" : {
"name" : "FTBFConfig_v5",
"assigned" : "2017-11-15T11:54:56.477-0600"
}
},
{
"event" : "addConfiguration",
"timestamp" : "2017-11-15T11:57:49.095-0600",
"value" : {
"name" : "FTBFConfig_v6",
"assigned" : "2017-11-15T11:57:49.095-0600"
}
},
{
"event" : "addConfiguration",
"timestamp" : "2017-11-15T12:42:31.497-0600",
"value" : {
"name" : "FTBFConfig_v7",
"assigned" : "2017-11-15T12:42:31.497-0600"
}
},
{
"event" : "addConfiguration",
"timestamp" : "2017-11-15T13:01:02.544-0600",
"value" : {
"name" : "FTBFConfig_v8",
"assigned" : "2017-11-15T13:01:02.544-0600"
}
},
{
"event" : "addConfiguration",
"timestamp" : "2017-11-15T13:02:55.896-0600",
"value" : {
"name" : "FTBFConfig_v9",
"assigned" : "2017-11-15T13:02:55.896-0600"
}
},
{
"event" : "addConfiguration",
"timestamp" : "2017-11-15T13:04:23.476-0600",
"value" : {
"name" : "FTBFConfig_v10",
"assigned" : "2017-11-15T13:04:23.476-0600"
}
},
{
"event" : "addConfiguration",
"timestamp" : "2017-11-15T13:07:50.966-0600",
"value" : {
"name" : "FTBFConfig_v11",
"assigned" : "2017-11-15T13:07:50.966-0600"
}
},
{
"event" : "addConfiguration",
"timestamp" : "2017-11-15T13:11:58.423-0600",
"value" : {
"name" : "FTBFConfig_v12",
"assigned" : "2017-11-15T13:11:58.423-0600"
}
},
{
"event" : "addConfiguration",
"timestamp" : "2017-11-15T13:13:52.354-0600",
"value" : {
"name" : "FTBFConfig_v13",
"assigned" : "2017-11-15T13:13:52.354-0600"
}
},
{
"event" : "addConfiguration",
"timestamp" : "2017-11-15T13:27:27.344-0600",
"value" : {
"name" : "FTBFConfig_v14",
"assigned" : "2017-11-15T13:27:27.343-0600"
}
},
{
"event" : "addConfiguration",
"timestamp" : "2017-11-15T13:35:46.310-0600",
"value" : {
"name" : "FTBFConfig_v15",
"assigned" : "2017-11-15T13:35:46.310-0600"
}
},
{
"event" : "addConfiguration",
"timestamp" : "2017-11-15T13:36:50.958-0600",
"value" : {
"name" : "FTBFConfig_v16",
"assigned" : "2017-11-15T13:36:50.958-0600"
}
},
{
"event" : "addConfiguration",
"timestamp" : "2017-11-15T15:33:29.492-0600",
"value" : {
"name" : "FTBFConfig_v17",
"assigned" : "2017-11-15T15:33:29.492-0600"
}
},
{
"event" : "addConfiguration",
"timestamp" : "2017-11-15T15:35:33.104-0600",
"value" : {
"name" : "FTBFConfig_v18",
"assigned" : "2017-11-15T15:35:33.104-0600"
}
},
{
"event" : "addConfiguration",
"timestamp" : "2017-11-15T15:38:01.961-0600",
"value" : {
"name" : "FTBFConfig_v19",
"assigned" : "2017-11-15T15:38:01.961-0600"
}
},
{
"event" : "addConfiguration",
"timestamp" : "2017-11-15T16:26:29.735-0600",
"value" : {
"name" : "FTBFConfig_v20",
"assigned" : "2017-11-15T16:26:29.735-0600"
}
},
{
"event" : "addConfiguration",
"timestamp" : "2017-11-16T09:22:30.760-0600",
"value" : {
"name" : "FTBFConfig_v21",
"assigned" : "2017-11-16T09:22:30.760-0600"
}
},
{
"event" : "addConfiguration",
"timestamp" : "2017-11-17T10:23:26.969-0600",
"value" : {
"name" : "FTBFConfig_v22",
"assigned" : "2017-11-17T10:23:26.969-0600"
}
},
{
"event" : "addConfiguration",
"timestamp" : "2017-11-17T17:26:44.495-0600",
"value" : {
"name" : "FTBFConfig_v23",
"assigned" : "2017-11-17T17:26:44.495-0600"
}
},
{
"event" : "addConfiguration",
"timestamp" : "2017-11-17T17:58:24.967-0600",
"value" : {
"name" : "FTBFConfig_v24",
"assigned" : "2017-11-17T17:58:24.967-0600"
}
},
{
"event" : "addConfiguration",
"timestamp" : "2017-11-17T18:24:44.650-0600",
"value" : {
"name" : "FTBFConfig_v25",
"assigned" : "2017-11-17T18:24:44.650-0600"
}
},
{
"event" : "addConfiguration",
"timestamp" : "2017-11-17T18:32:21.880-0600",
"value" : {
"name" : "FTBFConfig_v26",
"assigned" : "2017-11-17T18:32:21.879-0600"
}
},
{
"event" : "addConfiguration",
"timestamp" : "2017-11-17T18:43:29.005-0600",
"value" : {
"name" : "FTBFConfig_v27",
"assigned" : "2017-11-17T18:43:29.005-0600"
}
},
{
"event" : "addConfiguration",
"timestamp" : "2017-11-17T18:48:30.978-0600",
"value" : {
"name" : "FTBFConfig_v28",
"assigned" : "2017-11-17T18:48:30.978-0600"
}
},
{
"event" : "addConfiguration",
"timestamp" : "2017-11-20T14:48:29.985-0600",
"value" : {
"name" : "FTBFConfig_v29",
"assigned" : "2017-11-20T14:48:29.985-0600"
}
},
{
"event" : "addConfiguration",
"timestamp" : "2017-11-20T15:39:55.146-0600",
"value" : {
"name" : "FTBFConfig_v30",
"assigned" : "2017-11-20T15:39:55.146-0600"
}
},
{
"event" : "addConfiguration",
"timestamp" : "2017-11-20T16:41:01.118-0600",
"value" : {
"name" : "FTBFConfig_v31",
"assigned" : "2017-11-20T16:41:01.118-0600"
}
},
{
"event" : "addConfiguration",
"timestamp" : "2017-11-20T18:55:34.009-0600",
"value" : {
"name" : "FTBFConfig_v32",
"assigned" : "2017-11-20T18:55:34.009-0600"
}
},
{
"event" : "addConfiguration",
"timestamp" : "2017-11-20T18:57:29.296-0600",
"value" : {
"name" : "FTBFConfig_v33",
"assigned" : "2017-11-20T18:57:29.295-0600"
}
},
{
"event" : "addConfiguration",
"timestamp" : "2017-11-29T17:50:38.812-0600",
"value" : {
"name" : "FTBFConfig_v34",
"assigned" : "2017-11-29T17:50:38.812-0600"
}
},
{
"event" : "addConfiguration",
"timestamp" : "2017-11-29T18:00:31.626-0600",
"value" : {
"name" : "FTBFConfig_v35",
"assigned" : "2017-11-29T18:00:31.626-0600"
}
},
{
"event" : "addConfiguration",
"timestamp" : "2017-11-29T18:35:10.482-0600",
"value" : {
"name" : "FTBFConfig_v36",
"assigned" : "2017-11-29T18:35:10.482-0600"
}
},
{
"event" : "addConfiguration",
"timestamp" : "2017-12-01T09:36:16.717-0600",
"value" : {
"name" : "FTBFConfig_v37",
"assigned" : "2017-12-01T09:36:16.717-0600"
}
},
{
"event" : "addConfiguration",
"timestamp" : "2017-12-01T09:52:00.116-0600",
"value" : {
"name" : "FTBFConfig_v38",
"assigned" : "2017-12-01T09:52:00.116-0600"
}
},
{
"event" : "addConfiguration",
"timestamp" : "2017-12-01T11:51:57.371-0600",
"value" : {
"name" : "FTBFConfig_v39",
"assigned" : "2017-12-01T11:51:57.371-0600"
}
},
{
"event" : "addConfiguration",
"timestamp" : "2017-12-01T12:18:19.314-0600",
"value" : {
"name" : "FTBFConfig_v40",
"assigned" : "2017-12-01T12:18:19.314-0600"
}
},
{
"event" : "addConfiguration",
"timestamp" : "2017-12-01T12:21:01.460-0600",
"value" : {
"name" : "FTBFConfig_v41",
"assigned" : "2017-12-01T12:21:01.459-0600"
}
},
{
"event" : "addConfiguration",
"timestamp" : "2017-12-01T12:43:20.643-0600",
"value" : {
"name" : "FTBFConfig_v42",
"assigned" : "2017-12-01T12:43:20.643-0600"
}
},
{
"event" : "addConfiguration",
"timestamp" : "2017-12-01T12:57:57.951-0600",
"value" : {
"name" : "FTBFConfig_v43",
"assigned" : "2017-12-01T12:57:57.951-0600"
}
},
{
"event" : "addConfiguration",
"timestamp" : "2017-12-01T13:00:50.996-0600",
"value" : {
"name" : "FTBFConfig_v44",
"assigned" : "2017-12-01T13:00:50.996-0600"
}
},
{
"event" : "addConfiguration",
"timestamp" : "2017-12-01T13:25:47.715-0600",
"value" : {
"name" : "FTBFConfig_v45",
"assigned" : "2017-12-01T13:25:47.715-0600"
}
},
{
"event" : "addConfiguration",
"timestamp" : "2017-12-01T13:35:42.506-0600",
"value" : {
"name" : "FTBFConfig_v46",
"assigned" : "2017-12-01T13:35:42.506-0600"
}
},
{
"event" : "addConfiguration",
"timestamp" : "2017-12-01T14:00:50.781-0600",
"value" : {
"name" : "FTBFConfig_v47",
"assigned" : "2017-12-01T14:00:50.781-0600"
}
},
{
"event" : "addConfiguration",
"timestamp" : "2017-12-01T14:03:58.057-0600",
"value" : {
"name" : "FTBFConfig_v48",
"assigned" : "2017-12-01T14:03:58.057-0600"
}
},
{
"event" : "addConfiguration",
"timestamp" : "2017-12-01T15:31:58.262-0600",
"value" : {
"name" : "FTBFConfig_v49",
"assigned" : "2017-12-01T15:31:58.262-0600"
}
},
{
"event" : "addConfiguration",
"timestamp" : "2017-12-01T15:37:29.826-0600",
"value" : {
"name" : "FTBFConfig_v52",
"assigned" : "2017-12-01T15:37:29.826-0600"
}
},
{
"event" : "addConfiguration",
"timestamp" : "2017-12-01T15:40:57.776-0600",
"value" : {
"name" : "FTBFConfig_v53",
"assigned" : "2017-12-01T15:40:57.775-0600"
}
},
{
"event" : "addConfiguration",
"timestamp" : "2017-12-01T15:52:48.084-0600",
"value" : {
"name" : "FTBFConfig_v54",
"assigned" : "2017-12-01T15:52:48.084-0600"
}
},
{
"event" : "addConfiguration",
"timestamp" : "2017-12-01T15:54:33.226-0600",
"value" : {
"name" : "FTBFConfig_v55",
"assigned" : "2017-12-01T15:54:33.226-0600"
}
},
{
"event" : "addConfiguration",
"timestamp" : "2017-12-01T15:55:32.769-0600",
"value" : {
"name" : "FTBFConfig_v56",
"assigned" : "2017-12-01T15:55:32.769-0600"
}
},
{
"event" : "addConfiguration",
"timestamp" : "2017-12-01T15:56:38.563-0600",
"value" : {
"name" : "FTBFConfig_v57",
"assigned" : "2017-12-01T15:56:38.563-0600"
}
},
{
"event" : "addConfiguration",
"timestamp" : "2017-12-01T15:57:36.658-0600",
"value" : {
"name" : "FTBFConfig_v58",
"assigned" : "2017-12-01T15:57:36.658-0600"
}
},
{
"event" : "addConfiguration",
"timestamp" : "2017-12-01T15:58:28.563-0600",
"value" : {
"name" : "FTBFConfig_v59",
"assigned" : "2017-12-01T15:58:28.563-0600"
}
},
{
"event" : "addConfiguration",
"timestamp" : "2017-12-01T15:59:29.748-0600",
"value" : {
"name" : "FTBFConfig_v60",
"assigned" : "2017-12-01T15:59:29.748-0600"
}
},
{
"event" : "addConfiguration",
"timestamp" : "2017-12-01T16:19:39.509-0600",
"value" : {
"name" : "FTBFConfig_v61",
"assigned" : "2017-12-01T16:19:39.509-0600"
}
},
{
"event" : "addConfiguration",
"timestamp" : "2017-12-01T16:22:02.052-0600",
"value" : {
"name" : "FTBFConfig_v62",
"assigned" : "2017-12-01T16:22:02.052-0600"
}
},
{
"event" : "addConfiguration",
"timestamp" : "2017-12-01T16:31:22.669-0600",
"value" : {
"name" : "FTBFConfig_v63",
"assigned" : "2017-12-01T16:31:22.669-0600"
}
},
{
"event" : "addConfiguration",
"timestamp" : "2017-12-01T17:06:29.843-0600",
"value" : {
"name" : "FTBFConfig_v64",
"assigned" : "2017-12-01T17:06:29.843-0600"
}
},
{
"event" : "addConfiguration",
"timestamp" : "2017-12-01T17:32:42.003-0600",
"value" : {
"name" : "FTBFConfig_v65",
"assigned" : "2017-12-01T17:32:42.003-0600"
}
},
{
"event" : "addConfiguration",
"timestamp" : "2017-12-01T20:38:48.322-0600",
"value" : {
"name" : "FTBFConfig_v66",
"assigned" : "2017-12-01T20:38:48.321-0600"
}
},
{
"event" : "addConfiguration",
"timestamp" : "2017-12-01T21:24:59.807-0600",
"value" : {
"name" : "FTBFConfig_v67",
"assigned" : "2017-12-01T21:24:59.807-0600"
}
},
{
"event" : "addConfiguration",
"timestamp" : "2017-12-01T21:42:59.480-0600",
"value" : {
"name" : "FTBFConfig_v68",
"assigned" : "2017-12-01T21:42:59.479-0600"
}
},
{
"event" : "addConfiguration",
"timestamp" : "2017-12-01T21:44:58.101-0600",
"value" : {
"name" : "FTBFConfig_v69",
"assigned" : "2017-12-01T21:44:58.101-0600"
}
},
{
"event" : "addConfiguration",
"timestamp" : "2017-12-01T21:59:17.332-0600",
"value" : {
"name" : "FTBFConfig_v70",
"assigned" : "2017-12-01T21:59:17.332-0600"
}
},
{
"event" : "addConfiguration",
"timestamp" : "2017-12-01T22:00:04.038-0600",
"value" : {
"name" : "FTBFConfigNim_v0",
"assigned" : "2017-12-01T22:00:04.037-0600"
}
},
{
"event" : "addConfiguration",
"timestamp" : "2017-12-01T22:13:05.768-0600",
"value" : {
"name" : "FTBFConfigNim_v1",
"assigned" : "2017-12-01T22:13:05.768-0600"
}
},
{
"event" : "addConfiguration",
"timestamp" : "2017-12-01T22:15:53.016-0600",
"value" : {
"name" : "FTBFConfigNim_v2",
"assigned" : "2017-12-01T22:15:53.016-0600"
}
},
{
"event" : "addConfiguration",
"timestamp" : "2017-12-01T22:17:01.142-0600",
"value" : {
"name" : "FTBFConfigNim_v3",
"assigned" : "2017-12-01T22:17:01.141-0600"
}
},
{
"event" : "addConfiguration",
"timestamp" : "2017-12-01T22:19:04.098-0600",
"value" : {
"name" : "FTBFConfigNim_v4",
"assigned" : "2017-12-01T22:19:04.098-0600"
}
},
{
"event" : "addConfiguration",
"timestamp" : "2017-12-01T22:21:54.824-0600",
"value" : {
"name" : "FTBFConfigNim_v5",
"assigned" : "2017-12-01T22:21:54.824-0600"
}
},
{
"event" : "addConfiguration",
"timestamp" : "2017-12-01T22:23:10.976-0600",
"value" : {
"name" : "FTBFConfigNim_v6",
"assigned" : "2017-12-01T22:23:10.976-0600"
}
},
{
"event" : "addConfiguration",
"timestamp" : "2017-12-01T22:25:14.763-0600",
"value" : {
"name" : "FTBFConfigNim_v7",
"assigned" : "2017-12-01T22:25:14.763-0600"
}
},
{
"event" : "addConfiguration",
"timestamp" : "2017-12-01T22:27:02.332-0600",
"value" : {
"name" : "FTBFConfigNim_v8",
"assigned" : "2017-12-01T22:27:02.332-0600"
}
},
{
"event" : "addConfiguration",
"timestamp" : "2017-12-01T22:29:26.578-0600",
"value" : {
"name" : "FTBFConfigNim_v9",
"assigned" : "2017-12-01T22:29:26.578-0600"
}
},
{
"event" : "addConfiguration",
"timestamp" : "2017-12-01T22:52:31.695-0600",
"value" : {
"name" : "FTBFConfigNim_v10",
"assigned" : "2017-12-01T22:52:31.695-0600"
}
},
{
"event" : "addConfiguration",
"timestamp" : "2017-12-01T22:57:26.485-0600",
"value" : {
"name" : "FTBFConfigNim_v11",
"assigned" : "2017-12-01T22:57:26.485-0600"
}
},
{
"event" : "addConfiguration",
"timestamp" : "2017-12-01T23:00:04.753-0600",
"value" : {
"name" : "FTBFConfigNim_v12",
"assigned" : "2017-12-01T23:00:04.753-0600"
}
},
{
"event" : "addConfiguration",
"timestamp" : "2017-12-01T23:52:32.869-0600",
"value" : {
"name" : "FTBFConfigNim_v13",
"assigned" : "2017-12-01T23:52:32.869-0600"
}
},
{
"event" : "addConfiguration",
"timestamp" : "2017-12-01T23:58:07.275-0600",
"value" : {
"name" : "FTBFConfigNim_v14",
"assigned" : "2017-12-01T23:58:07.275-0600"
}
},
{
"event" : "addConfiguration",
"timestamp" : "2017-12-02T00:00:31.542-0600",
"value" : {
"name" : "FTBFConfigNim_v15",
"assigned" : "2017-12-02T00:00:31.542-0600"
}
},
{
"event" : "addConfiguration",
"timestamp" : "2017-12-02T00:13:06.681-0600",
"value" : {
"name" : "FTBFConfigNim_v16",
"assigned" : "2017-12-02T00:13:06.681-0600"
}
},
{
"event" : "addConfiguration",
"timestamp" : "2017-12-02T00:28:25.634-0600",
"value" : {
"name" : "FTBFConfigNim_v17",
"assigned" : "2017-12-02T00:28:25.634-0600"
}
},
{
"event" : "addConfiguration",
"timestamp" : "2017-12-02T00:29:31.698-0600",
"value" : {
"name" : "FTBFConfigNim_v18",
"assigned" : "2017-12-02T00:29:31.698-0600"
}
},
{
"event" : "addConfiguration",
"timestamp" : "2017-12-02T00:31:08.607-0600",
"value" : {
"name" : "FTBFConfigNim_v19",
"assigned" : "2017-12-02T00:31:08.607-0600"
}
},
{
"event" : "addConfiguration",
"timestamp" : "2017-12-02T00:57:24.679-0600",
"value" : {
"name" : "FTBFConfigNim_v20",
"assigned" : "2017-12-02T00:57:24.678-0600"
}
},
{
"event" : "addConfiguration",
"timestamp" : "2017-12-02T10:57:59.234-0600",
"value" : {
"name" : "FTBFConfigNim_v21",
"assigned" : "2017-12-02T10:57:59.234-0600"
}
},
{
"event" : "addConfiguration",
"timestamp" : "2017-12-02T11:08:15.413-0600",
"value" : {
"name" : "FTBFConfigNim_v22",
"assigned" : "2017-12-02T11:08:15.413-0600"
}
},
{
"event" : "addConfiguration",
"timestamp" : "2017-12-02T11:12:36.977-0600",
"value" : {
"name" : "FTBFConfigNim_v23",
"assigned" : "2017-12-02T11:12:36.977-0600"
}
},
{
"event" : "addConfiguration",
"timestamp" : "2017-12-02T11:18:39.883-0600",
"value" : {
"name" : "FTBFConfigNim_v24",
"assigned" : "2017-12-02T11:18:39.883-0600"
}
},
{
"event" : "addConfiguration",
"timestamp" : "2017-12-02T11:27:03.039-0600",
"value" : {
"name" : "FTBFConfigNim_v25",
"assigned" : "2017-12-02T11:27:03.038-0600"
}
},
{
"event" : "addConfiguration",
"timestamp" : "2017-12-02T11:38:34.091-0600",
"value" : {
"name" : "FTBFConfigNim_v26",
"assigned" : "2017-12-02T11:38:34.091-0600"
}
},
{
"event" : "addConfiguration",
"timestamp" : "2017-12-02T11:49:05.254-0600",
"value" : {
"name" : "FTBFConfigNim_v27",
"assigned" : "2017-12-02T11:49:05.254-0600"
}
},
{
"event" : "addConfiguration",
"timestamp" : "2017-12-02T11:55:06.701-0600",
"value" : {
"name" : "FTBFConfigNim_v28",
"assigned" : "2017-12-02T11:55:06.701-0600"
}
},
{
"event" : "addConfiguration",
"timestamp" : "2017-12-02T12:06:23.534-0600",
"value" : {
"name" : "FTBFConfigNim_v29",
"assigned" : "2017-12-02T12:06:23.533-0600"
}
},
{
"event" : "addConfiguration",
"timestamp" : "2017-12-02T12:24:12.170-0600",
"value" : {
"name" : "FTBFConfig_v71",
"assigned" : "2017-12-02T12:24:12.170-0600"
}
},
{
"event" : "addConfiguration",
"timestamp" : "2017-12-02T12:43:33.015-0600",
"value" : {
"name" : "FTBFConfig_v72",
"assigned" : "2017-12-02T12:43:33.015-0600"
}
},
{
"event" : "addConfiguration",
"timestamp" : "2017-12-02T13:55:32.617-0600",
"value" : {
"name" : "FTBFConfig_v73",
"assigned" : "2017-12-02T13:55:32.617-0600"
}
},
{
"event" : "addConfiguration",
"timestamp" : "2017-12-02T14:09:04.932-0600",
"value" : {
"name" : "FTBFConfig_v74",
"assigned" : "2017-12-02T14:09:04.932-0600"
}
},
{
"event" : "addConfiguration",
"timestamp" : "2017-12-02T14:12:15.757-0600",
"value" : {
"name" : "FTBFConfig_v75",
"assigned" : "2017-12-02T14:12:15.757-0600"
}
},
{
"event" : "addConfiguration",
"timestamp" : "2017-12-02T19:05:50.843-0600",
"value" : {
"name" : "FTBFConfig_v76",
"assigned" : "2017-12-02T19:05:50.843-0600"
}
},
{
"event" : "addConfiguration",
"timestamp" : "2017-12-02T19:12:10.725-0600",
"value" : {
"name" : "FTBFConfig_v77",
"assigned" : "2017-12-02T19:12:10.724-0600"
}
},
{
"event" : "addConfiguration",
"timestamp" : "2017-12-03T14:03:45.852-0600",
"value" : {
"name" : "FTBFConfig_v78",
"assigned" : "2017-12-03T14:03:45.852-0600"
}
},
{
"event" : "addConfiguration",
"timestamp" : "2017-12-03T14:09:04.058-0600",
"value" : {
"name" : "FTBFConfig_v79",
"assigned" : "2017-12-03T14:09:04.058-0600"
}
},
{
"event" : "addConfiguration",
"timestamp" : "2017-12-03T14:11:07.809-0600",
"value" : {
"name" : "FTBFConfig_v80",
"assigned" : "2017-12-03T14:11:07.809-0600"
}
},
{
"event" : "addConfiguration",
"timestamp" : "2017-12-03T14:22:30.837-0600",
"value" : {
"name" : "FTBFConfig_v81",
"assigned" : "2017-12-03T14:22:30.837-0600"
}
},
{
"event" : "addConfiguration",
"timestamp" : "2017-12-03T14:40:35.635-0600",
"value" : {
"name" : "FTBFConfig_v82",
"assigned" : "2017-12-03T14:40:35.634-0600"
}
},
{
"event" : "addConfiguration",
"timestamp" : "2017-12-03T14:45:02.987-0600",
"value" : {
"name" : "FTBFConfig_v83",
"assigned" : "2017-12-03T14:45:02.987-0600"
}
},
{
"event" : "addConfiguration",
"timestamp" : "2017-12-04T14:51:28.352-0600",
"value" : {
"name" : "FTBFConfig_v84",
"assigned" : "2017-12-04T14:51:28.352-0600"
}
},
{
"event" : "addConfiguration",
"timestamp" : "2017-12-04T14:55:41.518-0600",
"value" : {
"name" : "FTBFConfig_v85",
"assigned" : "2017-12-04T14:55:41.518-0600"
}
},
{
"event" : "addConfiguration",
"timestamp" : "2017-12-04T16:51:04.504-0600",
"value" : {
"name" : "FTBFConfig_v86",
"assigned" : "2017-12-04T16:51:04.504-0600"
}
},
{
"event" : "addConfiguration",
"timestamp" : "2017-12-04T16:56:45.119-0600",
"value" : {
"name" : "FTBFConfig_v87",
"assigned" : "2017-12-04T16:56:45.119-0600"
}
},
{
"event" : "addConfiguration",
"timestamp" : "2017-12-04T17:01:09.846-0600",
"value" : {
"name" : "FTBFConfig_v88",
"assigned" : "2017-12-04T17:01:09.846-0600"
}
},
{
"event" : "addConfiguration",
"timestamp" : "2017-12-04T17:03:54.942-0600",
"value" : {
"name" : "FTBFConfig_v89",
"assigned" : "2017-12-04T17:03:54.942-0600"
}
},
{
"event" : "addConfiguration",
"timestamp" : "2017-12-04T17:07:14.573-0600",
"value" : {
"name" : "FTBFConfig_v90",
"assigned" : "2017-12-04T17:07:14.573-0600"
}
},
{
"event" : "addConfiguration",
"timestamp" : "2017-12-04T17:09:23.690-0600",
"value" : {
"name" : "FTBFConfig_v91",
"assigned" : "2017-12-04T17:09:23.690-0600"
}
},
{
"event" : "addConfiguration",
"timestamp" : "2017-12-04T17:11:36.185-0600",
"value" : {
"name" : "FTBFConfig_v92",
"assigned" : "2017-12-04T17:11:36.184-0600"
}
},
{
"event" : "addConfiguration",
"timestamp" : "2017-12-04T21:05:18.788-0600",
"value" : {
"name" : "FTBFConfig_v93",
"assigned" : "2017-12-04T21:05:18.787-0600"
}
},
{
"event" : "addConfiguration",
"timestamp" : "2017-12-04T21:17:09.645-0600",
"value" : {
"name" : "FTBFConfig_v94",
"assigned" : "2017-12-04T21:17:09.645-0600"
}
},
{
"event" : "addConfiguration",
"timestamp" : "2017-12-04T21:41:15.368-0600",
"value" : {
"name" : "FTBFConfig_v95",
"assigned" : "2017-12-04T21:41:15.368-0600"
}
},
{
"event" : "addConfiguration",
"timestamp" : "2017-12-04T22:38:59.983-0600",
"value" : {
"name" : "FTBFConfig_v96",
"assigned" : "2017-12-04T22:38:59.983-0600"
}
},
{
"event" : "addConfiguration",
"timestamp" : "2017-12-04T23:01:10.496-0600",
"value" : {
"name" : "FTBFConfig_v97",
"assigned" : "2017-12-04T23:01:10.496-0600"
}
},
{
"event" : "addConfiguration",
"timestamp" : "2017-12-07T11:07:44.509-0600",
"value" : {
"name" : "FTBFConfig_v98",
"assigned" : "2017-12-07T11:07:44.509-0600"
}
},
{
"event" : "addConfiguration",
"timestamp" : "2017-12-07T11:49:57.183-0600",
"value" : {
"name" : "FTBFConfig_v99",
"assigned" : "2017-12-07T11:49:57.183-0600"
}
},
{
"event" : "addConfiguration",
"timestamp" : "2017-12-07T11:58:23.898-0600",
"value" : {
"name" : "FTBFConfig_v100",
"assigned" : "2017-12-07T11:58:23.898-0600"
}
},
{
"event" : "addConfiguration",
"timestamp" : "2017-12-08T13:30:46.032-0600",
"value" : {
"name" : "FTBFConfig_v101",
"assigned" : "2017-12-08T13:30:46.032-0600"
}
},
{
"event" : "addConfiguration",
"timestamp" : "2017-12-08T13:32:32.898-0600",
"value" : {
"name" : "FTBFConfig_v102",
"assigned" : "2017-12-08T13:32:32.898-0600"
}
},
{
"event" : "addConfiguration",
"timestamp" : "2017-12-12T11:03:02.691-0600",
"value" : {
"name" : "FTBFConfig_v103",
"assigned" : "2017-12-12T11:03:02.691-0600"
}
},
{
"event" : "addConfiguration",
"timestamp" : "2017-12-12T13:50:57.045-0600",
"value" : {
"name" : "FTBFConfig_v104",
"assigned" : "2017-12-12T13:50:57.045-0600"
}
},
{
"event" : "addConfiguration",
"timestamp" : "2017-12-12T15:25:03.089-0600",
"value" : {
"name" : "FTBFConfig_v105",
"assigned" : "2017-12-12T15:25:03.089-0600"
}
},
{
"event" : "addConfiguration",
"timestamp" : "2017-12-13T10:24:21.464-0600",
"value" : {
"name" : "FTBFConfig_v106",
"assigned" : "2017-12-13T10:24:21.464-0600"
}
},
{
"event" : "addConfiguration",
"timestamp" : "2017-12-13T10:27:00.210-0600",
"value" : {
"name" : "FTBFConfig_v107",
"assigned" : "2017-12-13T10:27:00.210-0600"
}
},
{
"event" : "addConfiguration",
"timestamp" : "2018-02-01T21:14:23.652-0600",
"value" : {
"name" : "FTBFConfig_v108",
"assigned" : "2018-02-01T21:14:23.652-0600"
}
},
{
"event" : "addConfiguration",
"timestamp" : "2018-02-01T21:21:00.752-0600",
"value" : {
"name" : "FTBFConfig_v109",
"assigned" : "2018-02-01T21:21:00.752-0600"
}
},
{
"event" : "addConfiguration",
"timestamp" : "2018-02-02T11:25:31.712-0600",
"value" : {
"name" : "FTBFConfig_v110",
"assigned" : "2018-02-02T11:25:31.712-0600"
}
},
{
"event" : "addConfiguration",
"timestamp" : "2018-02-02T11:37:10.534-0600",
"value" : {
"name" : "FTBFConfig_v111",
"assigned" : "2018-02-02T11:37:10.534-0600"
}
},
{
"event" : "addConfiguration",
"timestamp" : "2018-02-02T11:47:13.006-0600",
"value" : {
"name" : "FTBFConfig_v112",
"assigned" : "2018-02-02T11:47:13.006-0600"
}
},
{
"event" : "addConfiguration",
"timestamp" : "2018-02-02T11:53:34.256-0600",
"value" : {
"name" : "FTBFConfig_v113",
"assigned" : "2018-02-02T11:53:34.256-0600"
}
},
{
"event" : "addConfiguration",
"timestamp" : "2018-02-02T12:00:50.359-0600",
"value" : {
"name" : "FTBFConfig_v114",
"assigned" : "2018-02-02T12:00:50.358-0600"
}
},
{
"event" : "addConfiguration",
"timestamp" : "2018-02-02T12:27:11.834-0600",
"value" : {
"name" : "FTBFConfig_v115",
"assigned" : "2018-02-02T12:27:11.833-0600"
}
},
{
"event" : "addConfiguration",
"timestamp" : "2018-02-02T14:28:51.352-0600",
"value" : {
"name" : "FTBFConfig_v116",
"assigned" : "2018-02-02T14:28:51.352-0600"
}
},
{
"event" : "addConfiguration",
"timestamp" : "2018-02-02T14:30:17.674-0600",
"value" : {
"name" : "FTBFConfig_v117",
"assigned" : "2018-02-02T14:30:17.674-0600"
}
},
{
"event" : "addConfiguration",
"timestamp" : "2018-02-02T14:33:58.878-0600",
"value" : {
"name" : "FTBFConfig_v118",
"assigned" : "2018-02-02T14:33:58.878-0600"
}
},
{
"event" : "addConfiguration",
"timestamp" : "2018-02-02T14:36:25.492-0600",
"value" : {
"name" : "FTBFConfig_v119",
"assigned" : "2018-02-02T14:36:25.492-0600"
}
},
{
"event" : "addConfiguration",
"timestamp" : "2018-02-02T14:38:38.855-0600",
"value" : {
"name" : "FTBFConfig_v120",
"assigned" : "2018-02-02T14:38:38.855-0600"
}
},
{
"event" : "addConfiguration",
"timestamp" : "2018-02-02T14:41:48.172-0600",
"value" : {
"name" : "FTBFConfig_v121",
"assigned" : "2018-02-02T14:41:48.172-0600"
}
},
{
"event" : "addConfiguration",
"timestamp" : "2018-02-02T14:50:22.239-0600",
"value" : {
"name" : "FTBFConfig_v122",
"assigned" : "2018-02-02T14:50:22.239-0600"
}
},
{
"event" : "addConfiguration",
"timestamp" : "2018-02-02T14:52:55.046-0600",
"value" : {
"name" : "FTBFConfig_v123",
"assigned" : "2018-02-02T14:52:55.045-0600"
}
},
{
"event" : "addConfiguration",
"timestamp" : "2018-02-02T14:59:48.386-0600",
"value" : {
"name" : "FTBFConfig_v124",
"assigned" : "2018-02-02T14:59:48.386-0600"
}
},
{
"event" : "addConfiguration",
"timestamp" : "2018-02-02T15:04:06.494-0600",
"value" : {
"name" : "FTBFConfig_v125",
"assigned" : "2018-02-02T15:04:06.494-0600"
}
},
{
"event" : "addConfiguration",
"timestamp" : "2018-02-02T15:50:09.680-0600",
"value" : {
"name" : "FTBFConfig_v126",
"assigned" : "2018-02-02T15:50:09.679-0600"
}
},
{
"event" : "addConfiguration",
"timestamp" : "2018-02-02T15:51:29.180-0600",
"value" : {
"name" : "FTBFConfig_v127",
"assigned" : "2018-02-02T15:51:29.179-0600"
}
},
{
"event" : "addConfiguration",
"timestamp" : "2018-02-02T15:52:34.325-0600",
"value" : {
"name" : "FTBFConfig_v128",
"assigned" : "2018-02-02T15:52:34.324-0600"
}
},
{
"event" : "addConfiguration",
"timestamp" : "2018-02-02T16:02:43.223-0600",
"value" : {
"name" : "FTBFConfig_v129",
"assigned" : "2018-02-02T16:02:43.222-0600"
}
},
{
"event" : "addConfiguration",
"timestamp" : "2018-02-02T16:08:42.749-0600",
"value" : {
"name" : "FTBFConfig_v130",
"assigned" : "2018-02-02T16:08:42.749-0600"
}
},
{
"event" : "addConfiguration",
"timestamp" : "2018-02-02T16:11:28.562-0600",
"value" : {
"name" : "FTBFConfig_v131",
"assigned" : "2018-02-02T16:11:28.562-0600"
}
},
{
"event" : "addConfiguration",
"timestamp" : "2018-02-02T16:12:56.404-0600",
"value" : {
"name" : "FTBFConfig_v132",
"assigned" : "2018-02-02T16:12:56.404-0600"
}
},
{
"event" : "addConfiguration",
"timestamp" : "2018-02-02T16:14:27.026-0600",
"value" : {
"name" : "FTBFConfig_v133",
"assigned" : "2018-02-02T16:14:27.026-0600"
}
},
{
"event" : "addConfiguration",
"timestamp" : "2018-02-02T16:26:19.899-0600",
"value" : {
"name" : "FTBFConfig_v134",
"assigned" : "2018-02-02T16:26:19.899-0600"
}
},
{
"event" : "addConfiguration",
"timestamp" : "2018-02-02T16:27:07.022-0600",
"value" : {
"name" : "FTBFConfig_v135",
"assigned" : "2018-02-02T16:27:07.022-0600"
}
},
{
"event" : "addConfiguration",
"timestamp" : "2018-02-02T16:29:28.372-0600",
"value" : {
"name" : "FTBFConfig_v136",
"assigned" : "2018-02-02T16:29:28.372-0600"
}
},
{
"event" : "addConfiguration",
"timestamp" : "2018-02-02T16:31:38.886-0600",
"value" : {
"name" : "FTBFConfig_v137",
"assigned" : "2018-02-02T16:31:38.886-0600"
}
},
{
"event" : "addConfiguration",
"timestamp" : "2018-02-02T16:34:11.612-0600",
"value" : {
"name" : "FTBFConfig_v138",
"assigned" : "2018-02-02T16:34:11.612-0600"
}
},
{
"event" : "addConfiguration",
"timestamp" : "2018-02-02T17:39:27.661-0600",
"value" : {
"name" : "FTBFConfig_v139",
"assigned" : "2018-02-02T17:39:27.661-0600"
}
},
{
"event" : "addConfiguration",
"timestamp" : "2018-02-02T17:42:49.835-0600",
"value" : {
"name" : "FTBFConfig_v140",
"assigned" : "2018-02-02T17:42:49.834-0600"
}
},
{
"event" : "addConfiguration",
"timestamp" : "2018-02-02T17:47:35.000-0600",
"value" : {
"name" : "FTBFConfig_v141",
"assigned" : "2018-02-02T17:47:34.999-0600"
}
},
{
"event" : "addConfiguration",
"timestamp" : "2018-02-02T17:53:58.983-0600",
"value" : {
"name" : "FTBFConfig_v142",
"assigned" : "2018-02-02T17:53:58.983-0600"
}
}
],
"created" : "2017-11-08T15:56:03.068-0600"
},
"_id" : {
"$oid" : "5125d1d4a6414317b3c15d22"
},
"collection" : "ARTDAQPhysicsAnalyzerParameterConfiguration",
"aliases" : {
"active" : [

],
"history" : [

]
},
"runs" : [

],
"attachments" : [

],
"configtype" : "notprovided"
}