{
"ouid" : [
"5adc2d736a0d486cba5a93c1",
"6ee200b3da34418b9b5a6964",
"c72805a930a246f395062ebf"
],
"version" : {
"0" : [
"c72805a930a246f395062ebf"
],
"1" : [
"6ee200b3da34418b9b5a6964"
],
"2" : [
"5adc2d736a0d486cba5a93c1"
]
},
"configurations.name" : {
"notprovided" : [
"5adc2d736a0d486cba5a93c1",
"6ee200b3da34418b9b5a6964",
"c72805a930a246f395062ebf"
],
"iterateDefaultGroup_v0" : [
"c72805a930a246f395062ebf"
],
"iterateDefaultGroup_v1" : [
"6ee200b3da34418b9b5a6964"
],
"iterateDefaultGroup_v2" : [
"c72805a930a246f395062ebf"
],
"iterateDefaultGroup_v3" : [
"5adc2d736a0d486cba5a93c1"
],
"iterateDefaultGroup_v4" : [
"c72805a930a246f395062ebf"
],
"iterateDefaultGroup_v5" : [
"c72805a930a246f395062ebf"
],
"iterateDefaultGroup_v6" : [
"c72805a930a246f395062ebf"
],
"iterateDefaultGroup_v7" : [
"c72805a930a246f395062ebf"
],
"iterateDefaultGroup_v8" : [
"c72805a930a246f395062ebf"
],
"iterateDefaultGroup_v9" : [
"c72805a930a246f395062ebf"
],
"iterateDefaultGroup_v10" : [
"c72805a930a246f395062ebf"
],
"iterateDefaultGroup_v11" : [
"c72805a930a246f395062ebf"
],
"iterateDefaultGroup_v12" : [
"c72805a930a246f395062ebf"
],
"iterateDefaultGroup_v13" : [
"5adc2d736a0d486cba5a93c1"
],
"iterateDefaultGroup_v14" : [
"c72805a930a246f395062ebf"
],
"iterateDefaultGroup_v15" : [
"c72805a930a246f395062ebf"
],
"iterateDefaultGroup_v16" : [
"c72805a930a246f395062ebf"
],
"iterateDefaultGroup_v17" : [
"c72805a930a246f395062ebf"
],
"iterateDefaultGroup_v18" : [
"c72805a930a246f395062ebf"
],
"iterateDefaultGroup_v19" : [
"c72805a930a246f395062ebf"
],
"iterateDefaultGroup_v20" : [
"c72805a930a246f395062ebf"
],
"iterateDefaultGroup_v21" : [
"c72805a930a246f395062ebf"
],
"iterateDefaultGroup_v22" : [
"c72805a930a246f395062ebf"
],
"iterateDefaultGroup_v23" : [
"c72805a930a246f395062ebf"
],
"iterateDefaultGroup_v24" : [
"c72805a930a246f395062ebf"
],
"iterateDefaultGroup_v25" : [
"c72805a930a246f395062ebf"
],
"iterateDefaultGroup_v26" : [
"c72805a930a246f395062ebf"
],
"iterateDefaultGroup_v27" : [
"c72805a930a246f395062ebf"
],
"iterateDefaultGroup_v28" : [
"c72805a930a246f395062ebf"
],
"iterateDefaultGroup_v29" : [
"c72805a930a246f395062ebf"
],
"iterateDefaultGroup_v30" : [
"c72805a930a246f395062ebf"
],
"iterateDefaultGroup_v31" : [
"c72805a930a246f395062ebf"
],
"iterateDefaultGroup_v32" : [
"c72805a930a246f395062ebf"
],
"iterateDefaultGroup_v33" : [
"c72805a930a246f395062ebf"
],
"iterateDefaultGroup_v34" : [
"c72805a930a246f395062ebf"
],
"iterateDefaultGroup_v35" : [
"c72805a930a246f395062ebf"
],
"iterateDefaultGroup_v36" : [
"c72805a930a246f395062ebf"
],
"iterateDefaultGroup_v37" : [
"c72805a930a246f395062ebf"
],
"iterateDefaultGroup_v38" : [
"c72805a930a246f395062ebf"
],
"iterateDefaultGroup_v39" : [
"c72805a930a246f395062ebf"
],
"iterateDefaultGroup_v40" : [
"c72805a930a246f395062ebf"
],
"iterateDefaultGroup_v41" : [
"c72805a930a246f395062ebf"
],
"iterateDefaultGroup_v42" : [
"c72805a930a246f395062ebf"
],
"iterateDefaultGroup_v43" : [
"c72805a930a246f395062ebf"
],
"iterateDefaultGroup_v44" : [
"c72805a930a246f395062ebf"
],
"iterateDefaultGroup_v45" : [
"c72805a930a246f395062ebf"
],
"iterateDefaultGroup_v46" : [
"c72805a930a246f395062ebf"
],
"iterateDefaultGroup_v47" : [
"c72805a930a246f395062ebf"
],
"iterateDefaultGroup_v48" : [
"c72805a930a246f395062ebf"
],
"iterateDefaultGroup_v49" : [
"c72805a930a246f395062ebf"
],
"iterateDefaultGroup_v50" : [
"c72805a930a246f395062ebf"
],
"iterateDefaultGroup_v51" : [
"c72805a930a246f395062ebf"
],
"iterateDefaultGroup_v52" : [
"c72805a930a246f395062ebf"
],
"iterateDefaultGroup_v53" : [
"c72805a930a246f395062ebf"
],
"iterateDefaultGroup_v54" : [
"c72805a930a246f395062ebf"
],
"iterateDefaultGroup_v55" : [
"c72805a930a246f395062ebf"
],
"iterateDefaultGroup_v56" : [
"c72805a930a246f395062ebf"
],
"iterateDefaultGroup_v57" : [
"c72805a930a246f395062ebf"
],
"iterateDefaultGroup_v58" : [
"c72805a930a246f395062ebf"
],
"iterateDefaultGroup_v59" : [
"c72805a930a246f395062ebf"
],
"iterateDefaultGroup_v60" : [
"c72805a930a246f395062ebf"
],
"iterateDefaultGroup_v61" : [
"c72805a930a246f395062ebf"
],
"iterateDefaultGroup_v62" : [
"c72805a930a246f395062ebf"
],
"iterateDefaultGroup_v63" : [
"c72805a930a246f395062ebf"
],
"iterateDefaultGroup_v64" : [
"c72805a930a246f395062ebf"
],
"iterateDefaultGroup_v65" : [
"c72805a930a246f395062ebf"
],
"iterateDefaultGroup_v66" : [
"c72805a930a246f395062ebf"
],
"iterateDefaultGroup_v67" : [
"c72805a930a246f395062ebf"
],
"iterateDefaultGroup_v68" : [
"c72805a930a246f395062ebf"
],
"iterateDefaultGroup_v69" : [
"c72805a930a246f395062ebf"
],
"iterateDefaultGroup_v70" : [
"c72805a930a246f395062ebf"
],
"iterateDefaultGroup_v71" : [
"c72805a930a246f395062ebf"
],
"iterateDefaultGroup_v72" : [
"c72805a930a246f395062ebf"
],
"iterateDefaultGroup_v73" : [
"c72805a930a246f395062ebf"
],
"iterateDefaultGroup_v74" : [
"c72805a930a246f395062ebf"
],
"iterateDefaultGroup_v75" : [
"c72805a930a246f395062ebf"
],
"iterateDefaultGroup_v76" : [
"c72805a930a246f395062ebf"
],
"iterateDefaultGroup_v77" : [
"c72805a930a246f395062ebf"
],
"iterateDefaultGroup_v78" : [
"c72805a930a246f395062ebf"
],
"iterateDefaultGroup_v79" : [
"c72805a930a246f395062ebf"
],
"iterateDefaultGroup_v80" : [
"c72805a930a246f395062ebf"
],
"iterateDefaultGroup_v81" : [
"c72805a930a246f395062ebf"
]
},
"entities.name" : {
"OTSROOT" : [
"5adc2d736a0d486cba5a93c1",
"6ee200b3da34418b9b5a6964",
"c72805a930a246f395062ebf"
]
},
"aliases.active.name" : {

},
"runs.name" : {

},
"configurations.assigned" : {
"notprovided" : [
"2018-09-10T09:26:39.337-0500",
"2018-09-10T09:27:19.799-0500",
"2020-07-29T13:52:19.434-0500"
],
"iterateDefaultGroup_v0" : [
"2018-09-10T09:26:39.863-0500"
],
"iterateDefaultGroup_v1" : [
"2018-09-10T09:27:20.732-0500"
],
"iterateDefaultGroup_v2" : [
"2020-07-28T16:25:06.359-0500"
],
"iterateDefaultGroup_v3" : [
"2020-07-29T13:52:20.675-0500"
],
"iterateDefaultGroup_v4" : [
"2020-07-29T13:56:47.808-0500"
],
"iterateDefaultGroup_v5" : [
"2020-07-29T15:14:12.046-0500"
],
"iterateDefaultGroup_v6" : [
"2020-10-09T16:10:10.265-0500"
],
"iterateDefaultGroup_v7" : [
"2020-10-09T16:31:32.211-0500"
],
"iterateDefaultGroup_v8" : [
"2020-10-09T16:46:00.874-0500"
],
"iterateDefaultGroup_v9" : [
"2020-10-12T10:30:01.998-0500"
],
"iterateDefaultGroup_v10" : [
"2020-10-12T13:54:18.422-0500"
],
"iterateDefaultGroup_v11" : [
"2020-10-12T15:28:46.016-0500"
],
"iterateDefaultGroup_v12" : [
"2020-10-12T15:33:41.382-0500"
],
"iterateDefaultGroup_v13" : [
"2020-10-26T10:34:09.823-0500"
],
"iterateDefaultGroup_v14" : [
"2020-10-26T11:12:08.913-0500"
],
"iterateDefaultGroup_v15" : [
"2020-10-26T13:20:59.055-0500"
],
"iterateDefaultGroup_v16" : [
"2020-10-26T13:46:31.996-0500"
],
"iterateDefaultGroup_v17" : [
"2020-10-27T17:08:44.616-0500"
],
"iterateDefaultGroup_v18" : [
"2021-06-30T15:46:04.361-0500"
],
"iterateDefaultGroup_v19" : [
"2021-07-12T11:48:22.010-0500"
],
"iterateDefaultGroup_v20" : [
"2021-07-12T13:38:45.127-0500"
],
"iterateDefaultGroup_v21" : [
"2021-07-12T13:40:40.068-0500"
],
"iterateDefaultGroup_v22" : [
"2021-07-14T16:20:56.904-0500"
],
"iterateDefaultGroup_v23" : [
"2021-07-20T15:29:51.553-0500"
],
"iterateDefaultGroup_v24" : [
"2021-07-22T18:34:19.309-0500"
],
"iterateDefaultGroup_v25" : [
"2021-07-23T12:39:38.664-0500"
],
"iterateDefaultGroup_v26" : [
"2021-07-23T12:45:36.048-0500"
],
"iterateDefaultGroup_v27" : [
"2021-07-23T13:08:43.833-0500"
],
"iterateDefaultGroup_v28" : [
"2021-07-23T13:16:30.351-0500"
],
"iterateDefaultGroup_v29" : [
"2021-07-23T14:16:54.112-0500"
],
"iterateDefaultGroup_v30" : [
"2021-07-28T08:44:05.141-0500"
],
"iterateDefaultGroup_v31" : [
"2021-07-28T09:04:35.847-0500"
],
"iterateDefaultGroup_v32" : [
"2021-07-28T09:08:06.660-0500"
],
"iterateDefaultGroup_v33" : [
"2021-07-28T09:09:00.696-0500"
],
"iterateDefaultGroup_v34" : [
"2021-07-28T09:11:42.717-0500"
],
"iterateDefaultGroup_v35" : [
"2021-07-28T10:45:28.749-0500"
],
"iterateDefaultGroup_v36" : [
"2021-07-28T11:09:41.993-0500"
],
"iterateDefaultGroup_v37" : [
"2021-07-28T11:56:32.327-0500"
],
"iterateDefaultGroup_v38" : [
"2021-07-28T13:37:16.971-0500"
],
"iterateDefaultGroup_v39" : [
"2021-07-28T14:34:07.062-0500"
],
"iterateDefaultGroup_v40" : [
"2021-07-28T14:42:30.421-0500"
],
"iterateDefaultGroup_v41" : [
"2021-07-28T14:47:07.406-0500"
],
"iterateDefaultGroup_v42" : [
"2021-07-28T14:48:23.822-0500"
],
"iterateDefaultGroup_v43" : [
"2021-07-28T14:48:51.748-0500"
],
"iterateDefaultGroup_v44" : [
"2021-07-28T14:51:23.159-0500"
],
"iterateDefaultGroup_v45" : [
"2021-07-28T15:03:30.046-0500"
],
"iterateDefaultGroup_v46" : [
"2021-07-28T15:11:18.901-0500"
],
"iterateDefaultGroup_v47" : [
"2021-07-28T15:13:40.373-0500"
],
"iterateDefaultGroup_v48" : [
"2021-07-28T15:30:21.480-0500"
],
"iterateDefaultGroup_v49" : [
"2021-07-28T15:42:30.777-0500"
],
"iterateDefaultGroup_v50" : [
"2021-07-28T15:54:18.662-0500"
],
"iterateDefaultGroup_v51" : [
"2021-07-28T16:06:51.531-0500"
],
"iterateDefaultGroup_v52" : [
"2021-07-28T16:13:47.514-0500"
],
"iterateDefaultGroup_v53" : [
"2021-07-28T16:15:01.796-0500"
],
"iterateDefaultGroup_v54" : [
"2021-09-02T13:40:33.900-0500"
],
"iterateDefaultGroup_v55" : [
"2021-09-02T14:33:16.932-0500"
],
"iterateDefaultGroup_v56" : [
"2021-09-02T14:42:09.428-0500"
],
"iterateDefaultGroup_v57" : [
"2021-10-12T11:12:25.233-0500"
],
"iterateDefaultGroup_v58" : [
"2021-10-12T16:34:03.941-0500"
],
"iterateDefaultGroup_v59" : [
"2021-10-13T18:15:37.677-0500"
],
"iterateDefaultGroup_v60" : [
"2021-10-15T15:39:59.275-0500"
],
"iterateDefaultGroup_v61" : [
"2023-03-10T15:26:54.163-0600"
],
"iterateDefaultGroup_v62" : [
"2023-03-15T09:42:49.599-0500"
],
"iterateDefaultGroup_v63" : [
"2023-03-16T13:47:44.716-0500"
],
"iterateDefaultGroup_v64" : [
"2023-03-16T14:10:03.343-0500"
],
"iterateDefaultGroup_v65" : [
"2023-04-04T11:27:07.902-0500"
],
"iterateDefaultGroup_v66" : [
"2023-04-07T12:13:39.601-0500"
],
"iterateDefaultGroup_v67" : [
"2023-04-07T13:50:53.045-0500"
],
"iterateDefaultGroup_v68" : [
"2023-04-07T13:53:27.724-0500"
],
"iterateDefaultGroup_v69" : [
"2023-04-07T13:58:49.831-0500"
],
"iterateDefaultGroup_v70" : [
"2023-04-07T14:10:02.278-0500"
],
"iterateDefaultGroup_v71" : [
"2023-04-07T14:33:17.135-0500"
],
"iterateDefaultGroup_v72" : [
"2023-04-07T14:47:41.742-0500"
],
"iterateDefaultGroup_v73" : [
"2023-04-07T15:12:10.930-0500"
],
"iterateDefaultGroup_v74" : [
"2023-04-07T15:32:05.791-0500"
],
"iterateDefaultGroup_v75" : [
"2023-04-07T16:23:30.866-0500"
],
"iterateDefaultGroup_v76" : [
"2023-04-10T13:12:21.684-0500"
],
"iterateDefaultGroup_v77" : [
"2023-04-10T14:03:47.906-0500"
],
"iterateDefaultGroup_v78" : [
"2023-04-13T17:40:22.495-0500"
],
"iterateDefaultGroup_v79" : [
"2023-04-13T17:42:57.537-0500"
],
"iterateDefaultGroup_v80" : [
"2023-04-14T09:32:22.952-0500"
],
"iterateDefaultGroup_v81" : [
"2023-04-14T16:25:21.621-0500"
]
}
}