{
"ouid" : [
"a7c34c44993c4037907ebb5a"
],
"version" : {
"1" : [
"a7c34c44993c4037907ebb5a"
]
},
"configurations.name" : {
"notprovided" : [
"a7c34c44993c4037907ebb5a"
],
"DefaultConfig_v1" : [
"a7c34c44993c4037907ebb5a"
],
"DefaultConfig_v2" : [
"a7c34c44993c4037907ebb5a"
],
"DefaultConfig_v3" : [
"a7c34c44993c4037907ebb5a"
],
"DefaultConfig_v4" : [
"a7c34c44993c4037907ebb5a"
],
"DefaultConfig_v5" : [
"a7c34c44993c4037907ebb5a"
],
"DefaultConfig_v6" : [
"a7c34c44993c4037907ebb5a"
],
"DefaultConfig_v7" : [
"a7c34c44993c4037907ebb5a"
],
"DefaultConfig_v8" : [
"a7c34c44993c4037907ebb5a"
],
"DefaultConfig_v9" : [
"a7c34c44993c4037907ebb5a"
],
"DefaultConfig_v10" : [
"a7c34c44993c4037907ebb5a"
],
"DefaultConfig_v11" : [
"a7c34c44993c4037907ebb5a"
],
"DefaultConfig_v12" : [
"a7c34c44993c4037907ebb5a"
],
"DefaultConfig_v13" : [
"a7c34c44993c4037907ebb5a"
],
"DefaultConfig_v14" : [
"a7c34c44993c4037907ebb5a"
],
"DefaultConfig_v15" : [
"a7c34c44993c4037907ebb5a"
],
"DefaultConfig_v16" : [
"a7c34c44993c4037907ebb5a"
],
"DefaultConfig_v17" : [
"a7c34c44993c4037907ebb5a"
],
"DefaultConfig_v18" : [
"a7c34c44993c4037907ebb5a"
]
},
"entities.name" : {
"OTSROOT" : [
"a7c34c44993c4037907ebb5a"
]
},
"aliases.active.name" : {

},
"runs.name" : {

},
"configurations.assigned" : {
"notprovided" : [
"2019-02-22T16:11:42.855-0600"
],
"DefaultConfig_v1" : [
"2019-02-22T16:11:43.110-0600"
],
"DefaultConfig_v2" : [
"2019-07-22T11:27:30.461-0500"
],
"DefaultConfig_v3" : [
"2019-07-22T14:43:10.347-0500"
],
"DefaultConfig_v4" : [
"2019-07-22T14:47:01.516-0500"
],
"DefaultConfig_v5" : [
"2019-07-22T15:05:41.562-0500"
],
"DefaultConfig_v6" : [
"2019-07-23T09:00:32.049-0500"
],
"DefaultConfig_v7" : [
"2019-07-23T09:04:43.778-0500"
],
"DefaultConfig_v8" : [
"2019-07-23T09:48:11.881-0500"
],
"DefaultConfig_v9" : [
"2019-08-07T11:00:29.505-0500"
],
"DefaultConfig_v10" : [
"2019-11-20T15:25:38.664-0600"
],
"DefaultConfig_v11" : [
"2019-11-20T15:28:12.700-0600"
],
"DefaultConfig_v12" : [
"2019-11-20T15:58:30.015-0600"
],
"DefaultConfig_v13" : [
"2019-11-20T16:23:03.693-0600"
],
"DefaultConfig_v14" : [
"2019-11-20T16:24:45.828-0600"
],
"DefaultConfig_v15" : [
"2019-11-20T16:27:46.664-0600"
],
"DefaultConfig_v16" : [
"2019-11-20T16:42:11.226-0600"
],
"DefaultConfig_v17" : [
"2019-12-09T19:33:37.778-0600"
],
"DefaultConfig_v18" : [
"2019-12-10T14:21:52.850-0600"
]
}
}