{
"ouid" : [
"bda7fb1601c94f879f4b047f"
],
"version" : {
"0" : [
"bda7fb1601c94f879f4b047f"
]
},
"configurations.name" : {
"notprovided" : [
"bda7fb1601c94f879f4b047f"
],
"iterateDefaultGroup_v0" : [
"bda7fb1601c94f879f4b047f"
],
"iterateDefaultGroup_v1" : [
"bda7fb1601c94f879f4b047f"
],
"iterateDefaultGroup_v2" : [
"bda7fb1601c94f879f4b047f"
],
"iterateDefaultGroup_v3" : [
"bda7fb1601c94f879f4b047f"
],
"iterateDefaultGroup_v4" : [
"bda7fb1601c94f879f4b047f"
],
"iterateDefaultGroup_v5" : [
"bda7fb1601c94f879f4b047f"
],
"iterateDefaultGroup_v6" : [
"bda7fb1601c94f879f4b047f"
],
"iterateDefaultGroup_v7" : [
"bda7fb1601c94f879f4b047f"
],
"iterateDefaultGroup_v8" : [
"bda7fb1601c94f879f4b047f"
],
"iterateDefaultGroup_v9" : [
"bda7fb1601c94f879f4b047f"
],
"iterateDefaultGroup_v10" : [
"bda7fb1601c94f879f4b047f"
],
"iterateDefaultGroup_v11" : [
"bda7fb1601c94f879f4b047f"
],
"iterateDefaultGroup_v12" : [
"bda7fb1601c94f879f4b047f"
]
},
"entities.name" : {
"OTSROOT" : [
"bda7fb1601c94f879f4b047f"
]
},
"aliases.active.name" : {

},
"runs.name" : {

},
"configurations.assigned" : {
"notprovided" : [
"2020-07-21T14:47:39.191-0500"
],
"iterateDefaultGroup_v0" : [
"2020-07-21T14:47:39.717-0500"
],
"iterateDefaultGroup_v1" : [
"2020-07-21T15:25:08.101-0500"
],
"iterateDefaultGroup_v2" : [
"2020-07-21T15:28:04.496-0500"
],
"iterateDefaultGroup_v3" : [
"2020-07-21T15:42:20.852-0500"
],
"iterateDefaultGroup_v4" : [
"2020-07-21T15:45:03.841-0500"
],
"iterateDefaultGroup_v5" : [
"2020-07-21T15:57:33.816-0500"
],
"iterateDefaultGroup_v6" : [
"2020-07-28T10:52:35.306-0500"
],
"iterateDefaultGroup_v7" : [
"2020-07-28T13:01:37.000-0500"
],
"iterateDefaultGroup_v8" : [
"2020-07-28T13:03:27.202-0500"
],
"iterateDefaultGroup_v9" : [
"2020-07-28T13:12:58.190-0500"
],
"iterateDefaultGroup_v10" : [
"2020-07-28T13:15:25.417-0500"
],
"iterateDefaultGroup_v11" : [
"2020-07-28T13:20:57.358-0500"
],
"iterateDefaultGroup_v12" : [
"2020-07-28T13:27:37.935-0500"
]
}
}