{
"document" : {
"data" : {
"NAME" : "DQM_POWER_SUPPLY_CONSUMER_TABLE",
"COMMENT" : "No comment.",
"AUTHOR" : "admin",
"CREATION_TIME" : 1603997033,
"COL_TYPES" : {
"PROCESSOR_UID" : "STRING",
"FILE_PATH" : "STRING",
"RADIX_FILE_NAME" : "STRING",
"SAVE_FILE" : "STRING",
"LINK_TO_POWER_SUPPLY_TO_DETECTOR_TABLE" : "STRING",
"LINK_TO_POWER_SUPPLY_TO_DETECTOR_UID" : "STRING",
"COMMENT_DESCRIPTION" : "STRING",
"AUTHOR" : "STRING",
"RECORD_INSERTION_TIME" : "TIMESTAMP WITH TIMEZONE"
},
"DATA_SET" : [
{
"PROCESSOR_UID" : "VBPowerSupplyHistos",
"FILE_PATH" : "${OTSDAQ_DATA}/PowerSupplyHistos",
"RADIX_FILE_NAME" : "PowerSupplyHistos_",
"SAVE_FILE" : "Yes",
"LINK_TO_POWER_SUPPLY_TO_DETECTOR_TABLE" : "PowerSupplyToDetectorTable",
"LINK_TO_POWER_SUPPLY_TO_DETECTOR_UID" : "BurninBox",
"COMMENT_DESCRIPTION" : "No Comment",
"AUTHOR" : "admin",
"RECORD_INSERTION_TIME" : "1603997033"
}
]
},
"metadata" : {

},
"search" : [

]
},
"comments" : [

],
"origin" : {
"source" : "template",
"name" : "notprovided",
"format" : "json",
"created" : "2020-10-29T13:43:53.377-0500",
"rawdata" : [

]
},
"version" : "0",
"entities" : [
{
"name" : "OTSROOT",
"assigned" : "2020-10-29T13:43:53.378-0500"
}
],
"configurations" : [
{
"name" : "notprovided",
"assigned" : "2020-10-29T13:43:53.378-0500"
},
{
"name" : "BurninBoxConfiguration_v29",
"assigned" : "2020-10-29T13:45:55.582-0500"
}
],
"changelog" : "notprovided",
"bookkeeping" : {
"isdeleted" : false,
"isreadonly" : false,
"updates" : [
{
"event" : "addConfiguration",
"timestamp" : "2020-10-29T13:43:53.378-0500",
"value" : {
"name" : "notprovided",
"assigned" : "2020-10-29T13:43:53.378-0500"
}
},
{
"event" : "setVersion",
"timestamp" : "2020-10-29T13:43:53.378-0500",
"value" : {
"name" : "0",
"assigned" : "2020-10-29T13:43:53.378-0500"
}
},
{
"event" : "setCollection",
"timestamp" : "2020-10-29T13:43:53.378-0500",
"value" : {
"name" : "DQMPowerSupplyConsumerTable",
"assigned" : "2020-10-29T13:43:53.378-0500"
}
},
{
"event" : "addEntity",
"timestamp" : "2020-10-29T13:43:53.378-0500",
"value" : {
"name" : "OTSROOT",
"assigned" : "2020-10-29T13:43:53.378-0500"
}
},
{
"event" : "addConfiguration",
"timestamp" : "2020-10-29T13:45:55.582-0500",
"value" : {
"name" : "BurninBoxConfiguration_v29",
"assigned" : "2020-10-29T13:45:55.582-0500"
}
}
],
"created" : "2020-10-29T13:43:53.377-0500"
},
"_id" : {
"$oid" : "0836478a160e43cc9a69c4fb"
},
"collection" : "DQMPowerSupplyConsumerTable",
"aliases" : {
"active" : [

],
"history" : [

]
},
"runs" : [

],
"attachments" : [

],
"configtype" : "notprovided"
}