{
"ouid" : [
"a7594d3d9db34d19900a5657"
],
"version" : {
"0" : [
"a7594d3d9db34d19900a5657"
]
},
"configurations.name" : {
"notprovided" : [
"a7594d3d9db34d19900a5657"
],
"FTBFConfig_v0" : [
"a7594d3d9db34d19900a5657"
],
"FTBFConfig_v1" : [
"a7594d3d9db34d19900a5657"
],
"FTBFConfig_v2" : [
"a7594d3d9db34d19900a5657"
],
"FTBFConfig_v3" : [
"a7594d3d9db34d19900a5657"
],
"FTBFConfig_v4" : [
"a7594d3d9db34d19900a5657"
],
"FTBFConfig_v5" : [
"a7594d3d9db34d19900a5657"
],
"FTBFConfig_v6" : [
"a7594d3d9db34d19900a5657"
],
"FTBFConfig_v7" : [
"a7594d3d9db34d19900a5657"
],
"FTBFConfig_v8" : [
"a7594d3d9db34d19900a5657"
],
"FTBFConfig_v9" : [
"a7594d3d9db34d19900a5657"
],
"FTBFConfig_v10" : [
"a7594d3d9db34d19900a5657"
],
"FTBFConfig_v11" : [
"a7594d3d9db34d19900a5657"
],
"FTBFConfig_v12" : [
"a7594d3d9db34d19900a5657"
],
"FTBFConfig_v13" : [
"a7594d3d9db34d19900a5657"
],
"FTBFConfig_v14" : [
"a7594d3d9db34d19900a5657"
],
"FTBFConfig_v15" : [
"a7594d3d9db34d19900a5657"
],
"FTBFConfig_v16" : [
"a7594d3d9db34d19900a5657"
],
"FTBFConfig_v17" : [
"a7594d3d9db34d19900a5657"
],
"FTBFConfig_v18" : [
"a7594d3d9db34d19900a5657"
],
"FTBFConfig_v19" : [
"a7594d3d9db34d19900a5657"
],
"FTBFConfig_v20" : [
"a7594d3d9db34d19900a5657"
],
"FTBFConfig_v21" : [
"a7594d3d9db34d19900a5657"
],
"FTBFConfig_v22" : [
"a7594d3d9db34d19900a5657"
],
"FTBFConfig_v23" : [
"a7594d3d9db34d19900a5657"
],
"FTBFConfig_v24" : [
"a7594d3d9db34d19900a5657"
],
"FTBFConfig_v25" : [
"a7594d3d9db34d19900a5657"
],
"FTBFConfig_v26" : [
"a7594d3d9db34d19900a5657"
],
"FTBFConfig_v27" : [
"a7594d3d9db34d19900a5657"
],
"FTBFConfig_v28" : [
"a7594d3d9db34d19900a5657"
],
"FTBFConfig_v29" : [
"a7594d3d9db34d19900a5657"
],
"FTBFConfig_v30" : [
"a7594d3d9db34d19900a5657"
],
"FTBFConfig_v31" : [
"a7594d3d9db34d19900a5657"
],
"FTBFConfig_v32" : [
"a7594d3d9db34d19900a5657"
],
"FTBFConfig_v33" : [
"a7594d3d9db34d19900a5657"
],
"FTBFConfig_v34" : [
"a7594d3d9db34d19900a5657"
],
"FTBFConfig_v35" : [
"a7594d3d9db34d19900a5657"
],
"FTBFConfig_v36" : [
"a7594d3d9db34d19900a5657"
],
"FTBFConfig_v37" : [
"a7594d3d9db34d19900a5657"
],
"FTBFConfig_v38" : [
"a7594d3d9db34d19900a5657"
],
"FTBFConfig_v39" : [
"a7594d3d9db34d19900a5657"
],
"FTBFConfig_v40" : [
"a7594d3d9db34d19900a5657"
],
"FTBFConfig_v41" : [
"a7594d3d9db34d19900a5657"
],
"FTBFConfig_v42" : [
"a7594d3d9db34d19900a5657"
],
"FTBFConfig_v43" : [
"a7594d3d9db34d19900a5657"
],
"FTBFConfig_v44" : [
"a7594d3d9db34d19900a5657"
],
"FTBFConfig_v45" : [
"a7594d3d9db34d19900a5657"
],
"FTBFConfig_v46" : [
"a7594d3d9db34d19900a5657"
],
"FTBFConfig_v47" : [
"a7594d3d9db34d19900a5657"
],
"FTBFConfig_v48" : [
"a7594d3d9db34d19900a5657"
],
"FTBFConfig_v49" : [
"a7594d3d9db34d19900a5657"
],
"FTBFConfig_v52" : [
"a7594d3d9db34d19900a5657"
],
"FTBFConfig_v53" : [
"a7594d3d9db34d19900a5657"
],
"FTBFConfig_v54" : [
"a7594d3d9db34d19900a5657"
],
"FTBFConfig_v55" : [
"a7594d3d9db34d19900a5657"
],
"FTBFConfig_v56" : [
"a7594d3d9db34d19900a5657"
],
"FTBFConfig_v57" : [
"a7594d3d9db34d19900a5657"
],
"FTBFConfig_v58" : [
"a7594d3d9db34d19900a5657"
],
"FTBFConfig_v59" : [
"a7594d3d9db34d19900a5657"
],
"FTBFConfig_v60" : [
"a7594d3d9db34d19900a5657"
],
"FTBFConfig_v61" : [
"a7594d3d9db34d19900a5657"
],
"FTBFConfig_v62" : [
"a7594d3d9db34d19900a5657"
],
"FTBFConfig_v63" : [
"a7594d3d9db34d19900a5657"
],
"FTBFConfig_v64" : [
"a7594d3d9db34d19900a5657"
],
"FTBFConfig_v65" : [
"a7594d3d9db34d19900a5657"
],
"FTBFConfig_v66" : [
"a7594d3d9db34d19900a5657"
],
"FTBFConfig_v67" : [
"a7594d3d9db34d19900a5657"
],
"FTBFConfig_v68" : [
"a7594d3d9db34d19900a5657"
],
"FTBFConfig_v69" : [
"a7594d3d9db34d19900a5657"
],
"FTBFConfig_v70" : [
"a7594d3d9db34d19900a5657"
],
"FTBFConfigNim_v0" : [
"a7594d3d9db34d19900a5657"
],
"FTBFConfigNim_v1" : [
"a7594d3d9db34d19900a5657"
],
"FTBFConfigNim_v2" : [
"a7594d3d9db34d19900a5657"
],
"FTBFConfigNim_v3" : [
"a7594d3d9db34d19900a5657"
],
"FTBFConfigNim_v4" : [
"a7594d3d9db34d19900a5657"
],
"FTBFConfigNim_v5" : [
"a7594d3d9db34d19900a5657"
],
"FTBFConfigNim_v6" : [
"a7594d3d9db34d19900a5657"
],
"FTBFConfigNim_v7" : [
"a7594d3d9db34d19900a5657"
],
"FTBFConfigNim_v8" : [
"a7594d3d9db34d19900a5657"
],
"FTBFConfigNim_v9" : [
"a7594d3d9db34d19900a5657"
],
"FTBFConfigNim_v10" : [
"a7594d3d9db34d19900a5657"
],
"FTBFConfigNim_v11" : [
"a7594d3d9db34d19900a5657"
],
"FTBFConfigNim_v12" : [
"a7594d3d9db34d19900a5657"
],
"FTBFConfigNim_v13" : [
"a7594d3d9db34d19900a5657"
],
"FTBFConfigNim_v14" : [
"a7594d3d9db34d19900a5657"
],
"FTBFConfigNim_v15" : [
"a7594d3d9db34d19900a5657"
],
"FTBFConfigNim_v16" : [
"a7594d3d9db34d19900a5657"
],
"FTBFConfigNim_v17" : [
"a7594d3d9db34d19900a5657"
],
"FTBFConfigNim_v18" : [
"a7594d3d9db34d19900a5657"
],
"FTBFConfigNim_v19" : [
"a7594d3d9db34d19900a5657"
],
"FTBFConfigNim_v20" : [
"a7594d3d9db34d19900a5657"
],
"FTBFConfigNim_v21" : [
"a7594d3d9db34d19900a5657"
],
"FTBFConfigNim_v22" : [
"a7594d3d9db34d19900a5657"
],
"FTBFConfigNim_v23" : [
"a7594d3d9db34d19900a5657"
],
"FTBFConfigNim_v24" : [
"a7594d3d9db34d19900a5657"
],
"FTBFConfigNim_v25" : [
"a7594d3d9db34d19900a5657"
],
"FTBFConfigNim_v26" : [
"a7594d3d9db34d19900a5657"
],
"FTBFConfigNim_v27" : [
"a7594d3d9db34d19900a5657"
],
"FTBFConfigNim_v28" : [
"a7594d3d9db34d19900a5657"
],
"FTBFConfigNim_v29" : [
"a7594d3d9db34d19900a5657"
],
"FTBFConfig_v71" : [
"a7594d3d9db34d19900a5657"
],
"FTBFConfig_v72" : [
"a7594d3d9db34d19900a5657"
],
"FTBFConfig_v73" : [
"a7594d3d9db34d19900a5657"
],
"FTBFConfig_v75" : [
"a7594d3d9db34d19900a5657"
],
"FTBFConfig_v76" : [
"a7594d3d9db34d19900a5657"
],
"FTBFConfig_v77" : [
"a7594d3d9db34d19900a5657"
],
"FTBFConfig_v78" : [
"a7594d3d9db34d19900a5657"
],
"FTBFConfig_v79" : [
"a7594d3d9db34d19900a5657"
],
"FTBFConfig_v80" : [
"a7594d3d9db34d19900a5657"
],
"FTBFConfig_v81" : [
"a7594d3d9db34d19900a5657"
],
"FTBFConfig_v82" : [
"a7594d3d9db34d19900a5657"
],
"FTBFConfig_v83" : [
"a7594d3d9db34d19900a5657"
],
"FTBFConfig_v84" : [
"a7594d3d9db34d19900a5657"
],
"FTBFConfig_v85" : [
"a7594d3d9db34d19900a5657"
],
"FTBFConfig_v86" : [
"a7594d3d9db34d19900a5657"
],
"FTBFConfig_v87" : [
"a7594d3d9db34d19900a5657"
],
"FTBFConfig_v88" : [
"a7594d3d9db34d19900a5657"
],
"FTBFConfig_v89" : [
"a7594d3d9db34d19900a5657"
],
"FTBFConfig_v90" : [
"a7594d3d9db34d19900a5657"
],
"FTBFConfig_v91" : [
"a7594d3d9db34d19900a5657"
],
"FTBFConfig_v92" : [
"a7594d3d9db34d19900a5657"
],
"FTBFConfig_v93" : [
"a7594d3d9db34d19900a5657"
],
"FTBFConfig_v94" : [
"a7594d3d9db34d19900a5657"
],
"FTBFConfig_v95" : [
"a7594d3d9db34d19900a5657"
],
"FTBFConfig_v96" : [
"a7594d3d9db34d19900a5657"
],
"FTBFConfig_v97" : [
"a7594d3d9db34d19900a5657"
],
"FTBFConfig_v98" : [
"a7594d3d9db34d19900a5657"
],
"FTBFConfig_v99" : [
"a7594d3d9db34d19900a5657"
],
"FTBFConfig_v100" : [
"a7594d3d9db34d19900a5657"
],
"FTBFConfig_v101" : [
"a7594d3d9db34d19900a5657"
],
"FTBFConfig_v102" : [
"a7594d3d9db34d19900a5657"
],
"FTBFConfig_v103" : [
"a7594d3d9db34d19900a5657"
],
"FTBFConfig_v104" : [
"a7594d3d9db34d19900a5657"
],
"FTBFConfig_v105" : [
"a7594d3d9db34d19900a5657"
],
"FTBFConfig_v106" : [
"a7594d3d9db34d19900a5657"
],
"FTBFConfig_v107" : [
"a7594d3d9db34d19900a5657"
],
"FTBFConfig_v108" : [
"a7594d3d9db34d19900a5657"
],
"FTBFConfig_v109" : [
"a7594d3d9db34d19900a5657"
],
"FTBFConfig_v110" : [
"a7594d3d9db34d19900a5657"
],
"FTBFConfig_v111" : [
"a7594d3d9db34d19900a5657"
],
"FTBFConfig_v112" : [
"a7594d3d9db34d19900a5657"
],
"FTBFConfig_v113" : [
"a7594d3d9db34d19900a5657"
],
"FTBFConfig_v114" : [
"a7594d3d9db34d19900a5657"
],
"FTBFConfig_v115" : [
"a7594d3d9db34d19900a5657"
],
"FTBFConfig_v116" : [
"a7594d3d9db34d19900a5657"
],
"FTBFConfig_v117" : [
"a7594d3d9db34d19900a5657"
],
"FTBFConfig_v118" : [
"a7594d3d9db34d19900a5657"
],
"FTBFConfig_v119" : [
"a7594d3d9db34d19900a5657"
],
"FTBFConfig_v120" : [
"a7594d3d9db34d19900a5657"
],
"FTBFConfig_v121" : [
"a7594d3d9db34d19900a5657"
],
"FTBFConfig_v122" : [
"a7594d3d9db34d19900a5657"
],
"FTBFConfig_v123" : [
"a7594d3d9db34d19900a5657"
],
"FTBFConfig_v124" : [
"a7594d3d9db34d19900a5657"
],
"FTBFConfig_v125" : [
"a7594d3d9db34d19900a5657"
],
"FTBFConfig_v126" : [
"a7594d3d9db34d19900a5657"
],
"FTBFConfig_v127" : [
"a7594d3d9db34d19900a5657"
],
"FTBFConfig_v128" : [
"a7594d3d9db34d19900a5657"
],
"FTBFConfig_v129" : [
"a7594d3d9db34d19900a5657"
],
"FTBFConfig_v130" : [
"a7594d3d9db34d19900a5657"
],
"FTBFConfig_v131" : [
"a7594d3d9db34d19900a5657"
],
"FTBFConfig_v132" : [
"a7594d3d9db34d19900a5657"
],
"FTBFConfig_v133" : [
"a7594d3d9db34d19900a5657"
],
"FTBFConfig_v134" : [
"a7594d3d9db34d19900a5657"
],
"FTBFConfig_v135" : [
"a7594d3d9db34d19900a5657"
],
"FTBFConfig_v136" : [
"a7594d3d9db34d19900a5657"
],
"FTBFConfig_v137" : [
"a7594d3d9db34d19900a5657"
],
"FTBFConfig_v138" : [
"a7594d3d9db34d19900a5657"
],
"FTBFConfig_v139" : [
"a7594d3d9db34d19900a5657"
],
"FTBFConfig_v140" : [
"a7594d3d9db34d19900a5657"
],
"FTBFConfig_v141" : [
"a7594d3d9db34d19900a5657"
],
"FTBFConfig_v142" : [
"a7594d3d9db34d19900a5657"
]
},
"entities.name" : {
"OTSROOT" : [
"a7594d3d9db34d19900a5657"
]
},
"aliases.active.name" : {

},
"runs.name" : {

},
"configurations.assigned" : {
"notprovided" : [
"2017-11-08T15:56:04.129-0600"
],
"FTBFConfig_v0" : [
"2017-11-08T15:56:07.111-0600"
],
"FTBFConfig_v1" : [
"2017-11-09T09:56:31.941-0600"
],
"FTBFConfig_v2" : [
"2017-11-09T10:06:00.923-0600"
],
"FTBFConfig_v3" : [
"2017-11-09T10:37:12.517-0600"
],
"FTBFConfig_v4" : [
"2017-11-15T11:30:11.369-0600"
],
"FTBFConfig_v5" : [
"2017-11-15T11:54:58.227-0600"
],
"FTBFConfig_v6" : [
"2017-11-15T11:57:50.842-0600"
],
"FTBFConfig_v7" : [
"2017-11-15T12:42:33.303-0600"
],
"FTBFConfig_v8" : [
"2017-11-15T13:01:04.336-0600"
],
"FTBFConfig_v9" : [
"2017-11-15T13:02:57.700-0600"
],
"FTBFConfig_v10" : [
"2017-11-15T13:04:25.294-0600"
],
"FTBFConfig_v11" : [
"2017-11-15T13:07:52.838-0600"
],
"FTBFConfig_v12" : [
"2017-11-15T13:12:00.281-0600"
],
"FTBFConfig_v13" : [
"2017-11-15T13:13:54.242-0600"
],
"FTBFConfig_v14" : [
"2017-11-15T13:27:34.223-0600"
],
"FTBFConfig_v15" : [
"2017-11-15T13:35:48.255-0600"
],
"FTBFConfig_v16" : [
"2017-11-15T13:36:52.862-0600"
],
"FTBFConfig_v17" : [
"2017-11-15T15:33:31.444-0600"
],
"FTBFConfig_v18" : [
"2017-11-15T15:35:35.063-0600"
],
"FTBFConfig_v19" : [
"2017-11-15T15:38:03.922-0600"
],
"FTBFConfig_v20" : [
"2017-11-15T16:26:31.901-0600"
],
"FTBFConfig_v21" : [
"2017-11-16T09:22:32.769-0600"
],
"FTBFConfig_v22" : [
"2017-11-17T10:23:28.970-0600"
],
"FTBFConfig_v23" : [
"2017-11-17T17:26:46.613-0600"
],
"FTBFConfig_v24" : [
"2017-11-17T17:58:27.161-0600"
],
"FTBFConfig_v25" : [
"2017-11-17T18:24:46.850-0600"
],
"FTBFConfig_v26" : [
"2017-11-17T18:32:24.822-0600"
],
"FTBFConfig_v27" : [
"2017-11-17T18:43:31.936-0600"
],
"FTBFConfig_v28" : [
"2017-11-17T18:48:34.080-0600"
],
"FTBFConfig_v29" : [
"2017-11-20T14:48:32.298-0600"
],
"FTBFConfig_v30" : [
"2017-11-20T15:39:57.340-0600"
],
"FTBFConfig_v31" : [
"2017-11-20T16:41:03.395-0600"
],
"FTBFConfig_v32" : [
"2017-11-20T18:55:36.340-0600"
],
"FTBFConfig_v33" : [
"2017-11-20T18:57:31.659-0600"
],
"FTBFConfig_v34" : [
"2017-11-29T17:50:41.115-0600"
],
"FTBFConfig_v35" : [
"2017-11-29T18:00:34.159-0600"
],
"FTBFConfig_v36" : [
"2017-11-29T18:35:12.786-0600"
],
"FTBFConfig_v37" : [
"2017-12-01T09:36:19.678-0600"
],
"FTBFConfig_v38" : [
"2017-12-01T09:52:02.591-0600"
],
"FTBFConfig_v39" : [
"2017-12-01T11:51:59.860-0600"
],
"FTBFConfig_v40" : [
"2017-12-01T12:18:21.992-0600"
],
"FTBFConfig_v41" : [
"2017-12-01T12:21:03.979-0600"
],
"FTBFConfig_v42" : [
"2017-12-01T12:43:23.441-0600"
],
"FTBFConfig_v43" : [
"2017-12-01T12:58:01.350-0600"
],
"FTBFConfig_v44" : [
"2017-12-01T13:00:53.903-0600"
],
"FTBFConfig_v45" : [
"2017-12-01T13:25:50.446-0600"
],
"FTBFConfig_v46" : [
"2017-12-01T13:35:45.316-0600"
],
"FTBFConfig_v47" : [
"2017-12-01T14:00:53.456-0600"
],
"FTBFConfig_v48" : [
"2017-12-01T14:04:00.805-0600"
],
"FTBFConfig_v49" : [
"2017-12-01T15:32:00.992-0600"
],
"FTBFConfig_v52" : [
"2017-12-01T15:37:34.056-0600"
],
"FTBFConfig_v53" : [
"2017-12-01T15:41:00.510-0600"
],
"FTBFConfig_v54" : [
"2017-12-01T15:52:50.811-0600"
],
"FTBFConfig_v55" : [
"2017-12-01T15:54:35.998-0600"
],
"FTBFConfig_v56" : [
"2017-12-01T15:55:35.592-0600"
],
"FTBFConfig_v57" : [
"2017-12-01T15:56:41.437-0600"
],
"FTBFConfig_v58" : [
"2017-12-01T15:57:39.548-0600"
],
"FTBFConfig_v59" : [
"2017-12-01T15:58:31.401-0600"
],
"FTBFConfig_v60" : [
"2017-12-01T15:59:32.653-0600"
],
"FTBFConfig_v61" : [
"2017-12-01T16:19:42.511-0600"
],
"FTBFConfig_v62" : [
"2017-12-01T16:22:04.942-0600"
],
"FTBFConfig_v63" : [
"2017-12-01T16:31:25.603-0600"
],
"FTBFConfig_v64" : [
"2017-12-01T17:06:32.968-0600"
],
"FTBFConfig_v65" : [
"2017-12-01T17:32:45.157-0600"
],
"FTBFConfig_v66" : [
"2017-12-01T20:38:51.492-0600"
],
"FTBFConfig_v67" : [
"2017-12-01T21:25:02.848-0600"
],
"FTBFConfig_v68" : [
"2017-12-01T21:43:02.559-0600"
],
"FTBFConfig_v69" : [
"2017-12-01T21:45:01.140-0600"
],
"FTBFConfig_v70" : [
"2017-12-01T21:59:20.461-0600"
],
"FTBFConfigNim_v0" : [
"2017-12-01T22:00:07.184-0600"
],
"FTBFConfigNim_v1" : [
"2017-12-01T22:13:09.003-0600"
],
"FTBFConfigNim_v2" : [
"2017-12-01T22:15:56.180-0600"
],
"FTBFConfigNim_v3" : [
"2017-12-01T22:17:04.765-0600"
],
"FTBFConfigNim_v4" : [
"2017-12-01T22:19:07.300-0600"
],
"FTBFConfigNim_v5" : [
"2017-12-01T22:21:58.075-0600"
],
"FTBFConfigNim_v6" : [
"2017-12-01T22:23:16.592-0600"
],
"FTBFConfigNim_v7" : [
"2017-12-01T22:25:18.075-0600"
],
"FTBFConfigNim_v8" : [
"2017-12-01T22:27:05.755-0600"
],
"FTBFConfigNim_v9" : [
"2017-12-01T22:29:29.949-0600"
],
"FTBFConfigNim_v10" : [
"2017-12-01T22:52:35.321-0600"
],
"FTBFConfigNim_v11" : [
"2017-12-01T22:57:29.903-0600"
],
"FTBFConfigNim_v12" : [
"2017-12-01T23:00:08.098-0600"
],
"FTBFConfigNim_v13" : [
"2017-12-01T23:52:36.253-0600"
],
"FTBFConfigNim_v14" : [
"2017-12-01T23:58:10.737-0600"
],
"FTBFConfigNim_v15" : [
"2017-12-02T00:00:34.934-0600"
],
"FTBFConfigNim_v16" : [
"2017-12-02T00:13:10.175-0600"
],
"FTBFConfigNim_v17" : [
"2017-12-02T00:28:29.070-0600"
],
"FTBFConfigNim_v18" : [
"2017-12-02T00:29:35.159-0600"
],
"FTBFConfigNim_v19" : [
"2017-12-02T00:31:14.016-0600"
],
"FTBFConfigNim_v20" : [
"2017-12-02T00:57:28.202-0600"
],
"FTBFConfigNim_v21" : [
"2017-12-02T10:58:02.767-0600"
],
"FTBFConfigNim_v22" : [
"2017-12-02T11:08:18.937-0600"
],
"FTBFConfigNim_v23" : [
"2017-12-02T11:12:40.570-0600"
],
"FTBFConfigNim_v24" : [
"2017-12-02T11:18:43.449-0600"
],
"FTBFConfigNim_v25" : [
"2017-12-02T11:27:06.654-0600"
],
"FTBFConfigNim_v26" : [
"2017-12-02T11:38:37.708-0600"
],
"FTBFConfigNim_v27" : [
"2017-12-02T11:49:08.921-0600"
],
"FTBFConfigNim_v28" : [
"2017-12-02T11:55:10.439-0600"
],
"FTBFConfigNim_v29" : [
"2017-12-02T12:06:27.256-0600"
],
"FTBFConfig_v71" : [
"2017-12-02T12:24:15.888-0600"
],
"FTBFConfig_v72" : [
"2017-12-02T12:43:36.799-0600"
],
"FTBFConfig_v73" : [
"2017-12-02T13:55:36.484-0600"
],
"FTBFConfig_v75" : [
"2017-12-02T14:12:19.671-0600"
],
"FTBFConfig_v76" : [
"2017-12-02T19:05:54.690-0600"
],
"FTBFConfig_v77" : [
"2017-12-02T19:12:14.517-0600"
],
"FTBFConfig_v78" : [
"2017-12-03T14:03:49.668-0600"
],
"FTBFConfig_v79" : [
"2017-12-03T14:09:07.950-0600"
],
"FTBFConfig_v80" : [
"2017-12-03T14:11:11.752-0600"
],
"FTBFConfig_v81" : [
"2017-12-03T14:22:34.740-0600"
],
"FTBFConfig_v82" : [
"2017-12-03T14:40:39.576-0600"
],
"FTBFConfig_v83" : [
"2017-12-03T14:45:06.916-0600"
],
"FTBFConfig_v84" : [
"2017-12-04T14:51:32.195-0600"
],
"FTBFConfig_v85" : [
"2017-12-04T14:55:45.424-0600"
],
"FTBFConfig_v86" : [
"2017-12-04T16:51:08.475-0600"
],
"FTBFConfig_v87" : [
"2017-12-04T16:56:49.109-0600"
],
"FTBFConfig_v88" : [
"2017-12-04T17:01:13.872-0600"
],
"FTBFConfig_v89" : [
"2017-12-04T17:03:58.993-0600"
],
"FTBFConfig_v90" : [
"2017-12-04T17:07:18.659-0600"
],
"FTBFConfig_v91" : [
"2017-12-04T17:09:27.799-0600"
],
"FTBFConfig_v92" : [
"2017-12-04T17:11:40.319-0600"
],
"FTBFConfig_v93" : [
"2017-12-04T21:05:22.826-0600"
],
"FTBFConfig_v94" : [
"2017-12-04T21:17:13.836-0600"
],
"FTBFConfig_v95" : [
"2017-12-04T21:41:19.462-0600"
],
"FTBFConfig_v96" : [
"2017-12-04T22:39:04.134-0600"
],
"FTBFConfig_v97" : [
"2017-12-04T23:01:14.643-0600"
],
"FTBFConfig_v98" : [
"2017-12-07T11:07:48.649-0600"
],
"FTBFConfig_v99" : [
"2017-12-07T11:50:01.298-0600"
],
"FTBFConfig_v100" : [
"2017-12-07T11:58:28.051-0600"
],
"FTBFConfig_v101" : [
"2017-12-08T13:30:50.230-0600"
],
"FTBFConfig_v102" : [
"2017-12-08T13:32:37.121-0600"
],
"FTBFConfig_v103" : [
"2017-12-12T11:03:06.928-0600"
],
"FTBFConfig_v104" : [
"2017-12-12T13:51:01.501-0600"
],
"FTBFConfig_v105" : [
"2017-12-12T15:25:07.462-0600"
],
"FTBFConfig_v106" : [
"2017-12-13T10:24:25.774-0600"
],
"FTBFConfig_v107" : [
"2017-12-13T10:27:04.471-0600"
],
"FTBFConfig_v108" : [
"2018-02-01T21:14:28.206-0600"
],
"FTBFConfig_v109" : [
"2018-02-01T21:21:05.332-0600"
],
"FTBFConfig_v110" : [
"2018-02-02T11:25:36.325-0600"
],
"FTBFConfig_v111" : [
"2018-02-02T11:37:15.161-0600"
],
"FTBFConfig_v112" : [
"2018-02-02T11:47:17.658-0600"
],
"FTBFConfig_v113" : [
"2018-02-02T11:53:38.915-0600"
],
"FTBFConfig_v114" : [
"2018-02-02T12:00:55.038-0600"
],
"FTBFConfig_v115" : [
"2018-02-02T12:27:16.509-0600"
],
"FTBFConfig_v116" : [
"2018-02-02T14:28:56.033-0600"
],
"FTBFConfig_v117" : [
"2018-02-02T14:30:22.404-0600"
],
"FTBFConfig_v118" : [
"2018-02-02T14:34:03.654-0600"
],
"FTBFConfig_v119" : [
"2018-02-02T14:36:30.258-0600"
],
"FTBFConfig_v120" : [
"2018-02-02T14:38:43.674-0600"
],
"FTBFConfig_v121" : [
"2018-02-02T14:41:52.926-0600"
],
"FTBFConfig_v122" : [
"2018-02-02T14:50:27.028-0600"
],
"FTBFConfig_v123" : [
"2018-02-02T14:52:59.906-0600"
],
"FTBFConfig_v124" : [
"2018-02-02T14:59:53.221-0600"
],
"FTBFConfig_v125" : [
"2018-02-02T15:04:11.347-0600"
],
"FTBFConfig_v126" : [
"2018-02-02T15:50:14.677-0600"
],
"FTBFConfig_v127" : [
"2018-02-02T15:51:34.070-0600"
],
"FTBFConfig_v128" : [
"2018-02-02T15:52:39.232-0600"
],
"FTBFConfig_v129" : [
"2018-02-02T16:02:48.160-0600"
],
"FTBFConfig_v130" : [
"2018-02-02T16:08:47.717-0600"
],
"FTBFConfig_v131" : [
"2018-02-02T16:11:33.570-0600"
],
"FTBFConfig_v132" : [
"2018-02-02T16:13:01.442-0600"
],
"FTBFConfig_v133" : [
"2018-02-02T16:14:32.087-0600"
],
"FTBFConfig_v134" : [
"2018-02-02T16:26:24.965-0600"
],
"FTBFConfig_v135" : [
"2018-02-02T16:27:12.082-0600"
],
"FTBFConfig_v136" : [
"2018-02-02T16:29:33.446-0600"
],
"FTBFConfig_v137" : [
"2018-02-02T16:31:44.103-0600"
],
"FTBFConfig_v138" : [
"2018-02-02T16:34:16.752-0600"
],
"FTBFConfig_v139" : [
"2018-02-02T17:39:32.806-0600"
],
"FTBFConfig_v140" : [
"2018-02-02T17:42:55.009-0600"
],
"FTBFConfig_v141" : [
"2018-02-02T17:47:40.226-0600"
],
"FTBFConfig_v142" : [
"2018-02-02T17:54:04.221-0600"
]
}
}