{
"document" : {
"data" : {
"NAME" : "DESKTOP_WINDOW_PARAMETER_TABLE",
"COMMENT" : "GET parameters for FE Sub-config window added.",
"AUTHOR" : "admin",
"CREATION_TIME" : 1505234288,
"COL_TYPES" : {
"WINDOW_PARAMETER_GROUP_ID" : "VARCHAR2",
"WINDOW_PARAMETER_UID" : "VARCHAR2",
"ENABLED" : "VARCHAR2",
"WINDOW_PARAMETER_KEY" : "VARCHAR2",
"WINDOW_PARAMETER_VALUE" : "VARCHAR2",
"COMMENT_DESCRIPTION" : "VARCHAR2",
"AUTHOR" : "VARCHAR2",
"RECORD_INSERTION_TIME" : "TIMESTAMP WITH TIMEZONE"
},
"DATA_SET" : [
{
"WINDOW_PARAMETER_GROUP_ID" : "FE_Cfg_params",
"WINDOW_PARAMETER_UID" : "FE_Cfg_param0",
"ENABLED" : "True",
"WINDOW_PARAMETER_KEY" : "subsetBasePath",
"WINDOW_PARAMETER_VALUE" : "FEInterfaceTable",
"COMMENT_DESCRIPTION" : "The records in this table are the targets for this config subset.",
"AUTHOR" : "admin",
"RECORD_INSERTION_TIME" : "1492613231"
},
{
"WINDOW_PARAMETER_GROUP_ID" : "FE_Cfg_params",
"WINDOW_PARAMETER_UID" : "FE_Cfg_param1",
"ENABLED" : "True",
"WINDOW_PARAMETER_KEY" : "groupingFieldList",
"WINDOW_PARAMETER_VALUE" : "Status,FEInterfacePluginName",
"COMMENT_DESCRIPTION" : "CSV fields (tree paths relative to base table record) by which the records will be grouped. The user can also filter the records by these fields.",
"AUTHOR" : "admin",
"RECORD_INSERTION_TIME" : "1499445617"
},
{
"WINDOW_PARAMETER_GROUP_ID" : "FE_Cfg_params",
"WINDOW_PARAMETER_UID" : "FE_Cfg_param2",
"ENABLED" : "True",
"WINDOW_PARAMETER_KEY" : "recordAlias",
"WINDOW_PARAMETER_VALUE" : "Front-ends",
"COMMENT_DESCRIPTION" : "Alias (plural) for targeted records.",
"AUTHOR" : "admin",
"RECORD_INSERTION_TIME" : "1499376316"
},
{
"WINDOW_PARAMETER_GROUP_ID" : "FE_Cfg_params | DP_Cfg_params",
"WINDOW_PARAMETER_UID" : "Shared_Cfg_param0",
"ENABLED" : "True",
"WINDOW_PARAMETER_KEY" : "editableFieldList",
"WINDOW_PARAMETER_VALUE" : "!*CommentDescription,!SlowControls*",
"COMMENT_DESCRIPTION" : "No Comment",
"AUTHOR" : "admin",
"RECORD_INSERTION_TIME" : "1499443011"
},
{
"WINDOW_PARAMETER_GROUP_ID" : "DP_Cfg_params",
"WINDOW_PARAMETER_UID" : "DP_Cfg_param0",
"ENABLED" : "True",
"WINDOW_PARAMETER_KEY" : "subsetBasePath",
"WINDOW_PARAMETER_VALUE" : "DataBufferTable",
"COMMENT_DESCRIPTION" : "The records in this table are the targets for this config subset.",
"AUTHOR" : "admin",
"RECORD_INSERTION_TIME" : "1499437924"
},
{
"WINDOW_PARAMETER_GROUP_ID" : "DP_Cfg_params",
"WINDOW_PARAMETER_UID" : "DP_Cfg_param1",
"ENABLED" : "True",
"WINDOW_PARAMETER_KEY" : "groupingFieldList",
"WINDOW_PARAMETER_VALUE" : "Status,ProcessorType,ProcessorPluginName",
"COMMENT_DESCRIPTION" : "CSV fields (tree paths relative to base table record) by which the records will be grouped. The user can also filter the records by these fields.",
"AUTHOR" : "admin",
"RECORD_INSERTION_TIME" : "1499445762"
},
{
"WINDOW_PARAMETER_GROUP_ID" : "DP_Cfg_params",
"WINDOW_PARAMETER_UID" : "DP_Cfg_param2",
"ENABLED" : "True",
"WINDOW_PARAMETER_KEY" : "recordAlias",
"WINDOW_PARAMETER_VALUE" : "Data Processors",
"COMMENT_DESCRIPTION" : "Alias (plural) for targeted records.",
"AUTHOR" : "admin",
"RECORD_INSERTION_TIME" : "1499437924"
}
]
},
"metadata" : {

},
"search" : [

]
},
"comments" : [

],
"origin" : {
"source" : "template",
"name" : "notprovided",
"format" : "json",
"created" : "2019-02-22T16:11:43.230-0600",
"rawdata" : [

]
},
"version" : "2",
"entities" : [
{
"name" : "OTSROOT",
"assigned" : "2019-02-22T16:11:43.230-0600"
}
],
"tables" : [
{
"name" : "notprovided",
"assigned" : "2019-02-22T16:11:43.230-0600"
},
{
"name" : "DefaultContext_v2",
"assigned" : "2019-02-22T16:11:43.458-0600"
}
],
"changelog" : "notprovided",
"bookkeeping" : {
"isdeleted" : false,
"isreadonly" : false,
"updates" : [
{
"event" : "addTable",
"timestamp" : "2019-02-22T16:11:43.230-0600",
"value" : {
"name" : "notprovided",
"assigned" : "2019-02-22T16:11:43.230-0600"
}
},
{
"event" : "setVersion",
"timestamp" : "2019-02-22T16:11:43.230-0600",
"value" : {
"name" : "2",
"assigned" : "2019-02-22T16:11:43.230-0600"
}
},
{
"event" : "setCollection",
"timestamp" : "2019-02-22T16:11:43.230-0600",
"value" : {
"name" : "DesktopWindowParameterTable",
"assigned" : "2019-02-22T16:11:43.230-0600"
}
},
{
"event" : "addEntity",
"timestamp" : "2019-02-22T16:11:43.230-0600",
"value" : {
"name" : "OTSROOT",
"assigned" : "2019-02-22T16:11:43.230-0600"
}
},
{
"event" : "addTable",
"timestamp" : "2019-02-22T16:11:43.458-0600",
"value" : {
"name" : "DefaultContext_v2",
"assigned" : "2019-02-22T16:11:43.458-0600"
}
},
{
"event" : "addConfiguration",
"timestamp" : "2019-07-23T09:05:25.443-0500",
"value" : {
"name" : "DefaultContext_v3",
"assigned" : "2019-07-23T09:05:25.443-0500"
}
},
{
"event" : "addConfiguration",
"timestamp" : "2019-11-19T16:07:21.596-0600",
"value" : {
"name" : "DefaultContext_v4",
"assigned" : "2019-11-19T16:07:21.596-0600"
}
},
{
"event" : "addConfiguration",
"timestamp" : "2019-11-20T14:24:12.535-0600",
"value" : {
"name" : "DefaultContext_v5",
"assigned" : "2019-11-20T14:24:12.535-0600"
}
},
{
"event" : "addConfiguration",
"timestamp" : "2019-11-20T14:39:27.390-0600",
"value" : {
"name" : "DefaultContext_v6",
"assigned" : "2019-11-20T14:39:27.390-0600"
}
},
{
"event" : "addConfiguration",
"timestamp" : "2019-11-20T15:26:58.418-0600",
"value" : {
"name" : "DefaultContext_v7",
"assigned" : "2019-11-20T15:26:58.417-0600"
}
},
{
"event" : "addConfiguration",
"timestamp" : "2019-11-20T15:27:24.451-0600",
"value" : {
"name" : "DefaultContext_v8",
"assigned" : "2019-11-20T15:27:24.451-0600"
}
},
{
"event" : "addConfiguration",
"timestamp" : "2019-11-20T15:28:33.631-0600",
"value" : {
"name" : "DefaultContext_v9",
"assigned" : "2019-11-20T15:28:33.631-0600"
}
},
{
"event" : "addConfiguration",
"timestamp" : "2019-11-20T15:56:57.676-0600",
"value" : {
"name" : "DefaultContext_v10",
"assigned" : "2019-11-20T15:56:57.676-0600"
}
},
{
"event" : "addConfiguration",
"timestamp" : "2019-11-20T16:00:09.086-0600",
"value" : {
"name" : "DefaultContext_v11",
"assigned" : "2019-11-20T16:00:09.086-0600"
}
},
{
"event" : "addConfiguration",
"timestamp" : "2019-12-05T17:52:36.236-0600",
"value" : {
"name" : "DefaultContext_v12",
"assigned" : "2019-12-05T17:52:36.236-0600"
}
},
{
"event" : "addConfiguration",
"timestamp" : "2019-12-06T09:54:12.536-0600",
"value" : {
"name" : "DefaultContext_v13",
"assigned" : "2019-12-06T09:54:12.536-0600"
}
},
{
"event" : "addConfiguration",
"timestamp" : "2019-12-09T11:56:59.346-0600",
"value" : {
"name" : "DefaultContext_v14",
"assigned" : "2019-12-09T11:56:59.346-0600"
}
},
{
"event" : "addConfiguration",
"timestamp" : "2019-12-13T13:20:54.892-0600",
"value" : {
"name" : "DefaultContext_v15",
"assigned" : "2019-12-13T13:20:54.892-0600"
}
}
],
"created" : "2019-02-22T16:11:43.230-0600"
},
"_id" : {
"$oid" : "a1b5bb9c0e234bd5a7d06c48"
},
"collection" : "DesktopWindowParameterTable",
"aliases" : {
"active" : [

],
"history" : [

]
},
"runs" : [

],
"attachments" : [

],
"configtype" : "notprovided",
"configurations" : [
{
"name" : "DefaultContext_v3",
"assigned" : "2019-07-23T09:05:25.443-0500"
},
{
"name" : "DefaultContext_v4",
"assigned" : "2019-11-19T16:07:21.596-0600"
},
{
"name" : "DefaultContext_v5",
"assigned" : "2019-11-20T14:24:12.535-0600"
},
{
"name" : "DefaultContext_v6",
"assigned" : "2019-11-20T14:39:27.390-0600"
},
{
"name" : "DefaultContext_v7",
"assigned" : "2019-11-20T15:26:58.417-0600"
},
{
"name" : "DefaultContext_v8",
"assigned" : "2019-11-20T15:27:24.451-0600"
},
{
"name" : "DefaultContext_v9",
"assigned" : "2019-11-20T15:28:33.631-0600"
},
{
"name" : "DefaultContext_v10",
"assigned" : "2019-11-20T15:56:57.676-0600"
},
{
"name" : "DefaultContext_v11",
"assigned" : "2019-11-20T16:00:09.086-0600"
},
{
"name" : "DefaultContext_v12",
"assigned" : "2019-12-05T17:52:36.236-0600"
},
{
"name" : "DefaultContext_v13",
"assigned" : "2019-12-06T09:54:12.536-0600"
},
{
"name" : "DefaultContext_v14",
"assigned" : "2019-12-09T11:56:59.346-0600"
},
{
"name" : "DefaultContext_v15",
"assigned" : "2019-12-13T13:20:54.892-0600"
}
]
}