{
"document" : {
"data" : {
"NAME" : "TABLE_GROUP_METADATA",
"COMMENT" : "",
"AUTHOR" : "",
"CREATION_TIME" : 1528236848,
"COL_TYPES" : {
"UNUSED_UID" : "NUMBER",
"GROUP_ALIASES" : "STRING",
"COMMENT_DESCRIPTION" : "STRING",
"AUTHOR" : "STRING",
"GROUP_CREATION_TIME" : "TIMESTAMP WITH TIMEZONE"
},
"DATA_SET" : [
{
"UNUSED_UID" : "0",
"GROUP_ALIASES" : "",
"COMMENT_DESCRIPTION" : "No%20comment.",
"AUTHOR" : "admin",
"GROUP_CREATION_TIME" : "1626290763"
}
]
},
"metadata" : {

},
"search" : [

]
},
"comments" : [

],
"origin" : {
"source" : "template",
"name" : "notprovided",
"format" : "json",
"created" : "2021-07-14T14:26:03.985-0500",
"rawdata" : [

]
},
"version" : "285",
"entities" : [
{
"name" : "OTSROOT",
"assigned" : "2021-07-14T14:26:03.986-0500"
}
],
"configurations" : [
{
"name" : "notprovided",
"assigned" : "2021-07-14T14:26:03.985-0500"
},
{
"name" : "BurninBoxConfiguration_v45",
"assigned" : "2021-07-14T14:26:05.091-0500"
}
],
"changelog" : "notprovided",
"bookkeeping" : {
"isdeleted" : false,
"isreadonly" : false,
"updates" : [
{
"event" : "addConfiguration",
"timestamp" : "2021-07-14T14:26:03.985-0500",
"value" : {
"name" : "notprovided",
"assigned" : "2021-07-14T14:26:03.985-0500"
}
},
{
"event" : "setVersion",
"timestamp" : "2021-07-14T14:26:03.986-0500",
"value" : {
"name" : "285",
"assigned" : "2021-07-14T14:26:03.986-0500"
}
},
{
"event" : "setCollection",
"timestamp" : "2021-07-14T14:26:03.986-0500",
"value" : {
"name" : "TableGroupMetadata",
"assigned" : "2021-07-14T14:26:03.986-0500"
}
},
{
"event" : "addEntity",
"timestamp" : "2021-07-14T14:26:03.986-0500",
"value" : {
"name" : "OTSROOT",
"assigned" : "2021-07-14T14:26:03.986-0500"
}
},
{
"event" : "addConfiguration",
"timestamp" : "2021-07-14T14:26:05.091-0500",
"value" : {
"name" : "BurninBoxConfiguration_v45",
"assigned" : "2021-07-14T14:26:05.091-0500"
}
}
],
"created" : "2021-07-14T14:26:03.985-0500"
},
"_id" : {
"$oid" : "e59c5c99f494469289fbd376"
},
"collection" : "TableGroupMetadata",
"aliases" : {
"active" : [

],
"history" : [

]
},
"runs" : [

],
"attachments" : [

],
"configtype" : "notprovided"
}