{
"ouid" : [
"bd0b28b51f0043f4a5d467df"
],
"version" : {
"0" : [
"bd0b28b51f0043f4a5d467df"
]
},
"configurations.name" : {
"notprovided" : [
"bd0b28b51f0043f4a5d467df"
],
"FTBFConfig_v0" : [
"bd0b28b51f0043f4a5d467df"
],
"FTBFConfig_v1" : [
"bd0b28b51f0043f4a5d467df"
],
"FTBFConfig_v2" : [
"bd0b28b51f0043f4a5d467df"
],
"FTBFConfig_v3" : [
"bd0b28b51f0043f4a5d467df"
],
"FTBFConfig_v4" : [
"bd0b28b51f0043f4a5d467df"
],
"FTBFConfig_v5" : [
"bd0b28b51f0043f4a5d467df"
],
"FTBFConfig_v6" : [
"bd0b28b51f0043f4a5d467df"
],
"FTBFConfig_v7" : [
"bd0b28b51f0043f4a5d467df"
],
"FTBFConfig_v8" : [
"bd0b28b51f0043f4a5d467df"
],
"FTBFConfig_v9" : [
"bd0b28b51f0043f4a5d467df"
],
"FTBFConfig_v10" : [
"bd0b28b51f0043f4a5d467df"
],
"FTBFConfig_v11" : [
"bd0b28b51f0043f4a5d467df"
],
"FTBFConfig_v12" : [
"bd0b28b51f0043f4a5d467df"
],
"FTBFConfig_v13" : [
"bd0b28b51f0043f4a5d467df"
],
"FTBFConfig_v14" : [
"bd0b28b51f0043f4a5d467df"
],
"FTBFConfig_v15" : [
"bd0b28b51f0043f4a5d467df"
],
"FTBFConfig_v16" : [
"bd0b28b51f0043f4a5d467df"
],
"FTBFConfig_v17" : [
"bd0b28b51f0043f4a5d467df"
],
"FTBFConfig_v18" : [
"bd0b28b51f0043f4a5d467df"
],
"FTBFConfig_v19" : [
"bd0b28b51f0043f4a5d467df"
],
"FTBFConfig_v20" : [
"bd0b28b51f0043f4a5d467df"
],
"FTBFConfig_v21" : [
"bd0b28b51f0043f4a5d467df"
],
"FTBFConfig_v22" : [
"bd0b28b51f0043f4a5d467df"
],
"FTBFConfig_v23" : [
"bd0b28b51f0043f4a5d467df"
],
"FTBFConfig_v24" : [
"bd0b28b51f0043f4a5d467df"
],
"FTBFConfig_v25" : [
"bd0b28b51f0043f4a5d467df"
],
"FTBFConfig_v26" : [
"bd0b28b51f0043f4a5d467df"
],
"FTBFConfig_v27" : [
"bd0b28b51f0043f4a5d467df"
],
"FTBFConfig_v28" : [
"bd0b28b51f0043f4a5d467df"
],
"FTBFConfig_v29" : [
"bd0b28b51f0043f4a5d467df"
],
"FTBFConfig_v30" : [
"bd0b28b51f0043f4a5d467df"
],
"FTBFConfig_v31" : [
"bd0b28b51f0043f4a5d467df"
],
"FTBFConfig_v32" : [
"bd0b28b51f0043f4a5d467df"
],
"FTBFConfig_v33" : [
"bd0b28b51f0043f4a5d467df"
],
"FTBFConfig_v34" : [
"bd0b28b51f0043f4a5d467df"
],
"FTBFConfig_v35" : [
"bd0b28b51f0043f4a5d467df"
],
"FTBFConfig_v36" : [
"bd0b28b51f0043f4a5d467df"
],
"FTBFConfig_v37" : [
"bd0b28b51f0043f4a5d467df"
],
"FTBFConfig_v38" : [
"bd0b28b51f0043f4a5d467df"
],
"FTBFConfig_v39" : [
"bd0b28b51f0043f4a5d467df"
],
"FTBFConfig_v40" : [
"bd0b28b51f0043f4a5d467df"
],
"FTBFConfig_v41" : [
"bd0b28b51f0043f4a5d467df"
],
"FTBFConfig_v42" : [
"bd0b28b51f0043f4a5d467df"
],
"FTBFConfig_v43" : [
"bd0b28b51f0043f4a5d467df"
],
"FTBFConfig_v44" : [
"bd0b28b51f0043f4a5d467df"
],
"FTBFConfig_v45" : [
"bd0b28b51f0043f4a5d467df"
],
"FTBFConfig_v46" : [
"bd0b28b51f0043f4a5d467df"
],
"FTBFConfig_v47" : [
"bd0b28b51f0043f4a5d467df"
],
"FTBFConfig_v48" : [
"bd0b28b51f0043f4a5d467df"
],
"FTBFConfig_v49" : [
"bd0b28b51f0043f4a5d467df"
],
"FTBFConfig_v51" : [
"bd0b28b51f0043f4a5d467df"
],
"FTBFConfig_v52" : [
"bd0b28b51f0043f4a5d467df"
],
"FTBFConfig_v53" : [
"bd0b28b51f0043f4a5d467df"
],
"FTBFConfig_v54" : [
"bd0b28b51f0043f4a5d467df"
],
"FTBFConfig_v55" : [
"bd0b28b51f0043f4a5d467df"
],
"FTBFConfig_v56" : [
"bd0b28b51f0043f4a5d467df"
],
"FTBFConfig_v57" : [
"bd0b28b51f0043f4a5d467df"
],
"FTBFConfig_v58" : [
"bd0b28b51f0043f4a5d467df"
],
"FTBFConfig_v59" : [
"bd0b28b51f0043f4a5d467df"
],
"FTBFConfig_v60" : [
"bd0b28b51f0043f4a5d467df"
],
"FTBFConfig_v61" : [
"bd0b28b51f0043f4a5d467df"
],
"FTBFConfig_v62" : [
"bd0b28b51f0043f4a5d467df"
],
"FTBFConfig_v63" : [
"bd0b28b51f0043f4a5d467df"
],
"FTBFConfig_v64" : [
"bd0b28b51f0043f4a5d467df"
],
"FTBFConfig_v65" : [
"bd0b28b51f0043f4a5d467df"
],
"FTBFConfig_v66" : [
"bd0b28b51f0043f4a5d467df"
],
"FTBFConfig_v67" : [
"bd0b28b51f0043f4a5d467df"
],
"FTBFConfig_v68" : [
"bd0b28b51f0043f4a5d467df"
],
"FTBFConfig_v69" : [
"bd0b28b51f0043f4a5d467df"
],
"FTBFConfig_v70" : [
"bd0b28b51f0043f4a5d467df"
],
"FTBFConfigNim_v0" : [
"bd0b28b51f0043f4a5d467df"
],
"FTBFConfigNim_v1" : [
"bd0b28b51f0043f4a5d467df"
],
"FTBFConfigNim_v2" : [
"bd0b28b51f0043f4a5d467df"
],
"FTBFConfigNim_v3" : [
"bd0b28b51f0043f4a5d467df"
],
"FTBFConfigNim_v4" : [
"bd0b28b51f0043f4a5d467df"
],
"FTBFConfigNim_v5" : [
"bd0b28b51f0043f4a5d467df"
],
"FTBFConfigNim_v6" : [
"bd0b28b51f0043f4a5d467df"
],
"FTBFConfigNim_v7" : [
"bd0b28b51f0043f4a5d467df"
],
"FTBFConfigNim_v8" : [
"bd0b28b51f0043f4a5d467df"
],
"FTBFConfigNim_v9" : [
"bd0b28b51f0043f4a5d467df"
],
"FTBFConfigNim_v10" : [
"bd0b28b51f0043f4a5d467df"
],
"FTBFConfigNim_v11" : [
"bd0b28b51f0043f4a5d467df"
],
"FTBFConfigNim_v12" : [
"bd0b28b51f0043f4a5d467df"
],
"FTBFConfigNim_v13" : [
"bd0b28b51f0043f4a5d467df"
],
"FTBFConfigNim_v14" : [
"bd0b28b51f0043f4a5d467df"
],
"FTBFConfigNim_v15" : [
"bd0b28b51f0043f4a5d467df"
],
"FTBFConfigNim_v16" : [
"bd0b28b51f0043f4a5d467df"
],
"FTBFConfigNim_v17" : [
"bd0b28b51f0043f4a5d467df"
],
"FTBFConfigNim_v18" : [
"bd0b28b51f0043f4a5d467df"
],
"FTBFConfigNim_v19" : [
"bd0b28b51f0043f4a5d467df"
],
"FTBFConfigNim_v20" : [
"bd0b28b51f0043f4a5d467df"
],
"FTBFConfigNim_v21" : [
"bd0b28b51f0043f4a5d467df"
],
"FTBFConfigNim_v22" : [
"bd0b28b51f0043f4a5d467df"
],
"FTBFConfigNim_v23" : [
"bd0b28b51f0043f4a5d467df"
],
"FTBFConfigNim_v24" : [
"bd0b28b51f0043f4a5d467df"
],
"FTBFConfigNim_v25" : [
"bd0b28b51f0043f4a5d467df"
],
"FTBFConfigNim_v26" : [
"bd0b28b51f0043f4a5d467df"
],
"FTBFConfigNim_v27" : [
"bd0b28b51f0043f4a5d467df"
],
"FTBFConfigNim_v28" : [
"bd0b28b51f0043f4a5d467df"
],
"FTBFConfigNim_v29" : [
"bd0b28b51f0043f4a5d467df"
],
"FTBFConfig_v71" : [
"bd0b28b51f0043f4a5d467df"
],
"FTBFConfig_v72" : [
"bd0b28b51f0043f4a5d467df"
],
"FTBFConfig_v73" : [
"bd0b28b51f0043f4a5d467df"
],
"FTBFConfig_v74" : [
"bd0b28b51f0043f4a5d467df"
],
"FTBFConfig_v75" : [
"bd0b28b51f0043f4a5d467df"
],
"FTBFConfig_v76" : [
"bd0b28b51f0043f4a5d467df"
],
"FTBFConfig_v77" : [
"bd0b28b51f0043f4a5d467df"
],
"FTBFConfig_v78" : [
"bd0b28b51f0043f4a5d467df"
],
"FTBFConfig_v79" : [
"bd0b28b51f0043f4a5d467df"
],
"FTBFConfig_v80" : [
"bd0b28b51f0043f4a5d467df"
],
"FTBFConfig_v81" : [
"bd0b28b51f0043f4a5d467df"
],
"FTBFConfig_v82" : [
"bd0b28b51f0043f4a5d467df"
],
"FTBFConfig_v83" : [
"bd0b28b51f0043f4a5d467df"
],
"FTBFConfig_v84" : [
"bd0b28b51f0043f4a5d467df"
],
"FTBFConfig_v85" : [
"bd0b28b51f0043f4a5d467df"
],
"FTBFConfig_v86" : [
"bd0b28b51f0043f4a5d467df"
],
"FTBFConfig_v87" : [
"bd0b28b51f0043f4a5d467df"
],
"FTBFConfig_v88" : [
"bd0b28b51f0043f4a5d467df"
],
"FTBFConfig_v89" : [
"bd0b28b51f0043f4a5d467df"
],
"FTBFConfig_v90" : [
"bd0b28b51f0043f4a5d467df"
],
"FTBFConfig_v91" : [
"bd0b28b51f0043f4a5d467df"
],
"FTBFConfig_v92" : [
"bd0b28b51f0043f4a5d467df"
],
"FTBFConfig_v93" : [
"bd0b28b51f0043f4a5d467df"
],
"FTBFConfig_v94" : [
"bd0b28b51f0043f4a5d467df"
],
"FTBFConfig_v95" : [
"bd0b28b51f0043f4a5d467df"
],
"FTBFConfig_v96" : [
"bd0b28b51f0043f4a5d467df"
],
"FTBFConfig_v97" : [
"bd0b28b51f0043f4a5d467df"
],
"FTBFConfig_v98" : [
"bd0b28b51f0043f4a5d467df"
],
"FTBFConfig_v99" : [
"bd0b28b51f0043f4a5d467df"
],
"FTBFConfig_v100" : [
"bd0b28b51f0043f4a5d467df"
],
"FTBFConfig_v101" : [
"bd0b28b51f0043f4a5d467df"
],
"FTBFConfig_v102" : [
"bd0b28b51f0043f4a5d467df"
],
"FTBFConfig_v103" : [
"bd0b28b51f0043f4a5d467df"
],
"FTBFConfig_v104" : [
"bd0b28b51f0043f4a5d467df"
],
"FTBFConfig_v105" : [
"bd0b28b51f0043f4a5d467df"
],
"FTBFConfig_v106" : [
"bd0b28b51f0043f4a5d467df"
],
"FTBFConfig_v107" : [
"bd0b28b51f0043f4a5d467df"
],
"FTBFConfig_v108" : [
"bd0b28b51f0043f4a5d467df"
],
"FTBFConfig_v109" : [
"bd0b28b51f0043f4a5d467df"
],
"FTBFConfig_v110" : [
"bd0b28b51f0043f4a5d467df"
],
"FTBFConfig_v111" : [
"bd0b28b51f0043f4a5d467df"
],
"FTBFConfig_v112" : [
"bd0b28b51f0043f4a5d467df"
],
"FTBFConfig_v113" : [
"bd0b28b51f0043f4a5d467df"
],
"FTBFConfig_v114" : [
"bd0b28b51f0043f4a5d467df"
],
"FTBFConfig_v115" : [
"bd0b28b51f0043f4a5d467df"
],
"FTBFConfig_v116" : [
"bd0b28b51f0043f4a5d467df"
],
"FTBFConfig_v117" : [
"bd0b28b51f0043f4a5d467df"
],
"FTBFConfig_v118" : [
"bd0b28b51f0043f4a5d467df"
],
"FTBFConfig_v119" : [
"bd0b28b51f0043f4a5d467df"
],
"FTBFConfig_v120" : [
"bd0b28b51f0043f4a5d467df"
],
"FTBFConfig_v121" : [
"bd0b28b51f0043f4a5d467df"
],
"FTBFConfig_v122" : [
"bd0b28b51f0043f4a5d467df"
],
"FTBFConfig_v123" : [
"bd0b28b51f0043f4a5d467df"
],
"FTBFConfig_v124" : [
"bd0b28b51f0043f4a5d467df"
],
"FTBFConfig_v125" : [
"bd0b28b51f0043f4a5d467df"
],
"FTBFConfig_v126" : [
"bd0b28b51f0043f4a5d467df"
],
"FTBFConfig_v127" : [
"bd0b28b51f0043f4a5d467df"
],
"FTBFConfig_v128" : [
"bd0b28b51f0043f4a5d467df"
],
"FTBFConfig_v129" : [
"bd0b28b51f0043f4a5d467df"
],
"FTBFConfig_v130" : [
"bd0b28b51f0043f4a5d467df"
],
"FTBFConfig_v131" : [
"bd0b28b51f0043f4a5d467df"
],
"FTBFConfig_v132" : [
"bd0b28b51f0043f4a5d467df"
],
"FTBFConfig_v133" : [
"bd0b28b51f0043f4a5d467df"
],
"FTBFConfig_v134" : [
"bd0b28b51f0043f4a5d467df"
],
"FTBFConfig_v135" : [
"bd0b28b51f0043f4a5d467df"
],
"FTBFConfig_v136" : [
"bd0b28b51f0043f4a5d467df"
],
"FTBFConfig_v137" : [
"bd0b28b51f0043f4a5d467df"
],
"FTBFConfig_v138" : [
"bd0b28b51f0043f4a5d467df"
],
"FTBFConfig_v139" : [
"bd0b28b51f0043f4a5d467df"
],
"FTBFConfig_v140" : [
"bd0b28b51f0043f4a5d467df"
],
"FTBFConfig_v141" : [
"bd0b28b51f0043f4a5d467df"
],
"FTBFConfig_v142" : [
"bd0b28b51f0043f4a5d467df"
]
},
"entities.name" : {
"OTSROOT" : [
"bd0b28b51f0043f4a5d467df"
]
},
"aliases.active.name" : {

},
"runs.name" : {

},
"configurations.assigned" : {
"notprovided" : [
"2017-11-08T15:56:02.774-0600"
],
"FTBFConfig_v0" : [
"2017-11-08T15:56:05.416-0600"
],
"FTBFConfig_v1" : [
"2017-11-09T09:56:29.930-0600"
],
"FTBFConfig_v2" : [
"2017-11-09T10:05:58.891-0600"
],
"FTBFConfig_v3" : [
"2017-11-09T10:37:10.451-0600"
],
"FTBFConfig_v4" : [
"2017-11-15T11:30:09.215-0600"
],
"FTBFConfig_v5" : [
"2017-11-15T11:54:55.984-0600"
],
"FTBFConfig_v6" : [
"2017-11-15T11:57:48.619-0600"
],
"FTBFConfig_v7" : [
"2017-11-15T12:42:31.021-0600"
],
"FTBFConfig_v8" : [
"2017-11-15T13:01:01.999-0600"
],
"FTBFConfig_v9" : [
"2017-11-15T13:02:55.383-0600"
],
"FTBFConfig_v10" : [
"2017-11-15T13:04:22.971-0600"
],
"FTBFConfig_v11" : [
"2017-11-15T13:07:50.456-0600"
],
"FTBFConfig_v12" : [
"2017-11-15T13:11:57.879-0600"
],
"FTBFConfig_v13" : [
"2017-11-15T13:13:51.832-0600"
],
"FTBFConfig_v14" : [
"2017-11-15T13:27:25.825-0600"
],
"FTBFConfig_v15" : [
"2017-11-15T13:35:45.786-0600"
],
"FTBFConfig_v16" : [
"2017-11-15T13:36:50.418-0600"
],
"FTBFConfig_v17" : [
"2017-11-15T15:33:28.953-0600"
],
"FTBFConfig_v18" : [
"2017-11-15T15:35:32.558-0600"
],
"FTBFConfig_v19" : [
"2017-11-15T15:38:01.401-0600"
],
"FTBFConfig_v20" : [
"2017-11-15T16:26:29.083-0600"
],
"FTBFConfig_v21" : [
"2017-11-16T09:22:30.198-0600"
],
"FTBFConfig_v22" : [
"2017-11-17T10:23:26.393-0600"
],
"FTBFConfig_v23" : [
"2017-11-17T17:26:43.907-0600"
],
"FTBFConfig_v24" : [
"2017-11-17T17:58:24.370-0600"
],
"FTBFConfig_v25" : [
"2017-11-17T18:24:44.051-0600"
],
"FTBFConfig_v26" : [
"2017-11-17T18:32:21.049-0600"
],
"FTBFConfig_v27" : [
"2017-11-17T18:43:28.179-0600"
],
"FTBFConfig_v28" : [
"2017-11-17T18:48:30.144-0600"
],
"FTBFConfig_v29" : [
"2017-11-20T14:48:29.342-0600"
],
"FTBFConfig_v30" : [
"2017-11-20T15:39:54.521-0600"
],
"FTBFConfig_v31" : [
"2017-11-20T16:41:00.510-0600"
],
"FTBFConfig_v32" : [
"2017-11-20T18:55:33.339-0600"
],
"FTBFConfig_v33" : [
"2017-11-20T18:57:28.623-0600"
],
"FTBFConfig_v34" : [
"2017-11-29T17:50:38.116-0600"
],
"FTBFConfig_v35" : [
"2017-11-29T18:00:30.971-0600"
],
"FTBFConfig_v36" : [
"2017-11-29T18:35:09.820-0600"
],
"FTBFConfig_v37" : [
"2017-12-01T09:36:16.032-0600"
],
"FTBFConfig_v38" : [
"2017-12-01T09:51:59.408-0600"
],
"FTBFConfig_v39" : [
"2017-12-01T11:51:56.623-0600"
],
"FTBFConfig_v40" : [
"2017-12-01T12:18:18.608-0600"
],
"FTBFConfig_v41" : [
"2017-12-01T12:21:00.749-0600"
],
"FTBFConfig_v42" : [
"2017-12-01T12:43:19.882-0600"
],
"FTBFConfig_v43" : [
"2017-12-01T12:57:57.113-0600"
],
"FTBFConfig_v44" : [
"2017-12-01T13:00:49.973-0600"
],
"FTBFConfig_v45" : [
"2017-12-01T13:25:46.820-0600"
],
"FTBFConfig_v46" : [
"2017-12-01T13:35:41.668-0600"
],
"FTBFConfig_v47" : [
"2017-12-01T14:00:50.015-0600"
],
"FTBFConfig_v48" : [
"2017-12-01T14:03:57.272-0600"
],
"FTBFConfig_v49" : [
"2017-12-01T15:31:57.470-0600"
],
"FTBFConfig_v51" : [
"2017-12-01T15:37:18.920-0600"
],
"FTBFConfig_v52" : [
"2017-12-01T15:37:28.602-0600"
],
"FTBFConfig_v53" : [
"2017-12-01T15:40:56.996-0600"
],
"FTBFConfig_v54" : [
"2017-12-01T15:52:47.304-0600"
],
"FTBFConfig_v55" : [
"2017-12-01T15:54:32.440-0600"
],
"FTBFConfig_v56" : [
"2017-12-01T15:55:31.965-0600"
],
"FTBFConfig_v57" : [
"2017-12-01T15:56:37.761-0600"
],
"FTBFConfig_v58" : [
"2017-12-01T15:57:35.841-0600"
],
"FTBFConfig_v59" : [
"2017-12-01T15:58:27.741-0600"
],
"FTBFConfig_v60" : [
"2017-12-01T15:59:28.928-0600"
],
"FTBFConfig_v61" : [
"2017-12-01T16:19:38.661-0600"
],
"FTBFConfig_v62" : [
"2017-12-01T16:22:01.210-0600"
],
"FTBFConfig_v63" : [
"2017-12-01T16:31:21.823-0600"
],
"FTBFConfig_v64" : [
"2017-12-01T17:06:28.750-0600"
],
"FTBFConfig_v65" : [
"2017-12-01T17:32:41.063-0600"
],
"FTBFConfig_v66" : [
"2017-12-01T20:38:47.444-0600"
],
"FTBFConfig_v67" : [
"2017-12-01T21:24:58.916-0600"
],
"FTBFConfig_v68" : [
"2017-12-01T21:42:58.569-0600"
],
"FTBFConfig_v69" : [
"2017-12-01T21:44:57.213-0600"
],
"FTBFConfig_v70" : [
"2017-12-01T21:59:16.420-0600"
],
"FTBFConfigNim_v0" : [
"2017-12-01T22:00:03.139-0600"
],
"FTBFConfigNim_v1" : [
"2017-12-01T22:13:04.861-0600"
],
"FTBFConfigNim_v2" : [
"2017-12-01T22:15:52.077-0600"
],
"FTBFConfigNim_v3" : [
"2017-12-01T22:17:00.182-0600"
],
"FTBFConfigNim_v4" : [
"2017-12-01T22:19:03.168-0600"
],
"FTBFConfigNim_v5" : [
"2017-12-01T22:21:53.871-0600"
],
"FTBFConfigNim_v6" : [
"2017-12-01T22:23:10.023-0600"
],
"FTBFConfigNim_v7" : [
"2017-12-01T22:25:13.806-0600"
],
"FTBFConfigNim_v8" : [
"2017-12-01T22:27:01.367-0600"
],
"FTBFConfigNim_v9" : [
"2017-12-01T22:29:25.618-0600"
],
"FTBFConfigNim_v10" : [
"2017-12-01T22:52:30.718-0600"
],
"FTBFConfigNim_v11" : [
"2017-12-01T22:57:25.508-0600"
],
"FTBFConfigNim_v12" : [
"2017-12-01T23:00:03.782-0600"
],
"FTBFConfigNim_v13" : [
"2017-12-01T23:52:31.893-0600"
],
"FTBFConfigNim_v14" : [
"2017-12-01T23:58:06.278-0600"
],
"FTBFConfigNim_v15" : [
"2017-12-02T00:00:30.556-0600"
],
"FTBFConfigNim_v16" : [
"2017-12-02T00:13:05.690-0600"
],
"FTBFConfigNim_v17" : [
"2017-12-02T00:28:24.650-0600"
],
"FTBFConfigNim_v18" : [
"2017-12-02T00:29:30.690-0600"
],
"FTBFConfigNim_v19" : [
"2017-12-02T00:31:07.512-0600"
],
"FTBFConfigNim_v20" : [
"2017-12-02T00:57:23.668-0600"
],
"FTBFConfigNim_v21" : [
"2017-12-02T10:57:58.220-0600"
],
"FTBFConfigNim_v22" : [
"2017-12-02T11:08:14.383-0600"
],
"FTBFConfigNim_v23" : [
"2017-12-02T11:12:35.947-0600"
],
"FTBFConfigNim_v24" : [
"2017-12-02T11:18:38.765-0600"
],
"FTBFConfigNim_v25" : [
"2017-12-02T11:27:02.003-0600"
],
"FTBFConfigNim_v26" : [
"2017-12-02T11:38:33.044-0600"
],
"FTBFConfigNim_v27" : [
"2017-12-02T11:49:04.176-0600"
],
"FTBFConfigNim_v28" : [
"2017-12-02T11:55:05.636-0600"
],
"FTBFConfigNim_v29" : [
"2017-12-02T12:06:22.456-0600"
],
"FTBFConfig_v71" : [
"2017-12-02T12:24:11.096-0600"
],
"FTBFConfig_v72" : [
"2017-12-02T12:43:31.903-0600"
],
"FTBFConfig_v73" : [
"2017-12-02T13:55:31.497-0600"
],
"FTBFConfig_v74" : [
"2017-12-02T14:09:03.784-0600"
],
"FTBFConfig_v75" : [
"2017-12-02T14:12:14.632-0600"
],
"FTBFConfig_v76" : [
"2017-12-02T19:05:49.727-0600"
],
"FTBFConfig_v77" : [
"2017-12-02T19:12:09.543-0600"
],
"FTBFConfig_v78" : [
"2017-12-03T14:03:44.724-0600"
],
"FTBFConfig_v79" : [
"2017-12-03T14:09:02.911-0600"
],
"FTBFConfig_v80" : [
"2017-12-03T14:11:06.669-0600"
],
"FTBFConfig_v81" : [
"2017-12-03T14:22:29.697-0600"
],
"FTBFConfig_v82" : [
"2017-12-03T14:40:34.474-0600"
],
"FTBFConfig_v83" : [
"2017-12-03T14:45:01.815-0600"
],
"FTBFConfig_v84" : [
"2017-12-04T14:51:27.204-0600"
],
"FTBFConfig_v85" : [
"2017-12-04T14:55:40.372-0600"
],
"FTBFConfig_v86" : [
"2017-12-04T16:51:03.336-0600"
],
"FTBFConfig_v87" : [
"2017-12-04T16:56:43.951-0600"
],
"FTBFConfig_v88" : [
"2017-12-04T17:01:08.656-0600"
],
"FTBFConfig_v89" : [
"2017-12-04T17:03:53.749-0600"
],
"FTBFConfig_v90" : [
"2017-12-04T17:07:13.374-0600"
],
"FTBFConfig_v91" : [
"2017-12-04T17:09:22.487-0600"
],
"FTBFConfig_v92" : [
"2017-12-04T17:11:34.967-0600"
],
"FTBFConfig_v93" : [
"2017-12-04T21:05:17.592-0600"
],
"FTBFConfig_v94" : [
"2017-12-04T21:17:08.419-0600"
],
"FTBFConfig_v95" : [
"2017-12-04T21:41:14.142-0600"
],
"FTBFConfig_v96" : [
"2017-12-04T22:38:58.755-0600"
],
"FTBFConfig_v97" : [
"2017-12-04T23:01:09.267-0600"
],
"FTBFConfig_v98" : [
"2017-12-07T11:07:43.281-0600"
],
"FTBFConfig_v99" : [
"2017-12-07T11:49:55.962-0600"
],
"FTBFConfig_v100" : [
"2017-12-07T11:58:22.681-0600"
],
"FTBFConfig_v101" : [
"2017-12-08T13:30:44.767-0600"
],
"FTBFConfig_v102" : [
"2017-12-08T13:32:31.661-0600"
],
"FTBFConfig_v103" : [
"2017-12-12T11:03:01.437-0600"
],
"FTBFConfig_v104" : [
"2017-12-12T13:50:55.738-0600"
],
"FTBFConfig_v105" : [
"2017-12-12T15:25:01.755-0600"
],
"FTBFConfig_v106" : [
"2017-12-13T10:24:20.187-0600"
],
"FTBFConfig_v107" : [
"2017-12-13T10:26:58.940-0600"
],
"FTBFConfig_v108" : [
"2018-02-01T21:14:22.292-0600"
],
"FTBFConfig_v109" : [
"2018-02-01T21:20:59.400-0600"
],
"FTBFConfig_v110" : [
"2018-02-02T11:25:30.336-0600"
],
"FTBFConfig_v111" : [
"2018-02-02T11:37:09.171-0600"
],
"FTBFConfig_v112" : [
"2018-02-02T11:47:11.633-0600"
],
"FTBFConfig_v113" : [
"2018-02-02T11:53:32.875-0600"
],
"FTBFConfig_v114" : [
"2018-02-02T12:00:48.935-0600"
],
"FTBFConfig_v115" : [
"2018-02-02T12:27:10.428-0600"
],
"FTBFConfig_v116" : [
"2018-02-02T14:28:49.952-0600"
],
"FTBFConfig_v117" : [
"2018-02-02T14:30:16.270-0600"
],
"FTBFConfig_v118" : [
"2018-02-02T14:33:57.475-0600"
],
"FTBFConfig_v119" : [
"2018-02-02T14:36:24.088-0600"
],
"FTBFConfig_v120" : [
"2018-02-02T14:38:37.446-0600"
],
"FTBFConfig_v121" : [
"2018-02-02T14:41:46.761-0600"
],
"FTBFConfig_v122" : [
"2018-02-02T14:50:20.783-0600"
],
"FTBFConfig_v123" : [
"2018-02-02T14:52:53.621-0600"
],
"FTBFConfig_v124" : [
"2018-02-02T14:59:46.945-0600"
],
"FTBFConfig_v125" : [
"2018-02-02T15:04:05.045-0600"
],
"FTBFConfig_v126" : [
"2018-02-02T15:50:08.238-0600"
],
"FTBFConfig_v127" : [
"2018-02-02T15:51:27.714-0600"
],
"FTBFConfig_v128" : [
"2018-02-02T15:52:32.886-0600"
],
"FTBFConfig_v129" : [
"2018-02-02T16:02:41.758-0600"
],
"FTBFConfig_v130" : [
"2018-02-02T16:08:41.280-0600"
],
"FTBFConfig_v131" : [
"2018-02-02T16:11:27.085-0600"
],
"FTBFConfig_v132" : [
"2018-02-02T16:12:54.921-0600"
],
"FTBFConfig_v133" : [
"2018-02-02T16:14:25.485-0600"
],
"FTBFConfig_v134" : [
"2018-02-02T16:26:18.405-0600"
],
"FTBFConfig_v135" : [
"2018-02-02T16:27:05.519-0600"
],
"FTBFConfig_v136" : [
"2018-02-02T16:29:26.869-0600"
],
"FTBFConfig_v137" : [
"2018-02-02T16:31:37.339-0600"
],
"FTBFConfig_v138" : [
"2018-02-02T16:34:10.072-0600"
],
"FTBFConfig_v139" : [
"2018-02-02T17:39:26.103-0600"
],
"FTBFConfig_v140" : [
"2018-02-02T17:42:48.274-0600"
],
"FTBFConfig_v141" : [
"2018-02-02T17:47:33.436-0600"
],
"FTBFConfig_v142" : [
"2018-02-02T17:53:57.442-0600"
]
}
}