{
"ouid" : [
"d7c31583099b46d79e7f02c2"
],
"version" : {
"0" : [
"d7c31583099b46d79e7f02c2"
]
},
"configurations.name" : {
"notprovided" : [
"d7c31583099b46d79e7f02c2"
],
"iterateDefaultGroup_v0" : [
"d7c31583099b46d79e7f02c2"
],
"iterateDefaultGroup_v1" : [
"d7c31583099b46d79e7f02c2"
],
"iterateDefaultGroup_v2" : [
"d7c31583099b46d79e7f02c2"
],
"iterateDefaultGroup_v3" : [
"d7c31583099b46d79e7f02c2"
],
"iterateDefaultGroup_v4" : [
"d7c31583099b46d79e7f02c2"
],
"iterateDefaultGroup_v5" : [
"d7c31583099b46d79e7f02c2"
],
"iterateDefaultGroup_v6" : [
"d7c31583099b46d79e7f02c2"
],
"iterateDefaultGroup_v7" : [
"d7c31583099b46d79e7f02c2"
],
"iterateDefaultGroup_v8" : [
"d7c31583099b46d79e7f02c2"
],
"iterateDefaultGroup_v9" : [
"d7c31583099b46d79e7f02c2"
],
"iterateDefaultGroup_v10" : [
"d7c31583099b46d79e7f02c2"
],
"iterateDefaultGroup_v11" : [
"d7c31583099b46d79e7f02c2"
],
"iterateDefaultGroup_v12" : [
"d7c31583099b46d79e7f02c2"
]
},
"entities.name" : {
"OTSROOT" : [
"d7c31583099b46d79e7f02c2"
]
},
"aliases.active.name" : {

},
"runs.name" : {

},
"configurations.assigned" : {
"notprovided" : [
"2020-07-21T14:47:39.277-0500"
],
"iterateDefaultGroup_v0" : [
"2020-07-21T14:47:39.840-0500"
],
"iterateDefaultGroup_v1" : [
"2020-07-21T15:25:08.224-0500"
],
"iterateDefaultGroup_v2" : [
"2020-07-21T15:28:04.620-0500"
],
"iterateDefaultGroup_v3" : [
"2020-07-21T15:42:20.987-0500"
],
"iterateDefaultGroup_v4" : [
"2020-07-21T15:45:03.967-0500"
],
"iterateDefaultGroup_v5" : [
"2020-07-21T15:57:33.934-0500"
],
"iterateDefaultGroup_v6" : [
"2020-07-28T10:52:35.423-0500"
],
"iterateDefaultGroup_v7" : [
"2020-07-28T13:01:37.122-0500"
],
"iterateDefaultGroup_v8" : [
"2020-07-28T13:03:27.309-0500"
],
"iterateDefaultGroup_v9" : [
"2020-07-28T13:12:58.298-0500"
],
"iterateDefaultGroup_v10" : [
"2020-07-28T13:15:25.533-0500"
],
"iterateDefaultGroup_v11" : [
"2020-07-28T13:20:57.480-0500"
],
"iterateDefaultGroup_v12" : [
"2020-07-28T13:27:38.065-0500"
]
}
}