{
"document" : {
"data" : {
"NAME" : "FE_MIDDLEWARE_INTERFACE_TABLE",
"COMMENT" : "No comment.",
"AUTHOR" : "admin",
"CREATION_TIME" : 1595360655,
"COL_TYPES" : {
"INTERFACE_ID" : "STRING",
"INTERFACE_IP_ADDRESS" : "STRING",
"INTERFACE_PORT" : "NUMBER",
"CALIBRATION_NAME" : "STRING",
"TABLE_DIR" : "STRING",
"TABLE_NAME" : "STRING",
"COMMENT_DESCRIPTION" : "STRING",
"AUTHOR" : "STRING",
"RECORD_INSERTION_TIME" : "TIMESTAMP WITH TIMEZONE"
},
"DATA_SET" : [
{
"INTERFACE_ID" : "OuterTrackerFEInterface0",
"INTERFACE_IP_ADDRESS" : "127.0.0.1",
"INTERFACE_PORT" : "5000",
"CALIBRATION_NAME" : "calibrationandpedenoise",
"TABLE_DIR" : "${PH2ACF_BASE_DIR}/settings",
"TABLE_NAME" : "D19CDescription_BrownModuleOptical.xml",
"COMMENT_DESCRIPTION" : "No Comment",
"AUTHOR" : "admin",
"RECORD_INSERTION_TIME" : "1595360643"
}
]
},
"metadata" : {

},
"search" : [

]
},
"comments" : [

],
"origin" : {
"source" : "template",
"name" : "notprovided",
"format" : "json",
"created" : "2020-07-21T14:44:15.963-0500",
"rawdata" : [

]
},
"version" : "2",
"entities" : [
{
"name" : "OTSROOT",
"assigned" : "2020-07-21T14:44:15.964-0500"
}
],
"configurations" : [
{
"name" : "notprovided",
"assigned" : "2020-07-21T14:44:15.964-0500"
},
{
"name" : "DefaultConfig_v2",
"assigned" : "2020-07-21T14:44:16.565-0500"
}
],
"changelog" : "notprovided",
"bookkeeping" : {
"isdeleted" : false,
"isreadonly" : false,
"updates" : [
{
"event" : "addConfiguration",
"timestamp" : "2020-07-21T14:44:15.964-0500",
"value" : {
"name" : "notprovided",
"assigned" : "2020-07-21T14:44:15.964-0500"
}
},
{
"event" : "setVersion",
"timestamp" : "2020-07-21T14:44:15.964-0500",
"value" : {
"name" : "2",
"assigned" : "2020-07-21T14:44:15.964-0500"
}
},
{
"event" : "setCollection",
"timestamp" : "2020-07-21T14:44:15.964-0500",
"value" : {
"name" : "FEMiddlewareInterfaceTable",
"assigned" : "2020-07-21T14:44:15.964-0500"
}
},
{
"event" : "addEntity",
"timestamp" : "2020-07-21T14:44:15.964-0500",
"value" : {
"name" : "OTSROOT",
"assigned" : "2020-07-21T14:44:15.964-0500"
}
},
{
"event" : "addConfiguration",
"timestamp" : "2020-07-21T14:44:16.565-0500",
"value" : {
"name" : "DefaultConfig_v2",
"assigned" : "2020-07-21T14:44:16.565-0500"
}
}
],
"created" : "2020-07-21T14:44:15.963-0500"
},
"_id" : {
"$oid" : "137c7b2fddcf4368b7b0000d"
},
"collection" : "FEMiddlewareInterfaceTable",
"aliases" : {
"active" : [

],
"history" : [

]
},
"runs" : [

],
"attachments" : [

],
"configtype" : "notprovided"
}