{
"document" : {
"data" : {
"NAME" : "FE_MIDDLEWARE_INTERFACE_TABLE",
"COMMENT" : "No comment.",
"AUTHOR" : "admin",
"CREATION_TIME" : 1599673078,
"COL_TYPES" : {
"INTERFACE_ID" : "STRING",
"INTERFACE_IP_ADDRESS" : "STRING",
"INTERFACE_PORT" : "NUMBER",
"CALIBRATION_NAME" : "STRING",
"CONFIGURATION_DIR" : "STRING",
"CONFIGURATION_NAME" : "STRING",
"COMMENT_DESCRIPTION" : "STRING",
"AUTHOR" : "STRING",
"RECORD_INSERTION_TIME" : "TIMESTAMP WITH TIMEZONE"
},
"DATA_SET" : [
{
"INTERFACE_ID" : "OuterTrackerFEInterface0",
"INTERFACE_IP_ADDRESS" : "127.0.0.1",
"INTERFACE_PORT" : "5000",
"CALIBRATION_NAME" : "pixelalive",
"CONFIGURATION_DIR" : "${PH2ACF_BASE_DIR}/runBuild",
"CONFIGURATION_NAME" : "CMSIT.xml",
"COMMENT_DESCRIPTION" : "No Comment",
"AUTHOR" : "admin",
"RECORD_INSERTION_TIME" : "1599672918"
}
]
},
"metadata" : {

},
"search" : [

]
},
"comments" : [

],
"origin" : {
"source" : "template",
"name" : "notprovided",
"format" : "json",
"created" : "2020-09-09T19:37:58.993+0200",
"rawdata" : [

]
},
"version" : "4",
"entities" : [
{
"name" : "OTSROOT",
"assigned" : "2020-09-09T19:37:58.993+0200"
}
],
"configurations" : [
{
"name" : "notprovided",
"assigned" : "2020-09-09T19:37:58.993+0200"
},
{
"name" : "DefaultConfig_v5",
"assigned" : "2020-09-09T19:37:59.736+0200"
},
{
"name" : "DefaultConfig_v6",
"assigned" : "2020-09-09T19:46:42.981+0200"
}
],
"changelog" : "notprovided",
"bookkeeping" : {
"isdeleted" : false,
"isreadonly" : false,
"updates" : [
{
"event" : "addConfiguration",
"timestamp" : "2020-09-09T19:37:58.993+0200",
"value" : {
"name" : "notprovided",
"assigned" : "2020-09-09T19:37:58.993+0200"
}
},
{
"event" : "setVersion",
"timestamp" : "2020-09-09T19:37:58.993+0200",
"value" : {
"name" : "4",
"assigned" : "2020-09-09T19:37:58.993+0200"
}
},
{
"event" : "setCollection",
"timestamp" : "2020-09-09T19:37:58.993+0200",
"value" : {
"name" : "FEMiddlewareInterfaceTable",
"assigned" : "2020-09-09T19:37:58.993+0200"
}
},
{
"event" : "addEntity",
"timestamp" : "2020-09-09T19:37:58.993+0200",
"value" : {
"name" : "OTSROOT",
"assigned" : "2020-09-09T19:37:58.993+0200"
}
},
{
"event" : "addConfiguration",
"timestamp" : "2020-09-09T19:37:59.736+0200",
"value" : {
"name" : "DefaultConfig_v5",
"assigned" : "2020-09-09T19:37:59.736+0200"
}
},
{
"event" : "addConfiguration",
"timestamp" : "2020-09-09T19:46:42.981+0200",
"value" : {
"name" : "DefaultConfig_v6",
"assigned" : "2020-09-09T19:46:42.981+0200"
}
}
],
"created" : "2020-09-09T19:37:58.993+0200"
},
"_id" : {
"$oid" : "364a547357a94e7ebb23997a"
},
"collection" : "FEMiddlewareInterfaceTable",
"aliases" : {
"active" : [

],
"history" : [

]
},
"runs" : [

],
"attachments" : [

],
"configtype" : "notprovided"
}