{
"document" : {
"data" : {
"NAME" : "FE_MIDDLEWARE_INTERFACE_TABLE",
"COMMENT" : "No comment.",
"AUTHOR" : "admin",
"CREATION_TIME" : 1600183515,
"COL_TYPES" : {
"INTERFACE_ID" : "STRING",
"INTERFACE_IP_ADDRESS" : "STRING",
"INTERFACE_PORT" : "NUMBER",
"CALIBRATION_NAME" : "STRING",
"CONFIGURATION_DIR" : "STRING",
"CONFIGURATION_NAME" : "STRING",
"COMMENT_DESCRIPTION" : "STRING",
"AUTHOR" : "STRING",
"RECORD_INSERTION_TIME" : "TIMESTAMP WITH TIMEZONE"
},
"DATA_SET" : [
{
"INTERFACE_ID" : "OuterTrackerFEInterface0",
"INTERFACE_IP_ADDRESS" : "127.0.0.1",
"INTERFACE_PORT" : "5000",
"CALIBRATION_NAME" : "gain",
"CONFIGURATION_DIR" : "${PH2ACF_ROOT}/runBuild",
"CONFIGURATION_NAME" : "CMSIT.xml",
"COMMENT_DESCRIPTION" : "No Comment",
"AUTHOR" : "admin",
"RECORD_INSERTION_TIME" : "1600183465"
}
]
},
"metadata" : {

},
"search" : [

]
},
"comments" : [

],
"origin" : {
"source" : "template",
"name" : "notprovided",
"format" : "json",
"created" : "2020-09-15T17:25:15.339+0200",
"rawdata" : [

]
},
"version" : "7",
"entities" : [
{
"name" : "OTSROOT",
"assigned" : "2020-09-15T17:25:15.341+0200"
}
],
"configurations" : [
{
"name" : "notprovided",
"assigned" : "2020-09-15T17:25:15.340+0200"
},
{
"name" : "DefaultConfig_v10",
"assigned" : "2020-09-15T17:25:16.446+0200"
}
],
"changelog" : "notprovided",
"bookkeeping" : {
"isdeleted" : false,
"isreadonly" : false,
"updates" : [
{
"event" : "addConfiguration",
"timestamp" : "2020-09-15T17:25:15.340+0200",
"value" : {
"name" : "notprovided",
"assigned" : "2020-09-15T17:25:15.340+0200"
}
},
{
"event" : "setVersion",
"timestamp" : "2020-09-15T17:25:15.341+0200",
"value" : {
"name" : "7",
"assigned" : "2020-09-15T17:25:15.341+0200"
}
},
{
"event" : "setCollection",
"timestamp" : "2020-09-15T17:25:15.341+0200",
"value" : {
"name" : "FEMiddlewareInterfaceTable",
"assigned" : "2020-09-15T17:25:15.341+0200"
}
},
{
"event" : "addEntity",
"timestamp" : "2020-09-15T17:25:15.341+0200",
"value" : {
"name" : "OTSROOT",
"assigned" : "2020-09-15T17:25:15.341+0200"
}
},
{
"event" : "addConfiguration",
"timestamp" : "2020-09-15T17:25:16.446+0200",
"value" : {
"name" : "DefaultConfig_v10",
"assigned" : "2020-09-15T17:25:16.446+0200"
}
}
],
"created" : "2020-09-15T17:25:15.340+0200"
},
"_id" : {
"$oid" : "d67c75fd53404f94a43902eb"
},
"collection" : "FEMiddlewareInterfaceTable",
"aliases" : {
"active" : [

],
"history" : [

]
},
"runs" : [

],
"attachments" : [

],
"configtype" : "notprovided"
}