{
"document" : {
"data" : {
"NAME" : "FE_MIDDLEWARE_INTERFACE_TABLE",
"COMMENT" : "No comment.",
"AUTHOR" : "admin",
"CREATION_TIME" : 1605038825,
"COL_TYPES" : {
"INTERFACE_ID" : "STRING",
"INTERFACE_IP_ADDRESS" : "STRING",
"INTERFACE_PORT" : "NUMBER",
"CALIBRATION_NAME" : "STRING",
"CONFIGURATION_DIR" : "STRING",
"CONFIGURATION_NAME" : "STRING",
"COMMENT_DESCRIPTION" : "STRING",
"AUTHOR" : "STRING",
"RECORD_INSERTION_TIME" : "TIMESTAMP WITH TIMEZONE"
},
"DATA_SET" : [
{
"INTERFACE_ID" : "OuterTrackerFEInterface0",
"INTERFACE_IP_ADDRESS" : "127.0.0.1",
"INTERFACE_PORT" : "5000",
"CALIBRATION_NAME" : "scurve",
"CONFIGURATION_DIR" : "${PH2ACF_BASE_DIR}/runBuild",
"CONFIGURATION_NAME" : "CMSIT.xml",
"COMMENT_DESCRIPTION" : "No Comment",
"AUTHOR" : "admin",
"RECORD_INSERTION_TIME" : "1605038815"
}
]
},
"metadata" : {

},
"search" : [

]
},
"comments" : [

],
"origin" : {
"source" : "template",
"name" : "notprovided",
"format" : "json",
"created" : "2020-11-10T21:07:05.702+0100",
"rawdata" : [

]
},
"version" : "9",
"entities" : [
{
"name" : "OTSROOT",
"assigned" : "2020-11-10T21:07:05.702+0100"
}
],
"configurations" : [
{
"name" : "notprovided",
"assigned" : "2020-11-10T21:07:05.702+0100"
},
{
"name" : "DefaultConfig_v12",
"assigned" : "2020-11-10T21:07:07.072+0100"
}
],
"changelog" : "notprovided",
"bookkeeping" : {
"isdeleted" : false,
"isreadonly" : false,
"updates" : [
{
"event" : "addConfiguration",
"timestamp" : "2020-11-10T21:07:05.702+0100",
"value" : {
"name" : "notprovided",
"assigned" : "2020-11-10T21:07:05.702+0100"
}
},
{
"event" : "setVersion",
"timestamp" : "2020-11-10T21:07:05.702+0100",
"value" : {
"name" : "9",
"assigned" : "2020-11-10T21:07:05.702+0100"
}
},
{
"event" : "setCollection",
"timestamp" : "2020-11-10T21:07:05.702+0100",
"value" : {
"name" : "FEMiddlewareInterfaceTable",
"assigned" : "2020-11-10T21:07:05.702+0100"
}
},
{
"event" : "addEntity",
"timestamp" : "2020-11-10T21:07:05.702+0100",
"value" : {
"name" : "OTSROOT",
"assigned" : "2020-11-10T21:07:05.702+0100"
}
},
{
"event" : "addConfiguration",
"timestamp" : "2020-11-10T21:07:07.072+0100",
"value" : {
"name" : "DefaultConfig_v12",
"assigned" : "2020-11-10T21:07:07.072+0100"
}
}
],
"created" : "2020-11-10T21:07:05.702+0100"
},
"_id" : {
"$oid" : "ead2f1c24ed942f1b9478358"
},
"collection" : "FEMiddlewareInterfaceTable",
"aliases" : {
"active" : [

],
"history" : [

]
},
"runs" : [

],
"attachments" : [

],
"configtype" : "notprovided"
}