{
"ouid" : [
"d05bc2015c904dbaa4a33610"
],
"version" : {
"1" : [
"d05bc2015c904dbaa4a33610"
]
},
"configurations.name" : {
"notprovided" : [
"d05bc2015c904dbaa4a33610"
],
"DefaultConfig_v1" : [
"d05bc2015c904dbaa4a33610"
],
"DefaultConfig_v2" : [
"d05bc2015c904dbaa4a33610"
],
"DefaultConfig_v3" : [
"d05bc2015c904dbaa4a33610"
],
"DefaultConfig_v4" : [
"d05bc2015c904dbaa4a33610"
],
"DefaultConfig_v5" : [
"d05bc2015c904dbaa4a33610"
],
"DefaultConfig_v6" : [
"d05bc2015c904dbaa4a33610"
],
"DefaultConfig_v7" : [
"d05bc2015c904dbaa4a33610"
],
"DefaultConfig_v8" : [
"d05bc2015c904dbaa4a33610"
],
"DefaultConfig_v9" : [
"d05bc2015c904dbaa4a33610"
],
"DefaultConfig_v10" : [
"d05bc2015c904dbaa4a33610"
],
"DefaultConfig_v11" : [
"d05bc2015c904dbaa4a33610"
],
"DefaultConfig_v12" : [
"d05bc2015c904dbaa4a33610"
],
"DefaultConfig_v13" : [
"d05bc2015c904dbaa4a33610"
],
"DefaultConfig_v14" : [
"d05bc2015c904dbaa4a33610"
],
"DefaultConfig_v15" : [
"d05bc2015c904dbaa4a33610"
],
"DefaultConfig_v16" : [
"d05bc2015c904dbaa4a33610"
],
"DefaultConfig_v17" : [
"d05bc2015c904dbaa4a33610"
],
"DefaultConfig_v18" : [
"d05bc2015c904dbaa4a33610"
],
"DefaultConfig_v19" : [
"d05bc2015c904dbaa4a33610"
],
"DefaultConfig_v20" : [
"d05bc2015c904dbaa4a33610"
],
"DefaultConfig_v21" : [
"d05bc2015c904dbaa4a33610"
],
"DefaultConfig_v22" : [
"d05bc2015c904dbaa4a33610"
],
"DefaultConfig_v23" : [
"d05bc2015c904dbaa4a33610"
],
"DefaultConfig_v24" : [
"d05bc2015c904dbaa4a33610"
],
"DefaultConfig_v25" : [
"d05bc2015c904dbaa4a33610"
],
"DefaultConfig_v26" : [
"d05bc2015c904dbaa4a33610"
],
"DefaultConfig_v27" : [
"d05bc2015c904dbaa4a33610"
],
"DefaultConfig_v28" : [
"d05bc2015c904dbaa4a33610"
],
"DefaultConfig_v29" : [
"d05bc2015c904dbaa4a33610"
],
"DefaultConfig_v30" : [
"d05bc2015c904dbaa4a33610"
],
"DefaultConfig_v31" : [
"d05bc2015c904dbaa4a33610"
],
"DefaultConfig_v32" : [
"d05bc2015c904dbaa4a33610"
],
"DefaultConfig_v33" : [
"d05bc2015c904dbaa4a33610"
],
"DefaultConfig_v34" : [
"d05bc2015c904dbaa4a33610"
]
},
"entities.name" : {
"OTSROOT" : [
"d05bc2015c904dbaa4a33610"
]
},
"aliases.active.name" : {

},
"runs.name" : {

},
"configurations.assigned" : {
"notprovided" : [
"2020-07-21T14:27:46.620-0500"
],
"DefaultConfig_v1" : [
"2020-07-21T14:27:47.106-0500"
],
"DefaultConfig_v2" : [
"2020-07-21T14:44:16.833-0500"
],
"DefaultConfig_v3" : [
"2020-07-21T14:57:50.729-0500"
],
"DefaultConfig_v4" : [
"2020-07-28T10:52:34.675-0500"
],
"DefaultConfig_v5" : [
"2020-08-24T11:59:57.107-0500"
],
"DefaultConfig_v6" : [
"2020-08-24T16:05:13.674-0500"
],
"DefaultConfig_v7" : [
"2020-08-26T10:33:57.057-0500"
],
"DefaultConfig_v8" : [
"2020-08-26T10:45:54.857-0500"
],
"DefaultConfig_v9" : [
"2020-08-26T14:49:53.041-0500"
],
"DefaultConfig_v10" : [
"2020-08-26T14:52:00.666-0500"
],
"DefaultConfig_v11" : [
"2020-08-26T15:00:04.155-0500"
],
"DefaultConfig_v12" : [
"2020-08-26T16:18:15.883-0500"
],
"DefaultConfig_v13" : [
"2020-08-28T21:40:23.251-0500"
],
"DefaultConfig_v14" : [
"2020-08-31T15:19:59.167-0500"
],
"DefaultConfig_v15" : [
"2020-09-03T10:43:22.722-0500"
],
"DefaultConfig_v16" : [
"2020-09-03T10:49:03.735-0500"
],
"DefaultConfig_v17" : [
"2020-09-08T17:07:22.041-0500"
],
"DefaultConfig_v18" : [
"2020-09-11T16:02:29.592-0500"
],
"DefaultConfig_v19" : [
"2020-09-14T17:47:19.815-0500"
],
"DefaultConfig_v20" : [
"2020-09-14T18:00:24.120-0500"
],
"DefaultConfig_v21" : [
"2020-09-15T15:14:57.614-0500"
],
"DefaultConfig_v22" : [
"2020-09-15T15:18:54.737-0500"
],
"DefaultConfig_v23" : [
"2020-09-15T15:27:51.669-0500"
],
"DefaultConfig_v24" : [
"2020-09-15T15:52:13.144-0500"
],
"DefaultConfig_v25" : [
"2020-09-21T11:41:58.858-0500"
],
"DefaultConfig_v26" : [
"2020-09-21T11:54:29.695-0500"
],
"DefaultConfig_v27" : [
"2020-10-06T14:45:41.794-0500"
],
"DefaultConfig_v28" : [
"2020-10-06T15:04:20.334-0500"
],
"DefaultConfig_v29" : [
"2020-10-07T16:45:36.489-0500"
],
"DefaultConfig_v30" : [
"2020-10-07T17:03:30.626-0500"
],
"DefaultConfig_v31" : [
"2020-11-04T20:42:37.630-0600"
],
"DefaultConfig_v32" : [
"2020-11-11T11:26:55.290-0600"
],
"DefaultConfig_v33" : [
"2021-01-18T20:04:39.642-0600"
],
"DefaultConfig_v34" : [
"2021-01-18T20:05:20.119-0600"
]
}
}