{
"document" : {
"data" : {
"NAME" : "DATA_BUFFER_TABLE",
"COMMENT" : "No comment.",
"AUTHOR" : "admin",
"CREATION_TIME" : 1550871033,
"COL_TYPES" : {
"DATA_BUFFER_GROUP_ID" : "STRING",
"DATA_BUFFER_UID" : "STRING",
"LINK_TO_DATA_PROCESSOR_TABLE" : "STRING",
"LINK_TO_DATA_PROCESSOR_GROUP_ID" : "STRING",
"STATUS" : "STRING",
"COMMENT_DESCRIPTION" : "STRING",
"AUTHOR" : "STRING",
"RECORD_INSERTION_TIME" : "TIMESTAMP WITH TIMEZONE"
},
"DATA_SET" : [
{
"DATA_BUFFER_GROUP_ID" : "OuterTrackerDataBuffer0",
"DATA_BUFFER_UID" : "OuterTrackerDataBuffer0",
"LINK_TO_DATA_PROCESSOR_TABLE" : "DataProcessorTable",
"LINK_TO_DATA_PROCESSOR_GROUP_ID" : "OuterTrackerDataBuffer0",
"STATUS" : "On",
"COMMENT_DESCRIPTION" : "DEFAULT",
"AUTHOR" : "admin",
"RECORD_INSERTION_TIME" : "1550772672"
},
{
"DATA_BUFFER_GROUP_ID" : "VisualDataBuffer",
"DATA_BUFFER_UID" : "VisualDataBuffer",
"LINK_TO_DATA_PROCESSOR_TABLE" : "DataProcessorTable",
"LINK_TO_DATA_PROCESSOR_GROUP_ID" : "VisualDataBuffer",
"STATUS" : "On",
"COMMENT_DESCRIPTION" : "DEFAULT",
"AUTHOR" : "admin",
"RECORD_INSERTION_TIME" : "1550871033"
}
]
},
"metadata" : {

},
"search" : [

]
},
"comments" : [

],
"origin" : {
"source" : "template",
"name" : "notprovided",
"format" : "json",
"created" : "2020-09-08T15:08:30.036-0500",
"rawdata" : [

]
},
"version" : "0",
"entities" : [
{
"name" : "OTSROOT",
"assigned" : "2020-09-08T15:08:30.037-0500"
}
],
"configurations" : [
{
"name" : "notprovided",
"assigned" : "2020-09-08T15:08:30.036-0500"
},
{
"name" : "DefaultConfig_v0",
"assigned" : "2020-09-08T15:08:30.612-0500"
},
{
"name" : "DefaultConfig_v1",
"assigned" : "2020-09-08T15:38:44.587-0500"
},
{
"name" : "DefaultConfig_v2",
"assigned" : "2020-09-08T17:51:44.783-0500"
},
{
"name" : "DefaultConfig_v3",
"assigned" : "2020-09-08T17:53:11.712-0500"
}
],
"changelog" : "notprovided",
"bookkeeping" : {
"isdeleted" : false,
"isreadonly" : false,
"updates" : [
{
"event" : "addConfiguration",
"timestamp" : "2020-09-08T15:08:30.036-0500",
"value" : {
"name" : "notprovided",
"assigned" : "2020-09-08T15:08:30.036-0500"
}
},
{
"event" : "setVersion",
"timestamp" : "2020-09-08T15:08:30.036-0500",
"value" : {
"name" : "0",
"assigned" : "2020-09-08T15:08:30.036-0500"
}
},
{
"event" : "setCollection",
"timestamp" : "2020-09-08T15:08:30.036-0500",
"value" : {
"name" : "DataBufferTable",
"assigned" : "2020-09-08T15:08:30.036-0500"
}
},
{
"event" : "addEntity",
"timestamp" : "2020-09-08T15:08:30.037-0500",
"value" : {
"name" : "OTSROOT",
"assigned" : "2020-09-08T15:08:30.037-0500"
}
},
{
"event" : "addConfiguration",
"timestamp" : "2020-09-08T15:08:30.612-0500",
"value" : {
"name" : "DefaultConfig_v0",
"assigned" : "2020-09-08T15:08:30.612-0500"
}
},
{
"event" : "addConfiguration",
"timestamp" : "2020-09-08T15:38:44.587-0500",
"value" : {
"name" : "DefaultConfig_v1",
"assigned" : "2020-09-08T15:38:44.587-0500"
}
},
{
"event" : "addConfiguration",
"timestamp" : "2020-09-08T17:51:44.783-0500",
"value" : {
"name" : "DefaultConfig_v2",
"assigned" : "2020-09-08T17:51:44.783-0500"
}
},
{
"event" : "addConfiguration",
"timestamp" : "2020-09-08T17:53:11.712-0500",
"value" : {
"name" : "DefaultConfig_v3",
"assigned" : "2020-09-08T17:53:11.712-0500"
}
}
],
"created" : "2020-09-08T15:08:30.036-0500"
},
"_id" : {
"$oid" : "4d101d9d8a5b4f9b8e6d2932"
},
"collection" : "DataBufferTable",
"aliases" : {
"active" : [

],
"history" : [

]
},
"runs" : [

],
"attachments" : [

],
"configtype" : "notprovided"
}