{
"ouid" : [
"3c91e57515454a8fb40c4c77",
"46cbeea66a654059a1d96962",
"533a7f7bb8f243e1b0503e4a",
"7942f4f27e764c19ad261f74",
"a64576c6d2a44ce4b3123b81",
"ae84154ede7041d48fa48d32",
"f9558f759ee842399a94463f"
],
"version" : {
"1" : [
"f9558f759ee842399a94463f"
],
"2" : [
"533a7f7bb8f243e1b0503e4a"
],
"3" : [
"a64576c6d2a44ce4b3123b81"
],
"4" : [
"ae84154ede7041d48fa48d32"
],
"5" : [
"7942f4f27e764c19ad261f74"
],
"6" : [
"46cbeea66a654059a1d96962"
],
"7" : [
"3c91e57515454a8fb40c4c77"
]
},
"configurations.name" : {
"notprovided" : [
"3c91e57515454a8fb40c4c77",
"46cbeea66a654059a1d96962",
"533a7f7bb8f243e1b0503e4a",
"7942f4f27e764c19ad261f74",
"a64576c6d2a44ce4b3123b81",
"ae84154ede7041d48fa48d32",
"f9558f759ee842399a94463f"
],
"DefaultConfig_v1" : [
"f9558f759ee842399a94463f"
],
"DefaultConfig_v2" : [
"f9558f759ee842399a94463f"
],
"DefaultConfig_v3" : [
"f9558f759ee842399a94463f"
],
"DefaultConfig_v4" : [
"f9558f759ee842399a94463f"
],
"DefaultConfig_v5" : [
"f9558f759ee842399a94463f"
],
"DefaultConfig_v6" : [
"533a7f7bb8f243e1b0503e4a"
],
"DefaultConfig_v7" : [
"a64576c6d2a44ce4b3123b81"
],
"DefaultConfig_v8" : [
"ae84154ede7041d48fa48d32"
],
"DefaultConfig_v9" : [
"ae84154ede7041d48fa48d32"
],
"DefaultConfig_v10" : [
"7942f4f27e764c19ad261f74"
],
"DefaultConfig_v11" : [
"46cbeea66a654059a1d96962"
],
"DefaultConfig_v12" : [
"3c91e57515454a8fb40c4c77"
]
},
"entities.name" : {
"OTSROOT" : [
"3c91e57515454a8fb40c4c77",
"46cbeea66a654059a1d96962",
"533a7f7bb8f243e1b0503e4a",
"7942f4f27e764c19ad261f74",
"a64576c6d2a44ce4b3123b81",
"ae84154ede7041d48fa48d32",
"f9558f759ee842399a94463f"
]
},
"aliases.active.name" : {

},
"runs.name" : {

},
"configurations.assigned" : {
"notprovided" : [
"2020-07-21T14:27:46.497-0500",
"2020-09-09T19:46:42.261+0200",
"2020-09-09T21:28:05.430+0200",
"2020-09-10T19:06:31.449+0200",
"2020-09-15T17:25:15.435+0200",
"2020-09-15T17:39:23.185+0200",
"2020-11-10T21:07:05.617+0100"
],
"DefaultConfig_v1" : [
"2020-07-21T14:27:46.982-0500"
],
"DefaultConfig_v2" : [
"2020-07-21T14:44:16.683-0500"
],
"DefaultConfig_v3" : [
"2020-07-21T14:57:50.564-0500"
],
"DefaultConfig_v4" : [
"2020-07-28T10:52:34.502-0500"
],
"DefaultConfig_v5" : [
"2020-09-09T19:37:59.832+0200"
],
"DefaultConfig_v6" : [
"2020-09-09T19:46:43.079+0200"
],
"DefaultConfig_v7" : [
"2020-09-09T21:28:06.622+0200"
],
"DefaultConfig_v8" : [
"2020-09-10T19:06:32.673+0200"
],
"DefaultConfig_v9" : [
"2020-09-11T17:53:12.314+0200"
],
"DefaultConfig_v10" : [
"2020-09-15T17:25:16.597+0200"
],
"DefaultConfig_v11" : [
"2020-09-15T17:39:24.209+0200"
],
"DefaultConfig_v12" : [
"2020-11-10T21:07:07.209+0100"
]
}
}