{
"document" : {
"data" : {
"NAME" : "FE_INTERFACE_CONFIGURATION",
"COMMENT" : "FE interfaces top level.",
"AUTHOR" : "admin",
"CREATION_TIME" : 1512263073,
"COL_TYPES" : {
"FE_INTERFACE_GROUP_ID" : "VARCHAR2",
"FE_INTERFACE_UID" : "VARCHAR2",
"STATUS" : "VARCHAR2",
"FE_INTERFACE_PLUGIN_NAME" : "VARCHAR2",
"LINK_TO_FE_TYPE_TABLE" : "VARCHAR2",
"LINK_TO_FE_TYPE_UID" : "VARCHAR2",
"LINK_TO_FE_TO_DETECTOR_TABLE" : "VARCHAR2",
"LINK_TO_FE_TO_DETECTOR_GROUP_ID" : "VARCHAR2",
"LINK_TO_SLOW_CONTROL_CHANNELS_TABLE" : "VARCHAR2",
"LINK_TO_SLOW_CONTROL_CHANNELS_GROUP_ID" : "VARCHAR2",
"LINK_TO_SLOW_CONTROLS_MONITOR_TABLE" : "VARCHAR2",
"LINK_TO_SLOW_CONTROLS_MONITOR_UID" : "VARCHAR2",
"SLOW_CONTROLS_TX_SOCKET_IP_ADDRESS" : "VARCHAR2",
"SLOW_CONTROLS_TX_SOCKET_PORT" : "NUMBER",
"SLOW_CONTROLS_LOCAL_AGGREGATE_SAVING_ENABLED" : "VARCHAR2",
"SLOW_CONTROLS_LOCAL_FILE_PATH" : "VARCHAR2",
"SLOW_CONTROLS_RADIX_FILE_NAME" : "VARCHAR2",
"SLOW_CONTROLS_SAVE_BINARY_FILE" : "VARCHAR2",
"COMMENT_DESCRIPTION" : "VARCHAR2",
"AUTHOR" : "VARCHAR2",
"RECORD_INSERTION_TIME" : "TIMESTAMP WITH TIMEZONE"
},
"DATA_SET" : [
{
"FE_INTERFACE_GROUP_ID" : "NimPlusFE0Group",
"FE_INTERFACE_UID" : "NIM0",
"STATUS" : "On",
"FE_INTERFACE_PLUGIN_NAME" : "FENIMPlusInterface",
"LINK_TO_FE_TYPE_TABLE" : "FENIMPlusInterfaceConfiguration",
"LINK_TO_FE_TYPE_UID" : "NIM0",
"LINK_TO_FE_TO_DETECTOR_TABLE" : "NO_LINK",
"LINK_TO_FE_TO_DETECTOR_GROUP_ID" : "DEFAULT",
"LINK_TO_SLOW_CONTROL_CHANNELS_TABLE" : "NO_LINK",
"LINK_TO_SLOW_CONTROL_CHANNELS_GROUP_ID" : "DEFAULT",
"LINK_TO_SLOW_CONTROLS_MONITOR_TABLE" : "NO_LINK",
"LINK_TO_SLOW_CONTROLS_MONITOR_UID" : "DEFAULT",
"SLOW_CONTROLS_TX_SOCKET_IP_ADDRESS" : "DEFAULT",
"SLOW_CONTROLS_TX_SOCKET_PORT" : "0",
"SLOW_CONTROLS_LOCAL_AGGREGATE_SAVING_ENABLED" : "No",
"SLOW_CONTROLS_LOCAL_FILE_PATH" : "DEFAULT",
"SLOW_CONTROLS_RADIX_FILE_NAME" : "DEFAULT",
"SLOW_CONTROLS_SAVE_BINARY_FILE" : "False",
"COMMENT_DESCRIPTION" : "No Comment",
"AUTHOR" : "admin",
"RECORD_INSERTION_TIME" : "1509657442"
},
{
"FE_INTERFACE_GROUP_ID" : "FESupervisorFSSR0",
"FE_INTERFACE_UID" : "OtsUDPFSSR0",
"STATUS" : "On",
"FE_INTERFACE_PLUGIN_NAME" : "FSSRInterface",
"LINK_TO_FE_TYPE_TABLE" : "FSSRInterfaceConfiguration",
"LINK_TO_FE_TYPE_UID" : "OtsUDPFSSR0",
"LINK_TO_FE_TO_DETECTOR_TABLE" : "FEToDetectorConfiguration",
"LINK_TO_FE_TO_DETECTOR_GROUP_ID" : "PurdueFSSR0",
"LINK_TO_SLOW_CONTROL_CHANNELS_TABLE" : "NO_LINK",
"LINK_TO_SLOW_CONTROL_CHANNELS_GROUP_ID" : "DEFAULT",
"LINK_TO_SLOW_CONTROLS_MONITOR_TABLE" : "NO_LINK",
"LINK_TO_SLOW_CONTROLS_MONITOR_UID" : "DEFAULT",
"SLOW_CONTROLS_TX_SOCKET_IP_ADDRESS" : "DEFAULT",
"SLOW_CONTROLS_TX_SOCKET_PORT" : "0",
"SLOW_CONTROLS_LOCAL_AGGREGATE_SAVING_ENABLED" : "No",
"SLOW_CONTROLS_LOCAL_FILE_PATH" : "DEFAULT",
"SLOW_CONTROLS_RADIX_FILE_NAME" : "DEFAULT",
"SLOW_CONTROLS_SAVE_BINARY_FILE" : "False",
"COMMENT_DESCRIPTION" : "",
"AUTHOR" : "uplegger",
"RECORD_INSERTION_TIME" : "1511210901"
},
{
"FE_INTERFACE_GROUP_ID" : "FESupervisorFSSR1",
"FE_INTERFACE_UID" : "OtsUDPFSSR1",
"STATUS" : "On",
"FE_INTERFACE_PLUGIN_NAME" : "FSSRInterface",
"LINK_TO_FE_TYPE_TABLE" : "FSSRInterfaceConfiguration",
"LINK_TO_FE_TYPE_UID" : "OtsUDPFSSR1",
"LINK_TO_FE_TO_DETECTOR_TABLE" : "FEToDetectorConfiguration",
"LINK_TO_FE_TO_DETECTOR_GROUP_ID" : "PurdueFSSR1",
"LINK_TO_SLOW_CONTROL_CHANNELS_TABLE" : "NO_LINK",
"LINK_TO_SLOW_CONTROL_CHANNELS_GROUP_ID" : "DEFAULT",
"LINK_TO_SLOW_CONTROLS_MONITOR_TABLE" : "NO_LINK",
"LINK_TO_SLOW_CONTROLS_MONITOR_UID" : "DEFAULT",
"SLOW_CONTROLS_TX_SOCKET_IP_ADDRESS" : "DEFAULT",
"SLOW_CONTROLS_TX_SOCKET_PORT" : "0",
"SLOW_CONTROLS_LOCAL_AGGREGATE_SAVING_ENABLED" : "No",
"SLOW_CONTROLS_LOCAL_FILE_PATH" : "DEFAULT",
"SLOW_CONTROLS_RADIX_FILE_NAME" : "DEFAULT",
"SLOW_CONTROLS_SAVE_BINARY_FILE" : "False",
"COMMENT_DESCRIPTION" : "",
"AUTHOR" : "uplegger",
"RECORD_INSERTION_TIME" : "1511210901"
},
{
"FE_INTERFACE_GROUP_ID" : "FESupervisorFSSR2",
"FE_INTERFACE_UID" : "OtsUDPFSSR2",
"STATUS" : "On",
"FE_INTERFACE_PLUGIN_NAME" : "FSSRInterface",
"LINK_TO_FE_TYPE_TABLE" : "FSSRInterfaceConfiguration",
"LINK_TO_FE_TYPE_UID" : "OtsUDPFSSR2",
"LINK_TO_FE_TO_DETECTOR_TABLE" : "FEToDetectorConfiguration",
"LINK_TO_FE_TO_DETECTOR_GROUP_ID" : "PurdueFSSR2",
"LINK_TO_SLOW_CONTROL_CHANNELS_TABLE" : "NO_LINK",
"LINK_TO_SLOW_CONTROL_CHANNELS_GROUP_ID" : "DEFAULT",
"LINK_TO_SLOW_CONTROLS_MONITOR_TABLE" : "NO_LINK",
"LINK_TO_SLOW_CONTROLS_MONITOR_UID" : "DEFAULT",
"SLOW_CONTROLS_TX_SOCKET_IP_ADDRESS" : "DEFAULT",
"SLOW_CONTROLS_TX_SOCKET_PORT" : "0",
"SLOW_CONTROLS_LOCAL_AGGREGATE_SAVING_ENABLED" : "No",
"SLOW_CONTROLS_LOCAL_FILE_PATH" : "DEFAULT",
"SLOW_CONTROLS_RADIX_FILE_NAME" : "DEFAULT",
"SLOW_CONTROLS_SAVE_BINARY_FILE" : "False",
"COMMENT_DESCRIPTION" : "",
"AUTHOR" : "rrivera",
"RECORD_INSERTION_TIME" : "1510177941"
},
{
"FE_INTERFACE_GROUP_ID" : "FESupervisorFSSR3",
"FE_INTERFACE_UID" : "OtsUDPFSSR3",
"STATUS" : "Off",
"FE_INTERFACE_PLUGIN_NAME" : "FEOtsUDPFSSRInterface",
"LINK_TO_FE_TYPE_TABLE" : "FEOtsUDPFSSRInterfaceConfiguration",
"LINK_TO_FE_TYPE_UID" : "OtsUDPFSSR3",
"LINK_TO_FE_TO_DETECTOR_TABLE" : "FEToDetectorConfiguration",
"LINK_TO_FE_TO_DETECTOR_GROUP_ID" : "OtsUDPFSSR3",
"LINK_TO_SLOW_CONTROL_CHANNELS_TABLE" : "NO_LINK",
"LINK_TO_SLOW_CONTROL_CHANNELS_GROUP_ID" : "DEFAULT",
"LINK_TO_SLOW_CONTROLS_MONITOR_TABLE" : "NO_LINK",
"LINK_TO_SLOW_CONTROLS_MONITOR_UID" : "DEFAULT",
"SLOW_CONTROLS_TX_SOCKET_IP_ADDRESS" : "DEFAULT",
"SLOW_CONTROLS_TX_SOCKET_PORT" : "0",
"SLOW_CONTROLS_LOCAL_AGGREGATE_SAVING_ENABLED" : "No",
"SLOW_CONTROLS_LOCAL_FILE_PATH" : "DEFAULT",
"SLOW_CONTROLS_RADIX_FILE_NAME" : "DEFAULT",
"SLOW_CONTROLS_SAVE_BINARY_FILE" : "False",
"COMMENT_DESCRIPTION" : "",
"AUTHOR" : "rrivera",
"RECORD_INSERTION_TIME" : "1510175759"
},
{
"FE_INTERFACE_GROUP_ID" : "FESupervisorNetworkMaster",
"FE_INTERFACE_UID" : "PurdueNetworkMaster",
"STATUS" : "On",
"FE_INTERFACE_PLUGIN_NAME" : "FEPurdueNetworkMasterInterface",
"LINK_TO_FE_TYPE_TABLE" : "FEPurdueNetworkMasterInterfaceConfiguration",
"LINK_TO_FE_TYPE_UID" : "PurdueNetworkMaster",
"LINK_TO_FE_TO_DETECTOR_TABLE" : "NO_LINK",
"LINK_TO_FE_TO_DETECTOR_GROUP_ID" : "DEFAULT",
"LINK_TO_SLOW_CONTROL_CHANNELS_TABLE" : "NO_LINK",
"LINK_TO_SLOW_CONTROL_CHANNELS_GROUP_ID" : "DEFAULT",
"LINK_TO_SLOW_CONTROLS_MONITOR_TABLE" : "NO_LINK",
"LINK_TO_SLOW_CONTROLS_MONITOR_UID" : "DEFAULT",
"SLOW_CONTROLS_TX_SOCKET_IP_ADDRESS" : "DEFAULT",
"SLOW_CONTROLS_TX_SOCKET_PORT" : "0",
"SLOW_CONTROLS_LOCAL_AGGREGATE_SAVING_ENABLED" : "No",
"SLOW_CONTROLS_LOCAL_FILE_PATH" : "DEFAULT",
"SLOW_CONTROLS_RADIX_FILE_NAME" : "DEFAULT",
"SLOW_CONTROLS_SAVE_BINARY_FILE" : "False",
"COMMENT_DESCRIPTION" : "",
"AUTHOR" : "rrivera",
"RECORD_INSERTION_TIME" : "1510243557"
},
{
"FE_INTERFACE_GROUP_ID" : "PixelFE0Group",
"FE_INTERFACE_UID" : "PixelTelescope0",
"STATUS" : "On",
"FE_INTERFACE_PLUGIN_NAME" : "FePixelTelescopeInterface",
"LINK_TO_FE_TYPE_TABLE" : "NO_LINK",
"LINK_TO_FE_TYPE_UID" : "DEFAULT",
"LINK_TO_FE_TO_DETECTOR_TABLE" : "FEToDetectorConfiguration",
"LINK_TO_FE_TO_DETECTOR_GROUP_ID" : "PurdueFSSR0",
"LINK_TO_SLOW_CONTROL_CHANNELS_TABLE" : "NO_LINK",
"LINK_TO_SLOW_CONTROL_CHANNELS_GROUP_ID" : "DEFAULT",
"LINK_TO_SLOW_CONTROLS_MONITOR_TABLE" : "NO_LINK",
"LINK_TO_SLOW_CONTROLS_MONITOR_UID" : "DEFAULT",
"SLOW_CONTROLS_TX_SOCKET_IP_ADDRESS" : "DEFAULT",
"SLOW_CONTROLS_TX_SOCKET_PORT" : "0",
"SLOW_CONTROLS_LOCAL_AGGREGATE_SAVING_ENABLED" : "No",
"SLOW_CONTROLS_LOCAL_FILE_PATH" : "DEFAULT",
"SLOW_CONTROLS_RADIX_FILE_NAME" : "DEFAULT",
"SLOW_CONTROLS_SAVE_BINARY_FILE" : "False",
"COMMENT_DESCRIPTION" : "",
"AUTHOR" : "admin",
"RECORD_INSERTION_TIME" : "1512263073"
}
]
},
"metadata" : {

},
"search" : [

]
},
"comments" : [

],
"origin" : {
"source" : "template",
"name" : "notprovided",
"format" : "json",
"created" : "2017-12-02T19:04:33.527-0600",
"rawdata" : [

]
},
"version" : "4",
"entities" : [
{
"name" : "OTSROOT",
"assigned" : "2017-12-02T19:04:33.531-0600"
}
],
"configurations" : [
{
"name" : "notprovided",
"assigned" : "2017-12-02T19:04:33.529-0600"
},
{
"name" : "FTBFConfig_v76",
"assigned" : "2017-12-02T19:05:52.939-0600"
}
],
"changelog" : "notprovided",
"bookkeeping" : {
"isdeleted" : false,
"isreadonly" : false,
"updates" : [
{
"event" : "addConfiguration",
"timestamp" : "2017-12-02T19:04:33.529-0600",
"value" : {
"name" : "notprovided",
"assigned" : "2017-12-02T19:04:33.529-0600"
}
},
{
"event" : "setVersion",
"timestamp" : "2017-12-02T19:04:33.530-0600",
"value" : {
"name" : "4",
"assigned" : "2017-12-02T19:04:33.530-0600"
}
},
{
"event" : "setCollection",
"timestamp" : "2017-12-02T19:04:33.531-0600",
"value" : {
"name" : "FEInterfaceConfiguration",
"assigned" : "2017-12-02T19:04:33.531-0600"
}
},
{
"event" : "addEntity",
"timestamp" : "2017-12-02T19:04:33.531-0600",
"value" : {
"name" : "OTSROOT",
"assigned" : "2017-12-02T19:04:33.531-0600"
}
},
{
"event" : "addConfiguration",
"timestamp" : "2017-12-02T19:05:52.939-0600",
"value" : {
"name" : "FTBFConfig_v76",
"assigned" : "2017-12-02T19:05:52.939-0600"
}
}
],
"created" : "2017-12-02T19:04:33.527-0600"
},
"_id" : {
"$oid" : "7b74707480704fbba62952c7"
},
"collection" : "FEInterfaceConfiguration",
"aliases" : {
"active" : [

],
"history" : [

]
},
"runs" : [

],
"attachments" : [

],
"configtype" : "notprovided"
}