{
"document" : {
"data" : {
"NAME" : "CAEN_POWER_SUPPLY_CHANNEL_TABLE",
"COMMENT" : "No comment.",
"AUTHOR" : "admin",
"CREATION_TIME" : 1598476424,
"COL_TYPES" : {
"POWER_SUPPLY_GROUP_UID" : "STRING",
"CHANNEL_UID" : "STRING",
"STATUS" : "STRING",
"SLOT" : "NUMBER",
"CHANNEL" : "NUMBER",
"I0SET" : "NUMBER",
"V0SET" : "NUMBER",
"R_UP" : "NUMBER",
"R_DWN" : "NUMBER",
"TRIP" : "NUMBER",
"R_UP_TIME" : "NUMBER",
"R_DWN_TIME" : "NUMBER",
"UNV_THR" : "NUMBER",
"OVV_THR" : "NUMBER",
"COMMENT_DESCRIPTION" : "STRING",
"AUTHOR" : "STRING",
"RECORD_INSERTION_TIME" : "TIMESTAMP WITH TIMEZONE"
},
"DATA_SET" : [
{
"POWER_SUPPLY_GROUP_UID" : "CAENBurninBox",
"CHANNEL_UID" : "LV_Module1",
"STATUS" : "On",
"SLOT" : "1",
"CHANNEL" : "0",
"I0SET" : "2.1",
"V0SET" : "6.5",
"R_UP" : "5",
"R_DWN" : "5",
"TRIP" : "11.1",
"R_UP_TIME" : "100",
"R_DWN_TIME" : "100",
"UNV_THR" : "0.0",
"OVV_THR" : "7.1",
"COMMENT_DESCRIPTION" : "No Comment",
"AUTHOR" : "admin",
"RECORD_INSERTION_TIME" : "1598476424"
},
{
"POWER_SUPPLY_GROUP_UID" : "CAENBurninBox",
"CHANNEL_UID" : "LV_Module2",
"STATUS" : "On",
"SLOT" : "1",
"CHANNEL" : "1",
"I0SET" : "2.2",
"V0SET" : "6.0",
"R_UP" : "5",
"R_DWN" : "5",
"TRIP" : "11.2",
"R_UP_TIME" : "100",
"R_DWN_TIME" : "100",
"UNV_THR" : "0.0",
"OVV_THR" : "8.0",
"COMMENT_DESCRIPTION" : "No Comment",
"AUTHOR" : "admin",
"RECORD_INSERTION_TIME" : "1598476424"
},
{
"POWER_SUPPLY_GROUP_UID" : "CAENBurninBox",
"CHANNEL_UID" : "LV_Module3",
"STATUS" : "On",
"SLOT" : "1",
"CHANNEL" : "2",
"I0SET" : "2.3",
"V0SET" : "5.5",
"R_UP" : "5",
"R_DWN" : "5",
"TRIP" : "11.2",
"R_UP_TIME" : "100",
"R_DWN_TIME" : "100",
"UNV_THR" : "0.0",
"OVV_THR" : "9.0",
"COMMENT_DESCRIPTION" : "No Comment",
"AUTHOR" : "admin",
"RECORD_INSERTION_TIME" : "1598476424"
},
{
"POWER_SUPPLY_GROUP_UID" : "CAENBurninBox",
"CHANNEL_UID" : "LV_Module4",
"STATUS" : "On",
"SLOT" : "5",
"CHANNEL" : "0",
"I0SET" : "100.3",
"V0SET" : "5.0",
"R_UP" : "5",
"R_DWN" : "5",
"TRIP" : "12.0",
"R_UP_TIME" : "100",
"R_DWN_TIME" : "100",
"UNV_THR" : "0.0",
"OVV_THR" : "300.0",
"COMMENT_DESCRIPTION" : "No Comment",
"AUTHOR" : "admin",
"RECORD_INSERTION_TIME" : "1598476424"
}
]
},
"metadata" : {

},
"search" : [

]
},
"comments" : [

],
"origin" : {
"source" : "template",
"name" : "notprovided",
"format" : "json",
"created" : "2020-08-26T16:13:44.233-0500",
"rawdata" : [

]
},
"version" : "4",
"entities" : [
{
"name" : "OTSROOT",
"assigned" : "2020-08-26T16:13:44.233-0500"
}
],
"configurations" : [
{
"name" : "notprovided",
"assigned" : "2020-08-26T16:13:44.233-0500"
},
{
"name" : "DefaultConfig_v12",
"assigned" : "2020-08-26T16:18:15.295-0500"
}
],
"changelog" : "notprovided",
"bookkeeping" : {
"isdeleted" : false,
"isreadonly" : false,
"updates" : [
{
"event" : "addConfiguration",
"timestamp" : "2020-08-26T16:13:44.233-0500",
"value" : {
"name" : "notprovided",
"assigned" : "2020-08-26T16:13:44.233-0500"
}
},
{
"event" : "setVersion",
"timestamp" : "2020-08-26T16:13:44.233-0500",
"value" : {
"name" : "4",
"assigned" : "2020-08-26T16:13:44.233-0500"
}
},
{
"event" : "setCollection",
"timestamp" : "2020-08-26T16:13:44.233-0500",
"value" : {
"name" : "CAENPowerSupplyChannelTable",
"assigned" : "2020-08-26T16:13:44.233-0500"
}
},
{
"event" : "addEntity",
"timestamp" : "2020-08-26T16:13:44.233-0500",
"value" : {
"name" : "OTSROOT",
"assigned" : "2020-08-26T16:13:44.233-0500"
}
},
{
"event" : "addConfiguration",
"timestamp" : "2020-08-26T16:18:15.295-0500",
"value" : {
"name" : "DefaultConfig_v12",
"assigned" : "2020-08-26T16:18:15.295-0500"
}
}
],
"created" : "2020-08-26T16:13:44.233-0500"
},
"_id" : {
"$oid" : "7f372914930a4802b842c669"
},
"collection" : "CAENPowerSupplyChannelTable",
"aliases" : {
"active" : [

],
"history" : [

]
},
"runs" : [

],
"attachments" : [

],
"configtype" : "notprovided"
}