{
"document" : {
"data" : {
"NAME" : "CAEN_POWER_SUPPLY_CHANNEL_TABLE",
"COMMENT" : "No comment.",
"AUTHOR" : "admin",
"CREATION_TIME" : 1598456618,
"COL_TYPES" : {
"POWER_SUPPLY_CHANNEL_UID" : "STRING",
"STATUS" : "STRING",
"SLOT" : "NUMBER",
"CHANNEL" : "NUMBER",
"I0SET" : "NUMBER",
"V0SET" : "NUMBER",
"R_UP" : "NUMBER",
"R_DWN" : "NUMBER",
"TRIP" : "NUMBER",
"R_UP_TIME" : "NUMBER",
"R_DWN_TIME" : "NUMBER",
"UNV_THR" : "NUMBER",
"OVV_THR" : "NUMBER",
"COMMENT_DESCRIPTION" : "STRING",
"AUTHOR" : "STRING",
"RECORD_INSERTION_TIME" : "TIMESTAMP WITH TIMEZONE"
},
"DATA_SET" : [
{
"POWER_SUPPLY_CHANNEL_UID" : "CAENPowerSupply0",
"STATUS" : "On",
"SLOT" : "1",
"CHANNEL" : "0",
"I0SET" : "2.1",
"V0SET" : "5.1",
"R_UP" : "5",
"R_DWN" : "5",
"TRIP" : "11.1",
"R_UP_TIME" : "100",
"R_DWN_TIME" : "100",
"UNV_THR" : "0.0",
"OVV_THR" : "7.1",
"COMMENT_DESCRIPTION" : "No Comment",
"AUTHOR" : "admin",
"RECORD_INSERTION_TIME" : "1598456618"
}
]
},
"metadata" : {

},
"search" : [

]
},
"comments" : [

],
"origin" : {
"source" : "template",
"name" : "notprovided",
"format" : "json",
"created" : "2020-08-26T10:43:38.366-0500",
"rawdata" : [

]
},
"version" : "0",
"entities" : [
{
"name" : "OTSROOT",
"assigned" : "2020-08-26T10:43:38.367-0500"
}
],
"configurations" : [
{
"name" : "notprovided",
"assigned" : "2020-08-26T10:43:38.366-0500"
},
{
"name" : "DefaultConfig_v8",
"assigned" : "2020-08-26T10:45:54.282-0500"
}
],
"changelog" : "notprovided",
"bookkeeping" : {
"isdeleted" : false,
"isreadonly" : false,
"updates" : [
{
"event" : "addConfiguration",
"timestamp" : "2020-08-26T10:43:38.366-0500",
"value" : {
"name" : "notprovided",
"assigned" : "2020-08-26T10:43:38.366-0500"
}
},
{
"event" : "setVersion",
"timestamp" : "2020-08-26T10:43:38.366-0500",
"value" : {
"name" : "0",
"assigned" : "2020-08-26T10:43:38.366-0500"
}
},
{
"event" : "setCollection",
"timestamp" : "2020-08-26T10:43:38.366-0500",
"value" : {
"name" : "CAENPowerSupplyChannelTable",
"assigned" : "2020-08-26T10:43:38.367-0500"
}
},
{
"event" : "addEntity",
"timestamp" : "2020-08-26T10:43:38.367-0500",
"value" : {
"name" : "OTSROOT",
"assigned" : "2020-08-26T10:43:38.367-0500"
}
},
{
"event" : "addConfiguration",
"timestamp" : "2020-08-26T10:45:54.282-0500",
"value" : {
"name" : "DefaultConfig_v8",
"assigned" : "2020-08-26T10:45:54.282-0500"
}
}
],
"created" : "2020-08-26T10:43:38.366-0500"
},
"_id" : {
"$oid" : "8f6718d9b4834c7da6821f44"
},
"collection" : "CAENPowerSupplyChannelTable",
"aliases" : {
"active" : [

],
"history" : [

]
},
"runs" : [

],
"attachments" : [

],
"configtype" : "notprovided"
}