{
"ouid" : [
"e721bf94839f466b8e3ad76e"
],
"version" : {
"2" : [
"e721bf94839f466b8e3ad76e"
]
},
"configurations.name" : {
"notprovided" : [
"e721bf94839f466b8e3ad76e"
],
"DefaultContext_v2" : [
"e721bf94839f466b8e3ad76e"
],
"DefaultContext_v3" : [
"e721bf94839f466b8e3ad76e"
],
"DefaultContext_v4" : [
"e721bf94839f466b8e3ad76e"
],
"DefaultContext_v5" : [
"e721bf94839f466b8e3ad76e"
],
"DefaultContext_v6" : [
"e721bf94839f466b8e3ad76e"
],
"DefaultContext_v7" : [
"e721bf94839f466b8e3ad76e"
],
"DefaultContext_v8" : [
"e721bf94839f466b8e3ad76e"
],
"DefaultContext_v9" : [
"e721bf94839f466b8e3ad76e"
],
"DefaultContext_v10" : [
"e721bf94839f466b8e3ad76e"
],
"DefaultContext_v11" : [
"e721bf94839f466b8e3ad76e"
],
"DefaultContext_v12" : [
"e721bf94839f466b8e3ad76e"
],
"DefaultContext_v13" : [
"e721bf94839f466b8e3ad76e"
],
"DefaultContext_v14" : [
"e721bf94839f466b8e3ad76e"
],
"DefaultContext_v15" : [
"e721bf94839f466b8e3ad76e"
],
"DefaultContext_v16" : [
"e721bf94839f466b8e3ad76e"
],
"DefaultContext_v17" : [
"e721bf94839f466b8e3ad76e"
],
"DefaultContext_v18" : [
"e721bf94839f466b8e3ad76e"
],
"DefaultContext_v19" : [
"e721bf94839f466b8e3ad76e"
],
"DefaultContext_v20" : [
"e721bf94839f466b8e3ad76e"
],
"DefaultContext_v21" : [
"e721bf94839f466b8e3ad76e"
],
"DefaultContext_v22" : [
"e721bf94839f466b8e3ad76e"
],
"DefaultContext_v23" : [
"e721bf94839f466b8e3ad76e"
],
"DefaultContext_v24" : [
"e721bf94839f466b8e3ad76e"
],
"DefaultContext_v25" : [
"e721bf94839f466b8e3ad76e"
],
"DefaultContext_v26" : [
"e721bf94839f466b8e3ad76e"
],
"DefaultContext_v27" : [
"e721bf94839f466b8e3ad76e"
],
"DefaultContext_v28" : [
"e721bf94839f466b8e3ad76e"
],
"DefaultContext_v29" : [
"e721bf94839f466b8e3ad76e"
],
"DefaultContext_v30" : [
"e721bf94839f466b8e3ad76e"
],
"DefaultContext_v31" : [
"e721bf94839f466b8e3ad76e"
]
},
"entities.name" : {
"OTSROOT" : [
"e721bf94839f466b8e3ad76e"
]
},
"aliases.active.name" : {

},
"runs.name" : {

},
"configurations.assigned" : {
"notprovided" : [
"2020-07-21T14:27:47.318-0500"
],
"DefaultContext_v2" : [
"2020-07-21T14:27:47.705-0500"
],
"DefaultContext_v3" : [
"2020-07-21T14:42:50.450-0500"
],
"DefaultContext_v4" : [
"2020-07-21T14:46:44.331-0500"
],
"DefaultContext_v5" : [
"2020-07-21T14:51:16.617-0500"
],
"DefaultContext_v6" : [
"2020-07-21T14:55:16.932-0500"
],
"DefaultContext_v7" : [
"2020-07-21T14:55:56.944-0500"
],
"DefaultContext_v8" : [
"2020-07-21T15:50:01.301-0500"
],
"DefaultContext_v9" : [
"2020-08-20T13:46:48.614-0500"
],
"DefaultContext_v10" : [
"2020-08-20T13:52:00.764-0500"
],
"DefaultContext_v11" : [
"2020-08-20T14:43:55.032-0500"
],
"DefaultContext_v12" : [
"2020-08-26T10:29:24.633-0500"
],
"DefaultContext_v13" : [
"2020-08-26T11:10:54.229-0500"
],
"DefaultContext_v14" : [
"2020-08-26T16:17:12.743-0500"
],
"DefaultContext_v15" : [
"2020-11-10T13:18:46.068-0600"
],
"DefaultContext_v16" : [
"2020-11-10T13:35:41.805-0600"
],
"DefaultContext_v17" : [
"2020-11-10T13:38:41.795-0600"
],
"DefaultContext_v18" : [
"2020-11-10T13:39:23.617-0600"
],
"DefaultContext_v19" : [
"2020-11-10T13:41:30.521-0600"
],
"DefaultContext_v20" : [
"2020-11-10T15:30:52.703-0600"
],
"DefaultContext_v21" : [
"2020-11-10T15:36:56.968-0600"
],
"DefaultContext_v22" : [
"2020-11-11T11:00:27.102-0600"
],
"DefaultContext_v23" : [
"2020-11-11T11:54:28.464-0600"
],
"DefaultContext_v24" : [
"2020-11-11T11:57:37.411-0600"
],
"DefaultContext_v25" : [
"2020-11-11T15:51:21.022-0600"
],
"DefaultContext_v26" : [
"2020-11-11T15:51:48.039-0600"
],
"DefaultContext_v27" : [
"2020-11-13T11:04:50.737-0600"
],
"DefaultContext_v28" : [
"2020-11-13T11:24:26.692-0600"
],
"DefaultContext_v29" : [
"2020-11-13T14:27:41.675-0600"
],
"DefaultContext_v30" : [
"2020-11-23T16:30:54.191-0600"
],
"DefaultContext_v31" : [
"2020-12-21T11:05:57.046-0600"
]
}
}