{
"document" : {
"data" : {
"NAME" : "GROUP_ALIASES_TABLE",
"COMMENT" : "Default Backbone.",
"AUTHOR" : "admin",
"CREATION_TIME" : 1563893292,
"COL_TYPES" : {
"GROUP_KEY_ALIAS" : "VARCHAR2",
"GROUP_NAME" : "VARCHAR2",
"GROUP_KEY" : "VARCHAR2",
"COMMENT_DESCRIPTION" : "VARCHAR2",
"AUTHOR" : "VARCHAR2",
"RECORD_INSERTION_TIME" : "TIMESTAMP WITH TIMEZONE"
},
"DATA_SET" : [
{
"GROUP_KEY_ALIAS" : "OuterTrackerContext",
"GROUP_NAME" : "DefaultContext",
"GROUP_KEY" : "3",
"COMMENT_DESCRIPTION" : "This Group Alias was automatically setup by the server.",
"AUTHOR" : "admin",
"RECORD_INSERTION_TIME" : "1563890725"
},
{
"GROUP_KEY_ALIAS" : "OuterTrackerTable",
"GROUP_NAME" : "DefaultConfig",
"GROUP_KEY" : "8",
"COMMENT_DESCRIPTION" : "This Group Alias was automatically setup by the server.",
"AUTHOR" : "admin",
"RECORD_INSERTION_TIME" : "1563893292"
}
]
},
"metadata" : {

},
"search" : [

]
},
"comments" : [

],
"origin" : {
"source" : "template",
"name" : "notprovided",
"format" : "json",
"created" : "2019-07-23T09:48:12.059-0500",
"rawdata" : [

]
},
"version" : "12",
"entities" : [
{
"name" : "OTSROOT",
"assigned" : "2019-07-23T09:48:12.059-0500"
}
],
"configurations" : [
{
"name" : "notprovided",
"assigned" : "2019-07-23T09:48:12.059-0500"
},
{
"name" : "TableEditWizBackbone_v6",
"assigned" : "2019-07-23T09:48:12.411-0500"
}
],
"changelog" : "notprovided",
"bookkeeping" : {
"isdeleted" : false,
"isreadonly" : false,
"updates" : [
{
"event" : "addConfiguration",
"timestamp" : "2019-07-23T09:48:12.059-0500",
"value" : {
"name" : "notprovided",
"assigned" : "2019-07-23T09:48:12.059-0500"
}
},
{
"event" : "setVersion",
"timestamp" : "2019-07-23T09:48:12.059-0500",
"value" : {
"name" : "12",
"assigned" : "2019-07-23T09:48:12.059-0500"
}
},
{
"event" : "setCollection",
"timestamp" : "2019-07-23T09:48:12.059-0500",
"value" : {
"name" : "GroupAliasesTable",
"assigned" : "2019-07-23T09:48:12.059-0500"
}
},
{
"event" : "addEntity",
"timestamp" : "2019-07-23T09:48:12.059-0500",
"value" : {
"name" : "OTSROOT",
"assigned" : "2019-07-23T09:48:12.059-0500"
}
},
{
"event" : "addConfiguration",
"timestamp" : "2019-07-23T09:48:12.411-0500",
"value" : {
"name" : "TableEditWizBackbone_v6",
"assigned" : "2019-07-23T09:48:12.411-0500"
}
}
],
"created" : "2019-07-23T09:48:12.059-0500"
},
"_id" : {
"$oid" : "aae1d64bcbde499eb9206038"
},
"collection" : "GroupAliasesTable",
"aliases" : {
"active" : [

],
"history" : [

]
},
"runs" : [

],
"attachments" : [

],
"configtype" : "notprovided"
}