{
"ouid" : [
"4458771bda8044b5a43c23f4",
"8cf86a076aca4eeaba9a571e",
"dbc82e82bdcb4b39b6e6a500",
"f48f29a9350d47a297df2335"
],
"version" : {
"0" : [
"8cf86a076aca4eeaba9a571e"
],
"1" : [
"dbc82e82bdcb4b39b6e6a500"
],
"2" : [
"f48f29a9350d47a297df2335"
],
"3" : [
"4458771bda8044b5a43c23f4"
]
},
"configurations.name" : {
"notprovided" : [
"4458771bda8044b5a43c23f4",
"8cf86a076aca4eeaba9a571e",
"dbc82e82bdcb4b39b6e6a500",
"f48f29a9350d47a297df2335"
],
"BurninBoxConfiguration_v38" : [
"dbc82e82bdcb4b39b6e6a500"
],
"BurninBoxConfiguration_v39" : [
"dbc82e82bdcb4b39b6e6a500"
],
"BurninBoxConfiguration_v40" : [
"dbc82e82bdcb4b39b6e6a500"
],
"BurninBoxConfiguration_v41" : [
"dbc82e82bdcb4b39b6e6a500"
],
"BurninBoxConfiguration_v42" : [
"dbc82e82bdcb4b39b6e6a500"
],
"BurninBoxConfiguration_v43" : [
"dbc82e82bdcb4b39b6e6a500"
],
"BurninBoxConfiguration_v44" : [
"dbc82e82bdcb4b39b6e6a500"
],
"BurninBoxConfiguration_v45" : [
"dbc82e82bdcb4b39b6e6a500"
],
"BurninBoxConfiguration_v46" : [
"dbc82e82bdcb4b39b6e6a500"
],
"BurninBoxConfiguration_v47" : [
"dbc82e82bdcb4b39b6e6a500"
],
"BurninBoxConfiguration_v48" : [
"dbc82e82bdcb4b39b6e6a500"
],
"BurninBoxConfiguration_v49" : [
"dbc82e82bdcb4b39b6e6a500"
],
"BurninBoxConfiguration_v50" : [
"dbc82e82bdcb4b39b6e6a500"
],
"BurninBoxConfiguration_v51" : [
"dbc82e82bdcb4b39b6e6a500"
],
"BurninBoxConfiguration_v52" : [
"dbc82e82bdcb4b39b6e6a500"
],
"BurninBoxConfiguration_v53" : [
"dbc82e82bdcb4b39b6e6a500"
],
"BurninBoxConfiguration_v54" : [
"dbc82e82bdcb4b39b6e6a500"
],
"BurninBoxConfiguration_v55" : [
"dbc82e82bdcb4b39b6e6a500"
],
"BurninBoxConfiguration_v56" : [
"dbc82e82bdcb4b39b6e6a500"
],
"BurninBoxConfiguration_v57" : [
"dbc82e82bdcb4b39b6e6a500"
],
"BurninBoxConfiguration_v58" : [
"dbc82e82bdcb4b39b6e6a500"
],
"BurninBoxConfiguration_v59" : [
"dbc82e82bdcb4b39b6e6a500"
],
"BurninBoxConfiguration_v60" : [
"dbc82e82bdcb4b39b6e6a500"
],
"BurninBoxConfiguration_v61" : [
"dbc82e82bdcb4b39b6e6a500"
],
"BurninBoxConfiguration_v62" : [
"dbc82e82bdcb4b39b6e6a500"
],
"BurninBoxConfiguration_v63" : [
"dbc82e82bdcb4b39b6e6a500"
],
"BurninBoxConfiguration_v64" : [
"dbc82e82bdcb4b39b6e6a500"
],
"BurninBoxConfiguration_v65" : [
"dbc82e82bdcb4b39b6e6a500"
],
"BurninBoxConfiguration_v66" : [
"dbc82e82bdcb4b39b6e6a500"
],
"BurninBoxConfiguration_v67" : [
"dbc82e82bdcb4b39b6e6a500"
],
"BurninBoxConfiguration_v68" : [
"dbc82e82bdcb4b39b6e6a500"
],
"BurninBoxConfiguration_v69" : [
"dbc82e82bdcb4b39b6e6a500"
],
"BurninBoxConfiguration_v70" : [
"dbc82e82bdcb4b39b6e6a500"
],
"BurninBoxConfiguration_v71" : [
"dbc82e82bdcb4b39b6e6a500"
],
"BurninBoxConfiguration_v72" : [
"dbc82e82bdcb4b39b6e6a500"
],
"BurninBoxConfiguration_v73" : [
"dbc82e82bdcb4b39b6e6a500"
],
"BurninBoxConfiguration_v74" : [
"dbc82e82bdcb4b39b6e6a500"
],
"BurninBoxConfiguration_v75" : [
"dbc82e82bdcb4b39b6e6a500"
],
"BurninBoxConfiguration_v76" : [
"dbc82e82bdcb4b39b6e6a500"
],
"BurninBoxConfiguration_v77" : [
"dbc82e82bdcb4b39b6e6a500"
],
"BurninBoxConfiguration_v78" : [
"dbc82e82bdcb4b39b6e6a500"
],
"BurninBoxConfiguration_v79" : [
"dbc82e82bdcb4b39b6e6a500"
],
"BurninBoxConfiguration_v80" : [
"dbc82e82bdcb4b39b6e6a500"
],
"BurninBoxConfiguration_v81" : [
"dbc82e82bdcb4b39b6e6a500"
],
"BurninBoxConfiguration_v82" : [
"dbc82e82bdcb4b39b6e6a500"
],
"BurninBoxConfiguration_v83" : [
"dbc82e82bdcb4b39b6e6a500"
],
"BurninBoxConfiguration_v84" : [
"dbc82e82bdcb4b39b6e6a500"
],
"BurninBoxConfiguration_v85" : [
"dbc82e82bdcb4b39b6e6a500"
],
"BurninBoxConfiguration_v86" : [
"dbc82e82bdcb4b39b6e6a500"
],
"BurninBoxConfiguration_v87" : [
"dbc82e82bdcb4b39b6e6a500"
],
"BurninBoxConfiguration_v88" : [
"dbc82e82bdcb4b39b6e6a500"
],
"BurninBoxConfiguration_v89" : [
"dbc82e82bdcb4b39b6e6a500"
],
"BurninBoxConfiguration_v90" : [
"dbc82e82bdcb4b39b6e6a500"
],
"BurninBoxConfiguration_v91" : [
"dbc82e82bdcb4b39b6e6a500"
],
"BurninBoxConfiguration_v92" : [
"dbc82e82bdcb4b39b6e6a500"
],
"BurninBoxConfiguration_v93" : [
"dbc82e82bdcb4b39b6e6a500"
],
"BurninBoxConfiguration_v94" : [
"dbc82e82bdcb4b39b6e6a500"
],
"BurninBoxConfiguration_v95" : [
"dbc82e82bdcb4b39b6e6a500"
],
"BurninBoxConfiguration_v96" : [
"dbc82e82bdcb4b39b6e6a500"
],
"BurninBoxConfiguration_v97" : [
"dbc82e82bdcb4b39b6e6a500"
],
"BurninBoxConfiguration_v98" : [
"dbc82e82bdcb4b39b6e6a500"
],
"BurninBoxConfiguration_v99" : [
"dbc82e82bdcb4b39b6e6a500"
],
"BurninBoxConfiguration_v100" : [
"dbc82e82bdcb4b39b6e6a500"
],
"BurninBoxConfiguration_v101" : [
"dbc82e82bdcb4b39b6e6a500"
],
"BurninBoxConfiguration_v102" : [
"dbc82e82bdcb4b39b6e6a500"
],
"BurninBoxConfiguration_v103" : [
"dbc82e82bdcb4b39b6e6a500"
],
"BurninBoxConfiguration_v104" : [
"dbc82e82bdcb4b39b6e6a500"
],
"BurninBoxConfiguration_v105" : [
"dbc82e82bdcb4b39b6e6a500"
],
"BurninBoxConfiguration_v106" : [
"dbc82e82bdcb4b39b6e6a500"
],
"BurninBoxConfiguration_v107" : [
"dbc82e82bdcb4b39b6e6a500"
],
"BurninBoxConfiguration_v108" : [
"dbc82e82bdcb4b39b6e6a500"
],
"BurninBoxConfiguration_v109" : [
"dbc82e82bdcb4b39b6e6a500"
],
"BurninBoxConfiguration_v110" : [
"dbc82e82bdcb4b39b6e6a500"
],
"BurninBoxConfiguration_v111" : [
"dbc82e82bdcb4b39b6e6a500"
],
"BurninBoxConfiguration_v112" : [
"f48f29a9350d47a297df2335"
],
"BurninBoxConfiguration_v113" : [
"f48f29a9350d47a297df2335"
],
"BurninBoxConfiguration_v114" : [
"f48f29a9350d47a297df2335"
],
"BurninBoxConfiguration_v115" : [
"f48f29a9350d47a297df2335"
],
"BurninBoxConfiguration_v116" : [
"f48f29a9350d47a297df2335"
],
"BurninBoxConfiguration_v117" : [
"f48f29a9350d47a297df2335"
],
"BurninBoxConfiguration_v118" : [
"f48f29a9350d47a297df2335"
],
"BurninBoxConfiguration_v119" : [
"f48f29a9350d47a297df2335"
],
"BurninBoxConfiguration_v120" : [
"f48f29a9350d47a297df2335"
],
"BurninBoxConfiguration_v121" : [
"f48f29a9350d47a297df2335"
],
"BurninBoxConfiguration_v122" : [
"f48f29a9350d47a297df2335"
],
"BurninBoxConfiguration_v123" : [
"f48f29a9350d47a297df2335"
],
"BurninBoxConfiguration_v124" : [
"f48f29a9350d47a297df2335"
],
"BurninBoxConfiguration_v125" : [
"f48f29a9350d47a297df2335"
],
"BurninBoxConfiguration_v126" : [
"f48f29a9350d47a297df2335"
],
"BurninBoxConfiguration_v127" : [
"f48f29a9350d47a297df2335"
],
"BurninBoxConfiguration_v128" : [
"f48f29a9350d47a297df2335"
],
"BurninBoxConfiguration_v129" : [
"f48f29a9350d47a297df2335"
],
"BurninBoxConfiguration_v130" : [
"f48f29a9350d47a297df2335"
],
"BurninBoxConfiguration_v131" : [
"f48f29a9350d47a297df2335"
],
"BurninBoxConfiguration_v132" : [
"f48f29a9350d47a297df2335"
],
"BurninBoxConfiguration_v133" : [
"f48f29a9350d47a297df2335"
],
"BurninBoxConfiguration_v134" : [
"f48f29a9350d47a297df2335"
],
"BurninBoxConfiguration_v135" : [
"f48f29a9350d47a297df2335"
],
"BurninBoxConfiguration_v136" : [
"f48f29a9350d47a297df2335"
],
"BurninBoxConfiguration_v137" : [
"f48f29a9350d47a297df2335"
],
"BurninBoxConfiguration_v138" : [
"f48f29a9350d47a297df2335"
],
"BurninBoxConfiguration_v139" : [
"f48f29a9350d47a297df2335"
],
"BurninBoxConfiguration_v140" : [
"f48f29a9350d47a297df2335"
],
"BurninBoxConfiguration_v141" : [
"f48f29a9350d47a297df2335"
],
"BurninBoxConfiguration_v142" : [
"f48f29a9350d47a297df2335"
],
"BurninBoxConfiguration_v143" : [
"f48f29a9350d47a297df2335"
],
"BurninBoxConfiguration_v144" : [
"f48f29a9350d47a297df2335"
],
"BurninBoxConfiguration_v145" : [
"f48f29a9350d47a297df2335"
],
"BurninBoxConfiguration_v146" : [
"f48f29a9350d47a297df2335"
],
"BurninBoxConfiguration_v147" : [
"f48f29a9350d47a297df2335"
],
"BurninBoxConfiguration_v148" : [
"f48f29a9350d47a297df2335"
],
"BurninBoxConfiguration_v149" : [
"f48f29a9350d47a297df2335"
],
"BurninBoxConfiguration_v150" : [
"f48f29a9350d47a297df2335"
],
"BurninBoxConfiguration_v151" : [
"f48f29a9350d47a297df2335"
],
"BurninBoxConfiguration_v152" : [
"f48f29a9350d47a297df2335"
],
"BurninBoxConfiguration_v153" : [
"f48f29a9350d47a297df2335"
],
"BurninBoxConfiguration_v154" : [
"f48f29a9350d47a297df2335"
],
"BurninBoxConfiguration_v155" : [
"f48f29a9350d47a297df2335"
],
"BurninBoxConfiguration_v156" : [
"f48f29a9350d47a297df2335"
],
"BurninBoxConfiguration_v157" : [
"f48f29a9350d47a297df2335"
],
"BurninBoxConfiguration_v158" : [
"4458771bda8044b5a43c23f4"
],
"BurninBoxConfiguration_v159" : [
"4458771bda8044b5a43c23f4"
],
"BurninBoxConfiguration_v160" : [
"4458771bda8044b5a43c23f4"
],
"BurninBoxConfiguration_v161" : [
"4458771bda8044b5a43c23f4"
],
"BurninBoxConfiguration_v162" : [
"4458771bda8044b5a43c23f4"
],
"BurninBoxConfiguration_v163" : [
"4458771bda8044b5a43c23f4"
],
"BurninBoxConfiguration_v164" : [
"4458771bda8044b5a43c23f4"
],
"BurninBoxConfiguration_v165" : [
"4458771bda8044b5a43c23f4"
],
"BurninBoxConfiguration_v166" : [
"4458771bda8044b5a43c23f4"
]
},
"entities.name" : {
"OTSROOT" : [
"4458771bda8044b5a43c23f4",
"8cf86a076aca4eeaba9a571e",
"dbc82e82bdcb4b39b6e6a500",
"f48f29a9350d47a297df2335"
]
},
"aliases.active.name" : {

},
"runs.name" : {

},
"configurations.assigned" : {
"notprovided" : [
"2021-07-09T11:40:40.438-0500",
"2021-07-09T11:43:31.485-0500",
"2023-01-19T11:02:41.570-0600",
"2023-06-01T09:59:51.948-0500"
],
"BurninBoxConfiguration_v38" : [
"2021-07-09T11:47:13.666-0500"
],
"BurninBoxConfiguration_v39" : [
"2021-07-09T11:48:45.801-0500"
],
"BurninBoxConfiguration_v40" : [
"2021-07-09T16:06:00.239-0500"
],
"BurninBoxConfiguration_v41" : [
"2021-07-12T11:04:55.216-0500"
],
"BurninBoxConfiguration_v42" : [
"2021-07-13T12:01:31.043-0500"
],
"BurninBoxConfiguration_v43" : [
"2021-07-13T12:22:05.571-0500"
],
"BurninBoxConfiguration_v44" : [
"2021-07-14T13:05:58.147-0500"
],
"BurninBoxConfiguration_v45" : [
"2021-07-14T14:26:04.304-0500"
],
"BurninBoxConfiguration_v46" : [
"2021-07-14T14:46:56.631-0500"
],
"BurninBoxConfiguration_v47" : [
"2021-07-14T15:24:33.447-0500"
],
"BurninBoxConfiguration_v48" : [
"2021-07-14T16:05:29.029-0500"
],
"BurninBoxConfiguration_v49" : [
"2021-07-14T16:15:40.653-0500"
],
"BurninBoxConfiguration_v50" : [
"2021-07-14T16:17:40.507-0500"
],
"BurninBoxConfiguration_v51" : [
"2021-07-15T11:50:33.474-0500"
],
"BurninBoxConfiguration_v52" : [
"2021-07-20T13:45:53.631-0500"
],
"BurninBoxConfiguration_v53" : [
"2021-07-20T16:41:41.806-0500"
],
"BurninBoxConfiguration_v54" : [
"2021-07-20T17:09:26.506-0500"
],
"BurninBoxConfiguration_v55" : [
"2021-07-20T17:28:39.700-0500"
],
"BurninBoxConfiguration_v56" : [
"2021-07-20T17:46:27.029-0500"
],
"BurninBoxConfiguration_v57" : [
"2021-07-21T11:50:01.606-0500"
],
"BurninBoxConfiguration_v58" : [
"2021-07-21T11:58:37.255-0500"
],
"BurninBoxConfiguration_v59" : [
"2021-07-21T11:59:32.996-0500"
],
"BurninBoxConfiguration_v60" : [
"2021-07-22T18:34:59.995-0500"
],
"BurninBoxConfiguration_v61" : [
"2021-07-23T12:33:56.336-0500"
],
"BurninBoxConfiguration_v62" : [
"2021-07-24T00:54:49.139-0500"
],
"BurninBoxConfiguration_v63" : [
"2021-07-24T12:12:50.710-0500"
],
"BurninBoxConfiguration_v64" : [
"2021-07-25T21:07:15.656-0500"
],
"BurninBoxConfiguration_v65" : [
"2021-07-26T07:43:11.542-0500"
],
"BurninBoxConfiguration_v66" : [
"2021-07-26T18:37:11.623-0500"
],
"BurninBoxConfiguration_v67" : [
"2021-07-27T08:25:40.323-0500"
],
"BurninBoxConfiguration_v68" : [
"2021-08-03T11:10:36.777-0500"
],
"BurninBoxConfiguration_v69" : [
"2021-08-04T12:21:57.121-0500"
],
"BurninBoxConfiguration_v70" : [
"2021-09-02T13:43:33.518-0500"
],
"BurninBoxConfiguration_v71" : [
"2021-09-02T14:03:36.361-0500"
],
"BurninBoxConfiguration_v72" : [
"2021-09-23T15:47:04.737-0500"
],
"BurninBoxConfiguration_v73" : [
"2021-09-23T15:47:41.733-0500"
],
"BurninBoxConfiguration_v74" : [
"2021-09-24T15:36:49.619-0500"
],
"BurninBoxConfiguration_v75" : [
"2021-09-24T15:53:22.606-0500"
],
"BurninBoxConfiguration_v76" : [
"2021-09-24T16:04:21.555-0500"
],
"BurninBoxConfiguration_v77" : [
"2021-09-24T16:28:06.379-0500"
],
"BurninBoxConfiguration_v78" : [
"2021-09-27T09:02:55.990-0500"
],
"BurninBoxConfiguration_v79" : [
"2021-09-27T14:22:24.302-0500"
],
"BurninBoxConfiguration_v80" : [
"2021-09-28T09:24:50.157-0500"
],
"BurninBoxConfiguration_v81" : [
"2021-09-30T09:14:50.460-0500"
],
"BurninBoxConfiguration_v82" : [
"2021-10-01T10:56:20.973-0500"
],
"BurninBoxConfiguration_v83" : [
"2021-10-01T11:01:40.590-0500"
],
"BurninBoxConfiguration_v84" : [
"2021-10-06T10:02:30.860-0500"
],
"BurninBoxConfiguration_v85" : [
"2021-10-07T16:32:39.975-0500"
],
"BurninBoxConfiguration_v86" : [
"2021-10-08T14:03:14.808-0500"
],
"BurninBoxConfiguration_v87" : [
"2021-10-11T16:00:55.650-0500"
],
"BurninBoxConfiguration_v88" : [
"2021-10-12T09:07:16.952-0500"
],
"BurninBoxConfiguration_v89" : [
"2021-10-12T11:11:22.642-0500"
],
"BurninBoxConfiguration_v90" : [
"2021-10-14T17:03:16.036-0500"
],
"BurninBoxConfiguration_v91" : [
"2021-10-15T10:48:30.829-0500"
],
"BurninBoxConfiguration_v92" : [
"2021-10-15T15:50:48.690-0500"
],
"BurninBoxConfiguration_v93" : [
"2021-11-03T16:30:19.601-0500"
],
"BurninBoxConfiguration_v94" : [
"2021-11-10T15:11:01.992-0600"
],
"BurninBoxConfiguration_v95" : [
"2022-04-19T14:35:56.059-0400"
],
"BurninBoxConfiguration_v96" : [
"2022-04-20T10:06:05.085-0400"
],
"BurninBoxConfiguration_v97" : [
"2022-04-20T11:23:51.804-0400"
],
"BurninBoxConfiguration_v98" : [
"2022-06-03T14:30:15.908-0500"
],
"BurninBoxConfiguration_v99" : [
"2022-06-03T14:34:08.787-0500"
],
"BurninBoxConfiguration_v100" : [
"2022-06-07T14:59:58.913-0500"
],
"BurninBoxConfiguration_v101" : [
"2022-06-07T15:05:53.148-0500"
],
"BurninBoxConfiguration_v102" : [
"2022-06-07T16:09:17.119-0500"
],
"BurninBoxConfiguration_v103" : [
"2022-06-10T10:17:25.471-0500"
],
"BurninBoxConfiguration_v104" : [
"2022-06-10T10:18:21.904-0500"
],
"BurninBoxConfiguration_v105" : [
"2022-06-13T14:13:00.688-0500"
],
"BurninBoxConfiguration_v106" : [
"2022-06-13T15:22:18.031-0500"
],
"BurninBoxConfiguration_v107" : [
"2022-06-21T15:37:14.183-0500"
],
"BurninBoxConfiguration_v108" : [
"2022-06-21T15:39:36.772-0500"
],
"BurninBoxConfiguration_v109" : [
"2022-06-30T12:02:31.188-0500"
],
"BurninBoxConfiguration_v110" : [
"2023-01-19T10:05:42.606-0600"
],
"BurninBoxConfiguration_v111" : [
"2023-01-19T10:08:19.278-0600"
],
"BurninBoxConfiguration_v112" : [
"2023-01-19T11:02:44.387-0600"
],
"BurninBoxConfiguration_v113" : [
"2023-01-20T11:51:30.365-0600"
],
"BurninBoxConfiguration_v114" : [
"2023-01-30T11:15:45.487-0600"
],
"BurninBoxConfiguration_v115" : [
"2023-03-01T10:10:33.393-0600"
],
"BurninBoxConfiguration_v116" : [
"2023-03-07T16:36:50.365-0600"
],
"BurninBoxConfiguration_v117" : [
"2023-03-09T15:31:31.416-0600"
],
"BurninBoxConfiguration_v118" : [
"2023-03-15T12:03:55.485-0500"
],
"BurninBoxConfiguration_v119" : [
"2023-03-16T14:10:40.344-0500"
],
"BurninBoxConfiguration_v120" : [
"2023-04-04T11:18:53.687-0500"
],
"BurninBoxConfiguration_v121" : [
"2023-04-04T11:19:16.843-0500"
],
"BurninBoxConfiguration_v122" : [
"2023-04-04T11:23:00.376-0500"
],
"BurninBoxConfiguration_v123" : [
"2023-04-04T13:48:51.223-0500"
],
"BurninBoxConfiguration_v124" : [
"2023-04-04T13:51:58.363-0500"
],
"BurninBoxConfiguration_v125" : [
"2023-04-04T14:30:59.713-0500"
],
"BurninBoxConfiguration_v126" : [
"2023-04-04T16:05:03.906-0500"
],
"BurninBoxConfiguration_v127" : [
"2023-04-07T10:09:31.759-0500"
],
"BurninBoxConfiguration_v128" : [
"2023-04-07T16:20:29.066-0500"
],
"BurninBoxConfiguration_v129" : [
"2023-04-14T10:53:43.262-0500"
],
"BurninBoxConfiguration_v130" : [
"2023-04-14T11:01:22.944-0500"
],
"BurninBoxConfiguration_v131" : [
"2023-04-14T11:05:24.992-0500"
],
"BurninBoxConfiguration_v132" : [
"2023-04-14T12:25:10.127-0500"
],
"BurninBoxConfiguration_v133" : [
"2023-04-14T14:03:26.184-0500"
],
"BurninBoxConfiguration_v134" : [
"2023-04-14T15:36:48.828-0500"
],
"BurninBoxConfiguration_v135" : [
"2023-04-14T15:57:03.381-0500"
],
"BurninBoxConfiguration_v136" : [
"2023-04-14T15:58:59.882-0500"
],
"BurninBoxConfiguration_v137" : [
"2023-04-14T16:18:31.998-0500"
],
"BurninBoxConfiguration_v138" : [
"2023-04-14T16:20:11.208-0500"
],
"BurninBoxConfiguration_v139" : [
"2023-04-17T15:51:48.117-0500"
],
"BurninBoxConfiguration_v140" : [
"2023-04-18T10:48:01.528-0500"
],
"BurninBoxConfiguration_v141" : [
"2023-04-18T12:02:40.618-0500"
],
"BurninBoxConfiguration_v142" : [
"2023-04-18T12:03:56.132-0500"
],
"BurninBoxConfiguration_v143" : [
"2023-04-18T13:48:31.058-0500"
],
"BurninBoxConfiguration_v144" : [
"2023-04-18T14:33:54.373-0500"
],
"BurninBoxConfiguration_v145" : [
"2023-04-18T16:14:30.897-0500"
],
"BurninBoxConfiguration_v146" : [
"2023-04-18T16:20:20.470-0500"
],
"BurninBoxConfiguration_v147" : [
"2023-04-21T15:02:47.366-0500"
],
"BurninBoxConfiguration_v148" : [
"2023-05-09T09:06:43.605-0500"
],
"BurninBoxConfiguration_v149" : [
"2023-05-11T08:26:01.739-0500"
],
"BurninBoxConfiguration_v150" : [
"2023-05-11T14:10:22.177-0500"
],
"BurninBoxConfiguration_v151" : [
"2023-05-11T14:10:59.160-0500"
],
"BurninBoxConfiguration_v152" : [
"2023-05-11T14:12:47.155-0500"
],
"BurninBoxConfiguration_v153" : [
"2023-05-19T11:54:17.054-0500"
],
"BurninBoxConfiguration_v154" : [
"2023-05-19T11:57:26.877-0500"
],
"BurninBoxConfiguration_v155" : [
"2023-05-19T13:22:53.029-0500"
],
"BurninBoxConfiguration_v156" : [
"2023-06-01T09:40:18.228-0500"
],
"BurninBoxConfiguration_v157" : [
"2023-06-01T09:58:09.239-0500"
],
"BurninBoxConfiguration_v158" : [
"2023-06-01T09:59:55.183-0500"
],
"BurninBoxConfiguration_v159" : [
"2023-06-01T10:20:01.307-0500"
],
"BurninBoxConfiguration_v160" : [
"2023-06-01T10:23:57.795-0500"
],
"BurninBoxConfiguration_v161" : [
"2023-06-01T10:27:30.696-0500"
],
"BurninBoxConfiguration_v162" : [
"2023-06-09T12:06:36.830-0500"
],
"BurninBoxConfiguration_v163" : [
"2023-06-09T12:17:06.066-0500"
],
"BurninBoxConfiguration_v164" : [
"2023-06-12T09:41:23.284-0500"
],
"BurninBoxConfiguration_v165" : [
"2023-06-12T11:53:36.470-0500"
],
"BurninBoxConfiguration_v166" : [
"2023-06-12T16:53:39.847-0500"
]
}
}