{
"document" : {
"data" : {
"NAME" : "DESKTOP_WINDOW_PARAMETER_TABLE",
"COMMENT" : "GET parameters for FE Sub-config window added.",
"AUTHOR" : "admin",
"CREATION_TIME" : 1505234288,
"COL_TYPES" : {
"WINDOW_PARAMETER_GROUP_ID" : "VARCHAR2",
"WINDOW_PARAMETER_UID" : "VARCHAR2",
"ENABLED" : "VARCHAR2",
"WINDOW_PARAMETER_KEY" : "VARCHAR2",
"WINDOW_PARAMETER_VALUE" : "VARCHAR2",
"COMMENT_DESCRIPTION" : "VARCHAR2",
"AUTHOR" : "VARCHAR2",
"RECORD_INSERTION_TIME" : "TIMESTAMP WITH TIMEZONE"
},
"DATA_SET" : [
{
"WINDOW_PARAMETER_GROUP_ID" : "FE_Cfg_params",
"WINDOW_PARAMETER_UID" : "FE_Cfg_param0",
"ENABLED" : "True",
"WINDOW_PARAMETER_KEY" : "subsetBasePath",
"WINDOW_PARAMETER_VALUE" : "FEInterfaceTable",
"COMMENT_DESCRIPTION" : "The records in this table are the targets for this config subset.",
"AUTHOR" : "admin",
"RECORD_INSERTION_TIME" : "1492613231"
},
{
"WINDOW_PARAMETER_GROUP_ID" : "FE_Cfg_params",
"WINDOW_PARAMETER_UID" : "FE_Cfg_param1",
"ENABLED" : "True",
"WINDOW_PARAMETER_KEY" : "groupingFieldList",
"WINDOW_PARAMETER_VALUE" : "Status,FEInterfacePluginName",
"COMMENT_DESCRIPTION" : "CSV fields (tree paths relative to base table record) by which the records will be grouped. The user can also filter the records by these fields.",
"AUTHOR" : "admin",
"RECORD_INSERTION_TIME" : "1499445617"
},
{
"WINDOW_PARAMETER_GROUP_ID" : "FE_Cfg_params",
"WINDOW_PARAMETER_UID" : "FE_Cfg_param2",
"ENABLED" : "True",
"WINDOW_PARAMETER_KEY" : "recordAlias",
"WINDOW_PARAMETER_VALUE" : "Front-ends",
"COMMENT_DESCRIPTION" : "Alias (plural) for targeted records.",
"AUTHOR" : "admin",
"RECORD_INSERTION_TIME" : "1499376316"
},
{
"WINDOW_PARAMETER_GROUP_ID" : "FE_Cfg_params | DP_Cfg_params",
"WINDOW_PARAMETER_UID" : "Shared_Cfg_param0",
"ENABLED" : "True",
"WINDOW_PARAMETER_KEY" : "editableFieldList",
"WINDOW_PARAMETER_VALUE" : "!*CommentDescription,!SlowControls*",
"COMMENT_DESCRIPTION" : "No Comment",
"AUTHOR" : "admin",
"RECORD_INSERTION_TIME" : "1499443011"
},
{
"WINDOW_PARAMETER_GROUP_ID" : "DP_Cfg_params",
"WINDOW_PARAMETER_UID" : "DP_Cfg_param0",
"ENABLED" : "True",
"WINDOW_PARAMETER_KEY" : "subsetBasePath",
"WINDOW_PARAMETER_VALUE" : "DataBufferTable",
"COMMENT_DESCRIPTION" : "The records in this table are the targets for this config subset.",
"AUTHOR" : "admin",
"RECORD_INSERTION_TIME" : "1499437924"
},
{
"WINDOW_PARAMETER_GROUP_ID" : "DP_Cfg_params",
"WINDOW_PARAMETER_UID" : "DP_Cfg_param1",
"ENABLED" : "True",
"WINDOW_PARAMETER_KEY" : "groupingFieldList",
"WINDOW_PARAMETER_VALUE" : "Status,ProcessorType,ProcessorPluginName",
"COMMENT_DESCRIPTION" : "CSV fields (tree paths relative to base table record) by which the records will be grouped. The user can also filter the records by these fields.",
"AUTHOR" : "admin",
"RECORD_INSERTION_TIME" : "1499445762"
},
{
"WINDOW_PARAMETER_GROUP_ID" : "DP_Cfg_params",
"WINDOW_PARAMETER_UID" : "DP_Cfg_param2",
"ENABLED" : "True",
"WINDOW_PARAMETER_KEY" : "recordAlias",
"WINDOW_PARAMETER_VALUE" : "Data Processors",
"COMMENT_DESCRIPTION" : "Alias (plural) for targeted records.",
"AUTHOR" : "admin",
"RECORD_INSERTION_TIME" : "1499437924"
}
]
},
"metadata" : {

},
"search" : [

]
},
"comments" : [

],
"origin" : {
"source" : "template",
"name" : "notprovided",
"format" : "json",
"created" : "2018-09-06T17:34:14.899-0500",
"rawdata" : [

]
},
"version" : "1",
"entities" : [
{
"name" : "OTSROOT",
"assigned" : "2018-09-06T17:34:14.904-0500"
}
],
"tables" : [
{
"name" : "notprovided",
"assigned" : "2018-09-06T17:34:14.901-0500"
},
{
"name" : "DefaultContext_v1",
"assigned" : "2018-09-06T17:34:15.351-0500"
},
{
"name" : "DefaultContext_v2",
"assigned" : "2018-09-10T09:24:24.024-0500"
},
{
"name" : "DefaultContext_v3",
"assigned" : "2018-09-11T10:00:20.356-0500"
}
],
"changelog" : "notprovided",
"bookkeeping" : {
"isdeleted" : false,
"isreadonly" : false,
"updates" : [
{
"event" : "addTable",
"timestamp" : "2018-09-06T17:34:14.901-0500",
"value" : {
"name" : "notprovided",
"assigned" : "2018-09-06T17:34:14.901-0500"
}
},
{
"event" : "setVersion",
"timestamp" : "2018-09-06T17:34:14.902-0500",
"value" : {
"name" : "1",
"assigned" : "2018-09-06T17:34:14.902-0500"
}
},
{
"event" : "setCollection",
"timestamp" : "2018-09-06T17:34:14.903-0500",
"value" : {
"name" : "DesktopWindowParameterTable",
"assigned" : "2018-09-06T17:34:14.903-0500"
}
},
{
"event" : "addEntity",
"timestamp" : "2018-09-06T17:34:14.904-0500",
"value" : {
"name" : "OTSROOT",
"assigned" : "2018-09-06T17:34:14.904-0500"
}
},
{
"event" : "addTable",
"timestamp" : "2018-09-06T17:34:15.351-0500",
"value" : {
"name" : "DefaultContext_v1",
"assigned" : "2018-09-06T17:34:15.351-0500"
}
},
{
"event" : "addTable",
"timestamp" : "2018-09-10T09:24:24.024-0500",
"value" : {
"name" : "DefaultContext_v2",
"assigned" : "2018-09-10T09:24:24.024-0500"
}
},
{
"event" : "addTable",
"timestamp" : "2018-09-11T10:00:20.356-0500",
"value" : {
"name" : "DefaultContext_v3",
"assigned" : "2018-09-11T10:00:20.356-0500"
}
},
{
"event" : "addConfiguration",
"timestamp" : "2019-10-22T14:55:21.201-0500",
"value" : {
"name" : "DefaultContext_v4",
"assigned" : "2019-10-22T14:55:21.201-0500"
}
},
{
"event" : "addConfiguration",
"timestamp" : "2020-06-29T11:00:05.186-0500",
"value" : {
"name" : "DefaultContext_v5",
"assigned" : "2020-06-29T11:00:05.186-0500"
}
},
{
"event" : "addConfiguration",
"timestamp" : "2020-07-29T16:01:22.281-0500",
"value" : {
"name" : "DefaultContext_v6",
"assigned" : "2020-07-29T16:01:22.281-0500"
}
},
{
"event" : "addConfiguration",
"timestamp" : "2020-07-29T16:34:42.633-0500",
"value" : {
"name" : "DefaultContext_v7",
"assigned" : "2020-07-29T16:34:42.633-0500"
}
},
{
"event" : "addConfiguration",
"timestamp" : "2020-07-29T16:39:53.477-0500",
"value" : {
"name" : "DefaultContext_v8",
"assigned" : "2020-07-29T16:39:53.477-0500"
}
},
{
"event" : "addConfiguration",
"timestamp" : "2020-07-29T16:40:44.093-0500",
"value" : {
"name" : "DefaultContext_v9",
"assigned" : "2020-07-29T16:40:44.093-0500"
}
},
{
"event" : "addConfiguration",
"timestamp" : "2020-07-29T16:45:01.383-0500",
"value" : {
"name" : "DefaultContext_v10",
"assigned" : "2020-07-29T16:45:01.383-0500"
}
},
{
"event" : "addConfiguration",
"timestamp" : "2020-07-29T16:49:16.186-0500",
"value" : {
"name" : "DefaultContext_v11",
"assigned" : "2020-07-29T16:49:16.186-0500"
}
},
{
"event" : "addConfiguration",
"timestamp" : "2020-09-02T15:22:09.340-0500",
"value" : {
"name" : "DefaultContext_v12",
"assigned" : "2020-09-02T15:22:09.340-0500"
}
},
{
"event" : "addConfiguration",
"timestamp" : "2020-10-05T17:04:58.079-0500",
"value" : {
"name" : "DefaultContext_v13",
"assigned" : "2020-10-05T17:04:58.079-0500"
}
},
{
"event" : "addConfiguration",
"timestamp" : "2020-10-05T17:07:06.577-0500",
"value" : {
"name" : "DefaultContext_v14",
"assigned" : "2020-10-05T17:07:06.577-0500"
}
},
{
"event" : "addConfiguration",
"timestamp" : "2020-10-05T17:43:27.032-0500",
"value" : {
"name" : "DefaultContext_v15",
"assigned" : "2020-10-05T17:43:27.032-0500"
}
},
{
"event" : "addConfiguration",
"timestamp" : "2020-10-05T17:51:29.970-0500",
"value" : {
"name" : "DefaultContext_v16",
"assigned" : "2020-10-05T17:51:29.970-0500"
}
},
{
"event" : "addConfiguration",
"timestamp" : "2020-10-09T11:58:10.059-0500",
"value" : {
"name" : "DefaultContext_v17",
"assigned" : "2020-10-09T11:58:10.059-0500"
}
},
{
"event" : "addConfiguration",
"timestamp" : "2020-10-09T12:53:53.769-0500",
"value" : {
"name" : "DefaultContext_v18",
"assigned" : "2020-10-09T12:53:53.769-0500"
}
},
{
"event" : "addConfiguration",
"timestamp" : "2020-10-09T12:57:06.526-0500",
"value" : {
"name" : "DefaultContext_v19",
"assigned" : "2020-10-09T12:57:06.526-0500"
}
},
{
"event" : "addConfiguration",
"timestamp" : "2020-10-09T13:00:57.880-0500",
"value" : {
"name" : "DefaultContext_v20",
"assigned" : "2020-10-09T13:00:57.880-0500"
}
},
{
"event" : "addConfiguration",
"timestamp" : "2020-10-09T15:30:48.322-0500",
"value" : {
"name" : "DefaultContext_v21",
"assigned" : "2020-10-09T15:30:48.322-0500"
}
},
{
"event" : "addConfiguration",
"timestamp" : "2020-10-09T15:32:24.009-0500",
"value" : {
"name" : "DefaultContext_v22",
"assigned" : "2020-10-09T15:32:24.009-0500"
}
},
{
"event" : "addConfiguration",
"timestamp" : "2020-10-09T15:32:58.378-0500",
"value" : {
"name" : "DefaultContext_v23",
"assigned" : "2020-10-09T15:32:58.378-0500"
}
},
{
"event" : "addConfiguration",
"timestamp" : "2020-10-09T16:47:18.952-0500",
"value" : {
"name" : "DefaultContext_v24",
"assigned" : "2020-10-09T16:47:18.952-0500"
}
},
{
"event" : "addConfiguration",
"timestamp" : "2020-10-12T09:37:49.815-0500",
"value" : {
"name" : "DefaultContext_v25",
"assigned" : "2020-10-12T09:37:49.815-0500"
}
},
{
"event" : "addConfiguration",
"timestamp" : "2020-10-12T09:41:39.325-0500",
"value" : {
"name" : "DefaultContext_v26",
"assigned" : "2020-10-12T09:41:39.325-0500"
}
},
{
"event" : "addConfiguration",
"timestamp" : "2020-10-29T11:54:28.211-0500",
"value" : {
"name" : "DefaultContext_v27",
"assigned" : "2020-10-29T11:54:28.211-0500"
}
},
{
"event" : "addConfiguration",
"timestamp" : "2020-10-29T11:54:56.195-0500",
"value" : {
"name" : "DefaultContext_v28",
"assigned" : "2020-10-29T11:54:56.195-0500"
}
},
{
"event" : "addConfiguration",
"timestamp" : "2020-10-29T13:33:30.885-0500",
"value" : {
"name" : "DefaultContext_v29",
"assigned" : "2020-10-29T13:33:30.885-0500"
}
},
{
"event" : "addConfiguration",
"timestamp" : "2020-11-16T17:04:43.199-0600",
"value" : {
"name" : "DefaultContext_v30",
"assigned" : "2020-11-16T17:04:43.199-0600"
}
},
{
"event" : "addConfiguration",
"timestamp" : "2020-11-16T17:07:49.514-0600",
"value" : {
"name" : "DefaultContext_v31",
"assigned" : "2020-11-16T17:07:49.514-0600"
}
},
{
"event" : "addConfiguration",
"timestamp" : "2020-11-16T17:10:03.645-0600",
"value" : {
"name" : "DefaultContext_v32",
"assigned" : "2020-11-16T17:10:03.644-0600"
}
},
{
"event" : "addConfiguration",
"timestamp" : "2021-07-07T14:45:52.062-0500",
"value" : {
"name" : "DefaultContext_v33",
"assigned" : "2021-07-07T14:45:52.062-0500"
}
},
{
"event" : "addConfiguration",
"timestamp" : "2021-07-07T16:02:04.196-0500",
"value" : {
"name" : "DefaultContext_v34",
"assigned" : "2021-07-07T16:02:04.196-0500"
}
},
{
"event" : "addConfiguration",
"timestamp" : "2021-07-07T16:05:37.805-0500",
"value" : {
"name" : "DefaultContext_v35",
"assigned" : "2021-07-07T16:05:37.805-0500"
}
},
{
"event" : "addConfiguration",
"timestamp" : "2021-07-08T14:00:20.294-0500",
"value" : {
"name" : "DefaultContext_v36",
"assigned" : "2021-07-08T14:00:20.294-0500"
}
},
{
"event" : "addConfiguration",
"timestamp" : "2021-07-08T14:17:00.032-0500",
"value" : {
"name" : "DefaultContext_v37",
"assigned" : "2021-07-08T14:17:00.032-0500"
}
},
{
"event" : "addConfiguration",
"timestamp" : "2021-07-08T16:21:56.097-0500",
"value" : {
"name" : "DefaultContext_v38",
"assigned" : "2021-07-08T16:21:56.097-0500"
}
},
{
"event" : "addConfiguration",
"timestamp" : "2021-07-08T16:24:39.230-0500",
"value" : {
"name" : "DefaultContext_v39",
"assigned" : "2021-07-08T16:24:39.230-0500"
}
},
{
"event" : "addConfiguration",
"timestamp" : "2021-07-14T13:02:14.064-0500",
"value" : {
"name" : "DefaultContext_v40",
"assigned" : "2021-07-14T13:02:14.064-0500"
}
},
{
"event" : "addConfiguration",
"timestamp" : "2021-07-14T13:03:01.200-0500",
"value" : {
"name" : "DefaultContext_v41",
"assigned" : "2021-07-14T13:03:01.200-0500"
}
},
{
"event" : "addConfiguration",
"timestamp" : "2021-07-14T14:39:31.624-0500",
"value" : {
"name" : "DefaultContext_v42",
"assigned" : "2021-07-14T14:39:31.624-0500"
}
},
{
"event" : "addConfiguration",
"timestamp" : "2021-07-21T12:08:22.443-0500",
"value" : {
"name" : "DefaultContext_v43",
"assigned" : "2021-07-21T12:08:22.443-0500"
}
},
{
"event" : "addConfiguration",
"timestamp" : "2021-08-03T11:10:39.405-0500",
"value" : {
"name" : "DefaultContext_v44",
"assigned" : "2021-08-03T11:10:39.405-0500"
}
},
{
"event" : "addConfiguration",
"timestamp" : "2021-09-02T14:08:00.780-0500",
"value" : {
"name" : "DefaultContext_v45",
"assigned" : "2021-09-02T14:08:00.780-0500"
}
},
{
"event" : "addConfiguration",
"timestamp" : "2021-09-24T15:36:52.435-0500",
"value" : {
"name" : "DefaultContext_v46",
"assigned" : "2021-09-24T15:36:52.435-0500"
}
},
{
"event" : "addConfiguration",
"timestamp" : "2021-09-28T10:22:57.424-0500",
"value" : {
"name" : "DefaultContext_v47",
"assigned" : "2021-09-28T10:22:57.424-0500"
}
},
{
"event" : "addConfiguration",
"timestamp" : "2021-11-10T15:11:05.100-0600",
"value" : {
"name" : "DefaultContext_v48",
"assigned" : "2021-11-10T15:11:05.100-0600"
}
},
{
"event" : "addConfiguration",
"timestamp" : "2022-04-18T12:56:04.180-0400",
"value" : {
"name" : "DefaultContext_v49",
"assigned" : "2022-04-18T12:56:04.180-0400"
}
},
{
"event" : "addConfiguration",
"timestamp" : "2022-04-20T10:06:52.093-0400",
"value" : {
"name" : "DefaultContext_v50",
"assigned" : "2022-04-20T10:06:52.093-0400"
}
},
{
"event" : "addConfiguration",
"timestamp" : "2023-01-19T10:05:01.322-0600",
"value" : {
"name" : "DefaultContext_v51",
"assigned" : "2023-01-19T10:05:01.322-0600"
}
},
{
"event" : "addConfiguration",
"timestamp" : "2023-01-19T11:02:47.931-0600",
"value" : {
"name" : "DefaultContext_v52",
"assigned" : "2023-01-19T11:02:47.931-0600"
}
},
{
"event" : "addConfiguration",
"timestamp" : "2023-01-19T12:09:17.785-0600",
"value" : {
"name" : "DefaultContext_v53",
"assigned" : "2023-01-19T12:09:17.785-0600"
}
},
{
"event" : "addConfiguration",
"timestamp" : "2023-01-23T15:11:57.965-0600",
"value" : {
"name" : "DefaultContext_v54",
"assigned" : "2023-01-23T15:11:57.965-0600"
}
},
{
"event" : "addConfiguration",
"timestamp" : "2023-01-30T13:43:40.617-0600",
"value" : {
"name" : "DefaultContext_v55",
"assigned" : "2023-01-30T13:43:40.617-0600"
}
},
{
"event" : "addConfiguration",
"timestamp" : "2023-02-13T14:11:45.643-0600",
"value" : {
"name" : "DefaultContext_v56",
"assigned" : "2023-02-13T14:11:45.642-0600"
}
},
{
"event" : "addConfiguration",
"timestamp" : "2023-02-13T14:13:00.152-0600",
"value" : {
"name" : "DefaultContext_v57",
"assigned" : "2023-02-13T14:13:00.152-0600"
}
},
{
"event" : "addConfiguration",
"timestamp" : "2023-02-13T14:20:59.344-0600",
"value" : {
"name" : "DefaultContext_v58",
"assigned" : "2023-02-13T14:20:59.344-0600"
}
},
{
"event" : "addConfiguration",
"timestamp" : "2023-02-13T14:33:43.294-0600",
"value" : {
"name" : "DefaultContext_v59",
"assigned" : "2023-02-13T14:33:43.294-0600"
}
},
{
"event" : "addConfiguration",
"timestamp" : "2023-02-13T14:58:14.462-0600",
"value" : {
"name" : "DefaultContext_v60",
"assigned" : "2023-02-13T14:58:14.462-0600"
}
},
{
"event" : "addConfiguration",
"timestamp" : "2023-02-16T12:29:02.095-0600",
"value" : {
"name" : "DefaultContext_v61",
"assigned" : "2023-02-16T12:29:02.095-0600"
}
},
{
"event" : "addConfiguration",
"timestamp" : "2023-02-16T14:03:00.526-0600",
"value" : {
"name" : "DefaultContext_v62",
"assigned" : "2023-02-16T14:03:00.526-0600"
}
},
{
"event" : "addConfiguration",
"timestamp" : "2023-02-16T14:04:39.669-0600",
"value" : {
"name" : "DefaultContext_v63",
"assigned" : "2023-02-16T14:04:39.669-0600"
}
},
{
"event" : "addConfiguration",
"timestamp" : "2023-02-16T14:42:26.768-0600",
"value" : {
"name" : "DefaultContext_v64",
"assigned" : "2023-02-16T14:42:26.768-0600"
}
},
{
"event" : "addConfiguration",
"timestamp" : "2023-02-16T14:49:46.833-0600",
"value" : {
"name" : "DefaultContext_v65",
"assigned" : "2023-02-16T14:49:46.833-0600"
}
},
{
"event" : "addConfiguration",
"timestamp" : "2023-02-16T14:53:11.570-0600",
"value" : {
"name" : "DefaultContext_v66",
"assigned" : "2023-02-16T14:53:11.569-0600"
}
},
{
"event" : "addConfiguration",
"timestamp" : "2023-02-16T14:55:43.158-0600",
"value" : {
"name" : "DefaultContext_v67",
"assigned" : "2023-02-16T14:55:43.158-0600"
}
},
{
"event" : "addConfiguration",
"timestamp" : "2023-02-17T08:58:42.254-0600",
"value" : {
"name" : "DefaultContext_v68",
"assigned" : "2023-02-17T08:58:42.254-0600"
}
},
{
"event" : "addConfiguration",
"timestamp" : "2023-02-17T09:04:54.016-0600",
"value" : {
"name" : "DefaultContext_v69",
"assigned" : "2023-02-17T09:04:54.016-0600"
}
},
{
"event" : "addConfiguration",
"timestamp" : "2023-02-17T09:06:41.057-0600",
"value" : {
"name" : "DefaultContext_v70",
"assigned" : "2023-02-17T09:06:41.057-0600"
}
},
{
"event" : "addConfiguration",
"timestamp" : "2023-02-17T09:07:47.890-0600",
"value" : {
"name" : "DefaultContext_v71",
"assigned" : "2023-02-17T09:07:47.890-0600"
}
},
{
"event" : "addConfiguration",
"timestamp" : "2023-02-23T08:41:50.088-0600",
"value" : {
"name" : "DefaultContext_v72",
"assigned" : "2023-02-23T08:41:50.088-0600"
}
},
{
"event" : "addConfiguration",
"timestamp" : "2023-02-28T13:19:23.853-0600",
"value" : {
"name" : "DefaultContext_v73",
"assigned" : "2023-02-28T13:19:23.853-0600"
}
},
{
"event" : "addConfiguration",
"timestamp" : "2023-02-28T13:20:44.743-0600",
"value" : {
"name" : "DefaultContext_v74",
"assigned" : "2023-02-28T13:20:44.743-0600"
}
},
{
"event" : "addConfiguration",
"timestamp" : "2023-03-01T10:10:36.968-0600",
"value" : {
"name" : "DefaultContext_v75",
"assigned" : "2023-03-01T10:10:36.968-0600"
}
},
{
"event" : "addConfiguration",
"timestamp" : "2023-04-14T11:05:29.131-0500",
"value" : {
"name" : "DefaultContext_v76",
"assigned" : "2023-04-14T11:05:29.131-0500"
}
},
{
"event" : "addConfiguration",
"timestamp" : "2023-04-14T11:09:59.291-0500",
"value" : {
"name" : "DefaultContext_v77",
"assigned" : "2023-04-14T11:09:59.291-0500"
}
},
{
"event" : "addConfiguration",
"timestamp" : "2023-04-14T14:03:30.116-0500",
"value" : {
"name" : "DefaultContext_v78",
"assigned" : "2023-04-14T14:03:30.116-0500"
}
},
{
"event" : "addConfiguration",
"timestamp" : "2023-04-14T15:36:52.899-0500",
"value" : {
"name" : "DefaultContext_v79",
"assigned" : "2023-04-14T15:36:52.899-0500"
}
}
],
"created" : "2018-09-06T17:34:14.899-0500"
},
"_id" : {
"$oid" : "0ea519b5c91a4b9187935c12"
},
"collection" : "DesktopWindowParameterTable",
"aliases" : {
"active" : [

],
"history" : [

]
},
"runs" : [

],
"attachments" : [

],
"configtype" : "notprovided",
"configurations" : [
{
"name" : "DefaultContext_v4",
"assigned" : "2019-10-22T14:55:21.201-0500"
},
{
"name" : "DefaultContext_v5",
"assigned" : "2020-06-29T11:00:05.186-0500"
},
{
"name" : "DefaultContext_v6",
"assigned" : "2020-07-29T16:01:22.281-0500"
},
{
"name" : "DefaultContext_v7",
"assigned" : "2020-07-29T16:34:42.633-0500"
},
{
"name" : "DefaultContext_v8",
"assigned" : "2020-07-29T16:39:53.477-0500"
},
{
"name" : "DefaultContext_v9",
"assigned" : "2020-07-29T16:40:44.093-0500"
},
{
"name" : "DefaultContext_v10",
"assigned" : "2020-07-29T16:45:01.383-0500"
},
{
"name" : "DefaultContext_v11",
"assigned" : "2020-07-29T16:49:16.186-0500"
},
{
"name" : "DefaultContext_v12",
"assigned" : "2020-09-02T15:22:09.340-0500"
},
{
"name" : "DefaultContext_v13",
"assigned" : "2020-10-05T17:04:58.079-0500"
},
{
"name" : "DefaultContext_v14",
"assigned" : "2020-10-05T17:07:06.577-0500"
},
{
"name" : "DefaultContext_v15",
"assigned" : "2020-10-05T17:43:27.032-0500"
},
{
"name" : "DefaultContext_v16",
"assigned" : "2020-10-05T17:51:29.970-0500"
},
{
"name" : "DefaultContext_v17",
"assigned" : "2020-10-09T11:58:10.059-0500"
},
{
"name" : "DefaultContext_v18",
"assigned" : "2020-10-09T12:53:53.769-0500"
},
{
"name" : "DefaultContext_v19",
"assigned" : "2020-10-09T12:57:06.526-0500"
},
{
"name" : "DefaultContext_v20",
"assigned" : "2020-10-09T13:00:57.880-0500"
},
{
"name" : "DefaultContext_v21",
"assigned" : "2020-10-09T15:30:48.322-0500"
},
{
"name" : "DefaultContext_v22",
"assigned" : "2020-10-09T15:32:24.009-0500"
},
{
"name" : "DefaultContext_v23",
"assigned" : "2020-10-09T15:32:58.378-0500"
},
{
"name" : "DefaultContext_v24",
"assigned" : "2020-10-09T16:47:18.952-0500"
},
{
"name" : "DefaultContext_v25",
"assigned" : "2020-10-12T09:37:49.815-0500"
},
{
"name" : "DefaultContext_v26",
"assigned" : "2020-10-12T09:41:39.325-0500"
},
{
"name" : "DefaultContext_v27",
"assigned" : "2020-10-29T11:54:28.211-0500"
},
{
"name" : "DefaultContext_v28",
"assigned" : "2020-10-29T11:54:56.195-0500"
},
{
"name" : "DefaultContext_v29",
"assigned" : "2020-10-29T13:33:30.885-0500"
},
{
"name" : "DefaultContext_v30",
"assigned" : "2020-11-16T17:04:43.199-0600"
},
{
"name" : "DefaultContext_v31",
"assigned" : "2020-11-16T17:07:49.514-0600"
},
{
"name" : "DefaultContext_v32",
"assigned" : "2020-11-16T17:10:03.644-0600"
},
{
"name" : "DefaultContext_v33",
"assigned" : "2021-07-07T14:45:52.062-0500"
},
{
"name" : "DefaultContext_v34",
"assigned" : "2021-07-07T16:02:04.196-0500"
},
{
"name" : "DefaultContext_v35",
"assigned" : "2021-07-07T16:05:37.805-0500"
},
{
"name" : "DefaultContext_v36",
"assigned" : "2021-07-08T14:00:20.294-0500"
},
{
"name" : "DefaultContext_v37",
"assigned" : "2021-07-08T14:17:00.032-0500"
},
{
"name" : "DefaultContext_v38",
"assigned" : "2021-07-08T16:21:56.097-0500"
},
{
"name" : "DefaultContext_v39",
"assigned" : "2021-07-08T16:24:39.230-0500"
},
{
"name" : "DefaultContext_v40",
"assigned" : "2021-07-14T13:02:14.064-0500"
},
{
"name" : "DefaultContext_v41",
"assigned" : "2021-07-14T13:03:01.200-0500"
},
{
"name" : "DefaultContext_v42",
"assigned" : "2021-07-14T14:39:31.624-0500"
},
{
"name" : "DefaultContext_v43",
"assigned" : "2021-07-21T12:08:22.443-0500"
},
{
"name" : "DefaultContext_v44",
"assigned" : "2021-08-03T11:10:39.405-0500"
},
{
"name" : "DefaultContext_v45",
"assigned" : "2021-09-02T14:08:00.780-0500"
},
{
"name" : "DefaultContext_v46",
"assigned" : "2021-09-24T15:36:52.435-0500"
},
{
"name" : "DefaultContext_v47",
"assigned" : "2021-09-28T10:22:57.424-0500"
},
{
"name" : "DefaultContext_v48",
"assigned" : "2021-11-10T15:11:05.100-0600"
},
{
"name" : "DefaultContext_v49",
"assigned" : "2022-04-18T12:56:04.180-0400"
},
{
"name" : "DefaultContext_v50",
"assigned" : "2022-04-20T10:06:52.093-0400"
},
{
"name" : "DefaultContext_v51",
"assigned" : "2023-01-19T10:05:01.322-0600"
},
{
"name" : "DefaultContext_v52",
"assigned" : "2023-01-19T11:02:47.931-0600"
},
{
"name" : "DefaultContext_v53",
"assigned" : "2023-01-19T12:09:17.785-0600"
},
{
"name" : "DefaultContext_v54",
"assigned" : "2023-01-23T15:11:57.965-0600"
},
{
"name" : "DefaultContext_v55",
"assigned" : "2023-01-30T13:43:40.617-0600"
},
{
"name" : "DefaultContext_v56",
"assigned" : "2023-02-13T14:11:45.642-0600"
},
{
"name" : "DefaultContext_v57",
"assigned" : "2023-02-13T14:13:00.152-0600"
},
{
"name" : "DefaultContext_v58",
"assigned" : "2023-02-13T14:20:59.344-0600"
},
{
"name" : "DefaultContext_v59",
"assigned" : "2023-02-13T14:33:43.294-0600"
},
{
"name" : "DefaultContext_v60",
"assigned" : "2023-02-13T14:58:14.462-0600"
},
{
"name" : "DefaultContext_v61",
"assigned" : "2023-02-16T12:29:02.095-0600"
},
{
"name" : "DefaultContext_v62",
"assigned" : "2023-02-16T14:03:00.526-0600"
},
{
"name" : "DefaultContext_v63",
"assigned" : "2023-02-16T14:04:39.669-0600"
},
{
"name" : "DefaultContext_v64",
"assigned" : "2023-02-16T14:42:26.768-0600"
},
{
"name" : "DefaultContext_v65",
"assigned" : "2023-02-16T14:49:46.833-0600"
},
{
"name" : "DefaultContext_v66",
"assigned" : "2023-02-16T14:53:11.569-0600"
},
{
"name" : "DefaultContext_v67",
"assigned" : "2023-02-16T14:55:43.158-0600"
},
{
"name" : "DefaultContext_v68",
"assigned" : "2023-02-17T08:58:42.254-0600"
},
{
"name" : "DefaultContext_v69",
"assigned" : "2023-02-17T09:04:54.016-0600"
},
{
"name" : "DefaultContext_v70",
"assigned" : "2023-02-17T09:06:41.057-0600"
},
{
"name" : "DefaultContext_v71",
"assigned" : "2023-02-17T09:07:47.890-0600"
},
{
"name" : "DefaultContext_v72",
"assigned" : "2023-02-23T08:41:50.088-0600"
},
{
"name" : "DefaultContext_v73",
"assigned" : "2023-02-28T13:19:23.853-0600"
},
{
"name" : "DefaultContext_v74",
"assigned" : "2023-02-28T13:20:44.743-0600"
},
{
"name" : "DefaultContext_v75",
"assigned" : "2023-03-01T10:10:36.968-0600"
},
{
"name" : "DefaultContext_v76",
"assigned" : "2023-04-14T11:05:29.131-0500"
},
{
"name" : "DefaultContext_v77",
"assigned" : "2023-04-14T11:09:59.291-0500"
},
{
"name" : "DefaultContext_v78",
"assigned" : "2023-04-14T14:03:30.116-0500"
},
{
"name" : "DefaultContext_v79",
"assigned" : "2023-04-14T15:36:52.899-0500"
}
]
}