{
"document" : {
"data" : {
"NAME" : "FE_POWER_SUPPLY_INTERFACE_TABLE",
"COMMENT" : "No comment.",
"AUTHOR" : "admin",
"CREATION_TIME" : 1600123306,
"COL_TYPES" : {
"INTERFACE_ID" : "STRING",
"STATUS" : "STRING",
"DATA_PUBLISHER_PORT" : "NUMBER",
"LINK_TO_POWER_SUPPLY_DEVICE_TABLE" : "STRING",
"LINK_TO_POWER_SUPPLY_DEVICE_UID" : "STRING",
"COMMENT_DESCRIPTION" : "STRING",
"AUTHOR" : "STRING",
"RECORD_INSERTION_TIME" : "TIMESTAMP WITH TIMEZONE"
},
"DATA_SET" : [
{
"INTERFACE_ID" : "PowerSupplyFEInterface0",
"STATUS" : "On",
"DATA_PUBLISHER_PORT" : "60000",
"LINK_TO_POWER_SUPPLY_DEVICE_TABLE" : "PowerSupplyDeviceTable",
"LINK_TO_POWER_SUPPLY_DEVICE_UID" : "CAENBurninBox",
"COMMENT_DESCRIPTION" : "No Comment",
"AUTHOR" : "admin",
"RECORD_INSERTION_TIME" : "1600123306"
}
]
},
"metadata" : {

},
"search" : [

]
},
"comments" : [

],
"origin" : {
"source" : "template",
"name" : "notprovided",
"format" : "json",
"created" : "2020-09-14T17:41:46.440-0500",
"rawdata" : [

]
},
"version" : "3",
"entities" : [
{
"name" : "OTSROOT",
"assigned" : "2020-09-14T17:41:46.442-0500"
}
],
"configurations" : [
{
"name" : "notprovided",
"assigned" : "2020-09-14T17:41:46.441-0500"
}
],
"changelog" : "notprovided",
"bookkeeping" : {
"isdeleted" : false,
"isreadonly" : false,
"updates" : [
{
"event" : "addConfiguration",
"timestamp" : "2020-09-14T17:41:46.441-0500",
"value" : {
"name" : "notprovided",
"assigned" : "2020-09-14T17:41:46.441-0500"
}
},
{
"event" : "setVersion",
"timestamp" : "2020-09-14T17:41:46.442-0500",
"value" : {
"name" : "3",
"assigned" : "2020-09-14T17:41:46.442-0500"
}
},
{
"event" : "setCollection",
"timestamp" : "2020-09-14T17:41:46.442-0500",
"value" : {
"name" : "FEPowerSupplyInterfaceTable",
"assigned" : "2020-09-14T17:41:46.442-0500"
}
},
{
"event" : "addEntity",
"timestamp" : "2020-09-14T17:41:46.443-0500",
"value" : {
"name" : "OTSROOT",
"assigned" : "2020-09-14T17:41:46.442-0500"
}
}
],
"created" : "2020-09-14T17:41:46.440-0500"
},
"_id" : {
"$oid" : "33092c03b62547c491da8ff7"
},
"collection" : "FEPowerSupplyInterfaceTable",
"aliases" : {
"active" : [

],
"history" : [

]
},
"runs" : [

],
"attachments" : [

],
"configtype" : "notprovided"
}