{
"document" : {
"data" : {
"NAME" : "FE_POWER_SUPPLY_INTERFACE_TABLE",
"COMMENT" : "No comment.",
"AUTHOR" : "admin",
"CREATION_TIME" : 1600200428,
"COL_TYPES" : {
"INTERFACE_ID" : "STRING",
"STATUS" : "STRING",
"DATA_PUBLISHER_PORT" : "NUMBER",
"LINK_TO_POWER_SUPPLY_DEVICE_TABLE" : "STRING",
"LINK_TO_POWER_SUPPLY_DEVICE_UID" : "STRING",
"LINK_TO_POWER_SUPPLY_TO_DETECTOR_TABLE" : "STRING",
"LINK_TO_POWER_SUPPLY_TO_DETECTOR_UID" : "STRING",
"COMMENT_DESCRIPTION" : "STRING",
"AUTHOR" : "STRING",
"RECORD_INSERTION_TIME" : "TIMESTAMP WITH TIMEZONE"
},
"DATA_SET" : [
{
"INTERFACE_ID" : "PowerSupplyFEInterface0",
"STATUS" : "On",
"DATA_PUBLISHER_PORT" : "60000",
"LINK_TO_POWER_SUPPLY_DEVICE_TABLE" : "PowerSupplyDeviceTable",
"LINK_TO_POWER_SUPPLY_DEVICE_UID" : "PowerSupplyFEInterface0",
"LINK_TO_POWER_SUPPLY_TO_DETECTOR_TABLE" : "PowerSupplyToDetectorTable",
"LINK_TO_POWER_SUPPLY_TO_DETECTOR_UID" : "PowerSupplyFEInterface0",
"COMMENT_DESCRIPTION" : "No Comment",
"AUTHOR" : "admin",
"RECORD_INSERTION_TIME" : "1600200428"
}
]
},
"metadata" : {

},
"search" : [

]
},
"comments" : [

],
"origin" : {
"source" : "template",
"name" : "notprovided",
"format" : "json",
"created" : "2020-09-15T15:07:08.287-0500",
"rawdata" : [

]
},
"version" : "5",
"entities" : [
{
"name" : "OTSROOT",
"assigned" : "2020-09-15T15:07:08.287-0500"
}
],
"configurations" : [
{
"name" : "notprovided",
"assigned" : "2020-09-15T15:07:08.287-0500"
},
{
"name" : "DefaultConfig_v21",
"assigned" : "2020-09-15T15:14:57.198-0500"
},
{
"name" : "DefaultConfig_v22",
"assigned" : "2020-09-15T15:18:54.299-0500"
},
{
"name" : "DefaultConfig_v23",
"assigned" : "2020-09-15T15:27:51.226-0500"
},
{
"name" : "DefaultConfig_v24",
"assigned" : "2020-09-15T15:52:12.716-0500"
},
{
"name" : "DefaultConfig_v25",
"assigned" : "2020-09-21T11:41:58.400-0500"
},
{
"name" : "DefaultConfig_v26",
"assigned" : "2020-09-21T11:54:29.121-0500"
},
{
"name" : "DefaultConfig_v27",
"assigned" : "2020-10-06T14:45:41.193-0500"
},
{
"name" : "DefaultConfig_v28",
"assigned" : "2020-10-06T15:04:19.724-0500"
},
{
"name" : "DefaultConfig_v29",
"assigned" : "2020-10-07T16:45:35.858-0500"
},
{
"name" : "DefaultConfig_v30",
"assigned" : "2020-10-07T17:03:30.007-0500"
},
{
"name" : "DefaultConfig_v31",
"assigned" : "2020-11-04T20:42:36.999-0600"
},
{
"name" : "DefaultConfig_v32",
"assigned" : "2020-11-11T11:26:54.587-0600"
},
{
"name" : "DefaultConfig_v33",
"assigned" : "2021-01-18T20:04:38.955-0600"
},
{
"name" : "DefaultConfig_v34",
"assigned" : "2021-01-18T20:05:19.412-0600"
}
],
"changelog" : "notprovided",
"bookkeeping" : {
"isdeleted" : false,
"isreadonly" : false,
"updates" : [
{
"event" : "addConfiguration",
"timestamp" : "2020-09-15T15:07:08.287-0500",
"value" : {
"name" : "notprovided",
"assigned" : "2020-09-15T15:07:08.287-0500"
}
},
{
"event" : "setVersion",
"timestamp" : "2020-09-15T15:07:08.287-0500",
"value" : {
"name" : "5",
"assigned" : "2020-09-15T15:07:08.287-0500"
}
},
{
"event" : "setCollection",
"timestamp" : "2020-09-15T15:07:08.287-0500",
"value" : {
"name" : "FEPowerSupplyInterfaceTable",
"assigned" : "2020-09-15T15:07:08.287-0500"
}
},
{
"event" : "addEntity",
"timestamp" : "2020-09-15T15:07:08.287-0500",
"value" : {
"name" : "OTSROOT",
"assigned" : "2020-09-15T15:07:08.287-0500"
}
},
{
"event" : "addConfiguration",
"timestamp" : "2020-09-15T15:14:57.198-0500",
"value" : {
"name" : "DefaultConfig_v21",
"assigned" : "2020-09-15T15:14:57.198-0500"
}
},
{
"event" : "addConfiguration",
"timestamp" : "2020-09-15T15:18:54.299-0500",
"value" : {
"name" : "DefaultConfig_v22",
"assigned" : "2020-09-15T15:18:54.299-0500"
}
},
{
"event" : "addConfiguration",
"timestamp" : "2020-09-15T15:27:51.226-0500",
"value" : {
"name" : "DefaultConfig_v23",
"assigned" : "2020-09-15T15:27:51.226-0500"
}
},
{
"event" : "addConfiguration",
"timestamp" : "2020-09-15T15:52:12.716-0500",
"value" : {
"name" : "DefaultConfig_v24",
"assigned" : "2020-09-15T15:52:12.716-0500"
}
},
{
"event" : "addConfiguration",
"timestamp" : "2020-09-21T11:41:58.400-0500",
"value" : {
"name" : "DefaultConfig_v25",
"assigned" : "2020-09-21T11:41:58.400-0500"
}
},
{
"event" : "addConfiguration",
"timestamp" : "2020-09-21T11:54:29.121-0500",
"value" : {
"name" : "DefaultConfig_v26",
"assigned" : "2020-09-21T11:54:29.121-0500"
}
},
{
"event" : "addConfiguration",
"timestamp" : "2020-10-06T14:45:41.193-0500",
"value" : {
"name" : "DefaultConfig_v27",
"assigned" : "2020-10-06T14:45:41.193-0500"
}
},
{
"event" : "addConfiguration",
"timestamp" : "2020-10-06T15:04:19.724-0500",
"value" : {
"name" : "DefaultConfig_v28",
"assigned" : "2020-10-06T15:04:19.724-0500"
}
},
{
"event" : "addConfiguration",
"timestamp" : "2020-10-07T16:45:35.858-0500",
"value" : {
"name" : "DefaultConfig_v29",
"assigned" : "2020-10-07T16:45:35.858-0500"
}
},
{
"event" : "addConfiguration",
"timestamp" : "2020-10-07T17:03:30.007-0500",
"value" : {
"name" : "DefaultConfig_v30",
"assigned" : "2020-10-07T17:03:30.007-0500"
}
},
{
"event" : "addConfiguration",
"timestamp" : "2020-11-04T20:42:36.999-0600",
"value" : {
"name" : "DefaultConfig_v31",
"assigned" : "2020-11-04T20:42:36.999-0600"
}
},
{
"event" : "addConfiguration",
"timestamp" : "2020-11-11T11:26:54.587-0600",
"value" : {
"name" : "DefaultConfig_v32",
"assigned" : "2020-11-11T11:26:54.587-0600"
}
},
{
"event" : "addConfiguration",
"timestamp" : "2021-01-18T20:04:38.955-0600",
"value" : {
"name" : "DefaultConfig_v33",
"assigned" : "2021-01-18T20:04:38.955-0600"
}
},
{
"event" : "addConfiguration",
"timestamp" : "2021-01-18T20:05:19.412-0600",
"value" : {
"name" : "DefaultConfig_v34",
"assigned" : "2021-01-18T20:05:19.412-0600"
}
}
],
"created" : "2020-09-15T15:07:08.287-0500"
},
"_id" : {
"$oid" : "a11ab68feb024cf8aa1c4982"
},
"collection" : "FEPowerSupplyInterfaceTable",
"aliases" : {
"active" : [

],
"history" : [

]
},
"runs" : [

],
"attachments" : [

],
"configtype" : "notprovided"
}