{
"document" : {
"data" : {
"NAME" : "FE_POWER_SUPPLY_INTERFACE_TABLE",
"COMMENT" : "No comment.",
"AUTHOR" : "admin",
"CREATION_TIME" : 1599147801,
"COL_TYPES" : {
"INTERFACE_ID" : "STRING",
"STATUS" : "STRING",
"DATA_PUBLISHER_PORT" : "NUMBER",
"LINK_TO_POWER_SUPPLY_DEVICE_TABLE" : "STRING",
"LINK_TO_POWER_SUPPLY_DEVICE_UID" : "STRING",
"COMMENT_DESCRIPTION" : "STRING",
"AUTHOR" : "STRING",
"RECORD_INSERTION_TIME" : "TIMESTAMP WITH TIMEZONE"
},
"DATA_SET" : [
{
"INTERFACE_ID" : "PowerSupplyFEInterface0",
"STATUS" : "On",
"DATA_PUBLISHER_PORT" : "60000",
"LINK_TO_POWER_SUPPLY_DEVICE_TABLE" : "CAENPowerSupplyDeviceTable",
"LINK_TO_POWER_SUPPLY_DEVICE_UID" : "CAENBurninBox",
"COMMENT_DESCRIPTION" : "No Comment",
"AUTHOR" : "admin",
"RECORD_INSERTION_TIME" : "1599147801"
}
]
},
"metadata" : {

},
"search" : [

]
},
"comments" : [

],
"origin" : {
"source" : "template",
"name" : "notprovided",
"format" : "json",
"created" : "2020-09-03T10:43:21.089-0500",
"rawdata" : [

]
},
"version" : "2",
"entities" : [
{
"name" : "OTSROOT",
"assigned" : "2020-09-03T10:43:21.090-0500"
}
],
"configurations" : [
{
"name" : "notprovided",
"assigned" : "2020-09-03T10:43:21.090-0500"
},
{
"name" : "DefaultConfig_v15",
"assigned" : "2020-09-03T10:43:22.399-0500"
},
{
"name" : "DefaultConfig_v16",
"assigned" : "2020-09-03T10:49:03.450-0500"
},
{
"name" : "DefaultConfig_v17",
"assigned" : "2020-09-08T17:07:21.717-0500"
},
{
"name" : "DefaultConfig_v18",
"assigned" : "2020-09-11T16:02:29.325-0500"
}
],
"changelog" : "notprovided",
"bookkeeping" : {
"isdeleted" : false,
"isreadonly" : false,
"updates" : [
{
"event" : "addConfiguration",
"timestamp" : "2020-09-03T10:43:21.090-0500",
"value" : {
"name" : "notprovided",
"assigned" : "2020-09-03T10:43:21.090-0500"
}
},
{
"event" : "setVersion",
"timestamp" : "2020-09-03T10:43:21.090-0500",
"value" : {
"name" : "2",
"assigned" : "2020-09-03T10:43:21.090-0500"
}
},
{
"event" : "setCollection",
"timestamp" : "2020-09-03T10:43:21.090-0500",
"value" : {
"name" : "FEPowerSupplyInterfaceTable",
"assigned" : "2020-09-03T10:43:21.090-0500"
}
},
{
"event" : "addEntity",
"timestamp" : "2020-09-03T10:43:21.090-0500",
"value" : {
"name" : "OTSROOT",
"assigned" : "2020-09-03T10:43:21.090-0500"
}
},
{
"event" : "addConfiguration",
"timestamp" : "2020-09-03T10:43:22.399-0500",
"value" : {
"name" : "DefaultConfig_v15",
"assigned" : "2020-09-03T10:43:22.399-0500"
}
},
{
"event" : "addConfiguration",
"timestamp" : "2020-09-03T10:49:03.450-0500",
"value" : {
"name" : "DefaultConfig_v16",
"assigned" : "2020-09-03T10:49:03.450-0500"
}
},
{
"event" : "addConfiguration",
"timestamp" : "2020-09-08T17:07:21.717-0500",
"value" : {
"name" : "DefaultConfig_v17",
"assigned" : "2020-09-08T17:07:21.717-0500"
}
},
{
"event" : "addConfiguration",
"timestamp" : "2020-09-11T16:02:29.325-0500",
"value" : {
"name" : "DefaultConfig_v18",
"assigned" : "2020-09-11T16:02:29.325-0500"
}
}
],
"created" : "2020-09-03T10:43:21.089-0500"
},
"_id" : {
"$oid" : "fef54f538b844bf681a5a44d"
},
"collection" : "FEPowerSupplyInterfaceTable",
"aliases" : {
"active" : [

],
"history" : [

]
},
"runs" : [

],
"attachments" : [

],
"configtype" : "notprovided"
}