{
"document" : {
"data" : {
"NAME" : "SLOW_CONTROLS_DASHBOARD_SUPERVISOR_TABLE",
"COMMENT" : "No comment.",
"AUTHOR" : "admin",
"CREATION_TIME" : 1619712256,
"COL_TYPES" : {
"SUPERVISOR_UID" : "STRING",
"SLOW_CONTROLS_INTERFACE_PLUGIN_TYPE" : "STRING",
"SLOW_CONTROLS_CHANNEL_SOURCE_TABLE_LIST" : "STRING",
"LINK_TO_CONFIGURE_ALARMS_TO_MONITOR_TABLE" : "STRING",
"LINK_TO_CONFIGURE_ALARMS_TO_MONITOR_GROUP_ID" : "STRING",
"LINK_TO_HALT_ALARMS_TO_MONITOR_TABLE" : "STRING",
"LINK_TO_HALT_ALARMS_TO_MONITOR_GROUP_ID" : "STRING",
"LINK_TO_PAUSE_ALARMS_TO_MONITOR_TABLE" : "STRING",
"LINK_TO_PAUSE_ALARMS_TO_MONITOR_GROUP_ID" : "STRING",
"LINK_TO_RESUME_ALARMS_TO_MONITOR_TABLE" : "STRING",
"LINK_TO_RESUME_ALARMS_TO_MONITOR_GROUP_ID" : "STRING",
"LINK_TO_START_ALARMS_TO_MONITOR_TABLE" : "STRING",
"LINK_TO_START_ALARMS_TO_MONITOR_GROUP_ID" : "STRING",
"LINK_TO_STOP_ALARMS_TO_MONITOR_TABLE" : "STRING",
"LINK_TO_STOP_ALARMS_TO_MONITOR_GROUP_ID" : "STRING",
"LINK_TO_RUNNING_ALARMS_TO_MONITOR_TABLE" : "STRING",
"LINK_TO_RUNNING_ALARMS_TO_MONITOR_GROUP_ID" : "STRING",
"LINK_TO_ALARM_ALERT_NOTIFICATIONS_TABLE" : "STRING",
"LINK_TO_ALARM_ALERT_NOTIFICATIONS_GROUP_ID" : "STRING",
"COMMENT_DESCRIPTION" : "STRING",
"AUTHOR" : "STRING",
"RECORD_INSERTION_TIME" : "TIMESTAMP WITH TIMEZONE"
},
"DATA_SET" : [
{
"SUPERVISOR_UID" : "DEFAULT",
"SLOW_CONTROLS_INTERFACE_PLUGIN_TYPE" : "DEFAULT",
"SLOW_CONTROLS_CHANNEL_SOURCE_TABLE_LIST" : "DEFAULT",
"LINK_TO_CONFIGURE_ALARMS_TO_MONITOR_TABLE" : "NO_LINK",
"LINK_TO_CONFIGURE_ALARMS_TO_MONITOR_GROUP_ID" : "DEFAULT",
"LINK_TO_HALT_ALARMS_TO_MONITOR_TABLE" : "NO_LINK",
"LINK_TO_HALT_ALARMS_TO_MONITOR_GROUP_ID" : "DEFAULT",
"LINK_TO_PAUSE_ALARMS_TO_MONITOR_TABLE" : "NO_LINK",
"LINK_TO_PAUSE_ALARMS_TO_MONITOR_GROUP_ID" : "DEFAULT",
"LINK_TO_RESUME_ALARMS_TO_MONITOR_TABLE" : "NO_LINK",
"LINK_TO_RESUME_ALARMS_TO_MONITOR_GROUP_ID" : "DEFAULT",
"LINK_TO_START_ALARMS_TO_MONITOR_TABLE" : "NO_LINK",
"LINK_TO_START_ALARMS_TO_MONITOR_GROUP_ID" : "DEFAULT",
"LINK_TO_STOP_ALARMS_TO_MONITOR_TABLE" : "NO_LINK",
"LINK_TO_STOP_ALARMS_TO_MONITOR_GROUP_ID" : "DEFAULT",
"LINK_TO_RUNNING_ALARMS_TO_MONITOR_TABLE" : "NO_LINK",
"LINK_TO_RUNNING_ALARMS_TO_MONITOR_GROUP_ID" : "DEFAULT",
"LINK_TO_ALARM_ALERT_NOTIFICATIONS_TABLE" : "NO_LINK",
"LINK_TO_ALARM_ALERT_NOTIFICATIONS_GROUP_ID" : "DEFAULT",
"COMMENT_DESCRIPTION" : "No Comment",
"AUTHOR" : "admin",
"RECORD_INSERTION_TIME" : "1619712256"
}
]
},
"metadata" : {

},
"search" : [

]
},
"comments" : [

],
"origin" : {
"source" : "template",
"name" : "notprovided",
"format" : "json",
"created" : "2021-04-29T11:04:16.075-0500",
"rawdata" : [

]
},
"version" : "0",
"entities" : [
{
"name" : "OTSROOT",
"assigned" : "2021-04-29T11:04:16.076-0500"
}
],
"configurations" : [
{
"name" : "notprovided",
"assigned" : "2021-04-29T11:04:16.075-0500"
},
{
"name" : "DefaultContext_v16",
"assigned" : "2021-04-29T11:04:33.115-0500"
},
{
"name" : "DefaultContext_v17",
"assigned" : "2021-04-29T12:14:45.768-0500"
},
{
"name" : "DefaultContext_v18",
"assigned" : "2021-04-29T12:25:33.265-0500"
},
{
"name" : "DefaultContext_v19",
"assigned" : "2021-04-29T12:25:52.741-0500"
},
{
"name" : "DefaultContext_v20",
"assigned" : "2021-04-29T12:40:04.021-0500"
},
{
"name" : "DefaultContext_v21",
"assigned" : "2021-04-29T13:20:40.242-0500"
},
{
"name" : "DefaultContext_v22",
"assigned" : "2021-05-10T11:39:30.104-0500"
},
{
"name" : "DefaultContext_v23",
"assigned" : "2021-05-12T15:51:58.235-0500"
},
{
"name" : "DefaultContext_v24",
"assigned" : "2021-05-14T15:34:25.986-0500"
},
{
"name" : "DefaultContext_v25",
"assigned" : "2021-05-14T16:41:02.661-0500"
},
{
"name" : "DefaultContext_v26",
"assigned" : "2021-05-25T12:01:04.841-0500"
},
{
"name" : "DefaultContext_v27",
"assigned" : "2021-05-25T12:57:26.433-0500"
},
{
"name" : "DefaultContext_v28",
"assigned" : "2021-05-25T13:06:03.303-0500"
},
{
"name" : "DefaultContext_v29",
"assigned" : "2021-05-25T13:51:13.226-0500"
}
],
"changelog" : "notprovided",
"bookkeeping" : {
"isdeleted" : false,
"isreadonly" : false,
"updates" : [
{
"event" : "addConfiguration",
"timestamp" : "2021-04-29T11:04:16.075-0500",
"value" : {
"name" : "notprovided",
"assigned" : "2021-04-29T11:04:16.075-0500"
}
},
{
"event" : "setVersion",
"timestamp" : "2021-04-29T11:04:16.076-0500",
"value" : {
"name" : "0",
"assigned" : "2021-04-29T11:04:16.076-0500"
}
},
{
"event" : "setCollection",
"timestamp" : "2021-04-29T11:04:16.076-0500",
"value" : {
"name" : "SlowControlsDashboardSupervisorTable",
"assigned" : "2021-04-29T11:04:16.076-0500"
}
},
{
"event" : "addEntity",
"timestamp" : "2021-04-29T11:04:16.076-0500",
"value" : {
"name" : "OTSROOT",
"assigned" : "2021-04-29T11:04:16.076-0500"
}
},
{
"event" : "addConfiguration",
"timestamp" : "2021-04-29T11:04:33.115-0500",
"value" : {
"name" : "DefaultContext_v16",
"assigned" : "2021-04-29T11:04:33.115-0500"
}
},
{
"event" : "addConfiguration",
"timestamp" : "2021-04-29T12:14:45.768-0500",
"value" : {
"name" : "DefaultContext_v17",
"assigned" : "2021-04-29T12:14:45.768-0500"
}
},
{
"event" : "addConfiguration",
"timestamp" : "2021-04-29T12:25:33.265-0500",
"value" : {
"name" : "DefaultContext_v18",
"assigned" : "2021-04-29T12:25:33.265-0500"
}
},
{
"event" : "addConfiguration",
"timestamp" : "2021-04-29T12:25:52.741-0500",
"value" : {
"name" : "DefaultContext_v19",
"assigned" : "2021-04-29T12:25:52.741-0500"
}
},
{
"event" : "addConfiguration",
"timestamp" : "2021-04-29T12:40:04.021-0500",
"value" : {
"name" : "DefaultContext_v20",
"assigned" : "2021-04-29T12:40:04.021-0500"
}
},
{
"event" : "addConfiguration",
"timestamp" : "2021-04-29T13:20:40.242-0500",
"value" : {
"name" : "DefaultContext_v21",
"assigned" : "2021-04-29T13:20:40.242-0500"
}
},
{
"event" : "addConfiguration",
"timestamp" : "2021-05-10T11:39:30.104-0500",
"value" : {
"name" : "DefaultContext_v22",
"assigned" : "2021-05-10T11:39:30.104-0500"
}
},
{
"event" : "addConfiguration",
"timestamp" : "2021-05-12T15:51:58.235-0500",
"value" : {
"name" : "DefaultContext_v23",
"assigned" : "2021-05-12T15:51:58.235-0500"
}
},
{
"event" : "addConfiguration",
"timestamp" : "2021-05-14T15:34:25.986-0500",
"value" : {
"name" : "DefaultContext_v24",
"assigned" : "2021-05-14T15:34:25.986-0500"
}
},
{
"event" : "addConfiguration",
"timestamp" : "2021-05-14T16:41:02.661-0500",
"value" : {
"name" : "DefaultContext_v25",
"assigned" : "2021-05-14T16:41:02.661-0500"
}
},
{
"event" : "addConfiguration",
"timestamp" : "2021-05-25T12:01:04.841-0500",
"value" : {
"name" : "DefaultContext_v26",
"assigned" : "2021-05-25T12:01:04.841-0500"
}
},
{
"event" : "addConfiguration",
"timestamp" : "2021-05-25T12:57:26.433-0500",
"value" : {
"name" : "DefaultContext_v27",
"assigned" : "2021-05-25T12:57:26.433-0500"
}
},
{
"event" : "addConfiguration",
"timestamp" : "2021-05-25T13:06:03.303-0500",
"value" : {
"name" : "DefaultContext_v28",
"assigned" : "2021-05-25T13:06:03.303-0500"
}
},
{
"event" : "addConfiguration",
"timestamp" : "2021-05-25T13:51:13.226-0500",
"value" : {
"name" : "DefaultContext_v29",
"assigned" : "2021-05-25T13:51:13.226-0500"
}
}
],
"created" : "2021-04-29T11:04:16.075-0500"
},
"_id" : {
"$oid" : "267b26cc80ff47d1a1e15ed4"
},
"collection" : "SlowControlsDashboardSupervisorTable",
"aliases" : {
"active" : [

],
"history" : [

]
},
"runs" : [

],
"attachments" : [

],
"configtype" : "notprovided"
}