{
"ouid" : [
"7a445c554e9f4cdfb7c6cb9e"
],
"version" : {
"1" : [
"7a445c554e9f4cdfb7c6cb9e"
]
},
"configurations.name" : {
"notprovided" : [
"7a445c554e9f4cdfb7c6cb9e"
],
"DefaultConfig_v1" : [
"7a445c554e9f4cdfb7c6cb9e"
],
"DefaultConfig_v2" : [
"7a445c554e9f4cdfb7c6cb9e"
],
"DefaultConfig_v3" : [
"7a445c554e9f4cdfb7c6cb9e"
],
"DefaultConfig_v4" : [
"7a445c554e9f4cdfb7c6cb9e"
],
"DefaultConfig_v5" : [
"7a445c554e9f4cdfb7c6cb9e"
],
"DefaultConfig_v6" : [
"7a445c554e9f4cdfb7c6cb9e"
],
"DefaultConfig_v7" : [
"7a445c554e9f4cdfb7c6cb9e"
],
"DefaultConfig_v8" : [
"7a445c554e9f4cdfb7c6cb9e"
],
"DefaultConfig_v9" : [
"7a445c554e9f4cdfb7c6cb9e"
],
"DefaultConfig_v10" : [
"7a445c554e9f4cdfb7c6cb9e"
],
"DefaultConfig_v11" : [
"7a445c554e9f4cdfb7c6cb9e"
],
"DefaultConfig_v12" : [
"7a445c554e9f4cdfb7c6cb9e"
],
"DefaultConfig_v13" : [
"7a445c554e9f4cdfb7c6cb9e"
],
"DefaultConfig_v14" : [
"7a445c554e9f4cdfb7c6cb9e"
],
"DefaultConfig_v15" : [
"7a445c554e9f4cdfb7c6cb9e"
],
"DefaultConfig_v16" : [
"7a445c554e9f4cdfb7c6cb9e"
],
"DefaultConfig_v17" : [
"7a445c554e9f4cdfb7c6cb9e"
],
"DefaultConfig_v18" : [
"7a445c554e9f4cdfb7c6cb9e"
],
"DefaultConfig_v19" : [
"7a445c554e9f4cdfb7c6cb9e"
],
"DefaultConfig_v20" : [
"7a445c554e9f4cdfb7c6cb9e"
],
"DefaultConfig_v21" : [
"7a445c554e9f4cdfb7c6cb9e"
],
"DefaultConfig_v22" : [
"7a445c554e9f4cdfb7c6cb9e"
],
"DefaultConfig_v23" : [
"7a445c554e9f4cdfb7c6cb9e"
],
"DefaultConfig_v24" : [
"7a445c554e9f4cdfb7c6cb9e"
],
"DefaultConfig_v25" : [
"7a445c554e9f4cdfb7c6cb9e"
],
"DefaultConfig_v26" : [
"7a445c554e9f4cdfb7c6cb9e"
],
"DefaultConfig_v27" : [
"7a445c554e9f4cdfb7c6cb9e"
],
"DefaultConfig_v28" : [
"7a445c554e9f4cdfb7c6cb9e"
],
"DefaultConfig_v29" : [
"7a445c554e9f4cdfb7c6cb9e"
],
"DefaultConfig_v30" : [
"7a445c554e9f4cdfb7c6cb9e"
],
"DefaultConfig_v31" : [
"7a445c554e9f4cdfb7c6cb9e"
],
"DefaultConfig_v32" : [
"7a445c554e9f4cdfb7c6cb9e"
],
"DefaultConfig_v33" : [
"7a445c554e9f4cdfb7c6cb9e"
],
"DefaultConfig_v34" : [
"7a445c554e9f4cdfb7c6cb9e"
]
},
"entities.name" : {
"OTSROOT" : [
"7a445c554e9f4cdfb7c6cb9e"
]
},
"aliases.active.name" : {

},
"runs.name" : {

},
"configurations.assigned" : {
"notprovided" : [
"2020-07-21T14:27:46.176-0500"
],
"DefaultConfig_v1" : [
"2020-07-21T14:27:46.740-0500"
],
"DefaultConfig_v2" : [
"2020-07-21T14:44:16.369-0500"
],
"DefaultConfig_v3" : [
"2020-07-21T14:57:50.244-0500"
],
"DefaultConfig_v4" : [
"2020-07-28T10:52:34.144-0500"
],
"DefaultConfig_v5" : [
"2020-08-24T11:59:56.685-0500"
],
"DefaultConfig_v6" : [
"2020-08-24T16:05:13.244-0500"
],
"DefaultConfig_v7" : [
"2020-08-26T10:33:56.630-0500"
],
"DefaultConfig_v8" : [
"2020-08-26T10:45:54.387-0500"
],
"DefaultConfig_v9" : [
"2020-08-26T14:49:52.572-0500"
],
"DefaultConfig_v10" : [
"2020-08-26T14:52:00.192-0500"
],
"DefaultConfig_v11" : [
"2020-08-26T15:00:03.657-0500"
],
"DefaultConfig_v12" : [
"2020-08-26T16:18:15.403-0500"
],
"DefaultConfig_v13" : [
"2020-08-28T21:40:22.747-0500"
],
"DefaultConfig_v14" : [
"2020-08-31T15:19:58.684-0500"
],
"DefaultConfig_v15" : [
"2020-09-03T10:43:22.141-0500"
],
"DefaultConfig_v16" : [
"2020-09-03T10:49:03.219-0500"
],
"DefaultConfig_v17" : [
"2020-09-08T17:07:21.420-0500"
],
"DefaultConfig_v18" : [
"2020-09-11T16:02:29.101-0500"
],
"DefaultConfig_v19" : [
"2020-09-14T17:47:19.267-0500"
],
"DefaultConfig_v20" : [
"2020-09-14T18:00:23.518-0500"
],
"DefaultConfig_v21" : [
"2020-09-15T15:14:56.963-0500"
],
"DefaultConfig_v22" : [
"2020-09-15T15:18:54.062-0500"
],
"DefaultConfig_v23" : [
"2020-09-15T15:27:50.967-0500"
],
"DefaultConfig_v24" : [
"2020-09-15T15:52:12.479-0500"
],
"DefaultConfig_v25" : [
"2020-09-21T11:41:58.144-0500"
],
"DefaultConfig_v26" : [
"2020-09-21T11:54:28.885-0500"
],
"DefaultConfig_v27" : [
"2020-10-06T14:45:40.948-0500"
],
"DefaultConfig_v28" : [
"2020-10-06T15:04:19.482-0500"
],
"DefaultConfig_v29" : [
"2020-10-07T16:45:35.600-0500"
],
"DefaultConfig_v30" : [
"2020-10-07T17:03:29.757-0500"
],
"DefaultConfig_v31" : [
"2020-11-04T20:42:36.729-0600"
],
"DefaultConfig_v32" : [
"2020-11-11T11:26:54.312-0600"
],
"DefaultConfig_v33" : [
"2021-01-18T20:04:38.676-0600"
],
"DefaultConfig_v34" : [
"2021-01-18T20:05:19.130-0600"
]
}
}