{
"ouid" : [
"9949c43429d14188971a8514"
],
"version" : {
"0" : [
"9949c43429d14188971a8514"
]
},
"configurations.name" : {
"notprovided" : [
"9949c43429d14188971a8514"
],
"FTBFConfig_v0" : [
"9949c43429d14188971a8514"
],
"FTBFConfig_v1" : [
"9949c43429d14188971a8514"
],
"FTBFConfig_v2" : [
"9949c43429d14188971a8514"
],
"FTBFConfig_v3" : [
"9949c43429d14188971a8514"
],
"FTBFConfig_v4" : [
"9949c43429d14188971a8514"
],
"FTBFConfig_v5" : [
"9949c43429d14188971a8514"
],
"FTBFConfig_v6" : [
"9949c43429d14188971a8514"
],
"FTBFConfig_v7" : [
"9949c43429d14188971a8514"
],
"FTBFConfig_v8" : [
"9949c43429d14188971a8514"
],
"FTBFConfig_v9" : [
"9949c43429d14188971a8514"
],
"FTBFConfig_v10" : [
"9949c43429d14188971a8514"
],
"FTBFConfig_v11" : [
"9949c43429d14188971a8514"
],
"FTBFConfig_v12" : [
"9949c43429d14188971a8514"
],
"FTBFConfig_v13" : [
"9949c43429d14188971a8514"
],
"FTBFConfig_v14" : [
"9949c43429d14188971a8514"
],
"FTBFConfig_v15" : [
"9949c43429d14188971a8514"
],
"FTBFConfig_v16" : [
"9949c43429d14188971a8514"
],
"FTBFConfig_v17" : [
"9949c43429d14188971a8514"
],
"FTBFConfig_v18" : [
"9949c43429d14188971a8514"
],
"FTBFConfig_v19" : [
"9949c43429d14188971a8514"
],
"FTBFConfig_v20" : [
"9949c43429d14188971a8514"
],
"FTBFConfig_v21" : [
"9949c43429d14188971a8514"
],
"FTBFConfig_v22" : [
"9949c43429d14188971a8514"
],
"FTBFConfig_v23" : [
"9949c43429d14188971a8514"
],
"FTBFConfig_v24" : [
"9949c43429d14188971a8514"
],
"FTBFConfig_v25" : [
"9949c43429d14188971a8514"
],
"FTBFConfig_v26" : [
"9949c43429d14188971a8514"
],
"FTBFConfig_v27" : [
"9949c43429d14188971a8514"
],
"FTBFConfig_v28" : [
"9949c43429d14188971a8514"
],
"FTBFConfig_v29" : [
"9949c43429d14188971a8514"
],
"FTBFConfig_v30" : [
"9949c43429d14188971a8514"
],
"FTBFConfig_v31" : [
"9949c43429d14188971a8514"
],
"FTBFConfig_v32" : [
"9949c43429d14188971a8514"
],
"FTBFConfig_v33" : [
"9949c43429d14188971a8514"
],
"FTBFConfig_v34" : [
"9949c43429d14188971a8514"
],
"FTBFConfig_v35" : [
"9949c43429d14188971a8514"
],
"FTBFConfig_v36" : [
"9949c43429d14188971a8514"
],
"FTBFConfig_v37" : [
"9949c43429d14188971a8514"
],
"FTBFConfig_v38" : [
"9949c43429d14188971a8514"
],
"FTBFConfig_v39" : [
"9949c43429d14188971a8514"
],
"FTBFConfig_v40" : [
"9949c43429d14188971a8514"
],
"FTBFConfig_v41" : [
"9949c43429d14188971a8514"
],
"FTBFConfig_v42" : [
"9949c43429d14188971a8514"
],
"FTBFConfig_v43" : [
"9949c43429d14188971a8514"
],
"FTBFConfig_v44" : [
"9949c43429d14188971a8514"
],
"FTBFConfig_v45" : [
"9949c43429d14188971a8514"
],
"FTBFConfig_v46" : [
"9949c43429d14188971a8514"
],
"FTBFConfig_v47" : [
"9949c43429d14188971a8514"
],
"FTBFConfig_v48" : [
"9949c43429d14188971a8514"
],
"FTBFConfig_v49" : [
"9949c43429d14188971a8514"
],
"FTBFConfig_v50" : [
"9949c43429d14188971a8514"
],
"FTBFConfig_v51" : [
"9949c43429d14188971a8514"
],
"FTBFConfig_v52" : [
"9949c43429d14188971a8514"
],
"FTBFConfig_v53" : [
"9949c43429d14188971a8514"
],
"FTBFConfig_v54" : [
"9949c43429d14188971a8514"
],
"FTBFConfig_v55" : [
"9949c43429d14188971a8514"
],
"FTBFConfig_v56" : [
"9949c43429d14188971a8514"
],
"FTBFConfig_v57" : [
"9949c43429d14188971a8514"
],
"FTBFConfig_v58" : [
"9949c43429d14188971a8514"
],
"FTBFConfig_v59" : [
"9949c43429d14188971a8514"
],
"FTBFConfig_v60" : [
"9949c43429d14188971a8514"
],
"FTBFConfig_v61" : [
"9949c43429d14188971a8514"
],
"FTBFConfig_v62" : [
"9949c43429d14188971a8514"
],
"FTBFConfig_v63" : [
"9949c43429d14188971a8514"
],
"FTBFConfig_v64" : [
"9949c43429d14188971a8514"
],
"FTBFConfig_v65" : [
"9949c43429d14188971a8514"
],
"FTBFConfig_v66" : [
"9949c43429d14188971a8514"
],
"FTBFConfig_v67" : [
"9949c43429d14188971a8514"
],
"FTBFConfig_v68" : [
"9949c43429d14188971a8514"
],
"FTBFConfig_v69" : [
"9949c43429d14188971a8514"
],
"FTBFConfig_v70" : [
"9949c43429d14188971a8514"
],
"FTBFConfigNim_v0" : [
"9949c43429d14188971a8514"
],
"FTBFConfigNim_v1" : [
"9949c43429d14188971a8514"
],
"FTBFConfigNim_v2" : [
"9949c43429d14188971a8514"
],
"FTBFConfigNim_v3" : [
"9949c43429d14188971a8514"
],
"FTBFConfigNim_v4" : [
"9949c43429d14188971a8514"
],
"FTBFConfigNim_v5" : [
"9949c43429d14188971a8514"
],
"FTBFConfigNim_v6" : [
"9949c43429d14188971a8514"
],
"FTBFConfigNim_v7" : [
"9949c43429d14188971a8514"
],
"FTBFConfigNim_v8" : [
"9949c43429d14188971a8514"
],
"FTBFConfigNim_v9" : [
"9949c43429d14188971a8514"
],
"FTBFConfigNim_v10" : [
"9949c43429d14188971a8514"
],
"FTBFConfigNim_v11" : [
"9949c43429d14188971a8514"
],
"FTBFConfigNim_v12" : [
"9949c43429d14188971a8514"
],
"FTBFConfigNim_v13" : [
"9949c43429d14188971a8514"
],
"FTBFConfigNim_v14" : [
"9949c43429d14188971a8514"
],
"FTBFConfigNim_v15" : [
"9949c43429d14188971a8514"
],
"FTBFConfigNim_v16" : [
"9949c43429d14188971a8514"
],
"FTBFConfigNim_v17" : [
"9949c43429d14188971a8514"
],
"FTBFConfigNim_v18" : [
"9949c43429d14188971a8514"
],
"FTBFConfigNim_v19" : [
"9949c43429d14188971a8514"
],
"FTBFConfigNim_v20" : [
"9949c43429d14188971a8514"
],
"FTBFConfigNim_v21" : [
"9949c43429d14188971a8514"
],
"FTBFConfigNim_v22" : [
"9949c43429d14188971a8514"
],
"FTBFConfigNim_v23" : [
"9949c43429d14188971a8514"
],
"FTBFConfigNim_v24" : [
"9949c43429d14188971a8514"
],
"FTBFConfigNim_v25" : [
"9949c43429d14188971a8514"
],
"FTBFConfigNim_v26" : [
"9949c43429d14188971a8514"
],
"FTBFConfigNim_v27" : [
"9949c43429d14188971a8514"
],
"FTBFConfigNim_v28" : [
"9949c43429d14188971a8514"
],
"FTBFConfigNim_v29" : [
"9949c43429d14188971a8514"
],
"FTBFConfig_v71" : [
"9949c43429d14188971a8514"
],
"FTBFConfig_v72" : [
"9949c43429d14188971a8514"
],
"FTBFConfig_v73" : [
"9949c43429d14188971a8514"
],
"FTBFConfig_v74" : [
"9949c43429d14188971a8514"
],
"FTBFConfig_v75" : [
"9949c43429d14188971a8514"
],
"FTBFConfig_v76" : [
"9949c43429d14188971a8514"
],
"FTBFConfig_v77" : [
"9949c43429d14188971a8514"
],
"FTBFConfig_v78" : [
"9949c43429d14188971a8514"
],
"FTBFConfig_v79" : [
"9949c43429d14188971a8514"
],
"FTBFConfig_v80" : [
"9949c43429d14188971a8514"
],
"FTBFConfig_v81" : [
"9949c43429d14188971a8514"
],
"FTBFConfig_v82" : [
"9949c43429d14188971a8514"
],
"FTBFConfig_v83" : [
"9949c43429d14188971a8514"
],
"FTBFConfig_v84" : [
"9949c43429d14188971a8514"
],
"FTBFConfig_v85" : [
"9949c43429d14188971a8514"
],
"FTBFConfig_v86" : [
"9949c43429d14188971a8514"
],
"FTBFConfig_v87" : [
"9949c43429d14188971a8514"
],
"FTBFConfig_v88" : [
"9949c43429d14188971a8514"
],
"FTBFConfig_v89" : [
"9949c43429d14188971a8514"
],
"FTBFConfig_v90" : [
"9949c43429d14188971a8514"
],
"FTBFConfig_v91" : [
"9949c43429d14188971a8514"
],
"FTBFConfig_v92" : [
"9949c43429d14188971a8514"
],
"FTBFConfig_v93" : [
"9949c43429d14188971a8514"
],
"FTBFConfig_v94" : [
"9949c43429d14188971a8514"
],
"FTBFConfig_v95" : [
"9949c43429d14188971a8514"
],
"FTBFConfig_v96" : [
"9949c43429d14188971a8514"
],
"FTBFConfig_v97" : [
"9949c43429d14188971a8514"
],
"FTBFConfig_v98" : [
"9949c43429d14188971a8514"
],
"FTBFConfig_v99" : [
"9949c43429d14188971a8514"
],
"FTBFConfig_v100" : [
"9949c43429d14188971a8514"
],
"FTBFConfig_v101" : [
"9949c43429d14188971a8514"
],
"FTBFConfig_v102" : [
"9949c43429d14188971a8514"
],
"FTBFConfig_v103" : [
"9949c43429d14188971a8514"
],
"FTBFConfig_v104" : [
"9949c43429d14188971a8514"
],
"FTBFConfig_v105" : [
"9949c43429d14188971a8514"
],
"FTBFConfig_v106" : [
"9949c43429d14188971a8514"
],
"FTBFConfig_v107" : [
"9949c43429d14188971a8514"
],
"FTBFConfig_v108" : [
"9949c43429d14188971a8514"
],
"FTBFConfig_v109" : [
"9949c43429d14188971a8514"
],
"FTBFConfig_v110" : [
"9949c43429d14188971a8514"
],
"FTBFConfig_v111" : [
"9949c43429d14188971a8514"
],
"FTBFConfig_v112" : [
"9949c43429d14188971a8514"
],
"FTBFConfig_v113" : [
"9949c43429d14188971a8514"
],
"FTBFConfig_v114" : [
"9949c43429d14188971a8514"
],
"FTBFConfig_v115" : [
"9949c43429d14188971a8514"
],
"FTBFConfig_v116" : [
"9949c43429d14188971a8514"
],
"FTBFConfig_v117" : [
"9949c43429d14188971a8514"
],
"FTBFConfig_v118" : [
"9949c43429d14188971a8514"
],
"FTBFConfig_v119" : [
"9949c43429d14188971a8514"
],
"FTBFConfig_v120" : [
"9949c43429d14188971a8514"
],
"FTBFConfig_v121" : [
"9949c43429d14188971a8514"
],
"FTBFConfig_v122" : [
"9949c43429d14188971a8514"
],
"FTBFConfig_v123" : [
"9949c43429d14188971a8514"
],
"FTBFConfig_v124" : [
"9949c43429d14188971a8514"
],
"FTBFConfig_v125" : [
"9949c43429d14188971a8514"
],
"FTBFConfig_v126" : [
"9949c43429d14188971a8514"
],
"FTBFConfig_v127" : [
"9949c43429d14188971a8514"
],
"FTBFConfig_v128" : [
"9949c43429d14188971a8514"
],
"FTBFConfig_v129" : [
"9949c43429d14188971a8514"
],
"FTBFConfig_v130" : [
"9949c43429d14188971a8514"
],
"FTBFConfig_v131" : [
"9949c43429d14188971a8514"
],
"FTBFConfig_v132" : [
"9949c43429d14188971a8514"
],
"FTBFConfig_v133" : [
"9949c43429d14188971a8514"
],
"FTBFConfig_v134" : [
"9949c43429d14188971a8514"
],
"FTBFConfig_v135" : [
"9949c43429d14188971a8514"
],
"FTBFConfig_v136" : [
"9949c43429d14188971a8514"
],
"FTBFConfig_v137" : [
"9949c43429d14188971a8514"
],
"FTBFConfig_v138" : [
"9949c43429d14188971a8514"
],
"FTBFConfig_v139" : [
"9949c43429d14188971a8514"
],
"FTBFConfig_v140" : [
"9949c43429d14188971a8514"
],
"FTBFConfig_v141" : [
"9949c43429d14188971a8514"
],
"FTBFConfig_v142" : [
"9949c43429d14188971a8514"
]
},
"entities.name" : {
"OTSROOT" : [
"9949c43429d14188971a8514"
]
},
"aliases.active.name" : {

},
"runs.name" : {

},
"configurations.assigned" : {
"notprovided" : [
"2017-11-08T15:56:02.289-0600"
],
"FTBFConfig_v0" : [
"2017-11-08T15:56:04.843-0600"
],
"FTBFConfig_v1" : [
"2017-11-09T09:56:29.216-0600"
],
"FTBFConfig_v2" : [
"2017-11-09T10:05:58.152-0600"
],
"FTBFConfig_v3" : [
"2017-11-09T10:37:09.715-0600"
],
"FTBFConfig_v4" : [
"2017-11-15T11:30:08.441-0600"
],
"FTBFConfig_v5" : [
"2017-11-15T11:54:55.183-0600"
],
"FTBFConfig_v6" : [
"2017-11-15T11:57:47.779-0600"
],
"FTBFConfig_v7" : [
"2017-11-15T12:42:30.207-0600"
],
"FTBFConfig_v8" : [
"2017-11-15T13:01:01.145-0600"
],
"FTBFConfig_v9" : [
"2017-11-15T13:02:54.519-0600"
],
"FTBFConfig_v10" : [
"2017-11-15T13:04:22.106-0600"
],
"FTBFConfig_v11" : [
"2017-11-15T13:07:49.583-0600"
],
"FTBFConfig_v12" : [
"2017-11-15T13:11:57.016-0600"
],
"FTBFConfig_v13" : [
"2017-11-15T13:13:50.965-0600"
],
"FTBFConfig_v14" : [
"2017-11-15T13:27:23.027-0600"
],
"FTBFConfig_v15" : [
"2017-11-15T13:35:44.910-0600"
],
"FTBFConfig_v16" : [
"2017-11-15T13:36:49.534-0600"
],
"FTBFConfig_v17" : [
"2017-11-15T15:33:28.066-0600"
],
"FTBFConfig_v18" : [
"2017-11-15T15:35:31.574-0600"
],
"FTBFConfig_v19" : [
"2017-11-15T15:38:00.480-0600"
],
"FTBFConfig_v20" : [
"2017-11-15T16:26:28.078-0600"
],
"FTBFConfig_v21" : [
"2017-11-16T09:22:29.271-0600"
],
"FTBFConfig_v22" : [
"2017-11-17T10:23:25.445-0600"
],
"FTBFConfig_v23" : [
"2017-11-17T17:26:42.917-0600"
],
"FTBFConfig_v24" : [
"2017-11-17T17:58:23.349-0600"
],
"FTBFConfig_v25" : [
"2017-11-17T18:24:43.026-0600"
],
"FTBFConfig_v26" : [
"2017-11-17T18:32:19.687-0600"
],
"FTBFConfig_v27" : [
"2017-11-17T18:43:26.761-0600"
],
"FTBFConfig_v28" : [
"2017-11-17T18:48:28.798-0600"
],
"FTBFConfig_v29" : [
"2017-11-20T14:48:28.243-0600"
],
"FTBFConfig_v30" : [
"2017-11-20T15:39:53.508-0600"
],
"FTBFConfig_v31" : [
"2017-11-20T16:40:59.475-0600"
],
"FTBFConfig_v32" : [
"2017-11-20T18:55:32.252-0600"
],
"FTBFConfig_v33" : [
"2017-11-20T18:57:27.524-0600"
],
"FTBFConfig_v34" : [
"2017-11-29T17:50:37.009-0600"
],
"FTBFConfig_v35" : [
"2017-11-29T18:00:29.880-0600"
],
"FTBFConfig_v36" : [
"2017-11-29T18:35:08.748-0600"
],
"FTBFConfig_v37" : [
"2017-12-01T09:36:14.895-0600"
],
"FTBFConfig_v38" : [
"2017-12-01T09:51:58.219-0600"
],
"FTBFConfig_v39" : [
"2017-12-01T11:51:55.466-0600"
],
"FTBFConfig_v40" : [
"2017-12-01T12:18:17.349-0600"
],
"FTBFConfig_v41" : [
"2017-12-01T12:20:59.524-0600"
],
"FTBFConfig_v42" : [
"2017-12-01T12:43:18.562-0600"
],
"FTBFConfig_v43" : [
"2017-12-01T12:57:55.406-0600"
],
"FTBFConfig_v44" : [
"2017-12-01T13:00:47.829-0600"
],
"FTBFConfig_v45" : [
"2017-12-01T13:25:45.469-0600"
],
"FTBFConfig_v46" : [
"2017-12-01T13:35:40.298-0600"
],
"FTBFConfig_v47" : [
"2017-12-01T14:00:48.722-0600"
],
"FTBFConfig_v48" : [
"2017-12-01T14:03:55.985-0600"
],
"FTBFConfig_v49" : [
"2017-12-01T15:31:56.113-0600"
],
"FTBFConfig_v50" : [
"2017-12-01T15:34:08.022-0600"
],
"FTBFConfig_v51" : [
"2017-12-01T15:36:17.570-0600"
],
"FTBFConfig_v52" : [
"2017-12-01T15:37:26.583-0600"
],
"FTBFConfig_v53" : [
"2017-12-01T15:40:55.691-0600"
],
"FTBFConfig_v54" : [
"2017-12-01T15:52:46.002-0600"
],
"FTBFConfig_v55" : [
"2017-12-01T15:54:31.105-0600"
],
"FTBFConfig_v56" : [
"2017-12-01T15:55:30.626-0600"
],
"FTBFConfig_v57" : [
"2017-12-01T15:56:36.375-0600"
],
"FTBFConfig_v58" : [
"2017-12-01T15:57:34.486-0600"
],
"FTBFConfig_v59" : [
"2017-12-01T15:58:26.351-0600"
],
"FTBFConfig_v60" : [
"2017-12-01T15:59:27.561-0600"
],
"FTBFConfig_v61" : [
"2017-12-01T16:19:37.260-0600"
],
"FTBFConfig_v62" : [
"2017-12-01T16:21:59.809-0600"
],
"FTBFConfig_v63" : [
"2017-12-01T16:31:20.394-0600"
],
"FTBFConfig_v64" : [
"2017-12-01T17:06:27.218-0600"
],
"FTBFConfig_v65" : [
"2017-12-01T17:32:39.542-0600"
],
"FTBFConfig_v66" : [
"2017-12-01T20:38:45.984-0600"
],
"FTBFConfig_v67" : [
"2017-12-01T21:24:57.450-0600"
],
"FTBFConfig_v68" : [
"2017-12-01T21:42:57.085-0600"
],
"FTBFConfig_v69" : [
"2017-12-01T21:44:55.686-0600"
],
"FTBFConfig_v70" : [
"2017-12-01T21:59:14.899-0600"
],
"FTBFConfigNim_v0" : [
"2017-12-01T22:00:01.613-0600"
],
"FTBFConfigNim_v1" : [
"2017-12-01T22:13:03.330-0600"
],
"FTBFConfigNim_v2" : [
"2017-12-01T22:15:50.542-0600"
],
"FTBFConfigNim_v3" : [
"2017-12-01T22:16:58.489-0600"
],
"FTBFConfigNim_v4" : [
"2017-12-01T22:19:01.594-0600"
],
"FTBFConfigNim_v5" : [
"2017-12-01T22:21:52.272-0600"
],
"FTBFConfigNim_v6" : [
"2017-12-01T22:23:07.613-0600"
],
"FTBFConfigNim_v7" : [
"2017-12-01T22:25:12.190-0600"
],
"FTBFConfigNim_v8" : [
"2017-12-01T22:26:59.714-0600"
],
"FTBFConfigNim_v9" : [
"2017-12-01T22:29:24.001-0600"
],
"FTBFConfigNim_v10" : [
"2017-12-01T22:52:29.097-0600"
],
"FTBFConfigNim_v11" : [
"2017-12-01T22:57:23.626-0600"
],
"FTBFConfigNim_v12" : [
"2017-12-01T23:00:02.138-0600"
],
"FTBFConfigNim_v13" : [
"2017-12-01T23:52:30.241-0600"
],
"FTBFConfigNim_v14" : [
"2017-12-01T23:58:04.620-0600"
],
"FTBFConfigNim_v15" : [
"2017-12-02T00:00:28.886-0600"
],
"FTBFConfigNim_v16" : [
"2017-12-02T00:13:03.983-0600"
],
"FTBFConfigNim_v17" : [
"2017-12-02T00:28:22.984-0600"
],
"FTBFConfigNim_v18" : [
"2017-12-02T00:29:28.998-0600"
],
"FTBFConfigNim_v19" : [
"2017-12-02T00:31:05.103-0600"
],
"FTBFConfigNim_v20" : [
"2017-12-02T00:57:21.985-0600"
],
"FTBFConfigNim_v21" : [
"2017-12-02T10:57:56.520-0600"
],
"FTBFConfigNim_v22" : [
"2017-12-02T11:08:12.683-0600"
],
"FTBFConfigNim_v23" : [
"2017-12-02T11:12:34.224-0600"
],
"FTBFConfigNim_v24" : [
"2017-12-02T11:18:37.042-0600"
],
"FTBFConfigNim_v25" : [
"2017-12-02T11:27:00.255-0600"
],
"FTBFConfigNim_v26" : [
"2017-12-02T11:38:31.292-0600"
],
"FTBFConfigNim_v27" : [
"2017-12-02T11:49:02.392-0600"
],
"FTBFConfigNim_v28" : [
"2017-12-02T11:55:03.797-0600"
],
"FTBFConfigNim_v29" : [
"2017-12-02T12:06:20.663-0600"
],
"FTBFConfig_v71" : [
"2017-12-02T12:24:09.289-0600"
],
"FTBFConfig_v72" : [
"2017-12-02T12:43:30.039-0600"
],
"FTBFConfig_v73" : [
"2017-12-02T13:55:29.589-0600"
],
"FTBFConfig_v74" : [
"2017-12-02T14:09:01.864-0600"
],
"FTBFConfig_v75" : [
"2017-12-02T14:12:12.727-0600"
],
"FTBFConfig_v76" : [
"2017-12-02T19:05:47.860-0600"
],
"FTBFConfig_v77" : [
"2017-12-02T19:12:07.643-0600"
],
"FTBFConfig_v78" : [
"2017-12-03T14:03:42.826-0600"
],
"FTBFConfig_v79" : [
"2017-12-03T14:09:00.985-0600"
],
"FTBFConfig_v80" : [
"2017-12-03T14:11:04.743-0600"
],
"FTBFConfig_v81" : [
"2017-12-03T14:22:27.767-0600"
],
"FTBFConfig_v82" : [
"2017-12-03T14:40:32.517-0600"
],
"FTBFConfig_v83" : [
"2017-12-03T14:44:59.802-0600"
],
"FTBFConfig_v84" : [
"2017-12-04T14:51:25.282-0600"
],
"FTBFConfig_v85" : [
"2017-12-04T14:55:38.347-0600"
],
"FTBFConfig_v86" : [
"2017-12-04T16:51:01.347-0600"
],
"FTBFConfig_v87" : [
"2017-12-04T16:56:41.973-0600"
],
"FTBFConfig_v88" : [
"2017-12-04T17:01:06.655-0600"
],
"FTBFConfig_v89" : [
"2017-12-04T17:03:51.717-0600"
],
"FTBFConfig_v90" : [
"2017-12-04T17:07:11.349-0600"
],
"FTBFConfig_v91" : [
"2017-12-04T17:09:20.439-0600"
],
"FTBFConfig_v92" : [
"2017-12-04T17:11:32.900-0600"
],
"FTBFConfig_v93" : [
"2017-12-04T21:05:15.530-0600"
],
"FTBFConfig_v94" : [
"2017-12-04T21:17:06.352-0600"
],
"FTBFConfig_v95" : [
"2017-12-04T21:41:12.106-0600"
],
"FTBFConfig_v96" : [
"2017-12-04T22:38:56.708-0600"
],
"FTBFConfig_v97" : [
"2017-12-04T23:01:07.189-0600"
],
"FTBFConfig_v98" : [
"2017-12-07T11:07:41.189-0600"
],
"FTBFConfig_v99" : [
"2017-12-07T11:49:53.878-0600"
],
"FTBFConfig_v100" : [
"2017-12-07T11:58:20.605-0600"
],
"FTBFConfig_v101" : [
"2017-12-08T13:30:42.661-0600"
],
"FTBFConfig_v102" : [
"2017-12-08T13:32:29.570-0600"
],
"FTBFConfig_v103" : [
"2017-12-12T11:02:59.322-0600"
],
"FTBFConfig_v104" : [
"2017-12-12T13:50:53.504-0600"
],
"FTBFConfig_v105" : [
"2017-12-12T15:24:59.534-0600"
],
"FTBFConfig_v106" : [
"2017-12-13T10:24:18.032-0600"
],
"FTBFConfig_v107" : [
"2017-12-13T10:26:56.825-0600"
],
"FTBFConfig_v108" : [
"2018-02-01T21:14:19.954-0600"
],
"FTBFConfig_v109" : [
"2018-02-01T21:20:57.098-0600"
],
"FTBFConfig_v110" : [
"2018-02-02T11:25:28.045-0600"
],
"FTBFConfig_v111" : [
"2018-02-02T11:37:06.869-0600"
],
"FTBFConfig_v112" : [
"2018-02-02T11:47:09.292-0600"
],
"FTBFConfig_v113" : [
"2018-02-02T11:53:30.547-0600"
],
"FTBFConfig_v114" : [
"2018-02-02T12:00:46.594-0600"
],
"FTBFConfig_v115" : [
"2018-02-02T12:27:08.090-0600"
],
"FTBFConfig_v116" : [
"2018-02-02T14:28:47.569-0600"
],
"FTBFConfig_v117" : [
"2018-02-02T14:30:13.915-0600"
],
"FTBFConfig_v118" : [
"2018-02-02T14:33:55.101-0600"
],
"FTBFConfig_v119" : [
"2018-02-02T14:36:21.684-0600"
],
"FTBFConfig_v120" : [
"2018-02-02T14:38:35.045-0600"
],
"FTBFConfig_v121" : [
"2018-02-02T14:41:44.374-0600"
],
"FTBFConfig_v122" : [
"2018-02-02T14:50:18.328-0600"
],
"FTBFConfig_v123" : [
"2018-02-02T14:52:51.214-0600"
],
"FTBFConfig_v124" : [
"2018-02-02T14:59:44.516-0600"
],
"FTBFConfig_v125" : [
"2018-02-02T15:04:02.606-0600"
],
"FTBFConfig_v126" : [
"2018-02-02T15:50:05.813-0600"
],
"FTBFConfig_v127" : [
"2018-02-02T15:51:25.258-0600"
],
"FTBFConfig_v128" : [
"2018-02-02T15:52:30.417-0600"
],
"FTBFConfig_v129" : [
"2018-02-02T16:02:39.305-0600"
],
"FTBFConfig_v130" : [
"2018-02-02T16:08:38.793-0600"
],
"FTBFConfig_v131" : [
"2018-02-02T16:11:24.555-0600"
],
"FTBFConfig_v132" : [
"2018-02-02T16:12:52.409-0600"
],
"FTBFConfig_v133" : [
"2018-02-02T16:14:22.967-0600"
],
"FTBFConfig_v134" : [
"2018-02-02T16:26:15.882-0600"
],
"FTBFConfig_v135" : [
"2018-02-02T16:27:02.974-0600"
],
"FTBFConfig_v136" : [
"2018-02-02T16:29:24.286-0600"
],
"FTBFConfig_v137" : [
"2018-02-02T16:31:34.783-0600"
],
"FTBFConfig_v138" : [
"2018-02-02T16:34:07.485-0600"
],
"FTBFConfig_v139" : [
"2018-02-02T17:39:23.525-0600"
],
"FTBFConfig_v140" : [
"2018-02-02T17:42:45.654-0600"
],
"FTBFConfig_v141" : [
"2018-02-02T17:47:30.836-0600"
],
"FTBFConfig_v142" : [
"2018-02-02T17:53:54.776-0600"
]
}
}