{
"document" : {
"data" : {
"NAME" : "GROUP_ALIASES_TABLE",
"COMMENT" : "Default Backbone.",
"AUTHOR" : "admin",
"CREATION_TIME" : 1650468233,
"COL_TYPES" : {
"GROUP_KEY_ALIAS" : "STRING",
"GROUP_NAME" : "STRING",
"GROUP_KEY" : "STRING",
"COMMENT_DESCRIPTION" : "STRING",
"AUTHOR" : "STRING",
"RECORD_INSERTION_TIME" : "TIMESTAMP WITH TIMEZONE"
},
"DATA_SET" : [
{
"GROUP_KEY_ALIAS" : "DefaultContext",
"GROUP_NAME" : "DefaultContext",
"GROUP_KEY" : "50",
"COMMENT_DESCRIPTION" : "This Group Alias was automatically setup by the server.",
"AUTHOR" : "admin",
"RECORD_INSERTION_TIME" : "1650463612"
},
{
"GROUP_KEY_ALIAS" : "BurninBoxConfiguration",
"GROUP_NAME" : "BurninBoxConfiguration",
"GROUP_KEY" : "95",
"COMMENT_DESCRIPTION" : "This Group Alias was automatically setup by the server.",
"AUTHOR" : "admin",
"RECORD_INSERTION_TIME" : "1650393357"
},
{
"GROUP_KEY_ALIAS" : "BurninBoxOnlyContext",
"GROUP_NAME" : "DefaultContext",
"GROUP_KEY" : "43",
"COMMENT_DESCRIPTION" : "This Group Alias was automatically setup by the server.",
"AUTHOR" : "admin",
"RECORD_INSERTION_TIME" : "1632518780"
},
{
"GROUP_KEY_ALIAS" : "BurninBoxOnlyConfiguration",
"GROUP_NAME" : "BurninBoxConfiguration",
"GROUP_KEY" : "89",
"COMMENT_DESCRIPTION" : "This Group Alias was automatically setup by the server.",
"AUTHOR" : "admin",
"RECORD_INSERTION_TIME" : "1634055106"
},
{
"GROUP_KEY_ALIAS" : "TrackerOnlyConfiguration",
"GROUP_NAME" : "BurninBoxConfiguration",
"GROUP_KEY" : "97",
"COMMENT_DESCRIPTION" : "This Group Alias was automatically setup by the server.",
"AUTHOR" : "admin",
"RECORD_INSERTION_TIME" : "1650468233"
},
{
"GROUP_KEY_ALIAS" : "TrackerOnlyContext",
"GROUP_NAME" : "DefaultContext",
"GROUP_KEY" : "43",
"COMMENT_DESCRIPTION" : "This Group Alias was automatically setup by the server.",
"AUTHOR" : "admin",
"RECORD_INSERTION_TIME" : "1636583603"
}
]
},
"metadata" : {

},
"search" : [

]
},
"comments" : [

],
"origin" : {
"source" : "template",
"name" : "notprovided",
"format" : "json",
"created" : "2022-04-20T11:23:53.145-0400",
"rawdata" : [

]
},
"version" : "237",
"entities" : [
{
"name" : "OTSROOT",
"assigned" : "2022-04-20T11:23:53.145-0400"
}
],
"configurations" : [
{
"name" : "notprovided",
"assigned" : "2022-04-20T11:23:53.145-0400"
},
{
"name" : "GroupAliasTreeEditWizBackbone_v96",
"assigned" : "2022-04-20T11:23:55.280-0400"
}
],
"changelog" : "notprovided",
"bookkeeping" : {
"isdeleted" : false,
"isreadonly" : false,
"updates" : [
{
"event" : "addConfiguration",
"timestamp" : "2022-04-20T11:23:53.145-0400",
"value" : {
"name" : "notprovided",
"assigned" : "2022-04-20T11:23:53.145-0400"
}
},
{
"event" : "setVersion",
"timestamp" : "2022-04-20T11:23:53.145-0400",
"value" : {
"name" : "237",
"assigned" : "2022-04-20T11:23:53.145-0400"
}
},
{
"event" : "setCollection",
"timestamp" : "2022-04-20T11:23:53.145-0400",
"value" : {
"name" : "GroupAliasesTable",
"assigned" : "2022-04-20T11:23:53.145-0400"
}
},
{
"event" : "addEntity",
"timestamp" : "2022-04-20T11:23:53.145-0400",
"value" : {
"name" : "OTSROOT",
"assigned" : "2022-04-20T11:23:53.145-0400"
}
},
{
"event" : "addConfiguration",
"timestamp" : "2022-04-20T11:23:55.280-0400",
"value" : {
"name" : "GroupAliasTreeEditWizBackbone_v96",
"assigned" : "2022-04-20T11:23:55.280-0400"
}
}
],
"created" : "2022-04-20T11:23:53.145-0400"
},
"_id" : {
"$oid" : "13fe467004fe421582e074aa"
},
"collection" : "GroupAliasesTable",
"aliases" : {
"active" : [

],
"history" : [

]
},
"runs" : [

],
"attachments" : [

],
"configtype" : "notprovided"
}