{
"document" : {
"data" : {
"NAME" : "GROUP_ALIASES_TABLE",
"COMMENT" : "Default Backbone.",
"AUTHOR" : "admin",
"CREATION_TIME" : 1676646402,
"COL_TYPES" : {
"GROUP_KEY_ALIAS" : "STRING",
"GROUP_NAME" : "STRING",
"GROUP_KEY" : "STRING",
"COMMENT_DESCRIPTION" : "STRING",
"AUTHOR" : "STRING",
"RECORD_INSERTION_TIME" : "TIMESTAMP WITH TIMEZONE"
},
"DATA_SET" : [
{
"GROUP_KEY_ALIAS" : "DefaultContext",
"GROUP_NAME" : "DefaultContext",
"GROUP_KEY" : "70",
"COMMENT_DESCRIPTION" : "This Group Alias was automatically setup by the server.",
"AUTHOR" : "admin",
"RECORD_INSERTION_TIME" : "1676646402"
},
{
"GROUP_KEY_ALIAS" : "BurninBoxConfiguration",
"GROUP_NAME" : "BurninBoxConfiguration",
"GROUP_KEY" : "114",
"COMMENT_DESCRIPTION" : "This Group Alias was automatically setup by the server.",
"AUTHOR" : "admin",
"RECORD_INSERTION_TIME" : "1675098947"
},
{
"GROUP_KEY_ALIAS" : "BurninBoxOnlyContext",
"GROUP_NAME" : "DefaultContext",
"GROUP_KEY" : "43",
"COMMENT_DESCRIPTION" : "This Group Alias was automatically setup by the server.",
"AUTHOR" : "admin",
"RECORD_INSERTION_TIME" : "1632518780"
},
{
"GROUP_KEY_ALIAS" : "BurninBoxOnlyConfiguration",
"GROUP_NAME" : "BurninBoxConfiguration",
"GROUP_KEY" : "108",
"COMMENT_DESCRIPTION" : "This Group Alias was automatically setup by the server.",
"AUTHOR" : "admin",
"RECORD_INSERTION_TIME" : "1655843978"
},
{
"GROUP_KEY_ALIAS" : "TrackerOnlyConfiguration",
"GROUP_NAME" : "BurninBoxConfiguration",
"GROUP_KEY" : "89",
"COMMENT_DESCRIPTION" : "This Group Alias was automatically setup by the server.",
"AUTHOR" : "admin",
"RECORD_INSERTION_TIME" : "1650482925"
},
{
"GROUP_KEY_ALIAS" : "TrackerOnlyContext",
"GROUP_NAME" : "DefaultContext",
"GROUP_KEY" : "43",
"COMMENT_DESCRIPTION" : "This Group Alias was automatically setup by the server.",
"AUTHOR" : "admin",
"RECORD_INSERTION_TIME" : "1636583603"
}
]
},
"metadata" : {

},
"search" : [

]
},
"comments" : [

],
"origin" : {
"source" : "template",
"name" : "notprovided",
"format" : "json",
"created" : "2023-02-17T09:06:42.148-0600",
"rawdata" : [

]
},
"version" : "279",
"entities" : [
{
"name" : "OTSROOT",
"assigned" : "2023-02-17T09:06:42.148-0600"
}
],
"configurations" : [
{
"name" : "notprovided",
"assigned" : "2023-02-17T09:06:42.148-0600"
},
{
"name" : "GroupAliasWizBackbone_v29",
"assigned" : "2023-02-17T09:06:44.106-0600"
}
],
"changelog" : "notprovided",
"bookkeeping" : {
"isdeleted" : false,
"isreadonly" : false,
"updates" : [
{
"event" : "addConfiguration",
"timestamp" : "2023-02-17T09:06:42.148-0600",
"value" : {
"name" : "notprovided",
"assigned" : "2023-02-17T09:06:42.148-0600"
}
},
{
"event" : "setVersion",
"timestamp" : "2023-02-17T09:06:42.148-0600",
"value" : {
"name" : "279",
"assigned" : "2023-02-17T09:06:42.148-0600"
}
},
{
"event" : "setCollection",
"timestamp" : "2023-02-17T09:06:42.148-0600",
"value" : {
"name" : "GroupAliasesTable",
"assigned" : "2023-02-17T09:06:42.148-0600"
}
},
{
"event" : "addEntity",
"timestamp" : "2023-02-17T09:06:42.148-0600",
"value" : {
"name" : "OTSROOT",
"assigned" : "2023-02-17T09:06:42.148-0600"
}
},
{
"event" : "addConfiguration",
"timestamp" : "2023-02-17T09:06:44.106-0600",
"value" : {
"name" : "GroupAliasWizBackbone_v29",
"assigned" : "2023-02-17T09:06:44.106-0600"
}
}
],
"created" : "2023-02-17T09:06:42.148-0600"
},
"_id" : {
"$oid" : "16c81deddacd4e69912f40b3"
},
"collection" : "GroupAliasesTable",
"aliases" : {
"active" : [

],
"history" : [

]
},
"runs" : [

],
"attachments" : [

],
"configtype" : "notprovided"
}