{
"document" : {
"data" : {
"NAME" : "GROUP_ALIASES_TABLE",
"COMMENT" : "Default Backbone.",
"AUTHOR" : "admin",
"CREATION_TIME" : 1625691724,
"COL_TYPES" : {
"GROUP_KEY_ALIAS" : "STRING",
"GROUP_NAME" : "STRING",
"GROUP_KEY" : "STRING",
"COMMENT_DESCRIPTION" : "STRING",
"AUTHOR" : "STRING",
"RECORD_INSERTION_TIME" : "TIMESTAMP WITH TIMEZONE"
},
"DATA_SET" : [
{
"GROUP_KEY_ALIAS" : "DefaultContext",
"GROUP_NAME" : "DefaultContext",
"GROUP_KEY" : "34",
"COMMENT_DESCRIPTION" : "This Group Alias was automatically setup by the server.",
"AUTHOR" : "admin",
"RECORD_INSERTION_TIME" : "1625691724"
},
{
"GROUP_KEY_ALIAS" : "BurninBoxConfiguration",
"GROUP_NAME" : "BurninBoxConfiguration",
"GROUP_KEY" : "34",
"COMMENT_DESCRIPTION" : "This Group Alias was automatically setup by the server.",
"AUTHOR" : "admin",
"RECORD_INSERTION_TIME" : "1625088228"
}
]
},
"metadata" : {

},
"search" : [

]
},
"comments" : [

],
"origin" : {
"source" : "template",
"name" : "notprovided",
"format" : "json",
"created" : "2021-07-07T16:02:04.953-0500",
"rawdata" : [

]
},
"version" : "118",
"entities" : [
{
"name" : "OTSROOT",
"assigned" : "2021-07-07T16:02:04.953-0500"
}
],
"configurations" : [
{
"name" : "notprovided",
"assigned" : "2021-07-07T16:02:04.953-0500"
},
{
"name" : "GroupAliasTreeEditWizBackbone_v42",
"assigned" : "2021-07-07T16:02:06.104-0500"
}
],
"changelog" : "notprovided",
"bookkeeping" : {
"isdeleted" : false,
"isreadonly" : false,
"updates" : [
{
"event" : "addConfiguration",
"timestamp" : "2021-07-07T16:02:04.953-0500",
"value" : {
"name" : "notprovided",
"assigned" : "2021-07-07T16:02:04.953-0500"
}
},
{
"event" : "setVersion",
"timestamp" : "2021-07-07T16:02:04.953-0500",
"value" : {
"name" : "118",
"assigned" : "2021-07-07T16:02:04.953-0500"
}
},
{
"event" : "setCollection",
"timestamp" : "2021-07-07T16:02:04.953-0500",
"value" : {
"name" : "GroupAliasesTable",
"assigned" : "2021-07-07T16:02:04.953-0500"
}
},
{
"event" : "addEntity",
"timestamp" : "2021-07-07T16:02:04.953-0500",
"value" : {
"name" : "OTSROOT",
"assigned" : "2021-07-07T16:02:04.953-0500"
}
},
{
"event" : "addConfiguration",
"timestamp" : "2021-07-07T16:02:06.104-0500",
"value" : {
"name" : "GroupAliasTreeEditWizBackbone_v42",
"assigned" : "2021-07-07T16:02:06.104-0500"
}
}
],
"created" : "2021-07-07T16:02:04.953-0500"
},
"_id" : {
"$oid" : "a182e4de72d7471cb5fee584"
},
"collection" : "GroupAliasesTable",
"aliases" : {
"active" : [

],
"history" : [

]
},
"runs" : [

],
"attachments" : [

],
"configtype" : "notprovided"
}