{
"document" : {
"data" : {
"NAME" : "GROUP_ALIASES_TABLE",
"COMMENT" : "Default Backbone.",
"AUTHOR" : "admin",
"CREATION_TIME" : 1599064292,
"COL_TYPES" : {
"GROUP_KEY_ALIAS" : "STRING",
"GROUP_NAME" : "STRING",
"GROUP_KEY" : "STRING",
"COMMENT_DESCRIPTION" : "STRING",
"AUTHOR" : "STRING",
"RECORD_INSERTION_TIME" : "TIMESTAMP WITH TIMEZONE"
},
"DATA_SET" : [
{
"GROUP_KEY_ALIAS" : "DefaultContext",
"GROUP_NAME" : "DefaultContext",
"GROUP_KEY" : "11",
"COMMENT_DESCRIPTION" : "This Group Alias was automatically setup by the server.",
"AUTHOR" : "admin",
"RECORD_INSERTION_TIME" : "1596206281"
},
{
"GROUP_KEY_ALIAS" : "BurninBoxConfig",
"GROUP_NAME" : "BurninBoxConfig",
"GROUP_KEY" : "36",
"COMMENT_DESCRIPTION" : "This Group Alias was automatically setup by the server.",
"AUTHOR" : "admin",
"RECORD_INSERTION_TIME" : "1595610996"
},
{
"GROUP_KEY_ALIAS" : "BurninBoxConfiguration",
"GROUP_NAME" : "BurninBoxConfiguration",
"GROUP_KEY" : "4",
"COMMENT_DESCRIPTION" : "This Group Alias was automatically setup by the server.",
"AUTHOR" : "admin",
"RECORD_INSERTION_TIME" : "1599064292"
}
]
},
"metadata" : {

},
"search" : [

]
},
"comments" : [

],
"origin" : {
"source" : "template",
"name" : "notprovided",
"format" : "json",
"created" : "2020-09-02T11:31:32.605-0500",
"rawdata" : [

]
},
"version" : "58",
"entities" : [
{
"name" : "OTSROOT",
"assigned" : "2020-09-02T11:31:32.605-0500"
}
],
"configurations" : [
{
"name" : "notprovided",
"assigned" : "2020-09-02T11:31:32.605-0500"
},
{
"name" : "TableEditWizBackbone_v40",
"assigned" : "2020-09-02T11:31:33.508-0500"
}
],
"changelog" : "notprovided",
"bookkeeping" : {
"isdeleted" : false,
"isreadonly" : false,
"updates" : [
{
"event" : "addConfiguration",
"timestamp" : "2020-09-02T11:31:32.605-0500",
"value" : {
"name" : "notprovided",
"assigned" : "2020-09-02T11:31:32.605-0500"
}
},
{
"event" : "setVersion",
"timestamp" : "2020-09-02T11:31:32.605-0500",
"value" : {
"name" : "58",
"assigned" : "2020-09-02T11:31:32.605-0500"
}
},
{
"event" : "setCollection",
"timestamp" : "2020-09-02T11:31:32.605-0500",
"value" : {
"name" : "GroupAliasesTable",
"assigned" : "2020-09-02T11:31:32.605-0500"
}
},
{
"event" : "addEntity",
"timestamp" : "2020-09-02T11:31:32.605-0500",
"value" : {
"name" : "OTSROOT",
"assigned" : "2020-09-02T11:31:32.605-0500"
}
},
{
"event" : "addConfiguration",
"timestamp" : "2020-09-02T11:31:33.508-0500",
"value" : {
"name" : "TableEditWizBackbone_v40",
"assigned" : "2020-09-02T11:31:33.508-0500"
}
}
],
"created" : "2020-09-02T11:31:32.605-0500"
},
"_id" : {
"$oid" : "a52a796f7be94176a389e22d"
},
"collection" : "GroupAliasesTable",
"aliases" : {
"active" : [

],
"history" : [

]
},
"runs" : [

],
"attachments" : [

],
"configtype" : "notprovided"
}