{
"document" : {
"data" : {
"NAME" : "GROUP_ALIASES_TABLE",
"COMMENT" : "Default Backbone.",
"AUTHOR" : "admin",
"CREATION_TIME" : 1629231377,
"COL_TYPES" : {
"GROUP_KEY_ALIAS" : "STRING",
"GROUP_NAME" : "STRING",
"GROUP_KEY" : "STRING",
"COMMENT_DESCRIPTION" : "STRING",
"AUTHOR" : "STRING",
"RECORD_INSERTION_TIME" : "TIMESTAMP WITH TIMEZONE"
},
"DATA_SET" : [
{
"GROUP_KEY_ALIAS" : "DefaultContext",
"GROUP_NAME" : "DefaultContext",
"GROUP_KEY" : "43",
"COMMENT_DESCRIPTION" : "This Group Alias was automatically setup by the server.",
"AUTHOR" : "admin",
"RECORD_INSERTION_TIME" : "1626887303"
},
{
"GROUP_KEY_ALIAS" : "BurninBoxConfiguration",
"GROUP_NAME" : "BurninBoxConfiguration",
"GROUP_KEY" : "67",
"COMMENT_DESCRIPTION" : "This Group Alias was automatically setup by the server.",
"AUTHOR" : "admin",
"RECORD_INSERTION_TIME" : "1627392341"
},
{
"GROUP_KEY_ALIAS" : "BurninBoxOnlyContext",
"GROUP_NAME" : "DefaultContext",
"GROUP_KEY" : "44",
"COMMENT_DESCRIPTION" : "This Group Alias was automatically setup by the server.",
"AUTHOR" : "admin",
"RECORD_INSERTION_TIME" : "1628007040"
},
{
"GROUP_KEY_ALIAS" : "BurninBoxOnlyConfiguration",
"GROUP_NAME" : "BurninBoxConfiguration",
"GROUP_KEY" : "72",
"COMMENT_DESCRIPTION" : "This Group Alias was automatically setup by the server.",
"AUTHOR" : "admin",
"RECORD_INSERTION_TIME" : "1629231377"
}
]
},
"metadata" : {

},
"search" : [

]
},
"comments" : [

],
"origin" : {
"source" : "template",
"name" : "notprovided",
"format" : "json",
"created" : "2021-08-17T16:16:17.783-0400",
"rawdata" : [

]
},
"version" : "175",
"entities" : [
{
"name" : "OTSROOT",
"assigned" : "2021-08-17T16:16:17.783-0400"
}
],
"configurations" : [
{
"name" : "notprovided",
"assigned" : "2021-08-17T16:16:17.783-0400"
},
{
"name" : "TableEditWizBackbone_v103",
"assigned" : "2021-08-17T16:16:21.762-0400"
}
],
"changelog" : "notprovided",
"bookkeeping" : {
"isdeleted" : false,
"isreadonly" : false,
"updates" : [
{
"event" : "addConfiguration",
"timestamp" : "2021-08-17T16:16:17.783-0400",
"value" : {
"name" : "notprovided",
"assigned" : "2021-08-17T16:16:17.783-0400"
}
},
{
"event" : "setVersion",
"timestamp" : "2021-08-17T16:16:17.783-0400",
"value" : {
"name" : "175",
"assigned" : "2021-08-17T16:16:17.783-0400"
}
},
{
"event" : "setCollection",
"timestamp" : "2021-08-17T16:16:17.783-0400",
"value" : {
"name" : "GroupAliasesTable",
"assigned" : "2021-08-17T16:16:17.783-0400"
}
},
{
"event" : "addEntity",
"timestamp" : "2021-08-17T16:16:17.783-0400",
"value" : {
"name" : "OTSROOT",
"assigned" : "2021-08-17T16:16:17.783-0400"
}
},
{
"event" : "addConfiguration",
"timestamp" : "2021-08-17T16:16:21.762-0400",
"value" : {
"name" : "TableEditWizBackbone_v103",
"assigned" : "2021-08-17T16:16:21.762-0400"
}
}
],
"created" : "2021-08-17T16:16:17.783-0400"
},
"_id" : {
"$oid" : "bc0c8f123bba4e739f4eb419"
},
"collection" : "GroupAliasesTable",
"aliases" : {
"active" : [

],
"history" : [

]
},
"runs" : [

],
"attachments" : [

],
"configtype" : "notprovided"
}