{
"document" : {
"data" : {
"NAME" : "FE_MIDDLEWARE_INTERFACE_TABLE",
"COMMENT" : "No comment.",
"AUTHOR" : "admin",
"CREATION_TIME" : 1620661366,
"COL_TYPES" : {
"INTERFACE_ID" : "STRING",
"INTERFACE_IP_ADDRESS" : "STRING",
"INTERFACE_PORT" : "NUMBER",
"CALIBRATION_NAME" : "STRING",
"CONFIGURATION_DIR" : "STRING",
"CONFIGURATION_NAME" : "STRING",
"COMMENT_DESCRIPTION" : "STRING",
"AUTHOR" : "STRING",
"RECORD_INSERTION_TIME" : "TIMESTAMP WITH TIMEZONE"
},
"DATA_SET" : [
{
"INTERFACE_ID" : "OuterTrackerFEInterface0",
"INTERFACE_IP_ADDRESS" : "131.225.179.123",
"INTERFACE_PORT" : "5001",
"CALIBRATION_NAME" : "psphysics",
"CONFIGURATION_DIR" : "${PH2ACF_BASE_DIR}/settings",
"CONFIGURATION_NAME" : "PS_HalfModule.xml",
"COMMENT_DESCRIPTION" : "No Comment",
"AUTHOR" : "admin",
"RECORD_INSERTION_TIME" : "1620661318"
}
]
},
"metadata" : {

},
"search" : [

]
},
"comments" : [

],
"origin" : {
"source" : "template",
"name" : "notprovided",
"format" : "json",
"created" : "2021-05-10T10:42:46.015-0500",
"rawdata" : [

]
},
"version" : "6",
"entities" : [
{
"name" : "OTSROOT",
"assigned" : "2021-05-10T10:42:46.016-0500"
}
],
"configurations" : [
{
"name" : "notprovided",
"assigned" : "2021-05-10T10:42:46.015-0500"
},
{
"name" : "DefaultConfig_v32",
"assigned" : "2021-05-10T10:42:47.208-0500"
}
],
"changelog" : "notprovided",
"bookkeeping" : {
"isdeleted" : false,
"isreadonly" : false,
"updates" : [
{
"event" : "addConfiguration",
"timestamp" : "2021-05-10T10:42:46.016-0500",
"value" : {
"name" : "notprovided",
"assigned" : "2021-05-10T10:42:46.015-0500"
}
},
{
"event" : "setVersion",
"timestamp" : "2021-05-10T10:42:46.016-0500",
"value" : {
"name" : "6",
"assigned" : "2021-05-10T10:42:46.016-0500"
}
},
{
"event" : "setCollection",
"timestamp" : "2021-05-10T10:42:46.016-0500",
"value" : {
"name" : "FEMiddlewareInterfaceTable",
"assigned" : "2021-05-10T10:42:46.016-0500"
}
},
{
"event" : "addEntity",
"timestamp" : "2021-05-10T10:42:46.016-0500",
"value" : {
"name" : "OTSROOT",
"assigned" : "2021-05-10T10:42:46.016-0500"
}
},
{
"event" : "addConfiguration",
"timestamp" : "2021-05-10T10:42:47.208-0500",
"value" : {
"name" : "DefaultConfig_v32",
"assigned" : "2021-05-10T10:42:47.208-0500"
}
}
],
"created" : "2021-05-10T10:42:46.015-0500"
},
"_id" : {
"$oid" : "92ff4769c4ff47c2ad3c879a"
},
"collection" : "FEMiddlewareInterfaceTable",
"aliases" : {
"active" : [

],
"history" : [

]
},
"runs" : [

],
"attachments" : [

],
"configtype" : "notprovided"
}