{
"ouid" : [
"835b07109cf949f8a7eee0b9"
],
"version" : {
"3" : [
"835b07109cf949f8a7eee0b9"
]
},
"configurations.name" : {
"notprovided" : [
"835b07109cf949f8a7eee0b9"
],
"iterateDefaultGroup_v3" : [
"835b07109cf949f8a7eee0b9"
]
},
"entities.name" : {
"OTSROOT" : [
"835b07109cf949f8a7eee0b9"
]
},
"aliases.active.name" : {

},
"runs.name" : {

},
"configurations.assigned" : {
"notprovided" : [
"2020-09-08T15:08:32.500-0500"
],
"iterateDefaultGroup_v3" : [
"2020-09-08T15:08:33.015-0500"
]
}
}