{
"document" : {
"data" : {
"NAME" : "DESKTOP_ICON_TABLE",
"COMMENT" : "Desktop icon definitions.",
"AUTHOR" : "admin",
"CREATION_TIME" : 1676580789,
"COL_TYPES" : {
"ICON_NAME" : "STRING",
"STATUS" : "STRING",
"CAPTION" : "STRING",
"ALTERNATE_TEXT" : "STRING",
"FORCE_ONLY_ONE_INSTANCE" : "STRING",
"REQUIRED_PERMISSION_LEVEL" : "STRING",
"IMAGE_URL" : "STRING",
"WINDOW_CONTENT_URL" : "STRING",
"LINK_TO_APPLICATION_TABLE" : "STRING",
"LINK_TO_APPLICATION_UID" : "STRING",
"LINK_TO_PARAMETER_TABLE" : "STRING",
"LINK_TO_PARAMETER_GROUP_ID" : "STRING",
"FOLDER_PATH" : "STRING",
"COMMENT_DESCRIPTION" : "STRING",
"AUTHOR" : "STRING",
"RECORD_INSERTION_TIME" : "TIMESTAMP WITH TIMEZONE"
},
"DATA_SET" : [
{
"ICON_NAME" : "FSM",
"STATUS" : "On",
"CAPTION" : "State Machine",
"ALTERNATE_TEXT" : "FSM",
"FORCE_ONLY_ONE_INSTANCE" : "True",
"REQUIRED_PERMISSION_LEVEL" : "1",
"IMAGE_URL" : "icon-Physics.gif",
"WINDOW_CONTENT_URL" : "/WebPath/html/StateMachine.html?fsm_name=OtherRuns0",
"LINK_TO_APPLICATION_TABLE" : "NO_LINK",
"LINK_TO_APPLICATION_UID" : "DEFAULT",
"LINK_TO_PARAMETER_TABLE" : "NO_LINK",
"LINK_TO_PARAMETER_GROUP_ID" : "DEFAULT",
"FOLDER_PATH" : "DEFAULT",
"COMMENT_DESCRIPTION" : "",
"AUTHOR" : "admin",
"RECORD_INSERTION_TIME" : "1593446231"
},
{
"ICON_NAME" : "Chat",
"STATUS" : "On",
"CAPTION" : "Chat",
"ALTERNATE_TEXT" : "CHAT",
"FORCE_ONLY_ONE_INSTANCE" : "True",
"REQUIRED_PERMISSION_LEVEL" : "1",
"IMAGE_URL" : "icon-Chat.png",
"WINDOW_CONTENT_URL" : "/WebPath/html/Chat.html",
"LINK_TO_APPLICATION_TABLE" : "XDAQApplicationTable",
"LINK_TO_APPLICATION_UID" : "ChatSupervisor",
"LINK_TO_PARAMETER_TABLE" : "NO_LINK",
"LINK_TO_PARAMETER_GROUP_ID" : "DEFAULT",
"FOLDER_PATH" : "DEFAULT",
"COMMENT_DESCRIPTION" : "The id number will be appended from the linked XDAQ supervisor urn",
"AUTHOR" : "admin",
"RECORD_INSERTION_TIME" : "1593446231"
},
{
"ICON_NAME" : "Visualizer",
"STATUS" : "On",
"CAPTION" : "Visualizer",
"ALTERNATE_TEXT" : "VIS",
"FORCE_ONLY_ONE_INSTANCE" : "False",
"REQUIRED_PERMISSION_LEVEL" : "1",
"IMAGE_URL" : "icon-Visualizer.png",
"WINDOW_CONTENT_URL" : "/WebPath/html/Visualization.html",
"LINK_TO_APPLICATION_TABLE" : "XDAQApplicationTable",
"LINK_TO_APPLICATION_UID" : "VisualizerSupervisor",
"LINK_TO_PARAMETER_TABLE" : "NO_LINK",
"LINK_TO_PARAMETER_GROUP_ID" : "DEFAULT",
"FOLDER_PATH" : "DEFAULT",
"COMMENT_DESCRIPTION" : "urn must match XDAQ supervisor urn",
"AUTHOR" : "admin",
"RECORD_INSERTION_TIME" : "1676580789"
},
{
"ICON_NAME" : "Console",
"STATUS" : "On",
"CAPTION" : "Console",
"ALTERNATE_TEXT" : "CON",
"FORCE_ONLY_ONE_INSTANCE" : "True",
"REQUIRED_PERMISSION_LEVEL" : "255",
"IMAGE_URL" : "icon-Console.png",
"WINDOW_CONTENT_URL" : "/WebPath/html/Console.html?urn=",
"LINK_TO_APPLICATION_TABLE" : "XDAQApplicationTable",
"LINK_TO_APPLICATION_UID" : "ConsoleSupervisor",
"LINK_TO_PARAMETER_TABLE" : "NO_LINK",
"LINK_TO_PARAMETER_GROUP_ID" : "DEFAULT",
"FOLDER_PATH" : "DEFAULT",
"COMMENT_DESCRIPTION" : "urn must match XDAQ supervisor urn",
"AUTHOR" : "admin",
"RECORD_INSERTION_TIME" : "1676580789"
},
{
"ICON_NAME" : "ConfigureGUI",
"STATUS" : "On",
"CAPTION" : "Configure",
"ALTERNATE_TEXT" : "CFG",
"FORCE_ONLY_ONE_INSTANCE" : "False",
"REQUIRED_PERMISSION_LEVEL" : "10",
"IMAGE_URL" : "icon-Configure.png",
"WINDOW_CONTENT_URL" : "/urn:xdaq-application:lid=",
"LINK_TO_APPLICATION_TABLE" : "XDAQApplicationTable",
"LINK_TO_APPLICATION_UID" : "ConfigurationGUISupervisor",
"LINK_TO_PARAMETER_TABLE" : "NO_LINK",
"LINK_TO_PARAMETER_GROUP_ID" : "DEFAULT",
"FOLDER_PATH" : "DEFAULT",
"COMMENT_DESCRIPTION" : "lid number must match XDAQ supervisor urn",
"AUTHOR" : "admin",
"RECORD_INSERTION_TIME" : "1676580789"
},
{
"ICON_NAME" : "CMSBurninBox",
"STATUS" : "On",
"CAPTION" : "CMS Burnin Box",
"ALTERNATE_TEXT" : "CMS Burnin Box",
"FORCE_ONLY_ONE_INSTANCE" : "False",
"REQUIRED_PERMISSION_LEVEL" : "1",
"IMAGE_URL" : "/WebPath/CMSBurninBoxWebPath/images/iconImages/icon-BurningBox.jpg",
"WINDOW_CONTENT_URL" : "/WebPath/CMSBurninBoxWebPath/html/CMSBurninBox_app.html",
"LINK_TO_APPLICATION_TABLE" : "XDAQApplicationTable",
"LINK_TO_APPLICATION_UID" : "ConfigurationGUISupervisor",
"LINK_TO_PARAMETER_TABLE" : "NO_LINK",
"LINK_TO_PARAMETER_GROUP_ID" : "DEFAULT",
"FOLDER_PATH" : "DEFAULT",
"COMMENT_DESCRIPTION" : "Lorenzo's CMSBurninBox web app",
"AUTHOR" : "admin",
"RECORD_INSERTION_TIME" : "1676580789"
},
{
"ICON_NAME" : "CMSBurninBoxCycles",
"STATUS" : "On",
"CAPTION" : "CMS Burnin Box Cycles",
"ALTERNATE_TEXT" : "CMS Burnin Box Cycles",
"FORCE_ONLY_ONE_INSTANCE" : "False",
"REQUIRED_PERMISSION_LEVEL" : "1",
"IMAGE_URL" : "/WebPath/CMSBurninBoxWebPath/images/iconImages/icon-BurninBoxCycles.webp",
"WINDOW_CONTENT_URL" : "/WebPath/CMSBurninBoxWebPath/html/CMSBurninBoxCycles_app.html",
"LINK_TO_APPLICATION_TABLE" : "XDAQApplicationTable",
"LINK_TO_APPLICATION_UID" : "ConfigurationGUISupervisor",
"LINK_TO_PARAMETER_TABLE" : "NO_LINK",
"LINK_TO_PARAMETER_GROUP_ID" : "DEFAULT",
"FOLDER_PATH" : "DEFAULT",
"COMMENT_DESCRIPTION" : "Lorenzo's CMSBurninBox web app",
"AUTHOR" : "admin",
"RECORD_INSERTION_TIME" : "1676580789"
},
{
"ICON_NAME" : "CMSBurninBoxModules",
"STATUS" : "On",
"CAPTION" : "CMS Burnin Box Modules",
"ALTERNATE_TEXT" : "CMS Burnin Box Modules",
"FORCE_ONLY_ONE_INSTANCE" : "False",
"REQUIRED_PERMISSION_LEVEL" : "1",
"IMAGE_URL" : "/WebPath/CMSBurninBoxWebPath/images/iconImages/icon-BurninBoxZoom.jpeg",
"WINDOW_CONTENT_URL" : "/WebPath/CMSBurninBoxWebPath/html/CMSBurninBoxModules_app.html",
"LINK_TO_APPLICATION_TABLE" : "XDAQApplicationTable",
"LINK_TO_APPLICATION_UID" : "BurninBoxGUISupervisor",
"LINK_TO_PARAMETER_TABLE" : "NO_LINK",
"LINK_TO_PARAMETER_GROUP_ID" : "DEFAULT",
"FOLDER_PATH" : "DEFAULT",
"COMMENT_DESCRIPTION" : "Lorenzo's CMSBurninBox Modules web app",
"AUTHOR" : "admin",
"RECORD_INSERTION_TIME" : "1676580789"
},
{
"ICON_NAME" : "Iterator",
"STATUS" : "On",
"CAPTION" : "Iterator",
"ALTERNATE_TEXT" : "IT",
"FORCE_ONLY_ONE_INSTANCE" : "False",
"REQUIRED_PERMISSION_LEVEL" : "1",
"IMAGE_URL" : "icon-Iterate.png",
"WINDOW_CONTENT_URL" : "/WebPath/html/Iterate.html",
"LINK_TO_APPLICATION_TABLE" : "XDAQApplicationTable",
"LINK_TO_APPLICATION_UID" : "ConfigurationGUISupervisor",
"LINK_TO_PARAMETER_TABLE" : "NO_LINK",
"LINK_TO_PARAMETER_GROUP_ID" : "DEFAULT",
"FOLDER_PATH" : "DEFAULT",
"COMMENT_DESCRIPTION" : "Iterate app",
"AUTHOR" : "admin",
"RECORD_INSERTION_TIME" : "1676580789"
}
]
},
"metadata" : {

},
"search" : [

]
},
"comments" : [

],
"origin" : {
"source" : "template",
"name" : "notprovided",
"format" : "json",
"created" : "2023-02-16T14:53:09.532-0600",
"rawdata" : [

]
},
"version" : "16",
"entities" : [
{
"name" : "OTSROOT",
"assigned" : "2023-02-16T14:53:09.533-0600"
}
],
"configurations" : [
{
"name" : "notprovided",
"assigned" : "2023-02-16T14:53:09.533-0600"
},
{
"name" : "DefaultContext_v66",
"assigned" : "2023-02-16T14:53:11.481-0600"
}
],
"changelog" : "notprovided",
"bookkeeping" : {
"isdeleted" : false,
"isreadonly" : false,
"updates" : [
{
"event" : "addConfiguration",
"timestamp" : "2023-02-16T14:53:09.533-0600",
"value" : {
"name" : "notprovided",
"assigned" : "2023-02-16T14:53:09.533-0600"
}
},
{
"event" : "setVersion",
"timestamp" : "2023-02-16T14:53:09.533-0600",
"value" : {
"name" : "16",
"assigned" : "2023-02-16T14:53:09.533-0600"
}
},
{
"event" : "setCollection",
"timestamp" : "2023-02-16T14:53:09.533-0600",
"value" : {
"name" : "DesktopIconTable",
"assigned" : "2023-02-16T14:53:09.533-0600"
}
},
{
"event" : "addEntity",
"timestamp" : "2023-02-16T14:53:09.533-0600",
"value" : {
"name" : "OTSROOT",
"assigned" : "2023-02-16T14:53:09.533-0600"
}
},
{
"event" : "addConfiguration",
"timestamp" : "2023-02-16T14:53:11.481-0600",
"value" : {
"name" : "DefaultContext_v66",
"assigned" : "2023-02-16T14:53:11.481-0600"
}
}
],
"created" : "2023-02-16T14:53:09.533-0600"
},
"_id" : {
"$oid" : "a81d1cc7e85744399cd933c1"
},
"collection" : "DesktopIconTable",
"aliases" : {
"active" : [

],
"history" : [

]
},
"runs" : [

],
"attachments" : [

],
"configtype" : "notprovided"
}