{
"ouid" : [
"935da336bf1d4eaab4a14b57"
],
"version" : {
"0" : [
"935da336bf1d4eaab4a14b57"
]
},
"configurations.name" : {
"notprovided" : [
"935da336bf1d4eaab4a14b57"
],
"DefaultConfig_v0" : [
"935da336bf1d4eaab4a14b57"
],
"DefaultConfig_v1" : [
"935da336bf1d4eaab4a14b57"
],
"DefaultConfig_v2" : [
"935da336bf1d4eaab4a14b57"
],
"DefaultConfig_v3" : [
"935da336bf1d4eaab4a14b57"
]
},
"entities.name" : {
"OTSROOT" : [
"935da336bf1d4eaab4a14b57"
]
},
"aliases.active.name" : {

},
"runs.name" : {

},
"configurations.assigned" : {
"notprovided" : [
"2020-09-08T15:08:30.326-0500"
],
"DefaultConfig_v0" : [
"2020-09-08T15:08:30.819-0500"
],
"DefaultConfig_v1" : [
"2020-09-08T15:38:44.870-0500"
],
"DefaultConfig_v2" : [
"2020-09-08T17:51:45.042-0500"
],
"DefaultConfig_v3" : [
"2020-09-08T17:53:11.965-0500"
]
}
}