{
"document" : {
"data" : {
"NAME" : "GROUP_ALIASES_CONFIGURATION",
"COMMENT" : "Default Backbone.",
"AUTHOR" : "admin",
"CREATION_TIME" : 1512154685,
"COL_TYPES" : {
"GROUP_KEY_ALIAS" : "VARCHAR2",
"GROUP_NAME" : "VARCHAR2",
"GROUP_KEY" : "VARCHAR2",
"COMMENT_DESCRIPTION" : "VARCHAR2",
"AUTHOR" : "VARCHAR2",
"RECORD_INSERTION_TIME" : "TIMESTAMP WITH TIMEZONE"
},
"DATA_SET" : [
{
"GROUP_KEY_ALIAS" : "FTBFContextAlias",
"GROUP_NAME" : "FTBFContext",
"GROUP_KEY" : "40",
"COMMENT_DESCRIPTION" : "FTBF \"facility daq\" context alias.",
"AUTHOR" : "admin",
"RECORD_INSERTION_TIME" : "1512058340"
},
{
"GROUP_KEY_ALIAS" : "FTBFSystemAlias",
"GROUP_NAME" : "FTBFConfig",
"GROUP_KEY" : "33",
"COMMENT_DESCRIPTION" : "FTBF \"facility daq\" configuration system alias.",
"AUTHOR" : "uplegger",
"RECORD_INSERTION_TIME" : "1511225853"
},
{
"GROUP_KEY_ALIAS" : "FTBFNIMPlusTestContext",
"GROUP_NAME" : "FTBFContext",
"GROUP_KEY" : "38",
"COMMENT_DESCRIPTION" : "This Group Alias was automatically setup by the server.",
"AUTHOR" : "admin",
"RECORD_INSERTION_TIME" : "1511995519"
},
{
"GROUP_KEY_ALIAS" : "FTBFNIMPlusTestConfig",
"GROUP_NAME" : "FTBFConfig",
"GROUP_KEY" : "43",
"COMMENT_DESCRIPTION" : "This Group Alias was automatically setup by the server.",
"AUTHOR" : "admin",
"RECORD_INSERTION_TIME" : "1512154685"
}
]
},
"metadata" : {

},
"search" : [

]
},
"comments" : [

],
"origin" : {
"source" : "template",
"name" : "notprovided",
"format" : "json",
"created" : "2017-12-01T12:58:05.722-0600",
"rawdata" : [

]
},
"version" : "83",
"entities" : [
{
"name" : "OTSROOT",
"assigned" : "2017-12-01T12:58:05.723-0600"
}
],
"configurations" : [
{
"name" : "notprovided",
"assigned" : "2017-12-01T12:58:05.722-0600"
},
{
"name" : "GroupAliasSaveWizBackbone_v17",
"assigned" : "2017-12-01T12:58:08.255-0600"
}
],
"changelog" : "notprovided",
"bookkeeping" : {
"isdeleted" : false,
"isreadonly" : false,
"updates" : [
{
"event" : "addConfiguration",
"timestamp" : "2017-12-01T12:58:05.722-0600",
"value" : {
"name" : "notprovided",
"assigned" : "2017-12-01T12:58:05.722-0600"
}
},
{
"event" : "setVersion",
"timestamp" : "2017-12-01T12:58:05.723-0600",
"value" : {
"name" : "83",
"assigned" : "2017-12-01T12:58:05.723-0600"
}
},
{
"event" : "setCollection",
"timestamp" : "2017-12-01T12:58:05.723-0600",
"value" : {
"name" : "GroupAliasesConfiguration",
"assigned" : "2017-12-01T12:58:05.723-0600"
}
},
{
"event" : "addEntity",
"timestamp" : "2017-12-01T12:58:05.723-0600",
"value" : {
"name" : "OTSROOT",
"assigned" : "2017-12-01T12:58:05.723-0600"
}
},
{
"event" : "addConfiguration",
"timestamp" : "2017-12-01T12:58:08.255-0600",
"value" : {
"name" : "GroupAliasSaveWizBackbone_v17",
"assigned" : "2017-12-01T12:58:08.255-0600"
}
}
],
"created" : "2017-12-01T12:58:05.722-0600"
},
"_id" : {
"$oid" : "144ab8b48130452e9415f01c"
},
"collection" : "GroupAliasesConfiguration",
"aliases" : {
"active" : [

],
"history" : [

]
},
"runs" : [

],
"attachments" : [

],
"configtype" : "notprovided"
}