{
"document" : {
"data" : {
"NAME" : "GROUP_ALIASES_CONFIGURATION",
"COMMENT" : "Default Backbone.",
"AUTHOR" : "admin",
"CREATION_TIME" : 1510774614,
"COL_TYPES" : {
"GROUP_KEY_ALIAS" : "VARCHAR2",
"GROUP_NAME" : "VARCHAR2",
"GROUP_KEY" : "VARCHAR2",
"COMMENT_DESCRIPTION" : "VARCHAR2",
"AUTHOR" : "VARCHAR2",
"RECORD_INSERTION_TIME" : "TIMESTAMP WITH TIMEZONE"
},
"DATA_SET" : [
{
"GROUP_KEY_ALIAS" : "FTBFContextAlias",
"GROUP_NAME" : "FTBFContext",
"GROUP_KEY" : "26",
"COMMENT_DESCRIPTION" : "FTBF \"facility daq\" context alias.",
"AUTHOR" : "admin",
"RECORD_INSERTION_TIME" : "1510772360"
},
{
"GROUP_KEY_ALIAS" : "FTBFSystemAlias",
"GROUP_NAME" : "FTBFConfig",
"GROUP_KEY" : "16",
"COMMENT_DESCRIPTION" : "FTBF \"facility daq\" configuration system alias.",
"AUTHOR" : "admin",
"RECORD_INSERTION_TIME" : "1510774614"
}
]
},
"metadata" : {

},
"search" : [

]
},
"comments" : [

],
"origin" : {
"source" : "template",
"name" : "notprovided",
"format" : "json",
"created" : "2017-11-15T13:36:54.365-0600",
"rawdata" : [

]
},
"version" : "42",
"entities" : [
{
"name" : "OTSROOT",
"assigned" : "2017-11-15T13:36:54.367-0600"
}
],
"configurations" : [
{
"name" : "notprovided",
"assigned" : "2017-11-15T13:36:54.366-0600"
},
{
"name" : "TableEditWizBackbone_v28",
"assigned" : "2017-11-15T13:36:56.419-0600"
}
],
"changelog" : "notprovided",
"bookkeeping" : {
"isdeleted" : false,
"isreadonly" : false,
"updates" : [
{
"event" : "addConfiguration",
"timestamp" : "2017-11-15T13:36:54.366-0600",
"value" : {
"name" : "notprovided",
"assigned" : "2017-11-15T13:36:54.366-0600"
}
},
{
"event" : "setVersion",
"timestamp" : "2017-11-15T13:36:54.366-0600",
"value" : {
"name" : "42",
"assigned" : "2017-11-15T13:36:54.366-0600"
}
},
{
"event" : "setCollection",
"timestamp" : "2017-11-15T13:36:54.367-0600",
"value" : {
"name" : "GroupAliasesConfiguration",
"assigned" : "2017-11-15T13:36:54.367-0600"
}
},
{
"event" : "addEntity",
"timestamp" : "2017-11-15T13:36:54.367-0600",
"value" : {
"name" : "OTSROOT",
"assigned" : "2017-11-15T13:36:54.367-0600"
}
},
{
"event" : "addConfiguration",
"timestamp" : "2017-11-15T13:36:56.419-0600",
"value" : {
"name" : "TableEditWizBackbone_v28",
"assigned" : "2017-11-15T13:36:56.419-0600"
}
}
],
"created" : "2017-11-15T13:36:54.365-0600"
},
"_id" : {
"$oid" : "7a525c0d03c64b85a4cd1ddb"
},
"collection" : "GroupAliasesConfiguration",
"aliases" : {
"active" : [

],
"history" : [

]
},
"runs" : [

],
"attachments" : [

],
"configtype" : "notprovided"
}