{
"document" : {
"data" : {
"NAME" : "GROUP_ALIASES_CONFIGURATION",
"COMMENT" : "Default Backbone.",
"AUTHOR" : "admin",
"CREATION_TIME" : 1517603340,
"COL_TYPES" : {
"GROUP_KEY_ALIAS" : "VARCHAR2",
"GROUP_NAME" : "VARCHAR2",
"GROUP_KEY" : "VARCHAR2",
"COMMENT_DESCRIPTION" : "VARCHAR2",
"AUTHOR" : "VARCHAR2",
"RECORD_INSERTION_TIME" : "TIMESTAMP WITH TIMEZONE"
},
"DATA_SET" : [
{
"GROUP_KEY_ALIAS" : "FTBFContextNoPixels",
"GROUP_NAME" : "FTBFContext",
"GROUP_KEY" : "52",
"COMMENT_DESCRIPTION" : "Outer Tracker Context without pixels",
"AUTHOR" : "admin",
"RECORD_INSERTION_TIME" : "1512325946"
},
{
"GROUP_KEY_ALIAS" : "FTBFContextPixels",
"GROUP_NAME" : "FTBFContext",
"GROUP_KEY" : "53",
"COMMENT_DESCRIPTION" : "Outer Tracker Context with pixels",
"AUTHOR" : "admin",
"RECORD_INSERTION_TIME" : "1517589178"
},
{
"GROUP_KEY_ALIAS" : "FTBFSystemAlias",
"GROUP_NAME" : "FTBFConfig",
"GROUP_KEY" : "116",
"COMMENT_DESCRIPTION" : "FTBF \"facility daq\" configuration system alias.",
"AUTHOR" : "admin",
"RECORD_INSERTION_TIME" : "1517603340"
},
{
"GROUP_KEY_ALIAS" : "FTBFNIMPlusTestContext",
"GROUP_NAME" : "FTBFContext",
"GROUP_KEY" : "43",
"COMMENT_DESCRIPTION" : "This Group Alias was automatically setup by the server.",
"AUTHOR" : "admin",
"RECORD_INSERTION_TIME" : "1512325946"
},
{
"GROUP_KEY_ALIAS" : "FTBFNIMPlusTestConfig",
"GROUP_NAME" : "FTBFConfigNim",
"GROUP_KEY" : "20",
"COMMENT_DESCRIPTION" : "This Group Alias was automatically setup by the server.",
"AUTHOR" : "admin",
"RECORD_INSERTION_TIME" : "1512325946"
}
]
},
"metadata" : {

},
"search" : [

]
},
"comments" : [

],
"origin" : {
"source" : "template",
"name" : "notprovided",
"format" : "json",
"created" : "2018-02-02T14:29:00.368-0600",
"rawdata" : [

]
},
"version" : "215",
"entities" : [
{
"name" : "OTSROOT",
"assigned" : "2018-02-02T14:29:00.370-0600"
}
],
"configurations" : [
{
"name" : "notprovided",
"assigned" : "2018-02-02T14:29:00.369-0600"
},
{
"name" : "GroupAliasSaveWizBackbone_v82",
"assigned" : "2018-02-02T14:29:06.923-0600"
}
],
"changelog" : "notprovided",
"bookkeeping" : {
"isdeleted" : false,
"isreadonly" : false,
"updates" : [
{
"event" : "addConfiguration",
"timestamp" : "2018-02-02T14:29:00.369-0600",
"value" : {
"name" : "notprovided",
"assigned" : "2018-02-02T14:29:00.369-0600"
}
},
{
"event" : "setVersion",
"timestamp" : "2018-02-02T14:29:00.369-0600",
"value" : {
"name" : "215",
"assigned" : "2018-02-02T14:29:00.369-0600"
}
},
{
"event" : "setCollection",
"timestamp" : "2018-02-02T14:29:00.370-0600",
"value" : {
"name" : "GroupAliasesConfiguration",
"assigned" : "2018-02-02T14:29:00.370-0600"
}
},
{
"event" : "addEntity",
"timestamp" : "2018-02-02T14:29:00.370-0600",
"value" : {
"name" : "OTSROOT",
"assigned" : "2018-02-02T14:29:00.370-0600"
}
},
{
"event" : "addConfiguration",
"timestamp" : "2018-02-02T14:29:06.923-0600",
"value" : {
"name" : "GroupAliasSaveWizBackbone_v82",
"assigned" : "2018-02-02T14:29:06.923-0600"
}
}
],
"created" : "2018-02-02T14:29:00.368-0600"
},
"_id" : {
"$oid" : "97648cdeb57948c895991c1e"
},
"collection" : "GroupAliasesConfiguration",
"aliases" : {
"active" : [

],
"history" : [

]
},
"runs" : [

],
"attachments" : [

],
"configtype" : "notprovided"
}