{
"document" : {
"data" : {
"NAME" : "GROUP_ALIASES_CONFIGURATION",
"COMMENT" : "Default Backbone.",
"AUTHOR" : "rrivera",
"CREATION_TIME" : 1510242993,
"COL_TYPES" : {
"GROUP_KEY_ALIAS" : "VARCHAR2",
"GROUP_NAME" : "VARCHAR2",
"GROUP_KEY" : "VARCHAR2",
"COMMENT_DESCRIPTION" : "VARCHAR2",
"AUTHOR" : "VARCHAR2",
"RECORD_INSERTION_TIME" : "TIMESTAMP WITH TIMEZONE"
},
"DATA_SET" : [
{
"GROUP_KEY_ALIAS" : "FTBFContextAlias",
"GROUP_NAME" : "FTBFContext",
"GROUP_KEY" : "1",
"COMMENT_DESCRIPTION" : "FTBF \"facility daq\" context alias.",
"AUTHOR" : "rrivera",
"RECORD_INSERTION_TIME" : "1510157031"
},
{
"GROUP_KEY_ALIAS" : "FTBFSystemAlias",
"GROUP_NAME" : "FTBFConfig",
"GROUP_KEY" : "1",
"COMMENT_DESCRIPTION" : "FTBF \"facility daq\" configuration system alias.",
"AUTHOR" : "rrivera",
"RECORD_INSERTION_TIME" : "1510242993"
}
]
},
"metadata" : {

},
"search" : [

]
},
"comments" : [

],
"origin" : {
"source" : "template",
"name" : "notprovided",
"format" : "json",
"created" : "2017-11-09T09:56:33.146-0600",
"rawdata" : [

]
},
"version" : "4",
"entities" : [
{
"name" : "OTSROOT",
"assigned" : "2017-11-09T09:56:33.148-0600"
}
],
"configurations" : [
{
"name" : "notprovided",
"assigned" : "2017-11-09T09:56:33.147-0600"
},
{
"name" : "TableEditWizBackbone_v4",
"assigned" : "2017-11-09T09:56:34.174-0600"
}
],
"changelog" : "notprovided",
"bookkeeping" : {
"isdeleted" : false,
"isreadonly" : false,
"updates" : [
{
"event" : "addConfiguration",
"timestamp" : "2017-11-09T09:56:33.147-0600",
"value" : {
"name" : "notprovided",
"assigned" : "2017-11-09T09:56:33.147-0600"
}
},
{
"event" : "setVersion",
"timestamp" : "2017-11-09T09:56:33.147-0600",
"value" : {
"name" : "4",
"assigned" : "2017-11-09T09:56:33.147-0600"
}
},
{
"event" : "setCollection",
"timestamp" : "2017-11-09T09:56:33.147-0600",
"value" : {
"name" : "GroupAliasesConfiguration",
"assigned" : "2017-11-09T09:56:33.147-0600"
}
},
{
"event" : "addEntity",
"timestamp" : "2017-11-09T09:56:33.148-0600",
"value" : {
"name" : "OTSROOT",
"assigned" : "2017-11-09T09:56:33.148-0600"
}
},
{
"event" : "addConfiguration",
"timestamp" : "2017-11-09T09:56:34.174-0600",
"value" : {
"name" : "TableEditWizBackbone_v4",
"assigned" : "2017-11-09T09:56:34.174-0600"
}
}
],
"created" : "2017-11-09T09:56:33.146-0600"
},
"_id" : {
"$oid" : "a7af48d1447c4562af9a2e61"
},
"collection" : "GroupAliasesConfiguration",
"aliases" : {
"active" : [

],
"history" : [

]
},
"runs" : [

],
"attachments" : [

],
"configtype" : "notprovided"
}