{
"document" : {
"data" : {
"NAME" : "GROUP_ALIASES_CONFIGURATION",
"COMMENT" : "Default Backbone.",
"AUTHOR" : "rrivera",
"CREATION_TIME" : 1510784370,
"COL_TYPES" : {
"GROUP_KEY_ALIAS" : "VARCHAR2",
"GROUP_NAME" : "VARCHAR2",
"GROUP_KEY" : "VARCHAR2",
"COMMENT_DESCRIPTION" : "VARCHAR2",
"AUTHOR" : "VARCHAR2",
"RECORD_INSERTION_TIME" : "TIMESTAMP WITH TIMEZONE"
},
"DATA_SET" : [
{
"GROUP_KEY_ALIAS" : "FTBFContextAlias",
"GROUP_NAME" : "FTBFContext",
"GROUP_KEY" : "27",
"COMMENT_DESCRIPTION" : "FTBF \"facility daq\" context alias.",
"AUTHOR" : "rrivera",
"RECORD_INSERTION_TIME" : "1510784370"
},
{
"GROUP_KEY_ALIAS" : "FTBFSystemAlias",
"GROUP_NAME" : "FTBFConfig",
"GROUP_KEY" : "19",
"COMMENT_DESCRIPTION" : "FTBF \"facility daq\" configuration system alias.",
"AUTHOR" : "admin",
"RECORD_INSERTION_TIME" : "1510781885"
}
]
},
"metadata" : {

},
"search" : [

]
},
"comments" : [

],
"origin" : {
"source" : "template",
"name" : "notprovided",
"format" : "json",
"created" : "2017-11-15T16:19:30.725-0600",
"rawdata" : [

]
},
"version" : "46",
"entities" : [
{
"name" : "OTSROOT",
"assigned" : "2017-11-15T16:19:30.727-0600"
}
],
"configurations" : [
{
"name" : "notprovided",
"assigned" : "2017-11-15T16:19:30.726-0600"
},
{
"name" : "GroupAliasTreeEditWizBackbone_v6",
"assigned" : "2017-11-15T16:19:32.297-0600"
}
],
"changelog" : "notprovided",
"bookkeeping" : {
"isdeleted" : false,
"isreadonly" : false,
"updates" : [
{
"event" : "addConfiguration",
"timestamp" : "2017-11-15T16:19:30.726-0600",
"value" : {
"name" : "notprovided",
"assigned" : "2017-11-15T16:19:30.726-0600"
}
},
{
"event" : "setVersion",
"timestamp" : "2017-11-15T16:19:30.726-0600",
"value" : {
"name" : "46",
"assigned" : "2017-11-15T16:19:30.726-0600"
}
},
{
"event" : "setCollection",
"timestamp" : "2017-11-15T16:19:30.726-0600",
"value" : {
"name" : "GroupAliasesConfiguration",
"assigned" : "2017-11-15T16:19:30.726-0600"
}
},
{
"event" : "addEntity",
"timestamp" : "2017-11-15T16:19:30.727-0600",
"value" : {
"name" : "OTSROOT",
"assigned" : "2017-11-15T16:19:30.727-0600"
}
},
{
"event" : "addConfiguration",
"timestamp" : "2017-11-15T16:19:32.297-0600",
"value" : {
"name" : "GroupAliasTreeEditWizBackbone_v6",
"assigned" : "2017-11-15T16:19:32.297-0600"
}
}
],
"created" : "2017-11-15T16:19:30.725-0600"
},
"_id" : {
"$oid" : "dbda4a088a04479cb4c6d641"
},
"collection" : "GroupAliasesConfiguration",
"aliases" : {
"active" : [

],
"history" : [

]
},
"runs" : [

],
"attachments" : [

],
"configtype" : "notprovided"
}