{
"document" : {
"data" : {
"NAME" : "GROUP_ALIASES_CONFIGURATION",
"COMMENT" : "Default Backbone.",
"AUTHOR" : "rrivera",
"CREATION_TIME" : 1510334462,
"COL_TYPES" : {
"GROUP_KEY_ALIAS" : "VARCHAR2",
"GROUP_NAME" : "VARCHAR2",
"GROUP_KEY" : "VARCHAR2",
"COMMENT_DESCRIPTION" : "VARCHAR2",
"AUTHOR" : "VARCHAR2",
"RECORD_INSERTION_TIME" : "TIMESTAMP WITH TIMEZONE"
},
"DATA_SET" : [
{
"GROUP_KEY_ALIAS" : "FTBFContextAlias",
"GROUP_NAME" : "FTBFContext",
"GROUP_KEY" : "7",
"COMMENT_DESCRIPTION" : "FTBF \"facility daq\" context alias.",
"AUTHOR" : "rrivera",
"RECORD_INSERTION_TIME" : "1510334462"
},
{
"GROUP_KEY_ALIAS" : "FTBFSystemAlias",
"GROUP_NAME" : "FTBFConfig",
"GROUP_KEY" : "3",
"COMMENT_DESCRIPTION" : "FTBF \"facility daq\" configuration system alias.",
"AUTHOR" : "uplegger",
"RECORD_INSERTION_TIME" : "1510245434"
}
]
},
"metadata" : {

},
"search" : [

]
},
"comments" : [

],
"origin" : {
"source" : "template",
"name" : "notprovided",
"format" : "json",
"created" : "2017-11-10T11:21:02.474-0600",
"rawdata" : [

]
},
"version" : "12",
"entities" : [
{
"name" : "OTSROOT",
"assigned" : "2017-11-10T11:21:02.476-0600"
}
],
"configurations" : [
{
"name" : "notprovided",
"assigned" : "2017-11-10T11:21:02.475-0600"
},
{
"name" : "GroupAliasSaveWizBackbone_v5",
"assigned" : "2017-11-10T11:21:03.482-0600"
}
],
"changelog" : "notprovided",
"bookkeeping" : {
"isdeleted" : false,
"isreadonly" : false,
"updates" : [
{
"event" : "addConfiguration",
"timestamp" : "2017-11-10T11:21:02.475-0600",
"value" : {
"name" : "notprovided",
"assigned" : "2017-11-10T11:21:02.475-0600"
}
},
{
"event" : "setVersion",
"timestamp" : "2017-11-10T11:21:02.475-0600",
"value" : {
"name" : "12",
"assigned" : "2017-11-10T11:21:02.475-0600"
}
},
{
"event" : "setCollection",
"timestamp" : "2017-11-10T11:21:02.476-0600",
"value" : {
"name" : "GroupAliasesConfiguration",
"assigned" : "2017-11-10T11:21:02.476-0600"
}
},
{
"event" : "addEntity",
"timestamp" : "2017-11-10T11:21:02.476-0600",
"value" : {
"name" : "OTSROOT",
"assigned" : "2017-11-10T11:21:02.476-0600"
}
},
{
"event" : "addConfiguration",
"timestamp" : "2017-11-10T11:21:03.483-0600",
"value" : {
"name" : "GroupAliasSaveWizBackbone_v5",
"assigned" : "2017-11-10T11:21:03.482-0600"
}
}
],
"created" : "2017-11-10T11:21:02.474-0600"
},
"_id" : {
"$oid" : "e3a1f83aae474fbebc957ed5"
},
"collection" : "GroupAliasesConfiguration",
"aliases" : {
"active" : [

],
"history" : [

]
},
"runs" : [

],
"attachments" : [

],
"configtype" : "notprovided"
}