{
"document" : {
"data" : {
"NAME" : "GROUP_ALIASES_CONFIGURATION",
"COMMENT" : "Default Backbone.",
"AUTHOR" : "admin",
"CREATION_TIME" : 1512169678,
"COL_TYPES" : {
"GROUP_KEY_ALIAS" : "VARCHAR2",
"GROUP_NAME" : "VARCHAR2",
"GROUP_KEY" : "VARCHAR2",
"COMMENT_DESCRIPTION" : "VARCHAR2",
"AUTHOR" : "VARCHAR2",
"RECORD_INSERTION_TIME" : "TIMESTAMP WITH TIMEZONE"
},
"DATA_SET" : [
{
"GROUP_KEY_ALIAS" : "FTBFContextAlias",
"GROUP_NAME" : "FTBFContext",
"GROUP_KEY" : "44",
"COMMENT_DESCRIPTION" : "FTBF \"facility daq\" context alias.",
"AUTHOR" : "admin",
"RECORD_INSERTION_TIME" : "1512169678"
},
{
"GROUP_KEY_ALIAS" : "FTBFSystemAlias",
"GROUP_NAME" : "FTBFConfig",
"GROUP_KEY" : "64",
"COMMENT_DESCRIPTION" : "FTBF \"facility daq\" configuration system alias.",
"AUTHOR" : "admin",
"RECORD_INSERTION_TIME" : "1512169596"
},
{
"GROUP_KEY_ALIAS" : "FTBFNIMPlusTestContext",
"GROUP_NAME" : "FTBFContext",
"GROUP_KEY" : "43",
"COMMENT_DESCRIPTION" : "This Group Alias was automatically setup by the server.",
"AUTHOR" : "admin",
"RECORD_INSERTION_TIME" : "1512164987"
},
{
"GROUP_KEY_ALIAS" : "FTBFNIMPlusTestConfig",
"GROUP_NAME" : "FTBFConfig",
"GROUP_KEY" : "63",
"COMMENT_DESCRIPTION" : "This Group Alias was automatically setup by the server.",
"AUTHOR" : "admin",
"RECORD_INSERTION_TIME" : "1512167490"
}
]
},
"metadata" : {

},
"search" : [

]
},
"comments" : [

],
"origin" : {
"source" : "template",
"name" : "notprovided",
"format" : "json",
"created" : "2017-12-01T17:07:58.678-0600",
"rawdata" : [

]
},
"version" : "106",
"entities" : [
{
"name" : "OTSROOT",
"assigned" : "2017-12-01T17:07:58.680-0600"
}
],
"configurations" : [
{
"name" : "notprovided",
"assigned" : "2017-12-01T17:07:58.679-0600"
},
{
"name" : "TableEditWizBackbone_v49",
"assigned" : "2017-12-01T17:08:01.891-0600"
}
],
"changelog" : "notprovided",
"bookkeeping" : {
"isdeleted" : false,
"isreadonly" : false,
"updates" : [
{
"event" : "addConfiguration",
"timestamp" : "2017-12-01T17:07:58.679-0600",
"value" : {
"name" : "notprovided",
"assigned" : "2017-12-01T17:07:58.679-0600"
}
},
{
"event" : "setVersion",
"timestamp" : "2017-12-01T17:07:58.679-0600",
"value" : {
"name" : "106",
"assigned" : "2017-12-01T17:07:58.679-0600"
}
},
{
"event" : "setCollection",
"timestamp" : "2017-12-01T17:07:58.679-0600",
"value" : {
"name" : "GroupAliasesConfiguration",
"assigned" : "2017-12-01T17:07:58.679-0600"
}
},
{
"event" : "addEntity",
"timestamp" : "2017-12-01T17:07:58.680-0600",
"value" : {
"name" : "OTSROOT",
"assigned" : "2017-12-01T17:07:58.680-0600"
}
},
{
"event" : "addConfiguration",
"timestamp" : "2017-12-01T17:08:01.891-0600",
"value" : {
"name" : "TableEditWizBackbone_v49",
"assigned" : "2017-12-01T17:08:01.891-0600"
}
}
],
"created" : "2017-12-01T17:07:58.678-0600"
},
"_id" : {
"$oid" : "e7508246a6cf42ad866992b3"
},
"collection" : "GroupAliasesConfiguration",
"aliases" : {
"active" : [

],
"history" : [

]
},
"runs" : [

],
"attachments" : [

],
"configtype" : "notprovided"
}