{
"document" : {
"data" : {
"NAME" : "GROUP_ALIASES_CONFIGURATION",
"COMMENT" : "Default Backbone.",
"AUTHOR" : "uplegger",
"CREATION_TIME" : 1510768672,
"COL_TYPES" : {
"GROUP_KEY_ALIAS" : "VARCHAR2",
"GROUP_NAME" : "VARCHAR2",
"GROUP_KEY" : "VARCHAR2",
"COMMENT_DESCRIPTION" : "VARCHAR2",
"AUTHOR" : "VARCHAR2",
"RECORD_INSERTION_TIME" : "TIMESTAMP WITH TIMEZONE"
},
"DATA_SET" : [
{
"GROUP_KEY_ALIAS" : "FTBFContextAlias",
"GROUP_NAME" : "FTBFContext",
"GROUP_KEY" : "20",
"COMMENT_DESCRIPTION" : "FTBF \"facility daq\" context alias.",
"AUTHOR" : "rrivera",
"RECORD_INSERTION_TIME" : "1510697729"
},
{
"GROUP_KEY_ALIAS" : "FTBFSystemAlias",
"GROUP_NAME" : "FTBFConfig",
"GROUP_KEY" : "6",
"COMMENT_DESCRIPTION" : "FTBF \"facility daq\" configuration system alias.",
"AUTHOR" : "uplegger",
"RECORD_INSERTION_TIME" : "1510768672"
}
]
},
"metadata" : {

},
"search" : [

]
},
"comments" : [

],
"origin" : {
"source" : "template",
"name" : "notprovided",
"format" : "json",
"created" : "2017-11-15T11:57:52.055-0600",
"rawdata" : [

]
},
"version" : "26",
"entities" : [
{
"name" : "OTSROOT",
"assigned" : "2017-11-15T11:57:52.057-0600"
}
],
"configurations" : [
{
"name" : "notprovided",
"assigned" : "2017-11-15T11:57:52.056-0600"
},
{
"name" : "TableEditWizBackbone_v14",
"assigned" : "2017-11-15T11:57:53.580-0600"
}
],
"changelog" : "notprovided",
"bookkeeping" : {
"isdeleted" : false,
"isreadonly" : false,
"updates" : [
{
"event" : "addConfiguration",
"timestamp" : "2017-11-15T11:57:52.056-0600",
"value" : {
"name" : "notprovided",
"assigned" : "2017-11-15T11:57:52.056-0600"
}
},
{
"event" : "setVersion",
"timestamp" : "2017-11-15T11:57:52.056-0600",
"value" : {
"name" : "26",
"assigned" : "2017-11-15T11:57:52.056-0600"
}
},
{
"event" : "setCollection",
"timestamp" : "2017-11-15T11:57:52.056-0600",
"value" : {
"name" : "GroupAliasesConfiguration",
"assigned" : "2017-11-15T11:57:52.056-0600"
}
},
{
"event" : "addEntity",
"timestamp" : "2017-11-15T11:57:52.057-0600",
"value" : {
"name" : "OTSROOT",
"assigned" : "2017-11-15T11:57:52.057-0600"
}
},
{
"event" : "addConfiguration",
"timestamp" : "2017-11-15T11:57:53.580-0600",
"value" : {
"name" : "TableEditWizBackbone_v14",
"assigned" : "2017-11-15T11:57:53.580-0600"
}
}
],
"created" : "2017-11-15T11:57:52.055-0600"
},
"_id" : {
"$oid" : "edbf4326acae4cbeb12a1ca5"
},
"collection" : "GroupAliasesConfiguration",
"aliases" : {
"active" : [

],
"history" : [

]
},
"runs" : [

],
"attachments" : [

],
"configtype" : "notprovided"
}