{
"document" : {
"data" : {
"NAME" : "GROUP_ALIASES_CONFIGURATION",
"COMMENT" : "Default Backbone.",
"AUTHOR" : "admin",
"CREATION_TIME" : 1512324070,
"COL_TYPES" : {
"GROUP_KEY_ALIAS" : "VARCHAR2",
"GROUP_NAME" : "VARCHAR2",
"GROUP_KEY" : "VARCHAR2",
"COMMENT_DESCRIPTION" : "VARCHAR2",
"AUTHOR" : "VARCHAR2",
"RECORD_INSERTION_TIME" : "TIMESTAMP WITH TIMEZONE"
},
"DATA_SET" : [
{
"GROUP_KEY_ALIAS" : "FTBFContextAlias",
"GROUP_NAME" : "FTBFContext",
"GROUP_KEY" : "52",
"COMMENT_DESCRIPTION" : "FTBF \"facility daq\" context alias.",
"AUTHOR" : "admin",
"RECORD_INSERTION_TIME" : "1512324069"
},
{
"GROUP_KEY_ALIAS" : "FTBFSystemAlias",
"GROUP_NAME" : "FTBFConfig",
"GROUP_KEY" : "77",
"COMMENT_DESCRIPTION" : "FTBF \"facility daq\" configuration system alias.",
"AUTHOR" : "admin",
"RECORD_INSERTION_TIME" : "1512263537"
},
{
"GROUP_KEY_ALIAS" : "FTBFNIMPlusTestContext",
"GROUP_NAME" : "FTBFContext",
"GROUP_KEY" : "43",
"COMMENT_DESCRIPTION" : "This Group Alias was automatically setup by the server.",
"AUTHOR" : "admin",
"RECORD_INSERTION_TIME" : "1512164987"
},
{
"GROUP_KEY_ALIAS" : "FTBFNIMPlusTestConfig",
"GROUP_NAME" : "FTBFConfigNim",
"GROUP_KEY" : "20",
"COMMENT_DESCRIPTION" : "This Group Alias was automatically setup by the server.",
"AUTHOR" : "admin",
"RECORD_INSERTION_TIME" : "1512197852"
}
]
},
"metadata" : {

},
"search" : [

]
},
"comments" : [

],
"origin" : {
"source" : "template",
"name" : "notprovided",
"format" : "json",
"created" : "2017-12-03T12:01:10.017-0600",
"rawdata" : [

]
},
"version" : "166",
"entities" : [
{
"name" : "OTSROOT",
"assigned" : "2017-12-03T12:01:10.019-0600"
}
],
"configurations" : [
{
"name" : "notprovided",
"assigned" : "2017-12-03T12:01:10.018-0600"
},
{
"name" : "GroupAliasTreeEditWizBackbone_v49",
"assigned" : "2017-12-03T12:01:14.070-0600"
}
],
"changelog" : "notprovided",
"bookkeeping" : {
"isdeleted" : false,
"isreadonly" : false,
"updates" : [
{
"event" : "addConfiguration",
"timestamp" : "2017-12-03T12:01:10.018-0600",
"value" : {
"name" : "notprovided",
"assigned" : "2017-12-03T12:01:10.018-0600"
}
},
{
"event" : "setVersion",
"timestamp" : "2017-12-03T12:01:10.019-0600",
"value" : {
"name" : "166",
"assigned" : "2017-12-03T12:01:10.019-0600"
}
},
{
"event" : "setCollection",
"timestamp" : "2017-12-03T12:01:10.019-0600",
"value" : {
"name" : "GroupAliasesConfiguration",
"assigned" : "2017-12-03T12:01:10.019-0600"
}
},
{
"event" : "addEntity",
"timestamp" : "2017-12-03T12:01:10.019-0600",
"value" : {
"name" : "OTSROOT",
"assigned" : "2017-12-03T12:01:10.019-0600"
}
},
{
"event" : "addConfiguration",
"timestamp" : "2017-12-03T12:01:14.070-0600",
"value" : {
"name" : "GroupAliasTreeEditWizBackbone_v49",
"assigned" : "2017-12-03T12:01:14.070-0600"
}
}
],
"created" : "2017-12-03T12:01:10.018-0600"
},
"_id" : {
"$oid" : "f21d4b0146494af0b048c23d"
},
"collection" : "GroupAliasesConfiguration",
"aliases" : {
"active" : [

],
"history" : [

]
},
"runs" : [

],
"attachments" : [

],
"configtype" : "notprovided"
}