{
"document" : {
"data" : {
"NAME" : "GROUP_ALIASES_CONFIGURATION",
"COMMENT" : "Default Backbone.",
"AUTHOR" : "admin",
"CREATION_TIME" : 1512247704,
"COL_TYPES" : {
"GROUP_KEY_ALIAS" : "VARCHAR2",
"GROUP_NAME" : "VARCHAR2",
"GROUP_KEY" : "VARCHAR2",
"COMMENT_DESCRIPTION" : "VARCHAR2",
"AUTHOR" : "VARCHAR2",
"RECORD_INSERTION_TIME" : "TIMESTAMP WITH TIMEZONE"
},
"DATA_SET" : [
{
"GROUP_KEY_ALIAS" : "FTBFContextAlias",
"GROUP_NAME" : "FTBFContext",
"GROUP_KEY" : "49",
"COMMENT_DESCRIPTION" : "FTBF \"facility daq\" context alias.",
"AUTHOR" : "admin",
"RECORD_INSERTION_TIME" : "1512247704"
},
{
"GROUP_KEY_ALIAS" : "FTBFSystemAlias",
"GROUP_NAME" : "FTBFConfig",
"GROUP_KEY" : "75",
"COMMENT_DESCRIPTION" : "FTBF \"facility daq\" configuration system alias.",
"AUTHOR" : "admin",
"RECORD_INSERTION_TIME" : "1512245543"
},
{
"GROUP_KEY_ALIAS" : "FTBFNIMPlusTestContext",
"GROUP_NAME" : "FTBFContext",
"GROUP_KEY" : "43",
"COMMENT_DESCRIPTION" : "This Group Alias was automatically setup by the server.",
"AUTHOR" : "admin",
"RECORD_INSERTION_TIME" : "1512164987"
},
{
"GROUP_KEY_ALIAS" : "FTBFNIMPlusTestConfig",
"GROUP_NAME" : "FTBFConfigNim",
"GROUP_KEY" : "20",
"COMMENT_DESCRIPTION" : "This Group Alias was automatically setup by the server.",
"AUTHOR" : "admin",
"RECORD_INSERTION_TIME" : "1512197852"
}
]
},
"metadata" : {

},
"search" : [

]
},
"comments" : [

],
"origin" : {
"source" : "template",
"name" : "notprovided",
"format" : "json",
"created" : "2017-12-02T14:48:24.241-0600",
"rawdata" : [

]
},
"version" : "161",
"entities" : [
{
"name" : "OTSROOT",
"assigned" : "2017-12-02T14:48:24.243-0600"
}
],
"configurations" : [
{
"name" : "notprovided",
"assigned" : "2017-12-02T14:48:24.242-0600"
},
{
"name" : "TableEditWizBackbone_v55",
"assigned" : "2017-12-02T14:48:28.277-0600"
}
],
"changelog" : "notprovided",
"bookkeeping" : {
"isdeleted" : false,
"isreadonly" : false,
"updates" : [
{
"event" : "addConfiguration",
"timestamp" : "2017-12-02T14:48:24.242-0600",
"value" : {
"name" : "notprovided",
"assigned" : "2017-12-02T14:48:24.242-0600"
}
},
{
"event" : "setVersion",
"timestamp" : "2017-12-02T14:48:24.242-0600",
"value" : {
"name" : "161",
"assigned" : "2017-12-02T14:48:24.243-0600"
}
},
{
"event" : "setCollection",
"timestamp" : "2017-12-02T14:48:24.243-0600",
"value" : {
"name" : "GroupAliasesConfiguration",
"assigned" : "2017-12-02T14:48:24.243-0600"
}
},
{
"event" : "addEntity",
"timestamp" : "2017-12-02T14:48:24.243-0600",
"value" : {
"name" : "OTSROOT",
"assigned" : "2017-12-02T14:48:24.243-0600"
}
},
{
"event" : "addConfiguration",
"timestamp" : "2017-12-02T14:48:28.277-0600",
"value" : {
"name" : "TableEditWizBackbone_v55",
"assigned" : "2017-12-02T14:48:28.277-0600"
}
}
],
"created" : "2017-12-02T14:48:24.242-0600"
},
"_id" : {
"$oid" : "f83a466cee7c449aa93e2dd2"
},
"collection" : "GroupAliasesConfiguration",
"aliases" : {
"active" : [

],
"history" : [

]
},
"runs" : [

],
"attachments" : [

],
"configtype" : "notprovided"
}