{
"document" : {
"data" : {
"NAME" : "GROUP_ALIASES_CONFIGURATION",
"COMMENT" : "Default Backbone.",
"AUTHOR" : "uplegger",
"CREATION_TIME" : 1511210913,
"COL_TYPES" : {
"GROUP_KEY_ALIAS" : "VARCHAR2",
"GROUP_NAME" : "VARCHAR2",
"GROUP_KEY" : "VARCHAR2",
"COMMENT_DESCRIPTION" : "VARCHAR2",
"AUTHOR" : "VARCHAR2",
"RECORD_INSERTION_TIME" : "TIMESTAMP WITH TIMEZONE"
},
"DATA_SET" : [
{
"GROUP_KEY_ALIAS" : "FTBFContextAlias",
"GROUP_NAME" : "FTBFContext",
"GROUP_KEY" : "30",
"COMMENT_DESCRIPTION" : "FTBF \"facility daq\" context alias.",
"AUTHOR" : "uplegger",
"RECORD_INSERTION_TIME" : "1511210681"
},
{
"GROUP_KEY_ALIAS" : "FTBFSystemAlias",
"GROUP_NAME" : "FTBFConfig",
"GROUP_KEY" : "29",
"COMMENT_DESCRIPTION" : "FTBF \"facility daq\" configuration system alias.",
"AUTHOR" : "uplegger",
"RECORD_INSERTION_TIME" : "1511210913"
}
]
},
"metadata" : {

},
"search" : [

]
},
"comments" : [

],
"origin" : {
"source" : "template",
"name" : "notprovided",
"format" : "json",
"created" : "2017-11-20T14:48:33.864-0600",
"rawdata" : [

]
},
"version" : "59",
"entities" : [
{
"name" : "OTSROOT",
"assigned" : "2017-11-20T14:48:33.865-0600"
}
],
"configurations" : [
{
"name" : "notprovided",
"assigned" : "2017-11-20T14:48:33.865-0600"
},
{
"name" : "TableEditWizBackbone_v31",
"assigned" : "2017-11-20T14:48:36.460-0600"
}
],
"changelog" : "notprovided",
"bookkeeping" : {
"isdeleted" : false,
"isreadonly" : false,
"updates" : [
{
"event" : "addConfiguration",
"timestamp" : "2017-11-20T14:48:33.865-0600",
"value" : {
"name" : "notprovided",
"assigned" : "2017-11-20T14:48:33.865-0600"
}
},
{
"event" : "setVersion",
"timestamp" : "2017-11-20T14:48:33.865-0600",
"value" : {
"name" : "59",
"assigned" : "2017-11-20T14:48:33.865-0600"
}
},
{
"event" : "setCollection",
"timestamp" : "2017-11-20T14:48:33.865-0600",
"value" : {
"name" : "GroupAliasesConfiguration",
"assigned" : "2017-11-20T14:48:33.865-0600"
}
},
{
"event" : "addEntity",
"timestamp" : "2017-11-20T14:48:33.865-0600",
"value" : {
"name" : "OTSROOT",
"assigned" : "2017-11-20T14:48:33.865-0600"
}
},
{
"event" : "addConfiguration",
"timestamp" : "2017-11-20T14:48:36.460-0600",
"value" : {
"name" : "TableEditWizBackbone_v31",
"assigned" : "2017-11-20T14:48:36.460-0600"
}
}
],
"created" : "2017-11-20T14:48:33.864-0600"
},
"_id" : {
"$oid" : "faa820e010b242af972cac09"
},
"collection" : "GroupAliasesConfiguration",
"aliases" : {
"active" : [

],
"history" : [

]
},
"runs" : [

],
"attachments" : [

],
"configtype" : "notprovided"
}