{
"ouid" : [
"6a76625ac55c45419bd4b120",
"93ea7d0fa1e14a8e86443259"
],
"version" : {
"5" : [
"6a76625ac55c45419bd4b120"
],
"6" : [
"93ea7d0fa1e14a8e86443259"
]
},
"configurations.name" : {
"notprovided" : [
"6a76625ac55c45419bd4b120",
"93ea7d0fa1e14a8e86443259"
],
"TableEditWizBackone_v5" : [
"6a76625ac55c45419bd4b120"
],
"TableEditWizBackone_v6" : [
"93ea7d0fa1e14a8e86443259"
]
},
"entities.name" : {
"OTSROOT" : [
"6a76625ac55c45419bd4b120",
"93ea7d0fa1e14a8e86443259"
]
},
"aliases.active.name" : {

},
"runs.name" : {

}
}