{
"document" : {
"data" : {
"NAME" : "BURNIN_BOX_CYCLE_TABLE",
"COMMENT" : "No comment.",
"AUTHOR" : "admin",
"CREATION_TIME" : 1654632350,
"COL_TYPES" : {
"BURNIN_BOX_CYCLE_GROUP_ID" : "STRING",
"TARGET_ID" : "STRING",
"IN_USE" : "STRING",
"SEQUENCE" : "NUMBER",
"TEMPERATURE" : "NUMBER",
"TIME_AT_TARGET" : "NUMBER",
"COMMENT_DESCRIPTION" : "STRING",
"AUTHOR" : "STRING",
"RECORD_INSERTION_TIME" : "TIMESTAMP WITH TIMEZONE"
},
"DATA_SET" : [
{
"BURNIN_BOX_CYCLE_GROUP_ID" : "ModuleTestingCycle",
"TARGET_ID" : "LowTemperature",
"IN_USE" : "Yes",
"SEQUENCE" : "1",
"TEMPERATURE" : "-35",
"TIME_AT_TARGET" : "-1",
"COMMENT_DESCRIPTION" : "No Comment",
"AUTHOR" : "admin",
"RECORD_INSERTION_TIME" : "1654632350"
},
{
"BURNIN_BOX_CYCLE_GROUP_ID" : "ModuleTestingCycle",
"TARGET_ID" : "HighTemperature",
"IN_USE" : "Yes",
"SEQUENCE" : "2",
"TEMPERATURE" : "20",
"TIME_AT_TARGET" : "5",
"COMMENT_DESCRIPTION" : "No Comment",
"AUTHOR" : "admin",
"RECORD_INSERTION_TIME" : "1654284613"
},
{
"BURNIN_BOX_CYCLE_GROUP_ID" : "ModuleTestingCycle",
"TARGET_ID" : "StopTemperature",
"IN_USE" : "Yes",
"SEQUENCE" : "3",
"TEMPERATURE" : "20",
"TIME_AT_TARGET" : "-1",
"COMMENT_DESCRIPTION" : "No Comment",
"AUTHOR" : "admin",
"RECORD_INSERTION_TIME" : "1654284846"
}
]
},
"metadata" : {

},
"search" : [

]
},
"comments" : [

],
"origin" : {
"source" : "template",
"name" : "notprovided",
"format" : "json",
"created" : "2022-06-07T15:05:50.561-0500",
"rawdata" : [

]
},
"version" : "41",
"entities" : [
{
"name" : "OTSROOT",
"assigned" : "2022-06-07T15:05:50.562-0500"
}
],
"configurations" : [
{
"name" : "notprovided",
"assigned" : "2022-06-07T15:05:50.562-0500"
},
{
"name" : "BurninBoxConfiguration_v101",
"assigned" : "2022-06-07T15:05:52.731-0500"
}
],
"changelog" : "notprovided",
"bookkeeping" : {
"isdeleted" : false,
"isreadonly" : false,
"updates" : [
{
"event" : "addConfiguration",
"timestamp" : "2022-06-07T15:05:50.562-0500",
"value" : {
"name" : "notprovided",
"assigned" : "2022-06-07T15:05:50.562-0500"
}
},
{
"event" : "setVersion",
"timestamp" : "2022-06-07T15:05:50.562-0500",
"value" : {
"name" : "41",
"assigned" : "2022-06-07T15:05:50.562-0500"
}
},
{
"event" : "setCollection",
"timestamp" : "2022-06-07T15:05:50.562-0500",
"value" : {
"name" : "BurninBoxCycleTable",
"assigned" : "2022-06-07T15:05:50.562-0500"
}
},
{
"event" : "addEntity",
"timestamp" : "2022-06-07T15:05:50.562-0500",
"value" : {
"name" : "OTSROOT",
"assigned" : "2022-06-07T15:05:50.562-0500"
}
},
{
"event" : "addConfiguration",
"timestamp" : "2022-06-07T15:05:52.731-0500",
"value" : {
"name" : "BurninBoxConfiguration_v101",
"assigned" : "2022-06-07T15:05:52.731-0500"
}
}
],
"created" : "2022-06-07T15:05:50.561-0500"
},
"_id" : {
"$oid" : "3a76615498ba459d9e744aec"
},
"collection" : "BurninBoxCycleTable",
"aliases" : {
"active" : [

],
"history" : [

]
},
"runs" : [

],
"attachments" : [

],
"configtype" : "notprovided"
}