{
"document" : {
"data" : {
"NAME" : "BURNIN_BOX_CYCLE_TABLE",
"COMMENT" : "No comment.",
"AUTHOR" : "admin",
"CREATION_TIME" : 1674144496,
"COL_TYPES" : {
"BURNIN_BOX_CYCLE_GROUP_ID" : "STRING",
"TARGET_ID" : "STRING",
"IN_USE" : "STRING",
"SEQUENCE" : "NUMBER",
"TEMPERATURE" : "NUMBER",
"TIME_AT_TARGET" : "NUMBER",
"COMMENT_DESCRIPTION" : "STRING",
"AUTHOR" : "STRING",
"RECORD_INSERTION_TIME" : "TIMESTAMP WITH TIMEZONE"
},
"DATA_SET" : [
{
"BURNIN_BOX_CYCLE_GROUP_ID" : "ModuleTestingCycle",
"TARGET_ID" : "LowTemperature",
"IN_USE" : "Yes",
"SEQUENCE" : "1",
"TEMPERATURE" : "18",
"TIME_AT_TARGET" : "300",
"COMMENT_DESCRIPTION" : "No Comment",
"AUTHOR" : "admin",
"RECORD_INSERTION_TIME" : "1674144496"
},
{
"BURNIN_BOX_CYCLE_GROUP_ID" : "ModuleTestingCycle",
"TARGET_ID" : "HighTemperature",
"IN_USE" : "Yes",
"SEQUENCE" : "2",
"TEMPERATURE" : "20",
"TIME_AT_TARGET" : "5",
"COMMENT_DESCRIPTION" : "No Comment",
"AUTHOR" : "admin",
"RECORD_INSERTION_TIME" : "1654284613"
},
{
"BURNIN_BOX_CYCLE_GROUP_ID" : "ModuleTestingCycle",
"TARGET_ID" : "StopTemperature",
"IN_USE" : "Yes",
"SEQUENCE" : "3",
"TEMPERATURE" : "20",
"TIME_AT_TARGET" : "-1",
"COMMENT_DESCRIPTION" : "No Comment",
"AUTHOR" : "admin",
"RECORD_INSERTION_TIME" : "1654284846"
}
]
},
"metadata" : {

},
"search" : [

]
},
"comments" : [

],
"origin" : {
"source" : "template",
"name" : "notprovided",
"format" : "json",
"created" : "2023-01-19T10:08:16.603-0600",
"rawdata" : [

]
},
"version" : "48",
"entities" : [
{
"name" : "OTSROOT",
"assigned" : "2023-01-19T10:08:16.604-0600"
}
],
"configurations" : [
{
"name" : "notprovided",
"assigned" : "2023-01-19T10:08:16.604-0600"
},
{
"name" : "BurninBoxConfiguration_v111",
"assigned" : "2023-01-19T10:08:18.806-0600"
},
{
"name" : "BurninBoxConfiguration_v112",
"assigned" : "2023-01-19T11:02:44.010-0600"
},
{
"name" : "BurninBoxConfiguration_v113",
"assigned" : "2023-01-20T11:51:29.986-0600"
}
],
"changelog" : "notprovided",
"bookkeeping" : {
"isdeleted" : false,
"isreadonly" : false,
"updates" : [
{
"event" : "addConfiguration",
"timestamp" : "2023-01-19T10:08:16.604-0600",
"value" : {
"name" : "notprovided",
"assigned" : "2023-01-19T10:08:16.604-0600"
}
},
{
"event" : "setVersion",
"timestamp" : "2023-01-19T10:08:16.604-0600",
"value" : {
"name" : "48",
"assigned" : "2023-01-19T10:08:16.604-0600"
}
},
{
"event" : "setCollection",
"timestamp" : "2023-01-19T10:08:16.604-0600",
"value" : {
"name" : "BurninBoxCycleTable",
"assigned" : "2023-01-19T10:08:16.604-0600"
}
},
{
"event" : "addEntity",
"timestamp" : "2023-01-19T10:08:16.604-0600",
"value" : {
"name" : "OTSROOT",
"assigned" : "2023-01-19T10:08:16.604-0600"
}
},
{
"event" : "addConfiguration",
"timestamp" : "2023-01-19T10:08:18.806-0600",
"value" : {
"name" : "BurninBoxConfiguration_v111",
"assigned" : "2023-01-19T10:08:18.806-0600"
}
},
{
"event" : "addConfiguration",
"timestamp" : "2023-01-19T11:02:44.011-0600",
"value" : {
"name" : "BurninBoxConfiguration_v112",
"assigned" : "2023-01-19T11:02:44.010-0600"
}
},
{
"event" : "addConfiguration",
"timestamp" : "2023-01-20T11:51:29.986-0600",
"value" : {
"name" : "BurninBoxConfiguration_v113",
"assigned" : "2023-01-20T11:51:29.986-0600"
}
}
],
"created" : "2023-01-19T10:08:16.603-0600"
},
"_id" : {
"$oid" : "5ac7490cc75f479ca0d663ee"
},
"collection" : "BurninBoxCycleTable",
"aliases" : {
"active" : [

],
"history" : [

]
},
"runs" : [

],
"attachments" : [

],
"configtype" : "notprovided"
}