{
"document" : {
"data" : {
"NAME" : "BURNIN_BOX_CYCLE_TABLE",
"COMMENT" : "No comment.",
"AUTHOR" : "admin",
"CREATION_TIME" : 1680625376,
"COL_TYPES" : {
"BURNIN_BOX_CYCLE_GROUP_ID" : "STRING",
"TARGET_ID" : "STRING",
"IN_USE" : "STRING",
"SEQUENCE" : "NUMBER",
"TEMPERATURE" : "NUMBER",
"TIME_AT_TARGET" : "NUMBER",
"COMMENT_DESCRIPTION" : "STRING",
"AUTHOR" : "STRING",
"RECORD_INSERTION_TIME" : "TIMESTAMP WITH TIMEZONE"
},
"DATA_SET" : [
{
"BURNIN_BOX_CYCLE_GROUP_ID" : "ModuleTestingCycle",
"TARGET_ID" : "StartTemperature",
"IN_USE" : "Yes",
"SEQUENCE" : "10",
"TEMPERATURE" : "20",
"TIME_AT_TARGET" : "300",
"COMMENT_DESCRIPTION" : "No Comment",
"AUTHOR" : "admin",
"RECORD_INSERTION_TIME" : "1680625376"
},
{
"BURNIN_BOX_CYCLE_GROUP_ID" : "ModuleTestingCycle",
"TARGET_ID" : "LowTemperature",
"IN_USE" : "Yes",
"SEQUENCE" : "20",
"TEMPERATURE" : "20",
"TIME_AT_TARGET" : "300",
"COMMENT_DESCRIPTION" : "No Comment",
"AUTHOR" : "admin",
"RECORD_INSERTION_TIME" : "1680625376"
},
{
"BURNIN_BOX_CYCLE_GROUP_ID" : "ModuleTestingCycle",
"TARGET_ID" : "HighTemperature",
"IN_USE" : "Yes",
"SEQUENCE" : "30",
"TEMPERATURE" : "20",
"TIME_AT_TARGET" : "300",
"COMMENT_DESCRIPTION" : "No Comment",
"AUTHOR" : "admin",
"RECORD_INSERTION_TIME" : "1680625376"
},
{
"BURNIN_BOX_CYCLE_GROUP_ID" : "ModuleTestingCycle",
"TARGET_ID" : "StopTemperature",
"IN_USE" : "Yes",
"SEQUENCE" : "40",
"TEMPERATURE" : "20",
"TIME_AT_TARGET" : "-1",
"COMMENT_DESCRIPTION" : "No Comment",
"AUTHOR" : "admin",
"RECORD_INSERTION_TIME" : "1680625376"
}
]
},
"metadata" : {

},
"search" : [

]
},
"comments" : [

],
"origin" : {
"source" : "template",
"name" : "notprovided",
"format" : "json",
"created" : "2023-04-04T11:22:56.107-0500",
"rawdata" : [

]
},
"version" : "53",
"entities" : [
{
"name" : "OTSROOT",
"assigned" : "2023-04-04T11:22:56.107-0500"
}
],
"configurations" : [
{
"name" : "notprovided",
"assigned" : "2023-04-04T11:22:56.107-0500"
},
{
"name" : "BurninBoxConfiguration_v122",
"assigned" : "2023-04-04T11:22:59.904-0500"
},
{
"name" : "BurninBoxConfiguration_v123",
"assigned" : "2023-04-04T13:48:50.856-0500"
},
{
"name" : "BurninBoxConfiguration_v124",
"assigned" : "2023-04-04T13:51:57.914-0500"
},
{
"name" : "BurninBoxConfiguration_v125",
"assigned" : "2023-04-04T14:30:59.290-0500"
},
{
"name" : "BurninBoxConfiguration_v126",
"assigned" : "2023-04-04T16:05:03.508-0500"
},
{
"name" : "BurninBoxConfiguration_v127",
"assigned" : "2023-04-07T10:09:31.322-0500"
},
{
"name" : "BurninBoxConfiguration_v129",
"assigned" : "2023-04-14T10:53:42.883-0500"
},
{
"name" : "BurninBoxConfiguration_v130",
"assigned" : "2023-04-14T11:01:22.450-0500"
},
{
"name" : "BurninBoxConfiguration_v131",
"assigned" : "2023-04-14T11:05:24.558-0500"
},
{
"name" : "BurninBoxConfiguration_v132",
"assigned" : "2023-04-14T12:25:09.660-0500"
},
{
"name" : "BurninBoxConfiguration_v133",
"assigned" : "2023-04-14T14:03:25.785-0500"
},
{
"name" : "BurninBoxConfiguration_v134",
"assigned" : "2023-04-14T15:36:48.408-0500"
},
{
"name" : "BurninBoxConfiguration_v135",
"assigned" : "2023-04-14T15:57:02.903-0500"
},
{
"name" : "BurninBoxConfiguration_v136",
"assigned" : "2023-04-14T15:58:59.381-0500"
},
{
"name" : "BurninBoxConfiguration_v139",
"assigned" : "2023-04-17T15:51:47.692-0500"
},
{
"name" : "BurninBoxConfiguration_v140",
"assigned" : "2023-04-18T10:48:01.051-0500"
},
{
"name" : "BurninBoxConfiguration_v141",
"assigned" : "2023-04-18T12:02:40.147-0500"
},
{
"name" : "BurninBoxConfiguration_v142",
"assigned" : "2023-04-18T12:03:55.655-0500"
},
{
"name" : "BurninBoxConfiguration_v143",
"assigned" : "2023-04-18T13:48:30.554-0500"
},
{
"name" : "BurninBoxConfiguration_v144",
"assigned" : "2023-04-18T14:33:53.909-0500"
},
{
"name" : "BurninBoxConfiguration_v145",
"assigned" : "2023-04-18T16:14:30.452-0500"
},
{
"name" : "BurninBoxConfiguration_v146",
"assigned" : "2023-04-18T16:20:20.009-0500"
},
{
"name" : "BurninBoxConfiguration_v147",
"assigned" : "2023-04-21T15:02:46.902-0500"
}
],
"changelog" : "notprovided",
"bookkeeping" : {
"isdeleted" : false,
"isreadonly" : false,
"updates" : [
{
"event" : "addConfiguration",
"timestamp" : "2023-04-04T11:22:56.107-0500",
"value" : {
"name" : "notprovided",
"assigned" : "2023-04-04T11:22:56.107-0500"
}
},
{
"event" : "setVersion",
"timestamp" : "2023-04-04T11:22:56.107-0500",
"value" : {
"name" : "53",
"assigned" : "2023-04-04T11:22:56.107-0500"
}
},
{
"event" : "setCollection",
"timestamp" : "2023-04-04T11:22:56.107-0500",
"value" : {
"name" : "BurninBoxCycleTable",
"assigned" : "2023-04-04T11:22:56.107-0500"
}
},
{
"event" : "addEntity",
"timestamp" : "2023-04-04T11:22:56.107-0500",
"value" : {
"name" : "OTSROOT",
"assigned" : "2023-04-04T11:22:56.107-0500"
}
},
{
"event" : "addConfiguration",
"timestamp" : "2023-04-04T11:22:59.904-0500",
"value" : {
"name" : "BurninBoxConfiguration_v122",
"assigned" : "2023-04-04T11:22:59.904-0500"
}
},
{
"event" : "addConfiguration",
"timestamp" : "2023-04-04T13:48:50.856-0500",
"value" : {
"name" : "BurninBoxConfiguration_v123",
"assigned" : "2023-04-04T13:48:50.856-0500"
}
},
{
"event" : "addConfiguration",
"timestamp" : "2023-04-04T13:51:57.914-0500",
"value" : {
"name" : "BurninBoxConfiguration_v124",
"assigned" : "2023-04-04T13:51:57.914-0500"
}
},
{
"event" : "addConfiguration",
"timestamp" : "2023-04-04T14:30:59.290-0500",
"value" : {
"name" : "BurninBoxConfiguration_v125",
"assigned" : "2023-04-04T14:30:59.290-0500"
}
},
{
"event" : "addConfiguration",
"timestamp" : "2023-04-04T16:05:03.508-0500",
"value" : {
"name" : "BurninBoxConfiguration_v126",
"assigned" : "2023-04-04T16:05:03.508-0500"
}
},
{
"event" : "addConfiguration",
"timestamp" : "2023-04-07T10:09:31.322-0500",
"value" : {
"name" : "BurninBoxConfiguration_v127",
"assigned" : "2023-04-07T10:09:31.322-0500"
}
},
{
"event" : "addConfiguration",
"timestamp" : "2023-04-14T10:53:42.883-0500",
"value" : {
"name" : "BurninBoxConfiguration_v129",
"assigned" : "2023-04-14T10:53:42.883-0500"
}
},
{
"event" : "addConfiguration",
"timestamp" : "2023-04-14T11:01:22.450-0500",
"value" : {
"name" : "BurninBoxConfiguration_v130",
"assigned" : "2023-04-14T11:01:22.450-0500"
}
},
{
"event" : "addConfiguration",
"timestamp" : "2023-04-14T11:05:24.558-0500",
"value" : {
"name" : "BurninBoxConfiguration_v131",
"assigned" : "2023-04-14T11:05:24.558-0500"
}
},
{
"event" : "addConfiguration",
"timestamp" : "2023-04-14T12:25:09.660-0500",
"value" : {
"name" : "BurninBoxConfiguration_v132",
"assigned" : "2023-04-14T12:25:09.660-0500"
}
},
{
"event" : "addConfiguration",
"timestamp" : "2023-04-14T14:03:25.785-0500",
"value" : {
"name" : "BurninBoxConfiguration_v133",
"assigned" : "2023-04-14T14:03:25.785-0500"
}
},
{
"event" : "addConfiguration",
"timestamp" : "2023-04-14T15:36:48.408-0500",
"value" : {
"name" : "BurninBoxConfiguration_v134",
"assigned" : "2023-04-14T15:36:48.408-0500"
}
},
{
"event" : "addConfiguration",
"timestamp" : "2023-04-14T15:57:02.903-0500",
"value" : {
"name" : "BurninBoxConfiguration_v135",
"assigned" : "2023-04-14T15:57:02.903-0500"
}
},
{
"event" : "addConfiguration",
"timestamp" : "2023-04-14T15:58:59.381-0500",
"value" : {
"name" : "BurninBoxConfiguration_v136",
"assigned" : "2023-04-14T15:58:59.381-0500"
}
},
{
"event" : "addConfiguration",
"timestamp" : "2023-04-17T15:51:47.692-0500",
"value" : {
"name" : "BurninBoxConfiguration_v139",
"assigned" : "2023-04-17T15:51:47.692-0500"
}
},
{
"event" : "addConfiguration",
"timestamp" : "2023-04-18T10:48:01.051-0500",
"value" : {
"name" : "BurninBoxConfiguration_v140",
"assigned" : "2023-04-18T10:48:01.051-0500"
}
},
{
"event" : "addConfiguration",
"timestamp" : "2023-04-18T12:02:40.148-0500",
"value" : {
"name" : "BurninBoxConfiguration_v141",
"assigned" : "2023-04-18T12:02:40.147-0500"
}
},
{
"event" : "addConfiguration",
"timestamp" : "2023-04-18T12:03:55.655-0500",
"value" : {
"name" : "BurninBoxConfiguration_v142",
"assigned" : "2023-04-18T12:03:55.655-0500"
}
},
{
"event" : "addConfiguration",
"timestamp" : "2023-04-18T13:48:30.555-0500",
"value" : {
"name" : "BurninBoxConfiguration_v143",
"assigned" : "2023-04-18T13:48:30.554-0500"
}
},
{
"event" : "addConfiguration",
"timestamp" : "2023-04-18T14:33:53.909-0500",
"value" : {
"name" : "BurninBoxConfiguration_v144",
"assigned" : "2023-04-18T14:33:53.909-0500"
}
},
{
"event" : "addConfiguration",
"timestamp" : "2023-04-18T16:14:30.452-0500",
"value" : {
"name" : "BurninBoxConfiguration_v145",
"assigned" : "2023-04-18T16:14:30.452-0500"
}
},
{
"event" : "addConfiguration",
"timestamp" : "2023-04-18T16:20:20.009-0500",
"value" : {
"name" : "BurninBoxConfiguration_v146",
"assigned" : "2023-04-18T16:20:20.009-0500"
}
},
{
"event" : "addConfiguration",
"timestamp" : "2023-04-21T15:02:46.902-0500",
"value" : {
"name" : "BurninBoxConfiguration_v147",
"assigned" : "2023-04-21T15:02:46.902-0500"
}
}
],
"created" : "2023-04-04T11:22:56.107-0500"
},
"_id" : {
"$oid" : "85839af8f9e044b689a81086"
},
"collection" : "BurninBoxCycleTable",
"aliases" : {
"active" : [

],
"history" : [

]
},
"runs" : [

],
"attachments" : [

],
"configtype" : "notprovided"
}