{
"ouid" : [
"00868185beee4446ae7bc8e0",
"019938cfec3343348552f1f7",
"03cf7f5481af430a8207aac9",
"03e99b4954d54b2391fd4fec",
"050b8d5e0d0b4b8083547fd0",
"06d87a3e0a984ebf9e715a2b",
"08b66cbb642f4d8cb5ed1fa5",
"0bfdc66236604d289d637215",
"0ccd315670814109972ed40d",
"106d98ee4cac4b14a7994e6f",
"110b8a7104d44ba6950a651a",
"11cd254eefe54ae08156a86f",
"145e7c391e034a9187faa967",
"15190216af184fcca42c208c",
"167518792fb64364b9f0720a",
"16de1add8a2e45b58279b894",
"172c7567f9054a45a35c9d69",
"18b91312c569492fa47288e9",
"18dca1fb9cd841a38f9047aa",
"1be662f3af0a44829ee1d44b",
"1d4e8e2f1a9b4d1ebc48eddb",
"1faa4d1886e74149bb9c380e",
"2036d1759fc24039b36f46af",
"21129f3e45544b208a34d23a",
"27ce8be983a04cdb869e240f",
"284dfdbba59045c8bb9484a7",
"29267f1d3c2f480f897cefe7",
"2f78bdac662842d0ae8ff543",
"32af3317a11b49fcb8058ce6",
"35a081b772b84938a838fc45",
"36197e3064fa45af90d5670c",
"373efaa9b49b49818f3a7afc",
"3af3fa568e1b430f8ae10fe1",
"3dacb727f3aa48df8f1e2d0e",
"40964384c85b45489523cb7d",
"437e62fcc03f4d92a52ee242",
"46fed02e95a24d45b1cd1265",
"48298037b50b48f4b3c18bf6",
"492c5ccfaf434b209880316c",
"4f6f671d099046f6884ac98a",
"500c61e855394f4997a764fc",
"5654e7ca54684b608ed11fa4",
"5a3bf44d75274b609581a167",
"5d0857fb2d0240c6938b9652",
"621c3d7580cc42728814e758",
"62527a74ad4a4f63a21baedb",
"62c89e420aa74888bcc946b2",
"63750268e2a44738b39c8257",
"65ae0d5104f84fd6aac226fc",
"65f2d01a43cf4b989612941b",
"6b357bb36eae4e6ba2e13106",
"6c76749e95d0496e8a367c4d",
"71eb6a6cf9134adea45c86a8",
"722b60ad61f04bb1a22fd06d",
"7232a614b0f1419b9c519ac2",
"792fd31edbbd4152975740f3",
"7b0603e52f8c47759db9a635",
"7ddc1dbd2a584741bfa8ca30",
"7e964bd1eb134cf59bbd46c0",
"7ecbee91bbb6463db75400bf",
"81d57f3e854a459096ef7726",
"82f5c8187ab941729a86a928",
"8306f2d3b44849338ed1f3f9",
"83c03b3920df494a83506615",
"8418be33e1e248d7a687b6ab",
"8680d3c2e9f343f98eba9639",
"86dcb0dd3c1748c7b4296d89",
"86f3d52d6699426297a11736",
"8753c84a08e441efb743c2bc",
"87b997b5da804f9bab345343",
"8c027e92ca3b488194c61c83",
"8c94defe5d094cb6ba74ceef",
"8d14958abede4cb5ad2926e2",
"8d237265bb3f43c581fd2c97",
"914d06cd75754908b124b299",
"920eefa46d1f4cddb58df12a",
"9437a636eec34c9695c3d8c8",
"95e40b4809944277b638292d",
"9b9df341095f4c4980e0c30a",
"9d740b648445412787d5bb00",
"9ed9895b8de74bc88c5ddd9d",
"9ff417bce37c4871bf935495",
"a233ce11c69d430eb164c0d7",
"a4903ccb857b4386a678e1f9",
"a4c745d7ba244c399ede26ce",
"a89ab22d659d4af4bc88d76d",
"aaec8399f74e4ca282cffa2d",
"ad42eddbad294187bf367c73",
"b1ec4f4656804807bdbd8fda",
"b31736b2708045529b42d562",
"b6151909d525446b9b8fe9ab",
"b66ccead453e4fd6be347b15",
"ba31b9eea3c54113a48d29eb",
"bb05f53dc4dc460690e4a2d7",
"bbc53baf093646329eba2c9d",
"be7868b2684649899ca4adea",
"c00af707f749423298eefb6b",
"c3332e6b53d8446693d4db10",
"c63a614593af4d708ec4e75d",
"ca28430f412d4e7ca82444aa",
"caebb48bfb4044ca9c775dc9",
"cddce3b1aa4d4a439be43816",
"cff5d6e8ddab4b12b379b560",
"d52acaee6e134cb1967f021f",
"d77c6a3d000846a38fb10de6",
"dbe62fe6a4b64ec98bf30f9a",
"dcaa392192d141db8bb69aff",
"dcdb45a67e2144f0bc18870f",
"df329a9f606347288853a1f0",
"e127dfc46980476ea79224f3",
"e6a5305c30b04e68a9a43b83",
"e77ab75bad864f5d8cce4d89",
"eba9688a696543e38fbdc9f2",
"eed37a76b5df40258579b65e",
"f1dc58232ee44ee5a297fc92",
"f32d088e39364f9187d99fc9",
"f818d156e3094fe4a2ec0ad8",
"f8b5e5dbd06c44e0bfdd442d",
"f997ef27c64b4bd28ab6d0c1"
],
"version" : {
"0" : [
"21129f3e45544b208a34d23a"
],
"1" : [
"03cf7f5481af430a8207aac9"
],
"2" : [
"8753c84a08e441efb743c2bc"
],
"3" : [
"9437a636eec34c9695c3d8c8"
],
"4" : [
"ca28430f412d4e7ca82444aa"
],
"5" : [
"492c5ccfaf434b209880316c"
],
"6" : [
"a89ab22d659d4af4bc88d76d"
],
"7" : [
"f997ef27c64b4bd28ab6d0c1"
],
"8" : [
"6b357bb36eae4e6ba2e13106"
],
"9" : [
"f1dc58232ee44ee5a297fc92"
],
"10" : [
"284dfdbba59045c8bb9484a7"
],
"11" : [
"62527a74ad4a4f63a21baedb"
],
"12" : [
"be7868b2684649899ca4adea"
],
"13" : [
"65ae0d5104f84fd6aac226fc"
],
"14" : [
"b6151909d525446b9b8fe9ab"
],
"15" : [
"11cd254eefe54ae08156a86f"
],
"16" : [
"019938cfec3343348552f1f7"
],
"17" : [
"0bfdc66236604d289d637215"
],
"18" : [
"110b8a7104d44ba6950a651a"
],
"19" : [
"b1ec4f4656804807bdbd8fda"
],
"20" : [
"7ecbee91bbb6463db75400bf"
],
"21" : [
"cff5d6e8ddab4b12b379b560"
],
"22" : [
"86dcb0dd3c1748c7b4296d89"
],
"23" : [
"cddce3b1aa4d4a439be43816"
],
"24" : [
"8306f2d3b44849338ed1f3f9"
],
"25" : [
"8c94defe5d094cb6ba74ceef"
],
"26" : [
"46fed02e95a24d45b1cd1265"
],
"27" : [
"82f5c8187ab941729a86a928"
],
"28" : [
"9ff417bce37c4871bf935495"
],
"29" : [
"c63a614593af4d708ec4e75d"
],
"30" : [
"63750268e2a44738b39c8257"
],
"31" : [
"aaec8399f74e4ca282cffa2d"
],
"32" : [
"bb05f53dc4dc460690e4a2d7"
],
"33" : [
"050b8d5e0d0b4b8083547fd0"
],
"34" : [
"e6a5305c30b04e68a9a43b83"
],
"35" : [
"08b66cbb642f4d8cb5ed1fa5"
],
"36" : [
"167518792fb64364b9f0720a"
],
"37" : [
"81d57f3e854a459096ef7726"
],
"38" : [
"e127dfc46980476ea79224f3"
],
"39" : [
"18b91312c569492fa47288e9"
],
"40" : [
"62c89e420aa74888bcc946b2"
],
"41" : [
"4f6f671d099046f6884ac98a"
],
"42" : [
"d77c6a3d000846a38fb10de6"
],
"43" : [
"32af3317a11b49fcb8058ce6"
],
"44" : [
"8d237265bb3f43c581fd2c97"
],
"45" : [
"6c76749e95d0496e8a367c4d"
],
"46" : [
"3dacb727f3aa48df8f1e2d0e"
],
"47" : [
"ad42eddbad294187bf367c73"
],
"48" : [
"722b60ad61f04bb1a22fd06d"
],
"49" : [
"00868185beee4446ae7bc8e0"
],
"50" : [
"7232a614b0f1419b9c519ac2"
],
"51" : [
"95e40b4809944277b638292d"
],
"52" : [
"1be662f3af0a44829ee1d44b"
],
"53" : [
"df329a9f606347288853a1f0"
],
"54" : [
"373efaa9b49b49818f3a7afc"
],
"55" : [
"145e7c391e034a9187faa967"
],
"56" : [
"792fd31edbbd4152975740f3"
],
"57" : [
"5654e7ca54684b608ed11fa4"
],
"58" : [
"9b9df341095f4c4980e0c30a"
],
"59" : [
"a4c745d7ba244c399ede26ce"
],
"60" : [
"1faa4d1886e74149bb9c380e"
],
"61" : [
"8c027e92ca3b488194c61c83"
],
"62" : [
"b31736b2708045529b42d562"
],
"63" : [
"7e964bd1eb134cf59bbd46c0"
],
"64" : [
"71eb6a6cf9134adea45c86a8"
],
"65" : [
"36197e3064fa45af90d5670c"
],
"66" : [
"5d0857fb2d0240c6938b9652"
],
"67" : [
"b66ccead453e4fd6be347b15"
],
"68" : [
"5a3bf44d75274b609581a167"
],
"69" : [
"06d87a3e0a984ebf9e715a2b"
],
"70" : [
"eed37a76b5df40258579b65e"
],
"71" : [
"18dca1fb9cd841a38f9047aa"
],
"72" : [
"eba9688a696543e38fbdc9f2"
],
"73" : [
"500c61e855394f4997a764fc"
],
"74" : [
"03e99b4954d54b2391fd4fec"
],
"75" : [
"2f78bdac662842d0ae8ff543"
],
"76" : [
"dbe62fe6a4b64ec98bf30f9a"
],
"77" : [
"914d06cd75754908b124b299"
],
"78" : [
"48298037b50b48f4b3c18bf6"
],
"79" : [
"bbc53baf093646329eba2c9d"
],
"80" : [
"65f2d01a43cf4b989612941b"
],
"81" : [
"437e62fcc03f4d92a52ee242"
],
"82" : [
"86f3d52d6699426297a11736"
],
"83" : [
"7b0603e52f8c47759db9a635"
],
"84" : [
"1d4e8e2f1a9b4d1ebc48eddb"
],
"85" : [
"9ed9895b8de74bc88c5ddd9d"
],
"86" : [
"f32d088e39364f9187d99fc9"
],
"87" : [
"3af3fa568e1b430f8ae10fe1"
],
"88" : [
"106d98ee4cac4b14a7994e6f"
],
"89" : [
"920eefa46d1f4cddb58df12a"
],
"90" : [
"29267f1d3c2f480f897cefe7"
],
"91" : [
"8418be33e1e248d7a687b6ab"
],
"92" : [
"e77ab75bad864f5d8cce4d89"
],
"93" : [
"caebb48bfb4044ca9c775dc9"
],
"94" : [
"dcdb45a67e2144f0bc18870f"
],
"95" : [
"dcaa392192d141db8bb69aff"
],
"96" : [
"7ddc1dbd2a584741bfa8ca30"
],
"97" : [
"c3332e6b53d8446693d4db10"
],
"98" : [
"2036d1759fc24039b36f46af"
],
"99" : [
"0ccd315670814109972ed40d"
],
"100" : [
"16de1add8a2e45b58279b894"
],
"101" : [
"9d740b648445412787d5bb00"
],
"102" : [
"83c03b3920df494a83506615"
],
"103" : [
"d52acaee6e134cb1967f021f"
],
"104" : [
"f8b5e5dbd06c44e0bfdd442d"
],
"105" : [
"35a081b772b84938a838fc45"
],
"106" : [
"f818d156e3094fe4a2ec0ad8"
],
"107" : [
"ba31b9eea3c54113a48d29eb"
],
"108" : [
"a4903ccb857b4386a678e1f9"
],
"109" : [
"8d14958abede4cb5ad2926e2"
],
"110" : [
"621c3d7580cc42728814e758"
],
"111" : [
"87b997b5da804f9bab345343"
],
"112" : [
"27ce8be983a04cdb869e240f"
],
"113" : [
"8680d3c2e9f343f98eba9639"
],
"114" : [
"a233ce11c69d430eb164c0d7"
],
"115" : [
"15190216af184fcca42c208c"
],
"116" : [
"40964384c85b45489523cb7d"
],
"117" : [
"c00af707f749423298eefb6b"
],
"118" : [
"172c7567f9054a45a35c9d69"
]
},
"configurations.name" : {
"notprovided" : [
"00868185beee4446ae7bc8e0",
"019938cfec3343348552f1f7",
"03cf7f5481af430a8207aac9",
"03e99b4954d54b2391fd4fec",
"050b8d5e0d0b4b8083547fd0",
"06d87a3e0a984ebf9e715a2b",
"08b66cbb642f4d8cb5ed1fa5",
"0bfdc66236604d289d637215",
"0ccd315670814109972ed40d",
"106d98ee4cac4b14a7994e6f",
"110b8a7104d44ba6950a651a",
"11cd254eefe54ae08156a86f",
"145e7c391e034a9187faa967",
"15190216af184fcca42c208c",
"167518792fb64364b9f0720a",
"16de1add8a2e45b58279b894",
"172c7567f9054a45a35c9d69",
"18b91312c569492fa47288e9",
"18dca1fb9cd841a38f9047aa",
"1be662f3af0a44829ee1d44b",
"1d4e8e2f1a9b4d1ebc48eddb",
"1faa4d1886e74149bb9c380e",
"2036d1759fc24039b36f46af",
"21129f3e45544b208a34d23a",
"27ce8be983a04cdb869e240f",
"284dfdbba59045c8bb9484a7",
"29267f1d3c2f480f897cefe7",
"2f78bdac662842d0ae8ff543",
"32af3317a11b49fcb8058ce6",
"35a081b772b84938a838fc45",
"36197e3064fa45af90d5670c",
"373efaa9b49b49818f3a7afc",
"3af3fa568e1b430f8ae10fe1",
"3dacb727f3aa48df8f1e2d0e",
"40964384c85b45489523cb7d",
"437e62fcc03f4d92a52ee242",
"46fed02e95a24d45b1cd1265",
"48298037b50b48f4b3c18bf6",
"492c5ccfaf434b209880316c",
"4f6f671d099046f6884ac98a",
"500c61e855394f4997a764fc",
"5654e7ca54684b608ed11fa4",
"5a3bf44d75274b609581a167",
"5d0857fb2d0240c6938b9652",
"621c3d7580cc42728814e758",
"62527a74ad4a4f63a21baedb",
"62c89e420aa74888bcc946b2",
"63750268e2a44738b39c8257",
"65ae0d5104f84fd6aac226fc",
"65f2d01a43cf4b989612941b",
"6b357bb36eae4e6ba2e13106",
"6c76749e95d0496e8a367c4d",
"71eb6a6cf9134adea45c86a8",
"722b60ad61f04bb1a22fd06d",
"7232a614b0f1419b9c519ac2",
"792fd31edbbd4152975740f3",
"7b0603e52f8c47759db9a635",
"7ddc1dbd2a584741bfa8ca30",
"7e964bd1eb134cf59bbd46c0",
"7ecbee91bbb6463db75400bf",
"81d57f3e854a459096ef7726",
"82f5c8187ab941729a86a928",
"8306f2d3b44849338ed1f3f9",
"83c03b3920df494a83506615",
"8418be33e1e248d7a687b6ab",
"8680d3c2e9f343f98eba9639",
"86dcb0dd3c1748c7b4296d89",
"86f3d52d6699426297a11736",
"8753c84a08e441efb743c2bc",
"87b997b5da804f9bab345343",
"8c027e92ca3b488194c61c83",
"8c94defe5d094cb6ba74ceef",
"8d14958abede4cb5ad2926e2",
"8d237265bb3f43c581fd2c97",
"914d06cd75754908b124b299",
"920eefa46d1f4cddb58df12a",
"9437a636eec34c9695c3d8c8",
"95e40b4809944277b638292d",
"9b9df341095f4c4980e0c30a",
"9d740b648445412787d5bb00",
"9ed9895b8de74bc88c5ddd9d",
"9ff417bce37c4871bf935495",
"a233ce11c69d430eb164c0d7",
"a4903ccb857b4386a678e1f9",
"a4c745d7ba244c399ede26ce",
"a89ab22d659d4af4bc88d76d",
"aaec8399f74e4ca282cffa2d",
"ad42eddbad294187bf367c73",
"b1ec4f4656804807bdbd8fda",
"b31736b2708045529b42d562",
"b6151909d525446b9b8fe9ab",
"b66ccead453e4fd6be347b15",
"ba31b9eea3c54113a48d29eb",
"bb05f53dc4dc460690e4a2d7",
"bbc53baf093646329eba2c9d",
"be7868b2684649899ca4adea",
"c00af707f749423298eefb6b",
"c3332e6b53d8446693d4db10",
"c63a614593af4d708ec4e75d",
"ca28430f412d4e7ca82444aa",
"caebb48bfb4044ca9c775dc9",
"cddce3b1aa4d4a439be43816",
"cff5d6e8ddab4b12b379b560",
"d52acaee6e134cb1967f021f",
"d77c6a3d000846a38fb10de6",
"dbe62fe6a4b64ec98bf30f9a",
"dcaa392192d141db8bb69aff",
"dcdb45a67e2144f0bc18870f",
"df329a9f606347288853a1f0",
"e127dfc46980476ea79224f3",
"e6a5305c30b04e68a9a43b83",
"e77ab75bad864f5d8cce4d89",
"eba9688a696543e38fbdc9f2",
"eed37a76b5df40258579b65e",
"f1dc58232ee44ee5a297fc92",
"f32d088e39364f9187d99fc9",
"f818d156e3094fe4a2ec0ad8",
"f8b5e5dbd06c44e0bfdd442d",
"f997ef27c64b4bd28ab6d0c1"
],
"FTBFConfig_v0" : [
"21129f3e45544b208a34d23a"
],
"FTBFConfig_v1" : [
"21129f3e45544b208a34d23a"
],
"FTBFConfig_v2" : [
"21129f3e45544b208a34d23a"
],
"FTBFConfig_v3" : [
"21129f3e45544b208a34d23a"
],
"FTBFConfig_v4" : [
"21129f3e45544b208a34d23a"
],
"FTBFConfig_v5" : [
"21129f3e45544b208a34d23a"
],
"FTBFConfig_v6" : [
"21129f3e45544b208a34d23a"
],
"FTBFConfig_v7" : [
"21129f3e45544b208a34d23a"
],
"FTBFConfig_v8" : [
"21129f3e45544b208a34d23a"
],
"FTBFConfig_v9" : [
"21129f3e45544b208a34d23a"
],
"FTBFConfig_v10" : [
"21129f3e45544b208a34d23a"
],
"FTBFConfig_v11" : [
"21129f3e45544b208a34d23a"
],
"FTBFConfig_v12" : [
"21129f3e45544b208a34d23a"
],
"FTBFConfig_v13" : [
"21129f3e45544b208a34d23a"
],
"FTBFConfig_v14" : [
"21129f3e45544b208a34d23a"
],
"FTBFConfig_v15" : [
"21129f3e45544b208a34d23a"
],
"FTBFConfig_v16" : [
"21129f3e45544b208a34d23a"
],
"FTBFConfig_v17" : [
"21129f3e45544b208a34d23a"
],
"FTBFConfig_v18" : [
"21129f3e45544b208a34d23a"
],
"FTBFConfig_v19" : [
"21129f3e45544b208a34d23a"
],
"FTBFConfig_v20" : [
"21129f3e45544b208a34d23a"
],
"FTBFConfig_v21" : [
"21129f3e45544b208a34d23a"
],
"FTBFConfig_v22" : [
"21129f3e45544b208a34d23a"
],
"FTBFConfig_v23" : [
"21129f3e45544b208a34d23a"
],
"FTBFConfig_v24" : [
"21129f3e45544b208a34d23a"
],
"FTBFConfig_v25" : [
"21129f3e45544b208a34d23a"
],
"FTBFConfig_v26" : [
"21129f3e45544b208a34d23a"
],
"FTBFConfig_v27" : [
"21129f3e45544b208a34d23a"
],
"FTBFConfig_v28" : [
"21129f3e45544b208a34d23a"
],
"FTBFConfig_v29" : [
"21129f3e45544b208a34d23a"
],
"FTBFConfig_v30" : [
"21129f3e45544b208a34d23a"
],
"FTBFConfig_v31" : [
"21129f3e45544b208a34d23a"
],
"FTBFConfig_v32" : [
"21129f3e45544b208a34d23a"
],
"FTBFConfig_v33" : [
"21129f3e45544b208a34d23a"
],
"FTBFConfig_v34" : [
"21129f3e45544b208a34d23a"
],
"FTBFConfig_v35" : [
"03cf7f5481af430a8207aac9"
],
"FTBFConfig_v36" : [
"8753c84a08e441efb743c2bc"
],
"FTBFConfig_v38" : [
"8753c84a08e441efb743c2bc"
],
"FTBFConfig_v37" : [
"9437a636eec34c9695c3d8c8"
],
"FTBFConfig_v39" : [
"ca28430f412d4e7ca82444aa"
],
"FTBFConfig_v40" : [
"492c5ccfaf434b209880316c"
],
"FTBFConfig_v41" : [
"a89ab22d659d4af4bc88d76d"
],
"FTBFConfig_v42" : [
"f997ef27c64b4bd28ab6d0c1"
],
"FTBFConfig_v43" : [
"6b357bb36eae4e6ba2e13106"
],
"FTBFConfig_v44" : [
"f1dc58232ee44ee5a297fc92"
],
"FTBFConfig_v45" : [
"284dfdbba59045c8bb9484a7"
],
"FTBFConfig_v46" : [
"284dfdbba59045c8bb9484a7"
],
"FTBFConfig_v47" : [
"62527a74ad4a4f63a21baedb"
],
"FTBFConfig_v48" : [
"be7868b2684649899ca4adea"
],
"FTBFConfig_v49" : [
"65ae0d5104f84fd6aac226fc"
],
"FTBFConfig_v52" : [
"65ae0d5104f84fd6aac226fc"
],
"FTBFConfig_v53" : [
"b6151909d525446b9b8fe9ab"
],
"FTBFConfig_v54" : [
"11cd254eefe54ae08156a86f"
],
"FTBFConfig_v70" : [
"11cd254eefe54ae08156a86f"
],
"FTBFConfigNim_v0" : [
"11cd254eefe54ae08156a86f"
],
"FTBFConfig_v55" : [
"019938cfec3343348552f1f7"
],
"FTBFConfig_v56" : [
"0bfdc66236604d289d637215"
],
"FTBFConfig_v57" : [
"110b8a7104d44ba6950a651a"
],
"FTBFConfig_v58" : [
"b1ec4f4656804807bdbd8fda"
],
"FTBFConfig_v66" : [
"b1ec4f4656804807bdbd8fda"
],
"FTBFConfig_v59" : [
"7ecbee91bbb6463db75400bf"
],
"FTBFConfig_v60" : [
"cff5d6e8ddab4b12b379b560"
],
"FTBFConfig_v61" : [
"86dcb0dd3c1748c7b4296d89"
],
"FTBFConfig_v62" : [
"cddce3b1aa4d4a439be43816"
],
"FTBFConfig_v63" : [
"8306f2d3b44849338ed1f3f9"
],
"FTBFConfig_v64" : [
"8306f2d3b44849338ed1f3f9"
],
"FTBFConfig_v65" : [
"8306f2d3b44849338ed1f3f9"
],
"FTBFConfig_v67" : [
"8c94defe5d094cb6ba74ceef"
],
"FTBFConfig_v68" : [
"46fed02e95a24d45b1cd1265"
],
"FTBFConfig_v69" : [
"82f5c8187ab941729a86a928"
],
"FTBFConfigNim_v1" : [
"9ff417bce37c4871bf935495"
],
"FTBFConfigNim_v2" : [
"c63a614593af4d708ec4e75d"
],
"FTBFConfigNim_v3" : [
"63750268e2a44738b39c8257"
],
"FTBFConfigNim_v4" : [
"aaec8399f74e4ca282cffa2d"
],
"FTBFConfigNim_v5" : [
"bb05f53dc4dc460690e4a2d7"
],
"FTBFConfigNim_v6" : [
"050b8d5e0d0b4b8083547fd0"
],
"FTBFConfigNim_v7" : [
"e6a5305c30b04e68a9a43b83"
],
"FTBFConfigNim_v8" : [
"08b66cbb642f4d8cb5ed1fa5"
],
"FTBFConfigNim_v9" : [
"167518792fb64364b9f0720a"
],
"FTBFConfigNim_v10" : [
"81d57f3e854a459096ef7726"
],
"FTBFConfigNim_v11" : [
"e127dfc46980476ea79224f3"
],
"FTBFConfigNim_v12" : [
"18b91312c569492fa47288e9"
],
"FTBFConfigNim_v13" : [
"62c89e420aa74888bcc946b2"
],
"FTBFConfigNim_v14" : [
"4f6f671d099046f6884ac98a"
],
"FTBFConfigNim_v15" : [
"d77c6a3d000846a38fb10de6"
],
"FTBFConfigNim_v16" : [
"32af3317a11b49fcb8058ce6"
],
"FTBFConfigNim_v17" : [
"8d237265bb3f43c581fd2c97"
],
"FTBFConfigNim_v18" : [
"6c76749e95d0496e8a367c4d"
],
"FTBFConfigNim_v19" : [
"3dacb727f3aa48df8f1e2d0e"
],
"FTBFConfigNim_v20" : [
"ad42eddbad294187bf367c73"
],
"FTBFConfig_v71" : [
"ad42eddbad294187bf367c73"
],
"FTBFConfig_v72" : [
"ad42eddbad294187bf367c73"
],
"FTBFConfigNim_v21" : [
"722b60ad61f04bb1a22fd06d"
],
"FTBFConfigNim_v22" : [
"00868185beee4446ae7bc8e0"
],
"FTBFConfigNim_v23" : [
"7232a614b0f1419b9c519ac2"
],
"FTBFConfigNim_v24" : [
"95e40b4809944277b638292d"
],
"FTBFConfigNim_v25" : [
"1be662f3af0a44829ee1d44b"
],
"FTBFConfigNim_v26" : [
"df329a9f606347288853a1f0"
],
"FTBFConfigNim_v27" : [
"373efaa9b49b49818f3a7afc"
],
"FTBFConfigNim_v28" : [
"145e7c391e034a9187faa967"
],
"FTBFConfigNim_v29" : [
"792fd31edbbd4152975740f3"
],
"FTBFConfig_v73" : [
"5654e7ca54684b608ed11fa4"
],
"FTBFConfig_v78" : [
"5654e7ca54684b608ed11fa4"
],
"FTBFConfig_v74" : [
"9b9df341095f4c4980e0c30a"
],
"FTBFConfig_v75" : [
"9b9df341095f4c4980e0c30a"
],
"FTBFConfig_v76" : [
"9b9df341095f4c4980e0c30a"
],
"FTBFConfig_v77" : [
"9b9df341095f4c4980e0c30a"
],
"FTBFConfig_v79" : [
"a4c745d7ba244c399ede26ce"
],
"FTBFConfig_v80" : [
"1faa4d1886e74149bb9c380e"
],
"FTBFConfig_v81" : [
"8c027e92ca3b488194c61c83"
],
"FTBFConfig_v82" : [
"b31736b2708045529b42d562"
],
"FTBFConfig_v83" : [
"7e964bd1eb134cf59bbd46c0"
],
"FTBFConfig_v84" : [
"71eb6a6cf9134adea45c86a8"
],
"FTBFConfig_v85" : [
"36197e3064fa45af90d5670c"
],
"FTBFConfig_v105" : [
"36197e3064fa45af90d5670c"
],
"FTBFConfig_v86" : [
"5d0857fb2d0240c6938b9652"
],
"FTBFConfig_v87" : [
"b66ccead453e4fd6be347b15"
],
"FTBFConfig_v88" : [
"5a3bf44d75274b609581a167"
],
"FTBFConfig_v89" : [
"06d87a3e0a984ebf9e715a2b"
],
"FTBFConfig_v90" : [
"eed37a76b5df40258579b65e"
],
"FTBFConfig_v91" : [
"18dca1fb9cd841a38f9047aa"
],
"FTBFConfig_v92" : [
"eba9688a696543e38fbdc9f2"
],
"FTBFConfig_v93" : [
"500c61e855394f4997a764fc"
],
"FTBFConfig_v94" : [
"03e99b4954d54b2391fd4fec"
],
"FTBFConfig_v95" : [
"2f78bdac662842d0ae8ff543"
],
"FTBFConfig_v96" : [
"dbe62fe6a4b64ec98bf30f9a"
],
"FTBFConfig_v97" : [
"914d06cd75754908b124b299"
],
"FTBFConfig_v98" : [
"48298037b50b48f4b3c18bf6"
],
"FTBFConfig_v99" : [
"bbc53baf093646329eba2c9d"
],
"FTBFConfig_v100" : [
"bbc53baf093646329eba2c9d"
],
"FTBFConfig_v101" : [
"bbc53baf093646329eba2c9d"
],
"FTBFConfig_v102" : [
"65f2d01a43cf4b989612941b"
],
"FTBFConfig_v103" : [
"437e62fcc03f4d92a52ee242"
],
"FTBFConfig_v104" : [
"86f3d52d6699426297a11736"
],
"FTBFConfig_v106" : [
"7b0603e52f8c47759db9a635"
],
"FTBFConfig_v107" : [
"1d4e8e2f1a9b4d1ebc48eddb"
],
"FTBFConfig_v108" : [
"36197e3064fa45af90d5670c"
],
"FTBFConfig_v109" : [
"9ed9895b8de74bc88c5ddd9d"
],
"FTBFConfig_v110" : [
"f32d088e39364f9187d99fc9"
],
"FTBFConfig_v111" : [
"3af3fa568e1b430f8ae10fe1"
],
"FTBFConfig_v112" : [
"106d98ee4cac4b14a7994e6f"
],
"FTBFConfig_v113" : [
"920eefa46d1f4cddb58df12a"
],
"FTBFConfig_v114" : [
"29267f1d3c2f480f897cefe7"
],
"FTBFConfig_v115" : [
"8418be33e1e248d7a687b6ab"
],
"FTBFConfig_v116" : [
"e77ab75bad864f5d8cce4d89"
],
"FTBFConfig_v117" : [
"caebb48bfb4044ca9c775dc9"
],
"FTBFConfig_v118" : [
"dcdb45a67e2144f0bc18870f"
],
"FTBFConfig_v119" : [
"dcaa392192d141db8bb69aff"
],
"FTBFConfig_v120" : [
"7ddc1dbd2a584741bfa8ca30"
],
"FTBFConfig_v121" : [
"c3332e6b53d8446693d4db10"
],
"FTBFConfig_v122" : [
"2036d1759fc24039b36f46af"
],
"FTBFConfig_v123" : [
"0ccd315670814109972ed40d"
],
"FTBFConfig_v124" : [
"16de1add8a2e45b58279b894"
],
"FTBFConfig_v125" : [
"9d740b648445412787d5bb00"
],
"FTBFConfig_v126" : [
"83c03b3920df494a83506615"
],
"FTBFConfig_v127" : [
"d52acaee6e134cb1967f021f"
],
"FTBFConfig_v128" : [
"f8b5e5dbd06c44e0bfdd442d"
],
"FTBFConfig_v129" : [
"35a081b772b84938a838fc45"
],
"FTBFConfig_v130" : [
"f818d156e3094fe4a2ec0ad8"
],
"FTBFConfig_v131" : [
"ba31b9eea3c54113a48d29eb"
],
"FTBFConfig_v132" : [
"a4903ccb857b4386a678e1f9"
],
"FTBFConfig_v133" : [
"8d14958abede4cb5ad2926e2"
],
"FTBFConfig_v134" : [
"621c3d7580cc42728814e758"
],
"FTBFConfig_v135" : [
"87b997b5da804f9bab345343"
],
"FTBFConfig_v136" : [
"27ce8be983a04cdb869e240f"
],
"FTBFConfig_v137" : [
"8680d3c2e9f343f98eba9639"
],
"FTBFConfig_v138" : [
"a233ce11c69d430eb164c0d7"
],
"FTBFConfig_v139" : [
"15190216af184fcca42c208c"
],
"FTBFConfig_v140" : [
"40964384c85b45489523cb7d"
],
"FTBFConfig_v141" : [
"c00af707f749423298eefb6b"
],
"FTBFConfig_v142" : [
"172c7567f9054a45a35c9d69"
]
},
"entities.name" : {
"OTSROOT" : [
"00868185beee4446ae7bc8e0",
"019938cfec3343348552f1f7",
"03cf7f5481af430a8207aac9",
"03e99b4954d54b2391fd4fec",
"050b8d5e0d0b4b8083547fd0",
"06d87a3e0a984ebf9e715a2b",
"08b66cbb642f4d8cb5ed1fa5",
"0bfdc66236604d289d637215",
"0ccd315670814109972ed40d",
"106d98ee4cac4b14a7994e6f",
"110b8a7104d44ba6950a651a",
"11cd254eefe54ae08156a86f",
"145e7c391e034a9187faa967",
"15190216af184fcca42c208c",
"167518792fb64364b9f0720a",
"16de1add8a2e45b58279b894",
"172c7567f9054a45a35c9d69",
"18b91312c569492fa47288e9",
"18dca1fb9cd841a38f9047aa",
"1be662f3af0a44829ee1d44b",
"1d4e8e2f1a9b4d1ebc48eddb",
"1faa4d1886e74149bb9c380e",
"2036d1759fc24039b36f46af",
"21129f3e45544b208a34d23a",
"27ce8be983a04cdb869e240f",
"284dfdbba59045c8bb9484a7",
"29267f1d3c2f480f897cefe7",
"2f78bdac662842d0ae8ff543",
"32af3317a11b49fcb8058ce6",
"35a081b772b84938a838fc45",
"36197e3064fa45af90d5670c",
"373efaa9b49b49818f3a7afc",
"3af3fa568e1b430f8ae10fe1",
"3dacb727f3aa48df8f1e2d0e",
"40964384c85b45489523cb7d",
"437e62fcc03f4d92a52ee242",
"46fed02e95a24d45b1cd1265",
"48298037b50b48f4b3c18bf6",
"492c5ccfaf434b209880316c",
"4f6f671d099046f6884ac98a",
"500c61e855394f4997a764fc",
"5654e7ca54684b608ed11fa4",
"5a3bf44d75274b609581a167",
"5d0857fb2d0240c6938b9652",
"621c3d7580cc42728814e758",
"62527a74ad4a4f63a21baedb",
"62c89e420aa74888bcc946b2",
"63750268e2a44738b39c8257",
"65ae0d5104f84fd6aac226fc",
"65f2d01a43cf4b989612941b",
"6b357bb36eae4e6ba2e13106",
"6c76749e95d0496e8a367c4d",
"71eb6a6cf9134adea45c86a8",
"722b60ad61f04bb1a22fd06d",
"7232a614b0f1419b9c519ac2",
"792fd31edbbd4152975740f3",
"7b0603e52f8c47759db9a635",
"7ddc1dbd2a584741bfa8ca30",
"7e964bd1eb134cf59bbd46c0",
"7ecbee91bbb6463db75400bf",
"81d57f3e854a459096ef7726",
"82f5c8187ab941729a86a928",
"8306f2d3b44849338ed1f3f9",
"83c03b3920df494a83506615",
"8418be33e1e248d7a687b6ab",
"8680d3c2e9f343f98eba9639",
"86dcb0dd3c1748c7b4296d89",
"86f3d52d6699426297a11736",
"8753c84a08e441efb743c2bc",
"87b997b5da804f9bab345343",
"8c027e92ca3b488194c61c83",
"8c94defe5d094cb6ba74ceef",
"8d14958abede4cb5ad2926e2",
"8d237265bb3f43c581fd2c97",
"914d06cd75754908b124b299",
"920eefa46d1f4cddb58df12a",
"9437a636eec34c9695c3d8c8",
"95e40b4809944277b638292d",
"9b9df341095f4c4980e0c30a",
"9d740b648445412787d5bb00",
"9ed9895b8de74bc88c5ddd9d",
"9ff417bce37c4871bf935495",
"a233ce11c69d430eb164c0d7",
"a4903ccb857b4386a678e1f9",
"a4c745d7ba244c399ede26ce",
"a89ab22d659d4af4bc88d76d",
"aaec8399f74e4ca282cffa2d",
"ad42eddbad294187bf367c73",
"b1ec4f4656804807bdbd8fda",
"b31736b2708045529b42d562",
"b6151909d525446b9b8fe9ab",
"b66ccead453e4fd6be347b15",
"ba31b9eea3c54113a48d29eb",
"bb05f53dc4dc460690e4a2d7",
"bbc53baf093646329eba2c9d",
"be7868b2684649899ca4adea",
"c00af707f749423298eefb6b",
"c3332e6b53d8446693d4db10",
"c63a614593af4d708ec4e75d",
"ca28430f412d4e7ca82444aa",
"caebb48bfb4044ca9c775dc9",
"cddce3b1aa4d4a439be43816",
"cff5d6e8ddab4b12b379b560",
"d52acaee6e134cb1967f021f",
"d77c6a3d000846a38fb10de6",
"dbe62fe6a4b64ec98bf30f9a",
"dcaa392192d141db8bb69aff",
"dcdb45a67e2144f0bc18870f",
"df329a9f606347288853a1f0",
"e127dfc46980476ea79224f3",
"e6a5305c30b04e68a9a43b83",
"e77ab75bad864f5d8cce4d89",
"eba9688a696543e38fbdc9f2",
"eed37a76b5df40258579b65e",
"f1dc58232ee44ee5a297fc92",
"f32d088e39364f9187d99fc9",
"f818d156e3094fe4a2ec0ad8",
"f8b5e5dbd06c44e0bfdd442d",
"f997ef27c64b4bd28ab6d0c1"
]
},
"aliases.active.name" : {

},
"runs.name" : {

},
"configurations.assigned" : {
"notprovided" : [
"2017-11-08T15:56:03.705-0600",
"2017-11-29T18:00:25.348-0600",
"2017-11-29T18:35:04.242-0600",
"2017-12-01T09:36:08.983-0600",
"2017-12-01T11:51:50.146-0600",
"2017-12-01T12:18:11.661-0600",
"2017-12-01T12:20:54.136-0600",
"2017-12-01T12:43:12.928-0600",
"2017-12-01T12:57:49.871-0600",
"2017-12-01T13:00:40.794-0600",
"2017-12-01T13:25:39.824-0600",
"2017-12-01T14:00:43.215-0600",
"2017-12-01T14:03:50.574-0600",
"2017-12-01T15:31:50.450-0600",
"2017-12-01T15:33:21.874-0600",
"2017-12-01T15:52:40.304-0600",
"2017-12-01T15:54:25.451-0600",
"2017-12-01T15:55:24.941-0600",
"2017-12-01T15:56:30.648-0600",
"2017-12-01T15:57:27.949-0600",
"2017-12-01T15:58:20.568-0600",
"2017-12-01T15:59:21.765-0600",
"2017-12-01T16:19:31.586-0600",
"2017-12-01T16:21:54.127-0600",
"2017-12-01T16:31:14.343-0600",
"2017-12-01T21:24:51.449-0600",
"2017-12-01T21:42:50.924-0600",
"2017-12-01T21:44:49.488-0600",
"2017-12-01T22:13:00.623-0600",
"2017-12-01T22:15:47.673-0600",
"2017-12-01T22:16:55.193-0600",
"2017-12-01T22:18:58.322-0600",
"2017-12-01T22:21:47.867-0600",
"2017-12-01T22:23:03.902-0600",
"2017-12-01T22:25:08.233-0600",
"2017-12-01T22:26:55.508-0600",
"2017-12-01T22:29:19.587-0600",
"2017-12-01T22:52:24.485-0600",
"2017-12-01T22:57:17.252-0600",
"2017-12-01T22:59:56.617-0600",
"2017-12-01T23:52:24.927-0600",
"2017-12-01T23:57:59.019-0600",
"2017-12-02T00:00:23.032-0600",
"2017-12-02T00:12:57.880-0600",
"2017-12-02T00:28:16.728-0600",
"2017-12-02T00:29:22.462-0600",
"2017-12-02T00:30:56.378-0600",
"2017-12-02T00:57:15.557-0600",
"2017-12-02T10:57:50.049-0600",
"2017-12-02T11:08:06.206-0600",
"2017-12-02T11:12:27.736-0600",
"2017-12-02T11:18:30.423-0600",
"2017-12-02T11:26:53.639-0600",
"2017-12-02T11:38:24.605-0600",
"2017-12-02T11:48:55.677-0600",
"2017-12-02T11:54:57.059-0600",
"2017-12-02T12:06:13.886-0600",
"2017-12-02T13:55:22.589-0600",
"2017-12-02T14:08:54.817-0600",
"2017-12-03T14:08:53.944-0600",
"2017-12-03T14:10:57.650-0600",
"2017-12-03T14:22:20.588-0600",
"2017-12-03T14:40:25.342-0600",
"2017-12-03T14:44:52.605-0600",
"2017-12-04T14:51:17.588-0600",
"2017-12-04T14:55:31.265-0600",
"2017-12-04T16:50:54.026-0600",
"2017-12-04T16:56:34.699-0600",
"2017-12-04T17:00:59.246-0600",
"2017-12-04T17:03:44.268-0600",
"2017-12-04T17:07:03.881-0600",
"2017-12-04T17:09:12.920-0600",
"2017-12-04T17:11:25.356-0600",
"2017-12-04T21:05:08.182-0600",
"2017-12-04T21:16:58.750-0600",
"2017-12-04T21:41:03.550-0600",
"2017-12-04T22:38:49.125-0600",
"2017-12-04T23:00:59.333-0600",
"2017-12-07T11:07:32.931-0600",
"2017-12-07T11:49:45.819-0600",
"2017-12-08T13:32:21.302-0600",
"2017-12-12T11:02:50.971-0600",
"2017-12-12T13:50:44.830-0600",
"2017-12-13T10:24:09.477-0600",
"2017-12-13T10:26:48.431-0600",
"2018-02-01T21:20:46.651-0600",
"2018-02-02T11:25:16.624-0600",
"2018-02-02T11:36:56.453-0600",
"2018-02-02T11:46:58.825-0600",
"2018-02-02T11:53:20.059-0600",
"2018-02-02T12:00:36.033-0600",
"2018-02-02T12:26:57.566-0600",
"2018-02-02T14:28:36.943-0600",
"2018-02-02T14:30:03.309-0600",
"2018-02-02T14:33:44.528-0600",
"2018-02-02T14:36:11.051-0600",
"2018-02-02T14:38:24.371-0600",
"2018-02-02T14:41:33.709-0600",
"2018-02-02T14:50:07.612-0600",
"2018-02-02T14:52:39.244-0600",
"2018-02-02T14:59:32.452-0600",
"2018-02-02T15:03:51.753-0600",
"2018-02-02T15:49:54.905-0600",
"2018-02-02T15:51:14.352-0600",
"2018-02-02T15:52:19.409-0600",
"2018-02-02T16:02:28.278-0600",
"2018-02-02T16:08:27.678-0600",
"2018-02-02T16:11:13.429-0600",
"2018-02-02T16:12:41.290-0600",
"2018-02-02T16:14:11.778-0600",
"2018-02-02T16:26:04.680-0600",
"2018-02-02T16:26:51.707-0600",
"2018-02-02T16:29:12.951-0600",
"2018-02-02T16:31:23.448-0600",
"2018-02-02T16:33:56.168-0600",
"2018-02-02T17:39:12.058-0600",
"2018-02-02T17:42:34.214-0600",
"2018-02-02T17:47:19.271-0600",
"2018-02-02T17:53:43.273-0600"
],
"FTBFConfig_v0" : [
"2017-11-08T15:56:06.597-0600"
],
"FTBFConfig_v1" : [
"2017-11-09T09:56:31.353-0600"
],
"FTBFConfig_v2" : [
"2017-11-09T10:06:00.327-0600"
],
"FTBFConfig_v3" : [
"2017-11-09T10:37:11.905-0600"
],
"FTBFConfig_v4" : [
"2017-11-15T11:30:10.732-0600"
],
"FTBFConfig_v5" : [
"2017-11-15T11:54:57.549-0600"
],
"FTBFConfig_v6" : [
"2017-11-15T11:57:50.193-0600"
],
"FTBFConfig_v7" : [
"2017-11-15T12:42:32.648-0600"
],
"FTBFConfig_v8" : [
"2017-11-15T13:01:03.669-0600"
],
"FTBFConfig_v9" : [
"2017-11-15T13:02:57.028-0600"
],
"FTBFConfig_v10" : [
"2017-11-15T13:04:24.600-0600"
],
"FTBFConfig_v11" : [
"2017-11-15T13:07:52.104-0600"
],
"FTBFConfig_v12" : [
"2017-11-15T13:11:59.581-0600"
],
"FTBFConfig_v13" : [
"2017-11-15T13:13:53.529-0600"
],
"FTBFConfig_v14" : [
"2017-11-15T13:27:31.318-0600"
],
"FTBFConfig_v15" : [
"2017-11-15T13:35:47.527-0600"
],
"FTBFConfig_v16" : [
"2017-11-15T13:36:52.143-0600"
],
"FTBFConfig_v17" : [
"2017-11-15T15:33:30.690-0600"
],
"FTBFConfig_v18" : [
"2017-11-15T15:35:34.314-0600"
],
"FTBFConfig_v19" : [
"2017-11-15T15:38:03.174-0600"
],
"FTBFConfig_v20" : [
"2017-11-15T16:26:31.133-0600"
],
"FTBFConfig_v21" : [
"2017-11-16T09:22:31.981-0600"
],
"FTBFConfig_v22" : [
"2017-11-17T10:23:28.209-0600"
],
"FTBFConfig_v23" : [
"2017-11-17T17:26:45.781-0600"
],
"FTBFConfig_v24" : [
"2017-11-17T17:58:26.345-0600"
],
"FTBFConfig_v25" : [
"2017-11-17T18:24:45.992-0600"
],
"FTBFConfig_v26" : [
"2017-11-17T18:32:23.688-0600"
],
"FTBFConfig_v27" : [
"2017-11-17T18:43:30.830-0600"
],
"FTBFConfig_v28" : [
"2017-11-17T18:48:32.932-0600"
],
"FTBFConfig_v29" : [
"2017-11-20T14:48:31.428-0600"
],
"FTBFConfig_v30" : [
"2017-11-20T15:39:56.509-0600"
],
"FTBFConfig_v31" : [
"2017-11-20T16:41:02.540-0600"
],
"FTBFConfig_v32" : [
"2017-11-20T18:55:35.469-0600"
],
"FTBFConfig_v33" : [
"2017-11-20T18:57:30.753-0600"
],
"FTBFConfig_v34" : [
"2017-11-29T17:50:40.232-0600"
],
"FTBFConfig_v35" : [
"2017-11-29T18:00:33.191-0600"
],
"FTBFConfig_v36" : [
"2017-11-29T18:35:11.901-0600"
],
"FTBFConfig_v38" : [
"2017-12-01T09:52:01.646-0600"
],
"FTBFConfig_v37" : [
"2017-12-01T09:36:18.586-0600"
],
"FTBFConfig_v39" : [
"2017-12-01T11:51:58.922-0600"
],
"FTBFConfig_v40" : [
"2017-12-01T12:18:21.014-0600"
],
"FTBFConfig_v41" : [
"2017-12-01T12:21:03.007-0600"
],
"FTBFConfig_v42" : [
"2017-12-01T12:43:22.404-0600"
],
"FTBFConfig_v43" : [
"2017-12-01T12:58:00.292-0600"
],
"FTBFConfig_v44" : [
"2017-12-01T13:00:52.779-0600"
],
"FTBFConfig_v45" : [
"2017-12-01T13:25:49.378-0600"
],
"FTBFConfig_v46" : [
"2017-12-01T13:35:44.160-0600"
],
"FTBFConfig_v47" : [
"2017-12-01T14:00:52.427-0600"
],
"FTBFConfig_v48" : [
"2017-12-01T14:03:59.781-0600"
],
"FTBFConfig_v49" : [
"2017-12-01T15:31:59.948-0600"
],
"FTBFConfig_v52" : [
"2017-12-01T15:37:32.435-0600"
],
"FTBFConfig_v53" : [
"2017-12-01T15:40:59.452-0600"
],
"FTBFConfig_v54" : [
"2017-12-01T15:52:49.774-0600"
],
"FTBFConfig_v70" : [
"2017-12-01T21:59:19.252-0600"
],
"FTBFConfigNim_v0" : [
"2017-12-01T22:00:05.983-0600"
],
"FTBFConfig_v55" : [
"2017-12-01T15:54:34.945-0600"
],
"FTBFConfig_v56" : [
"2017-12-01T15:55:34.505-0600"
],
"FTBFConfig_v57" : [
"2017-12-01T15:56:40.350-0600"
],
"FTBFConfig_v58" : [
"2017-12-01T15:57:38.406-0600"
],
"FTBFConfig_v66" : [
"2017-12-01T20:38:50.354-0600"
],
"FTBFConfig_v59" : [
"2017-12-01T15:58:30.328-0600"
],
"FTBFConfig_v60" : [
"2017-12-01T15:59:31.538-0600"
],
"FTBFConfig_v61" : [
"2017-12-01T16:19:41.366-0600"
],
"FTBFConfig_v62" : [
"2017-12-01T16:22:03.848-0600"
],
"FTBFConfig_v63" : [
"2017-12-01T16:31:24.481-0600"
],
"FTBFConfig_v64" : [
"2017-12-01T17:06:31.745-0600"
],
"FTBFConfig_v65" : [
"2017-12-01T17:32:43.867-0600"
],
"FTBFConfig_v67" : [
"2017-12-01T21:25:01.697-0600"
],
"FTBFConfig_v68" : [
"2017-12-01T21:43:01.389-0600"
],
"FTBFConfig_v69" : [
"2017-12-01T21:44:59.981-0600"
],
"FTBFConfigNim_v1" : [
"2017-12-01T22:13:07.750-0600"
],
"FTBFConfigNim_v2" : [
"2017-12-01T22:15:55.002-0600"
],
"FTBFConfigNim_v3" : [
"2017-12-01T22:17:03.484-0600"
],
"FTBFConfigNim_v4" : [
"2017-12-01T22:19:06.080-0600"
],
"FTBFConfigNim_v5" : [
"2017-12-01T22:21:56.841-0600"
],
"FTBFConfigNim_v6" : [
"2017-12-01T22:23:13.656-0600"
],
"FTBFConfigNim_v7" : [
"2017-12-01T22:25:16.822-0600"
],
"FTBFConfigNim_v8" : [
"2017-12-01T22:27:04.503-0600"
],
"FTBFConfigNim_v9" : [
"2017-12-01T22:29:28.633-0600"
],
"FTBFConfigNim_v10" : [
"2017-12-01T22:52:33.956-0600"
],
"FTBFConfigNim_v11" : [
"2017-12-01T22:57:28.630-0600"
],
"FTBFConfigNim_v12" : [
"2017-12-01T23:00:06.827-0600"
],
"FTBFConfigNim_v13" : [
"2017-12-01T23:52:34.971-0600"
],
"FTBFConfigNim_v14" : [
"2017-12-01T23:58:09.418-0600"
],
"FTBFConfigNim_v15" : [
"2017-12-02T00:00:33.645-0600"
],
"FTBFConfigNim_v16" : [
"2017-12-02T00:13:08.820-0600"
],
"FTBFConfigNim_v17" : [
"2017-12-02T00:28:27.767-0600"
],
"FTBFConfigNim_v18" : [
"2017-12-02T00:29:33.830-0600"
],
"FTBFConfigNim_v19" : [
"2017-12-02T00:31:12.603-0600"
],
"FTBFConfigNim_v20" : [
"2017-12-02T00:57:26.861-0600"
],
"FTBFConfig_v71" : [
"2017-12-02T12:24:14.487-0600"
],
"FTBFConfig_v72" : [
"2017-12-02T12:43:35.353-0600"
],
"FTBFConfigNim_v21" : [
"2017-12-02T10:58:01.411-0600"
],
"FTBFConfigNim_v22" : [
"2017-12-02T11:08:17.618-0600"
],
"FTBFConfigNim_v23" : [
"2017-12-02T11:12:39.233-0600"
],
"FTBFConfigNim_v24" : [
"2017-12-02T11:18:42.096-0600"
],
"FTBFConfigNim_v25" : [
"2017-12-02T11:27:05.289-0600"
],
"FTBFConfigNim_v26" : [
"2017-12-02T11:38:36.331-0600"
],
"FTBFConfigNim_v27" : [
"2017-12-02T11:49:07.528-0600"
],
"FTBFConfigNim_v28" : [
"2017-12-02T11:55:09.042-0600"
],
"FTBFConfigNim_v29" : [
"2017-12-02T12:06:25.826-0600"
],
"FTBFConfig_v73" : [
"2017-12-02T13:55:35.015-0600"
],
"FTBFConfig_v78" : [
"2017-12-03T14:03:48.231-0600"
],
"FTBFConfig_v74" : [
"2017-12-02T14:09:07.417-0600"
],
"FTBFConfig_v75" : [
"2017-12-02T14:12:18.165-0600"
],
"FTBFConfig_v76" : [
"2017-12-02T19:05:53.212-0600"
],
"FTBFConfig_v77" : [
"2017-12-02T19:12:13.084-0600"
],
"FTBFConfig_v79" : [
"2017-12-03T14:09:06.494-0600"
],
"FTBFConfig_v80" : [
"2017-12-03T14:11:10.226-0600"
],
"FTBFConfig_v81" : [
"2017-12-03T14:22:33.282-0600"
],
"FTBFConfig_v82" : [
"2017-12-03T14:40:38.084-0600"
],
"FTBFConfig_v83" : [
"2017-12-03T14:45:05.444-0600"
],
"FTBFConfig_v84" : [
"2017-12-04T14:51:30.745-0600"
],
"FTBFConfig_v85" : [
"2017-12-04T14:55:43.936-0600"
],
"FTBFConfig_v105" : [
"2017-12-12T15:25:05.800-0600"
],
"FTBFConfig_v86" : [
"2017-12-04T16:51:06.979-0600"
],
"FTBFConfig_v87" : [
"2017-12-04T16:56:47.617-0600"
],
"FTBFConfig_v88" : [
"2017-12-04T17:01:12.356-0600"
],
"FTBFConfig_v89" : [
"2017-12-04T17:03:57.469-0600"
],
"FTBFConfig_v90" : [
"2017-12-04T17:07:17.109-0600"
],
"FTBFConfig_v91" : [
"2017-12-04T17:09:26.235-0600"
],
"FTBFConfig_v92" : [
"2017-12-04T17:11:38.741-0600"
],
"FTBFConfig_v93" : [
"2017-12-04T21:05:21.305-0600"
],
"FTBFConfig_v94" : [
"2017-12-04T21:17:12.268-0600"
],
"FTBFConfig_v95" : [
"2017-12-04T21:41:17.921-0600"
],
"FTBFConfig_v96" : [
"2017-12-04T22:39:02.575-0600"
],
"FTBFConfig_v97" : [
"2017-12-04T23:01:13.074-0600"
],
"FTBFConfig_v98" : [
"2017-12-07T11:07:47.083-0600"
],
"FTBFConfig_v99" : [
"2017-12-07T11:49:59.745-0600"
],
"FTBFConfig_v100" : [
"2017-12-07T11:58:26.493-0600"
],
"FTBFConfig_v101" : [
"2017-12-08T13:30:48.657-0600"
],
"FTBFConfig_v102" : [
"2017-12-08T13:32:35.519-0600"
],
"FTBFConfig_v103" : [
"2017-12-12T11:03:05.337-0600"
],
"FTBFConfig_v104" : [
"2017-12-12T13:50:59.826-0600"
],
"FTBFConfig_v106" : [
"2017-12-13T10:24:24.139-0600"
],
"FTBFConfig_v107" : [
"2017-12-13T10:27:02.877-0600"
],
"FTBFConfig_v108" : [
"2018-02-01T21:14:26.475-0600"
],
"FTBFConfig_v109" : [
"2018-02-01T21:21:03.611-0600"
],
"FTBFConfig_v110" : [
"2018-02-02T11:25:34.572-0600"
],
"FTBFConfig_v111" : [
"2018-02-02T11:37:13.400-0600"
],
"FTBFConfig_v112" : [
"2018-02-02T11:47:15.913-0600"
],
"FTBFConfig_v113" : [
"2018-02-02T11:53:37.163-0600"
],
"FTBFConfig_v114" : [
"2018-02-02T12:00:53.276-0600"
],
"FTBFConfig_v115" : [
"2018-02-02T12:27:14.750-0600"
],
"FTBFConfig_v116" : [
"2018-02-02T14:28:54.267-0600"
],
"FTBFConfig_v117" : [
"2018-02-02T14:30:20.612-0600"
],
"FTBFConfig_v118" : [
"2018-02-02T14:34:01.880-0600"
],
"FTBFConfig_v119" : [
"2018-02-02T14:36:28.477-0600"
],
"FTBFConfig_v120" : [
"2018-02-02T14:38:41.840-0600"
],
"FTBFConfig_v121" : [
"2018-02-02T14:41:51.135-0600"
],
"FTBFConfig_v122" : [
"2018-02-02T14:50:25.219-0600"
],
"FTBFConfig_v123" : [
"2018-02-02T14:52:58.092-0600"
],
"FTBFConfig_v124" : [
"2018-02-02T14:59:51.403-0600"
],
"FTBFConfig_v125" : [
"2018-02-02T15:04:09.520-0600"
],
"FTBFConfig_v126" : [
"2018-02-02T15:50:12.769-0600"
],
"FTBFConfig_v127" : [
"2018-02-02T15:51:32.225-0600"
],
"FTBFConfig_v128" : [
"2018-02-02T15:52:37.383-0600"
],
"FTBFConfig_v129" : [
"2018-02-02T16:02:46.302-0600"
],
"FTBFConfig_v130" : [
"2018-02-02T16:08:45.836-0600"
],
"FTBFConfig_v131" : [
"2018-02-02T16:11:31.693-0600"
],
"FTBFConfig_v132" : [
"2018-02-02T16:12:59.559-0600"
],
"FTBFConfig_v133" : [
"2018-02-02T16:14:30.147-0600"
],
"FTBFConfig_v134" : [
"2018-02-02T16:26:23.072-0600"
],
"FTBFConfig_v135" : [
"2018-02-02T16:27:10.177-0600"
],
"FTBFConfig_v136" : [
"2018-02-02T16:29:31.536-0600"
],
"FTBFConfig_v137" : [
"2018-02-02T16:31:42.145-0600"
],
"FTBFConfig_v138" : [
"2018-02-02T16:34:14.827-0600"
],
"FTBFConfig_v139" : [
"2018-02-02T17:39:30.872-0600"
],
"FTBFConfig_v140" : [
"2018-02-02T17:42:53.053-0600"
],
"FTBFConfig_v141" : [
"2018-02-02T17:47:38.277-0600"
],
"FTBFConfig_v142" : [
"2018-02-02T17:54:02.268-0600"
]
}
}