{
"ouid" : [
"b44252a0c1ae4ac5a02b759b"
],
"version" : {
"1" : [
"b44252a0c1ae4ac5a02b759b"
]
},
"configurations.name" : {
"notprovided" : [
"b44252a0c1ae4ac5a02b759b"
],
"DefaultConfig_v1" : [
"b44252a0c1ae4ac5a02b759b"
],
"DefaultConfig_v2" : [
"b44252a0c1ae4ac5a02b759b"
],
"DefaultConfig_v3" : [
"b44252a0c1ae4ac5a02b759b"
],
"DefaultConfig_v4" : [
"b44252a0c1ae4ac5a02b759b"
],
"DefaultConfig_v5" : [
"b44252a0c1ae4ac5a02b759b"
],
"DefaultConfig_v6" : [
"b44252a0c1ae4ac5a02b759b"
],
"DefaultConfig_v7" : [
"b44252a0c1ae4ac5a02b759b"
],
"DefaultConfig_v8" : [
"b44252a0c1ae4ac5a02b759b"
],
"DefaultConfig_v9" : [
"b44252a0c1ae4ac5a02b759b"
],
"DefaultConfig_v10" : [
"b44252a0c1ae4ac5a02b759b"
],
"DefaultConfig_v11" : [
"b44252a0c1ae4ac5a02b759b"
],
"DefaultConfig_v12" : [
"b44252a0c1ae4ac5a02b759b"
]
},
"entities.name" : {
"OTSROOT" : [
"b44252a0c1ae4ac5a02b759b"
]
},
"aliases.active.name" : {

},
"runs.name" : {

},
"configurations.assigned" : {
"notprovided" : [
"2020-07-21T14:27:46.280-0500"
],
"DefaultConfig_v1" : [
"2020-07-21T14:27:46.833-0500"
],
"DefaultConfig_v2" : [
"2020-07-21T14:44:16.488-0500"
],
"DefaultConfig_v3" : [
"2020-07-21T14:57:50.360-0500"
],
"DefaultConfig_v4" : [
"2020-07-28T10:52:34.258-0500"
],
"DefaultConfig_v5" : [
"2020-09-09T19:37:59.672+0200"
],
"DefaultConfig_v6" : [
"2020-09-09T19:46:42.915+0200"
],
"DefaultConfig_v7" : [
"2020-09-09T21:28:06.410+0200"
],
"DefaultConfig_v8" : [
"2020-09-10T19:06:32.462+0200"
],
"DefaultConfig_v9" : [
"2020-09-11T17:53:12.147+0200"
],
"DefaultConfig_v10" : [
"2020-09-15T17:25:16.341+0200"
],
"DefaultConfig_v11" : [
"2020-09-15T17:39:24.011+0200"
],
"DefaultConfig_v12" : [
"2020-11-10T21:07:06.971+0100"
]
}
}