{
"ouid" : [
"0ad017bf809d4f93a2fbafdc"
],
"version" : {
"0" : [
"0ad017bf809d4f93a2fbafdc"
]
},
"configurations.name" : {
"notprovided" : [
"0ad017bf809d4f93a2fbafdc"
],
"iterateDefaultGroup_v0" : [
"0ad017bf809d4f93a2fbafdc"
],
"iterateDefaultGroup_v1" : [
"0ad017bf809d4f93a2fbafdc"
],
"iterateDefaultGroup_v2" : [
"0ad017bf809d4f93a2fbafdc"
],
"iterateDefaultGroup_v3" : [
"0ad017bf809d4f93a2fbafdc"
],
"iterateDefaultGroup_v4" : [
"0ad017bf809d4f93a2fbafdc"
],
"iterateDefaultGroup_v5" : [
"0ad017bf809d4f93a2fbafdc"
],
"iterateDefaultGroup_v6" : [
"0ad017bf809d4f93a2fbafdc"
],
"iterateDefaultGroup_v7" : [
"0ad017bf809d4f93a2fbafdc"
],
"iterateDefaultGroup_v8" : [
"0ad017bf809d4f93a2fbafdc"
],
"iterateDefaultGroup_v9" : [
"0ad017bf809d4f93a2fbafdc"
],
"iterateDefaultGroup_v10" : [
"0ad017bf809d4f93a2fbafdc"
],
"iterateDefaultGroup_v11" : [
"0ad017bf809d4f93a2fbafdc"
],
"iterateDefaultGroup_v12" : [
"0ad017bf809d4f93a2fbafdc"
]
},
"entities.name" : {
"OTSROOT" : [
"0ad017bf809d4f93a2fbafdc"
]
},
"aliases.active.name" : {

},
"runs.name" : {

},
"configurations.assigned" : {
"notprovided" : [
"2020-07-21T14:47:39.138-0500"
],
"iterateDefaultGroup_v0" : [
"2020-07-21T14:47:39.650-0500"
],
"iterateDefaultGroup_v1" : [
"2020-07-21T15:25:08.037-0500"
],
"iterateDefaultGroup_v2" : [
"2020-07-21T15:28:04.411-0500"
],
"iterateDefaultGroup_v3" : [
"2020-07-21T15:42:20.747-0500"
],
"iterateDefaultGroup_v4" : [
"2020-07-21T15:45:03.759-0500"
],
"iterateDefaultGroup_v5" : [
"2020-07-21T15:57:33.748-0500"
],
"iterateDefaultGroup_v6" : [
"2020-07-28T10:52:35.232-0500"
],
"iterateDefaultGroup_v7" : [
"2020-07-28T13:01:36.918-0500"
],
"iterateDefaultGroup_v8" : [
"2020-07-28T13:03:27.128-0500"
],
"iterateDefaultGroup_v9" : [
"2020-07-28T13:12:58.114-0500"
],
"iterateDefaultGroup_v10" : [
"2020-07-28T13:15:25.345-0500"
],
"iterateDefaultGroup_v11" : [
"2020-07-28T13:20:57.271-0500"
],
"iterateDefaultGroup_v12" : [
"2020-07-28T13:27:37.853-0500"
]
}
}