{
"document" : {
"data" : {
"NAME" : "ARTDAQ_AGGREGATOR_DAQ_CONFIGURATION",
"COMMENT" : "Top level aggregator daq records.",
"AUTHOR" : "admin",
"CREATION_TIME" : 1510772523,
"COL_TYPES" : {
"DAQ_UID" : "VARCHAR2",
"DAQ_AGGREGATOR_PARAMETERS_LINK" : "VARCHAR2",
"DAQ_AGGREGATOR_PARAMETERS_LINK_GROUP_ID" : "VARCHAR2",
"DAQ_AGGREGATOR_SOURCES_LINK" : "VARCHAR2",
"DAQ_AGGREGATOR_SOURCES_LINK_GROUP_ID" : "VARCHAR2",
"DAQ_METRICS_LINK" : "VARCHAR2",
"DAQ_METRICS_LINK_GROUP_ID" : "VARCHAR2",
"DAQ_AGGREGATOR_DESTINATIONS_LINK" : "VARCHAR2",
"DAQ_AGGREGATOR_DESTINATIONS_LINK_GROUP_ID" : "VARCHAR2",
"COMMENT_DESCRIPTION" : "VARCHAR2",
"AUTHOR" : "VARCHAR2",
"RECORD_INSERTION_TIME" : "TIMESTAMP WITH TIMEZONE"
},
"DATA_SET" : [
{
"DAQ_UID" : "aggregator0daq0",
"DAQ_AGGREGATOR_PARAMETERS_LINK" : "ARTDAQAggregatorDaqParameterConfiguration",
"DAQ_AGGREGATOR_PARAMETERS_LINK_GROUP_ID" : "aggregator0daq0PGroup",
"DAQ_AGGREGATOR_SOURCES_LINK" : "ARTDAQDaqSourceConfiguration",
"DAQ_AGGREGATOR_SOURCES_LINK_GROUP_ID" : "aggregator0sources",
"DAQ_METRICS_LINK" : "ARTDAQDaqMetricConfiguration",
"DAQ_METRICS_LINK_GROUP_ID" : "aggreator0Metrics",
"DAQ_AGGREGATOR_DESTINATIONS_LINK" : "ARTDAQDaqDestinationConfiguration",
"DAQ_AGGREGATOR_DESTINATIONS_LINK_GROUP_ID" : "aggregator0destinations",
"COMMENT_DESCRIPTION" : "No Comment",
"AUTHOR" : "DEFAULT",
"RECORD_INSERTION_TIME" : "0"
},
{
"DAQ_UID" : "aggregatorStripsOnly0daq0",
"DAQ_AGGREGATOR_PARAMETERS_LINK" : "ARTDAQAggregatorDaqParameterConfiguration",
"DAQ_AGGREGATOR_PARAMETERS_LINK_GROUP_ID" : "aggregator0daq0PGroup",
"DAQ_AGGREGATOR_SOURCES_LINK" : "ARTDAQDaqSourceConfiguration",
"DAQ_AGGREGATOR_SOURCES_LINK_GROUP_ID" : "aggregatorStripsOnly0sources",
"DAQ_METRICS_LINK" : "ARTDAQDaqMetricConfiguration",
"DAQ_METRICS_LINK_GROUP_ID" : "aggreator0Metrics",
"DAQ_AGGREGATOR_DESTINATIONS_LINK" : "ARTDAQDaqDestinationConfiguration",
"DAQ_AGGREGATOR_DESTINATIONS_LINK_GROUP_ID" : "aggregator0destinations",
"COMMENT_DESCRIPTION" : "No Comment",
"AUTHOR" : "admin",
"RECORD_INSERTION_TIME" : "1510772523"
}
]
},
"metadata" : {

},
"search" : [

]
},
"comments" : [

],
"origin" : {
"source" : "template",
"name" : "notprovided",
"format" : "json",
"created" : "2017-11-15T13:02:03.935-0600",
"rawdata" : [

]
},
"version" : "1",
"entities" : [
{
"name" : "OTSROOT",
"assigned" : "2017-11-15T13:02:03.937-0600"
}
],
"configurations" : [
{
"name" : "notprovided",
"assigned" : "2017-11-15T13:02:03.936-0600"
},
{
"name" : "FTBFConfig_v9",
"assigned" : "2017-11-15T13:02:54.383-0600"
},
{
"name" : "FTBFConfig_v10",
"assigned" : "2017-11-15T13:04:21.970-0600"
},
{
"name" : "FTBFConfig_v11",
"assigned" : "2017-11-15T13:07:49.424-0600"
},
{
"name" : "FTBFConfig_v12",
"assigned" : "2017-11-15T13:11:56.837-0600"
},
{
"name" : "FTBFConfig_v13",
"assigned" : "2017-11-15T13:13:50.797-0600"
},
{
"name" : "FTBFConfig_v14",
"assigned" : "2017-11-15T13:27:22.457-0600"
},
{
"name" : "FTBFConfig_v15",
"assigned" : "2017-11-15T13:35:44.752-0600"
},
{
"name" : "FTBFConfig_v16",
"assigned" : "2017-11-15T13:36:49.387-0600"
},
{
"name" : "FTBFConfig_v17",
"assigned" : "2017-11-15T15:33:27.905-0600"
},
{
"name" : "FTBFConfig_v18",
"assigned" : "2017-11-15T15:35:31.405-0600"
},
{
"name" : "FTBFConfig_v19",
"assigned" : "2017-11-15T15:38:00.328-0600"
},
{
"name" : "FTBFConfig_v20",
"assigned" : "2017-11-15T16:26:27.901-0600"
},
{
"name" : "FTBFConfig_v21",
"assigned" : "2017-11-16T09:22:29.116-0600"
},
{
"name" : "FTBFConfig_v22",
"assigned" : "2017-11-17T10:23:25.289-0600"
},
{
"name" : "FTBFConfig_v23",
"assigned" : "2017-11-17T17:26:42.754-0600"
},
{
"name" : "FTBFConfig_v24",
"assigned" : "2017-11-17T17:58:23.173-0600"
},
{
"name" : "FTBFConfig_v25",
"assigned" : "2017-11-17T18:24:42.859-0600"
},
{
"name" : "FTBFConfig_v26",
"assigned" : "2017-11-17T18:32:19.454-0600"
},
{
"name" : "FTBFConfig_v27",
"assigned" : "2017-11-17T18:43:26.518-0600"
},
{
"name" : "FTBFConfig_v28",
"assigned" : "2017-11-17T18:48:28.575-0600"
},
{
"name" : "FTBFConfig_v29",
"assigned" : "2017-11-20T14:48:28.069-0600"
},
{
"name" : "FTBFConfig_v30",
"assigned" : "2017-11-20T15:39:53.337-0600"
},
{
"name" : "FTBFConfig_v31",
"assigned" : "2017-11-20T16:40:59.286-0600"
},
{
"name" : "FTBFConfig_v32",
"assigned" : "2017-11-20T18:55:32.069-0600"
},
{
"name" : "FTBFConfig_v33",
"assigned" : "2017-11-20T18:57:27.341-0600"
},
{
"name" : "FTBFConfig_v34",
"assigned" : "2017-11-29T17:50:36.819-0600"
},
{
"name" : "FTBFConfig_v35",
"assigned" : "2017-11-29T18:00:29.696-0600"
},
{
"name" : "FTBFConfig_v36",
"assigned" : "2017-11-29T18:35:08.566-0600"
},
{
"name" : "FTBFConfig_v37",
"assigned" : "2017-12-01T09:36:14.689-0600"
},
{
"name" : "FTBFConfig_v38",
"assigned" : "2017-12-01T09:51:58.019-0600"
},
{
"name" : "FTBFConfig_v39",
"assigned" : "2017-12-01T11:51:55.266-0600"
},
{
"name" : "FTBFConfig_v40",
"assigned" : "2017-12-01T12:18:17.115-0600"
},
{
"name" : "FTBFConfig_v41",
"assigned" : "2017-12-01T12:20:59.324-0600"
},
{
"name" : "FTBFConfig_v42",
"assigned" : "2017-12-01T12:43:18.321-0600"
},
{
"name" : "FTBFConfig_v43",
"assigned" : "2017-12-01T12:57:55.196-0600"
},
{
"name" : "FTBFConfig_v44",
"assigned" : "2017-12-01T13:00:47.544-0600"
},
{
"name" : "FTBFConfig_v45",
"assigned" : "2017-12-01T13:25:45.257-0600"
},
{
"name" : "FTBFConfig_v46",
"assigned" : "2017-12-01T13:35:40.086-0600"
},
{
"name" : "FTBFConfig_v47",
"assigned" : "2017-12-01T14:00:48.507-0600"
},
{
"name" : "FTBFConfig_v48",
"assigned" : "2017-12-01T14:03:55.771-0600"
},
{
"name" : "FTBFConfig_v49",
"assigned" : "2017-12-01T15:31:55.891-0600"
},
{
"name" : "FTBFConfig_v50",
"assigned" : "2017-12-01T15:33:47.738-0600"
},
{
"name" : "FTBFConfig_v51",
"assigned" : "2017-12-01T15:36:17.355-0600"
},
{
"name" : "FTBFConfig_v52",
"assigned" : "2017-12-01T15:37:26.248-0600"
},
{
"name" : "FTBFConfig_v53",
"assigned" : "2017-12-01T15:40:55.472-0600"
},
{
"name" : "FTBFConfig_v54",
"assigned" : "2017-12-01T15:52:45.781-0600"
},
{
"name" : "FTBFConfig_v55",
"assigned" : "2017-12-01T15:54:30.882-0600"
},
{
"name" : "FTBFConfig_v56",
"assigned" : "2017-12-01T15:55:30.402-0600"
},
{
"name" : "FTBFConfig_v57",
"assigned" : "2017-12-01T15:56:36.149-0600"
},
{
"name" : "FTBFConfig_v58",
"assigned" : "2017-12-01T15:57:34.248-0600"
},
{
"name" : "FTBFConfig_v59",
"assigned" : "2017-12-01T15:58:26.122-0600"
},
{
"name" : "FTBFConfig_v60",
"assigned" : "2017-12-01T15:59:27.330-0600"
},
{
"name" : "FTBFConfig_v61",
"assigned" : "2017-12-01T16:19:37.015-0600"
},
{
"name" : "FTBFConfig_v62",
"assigned" : "2017-12-01T16:21:59.573-0600"
},
{
"name" : "FTBFConfig_v63",
"assigned" : "2017-12-01T16:31:20.152-0600"
},
{
"name" : "FTBFConfig_v64",
"assigned" : "2017-12-01T17:06:26.980-0600"
},
{
"name" : "FTBFConfig_v65",
"assigned" : "2017-12-01T17:32:39.303-0600"
},
{
"name" : "FTBFConfig_v66",
"assigned" : "2017-12-01T20:38:45.650-0600"
},
{
"name" : "FTBFConfig_v67",
"assigned" : "2017-12-01T21:24:57.203-0600"
},
{
"name" : "FTBFConfig_v68",
"assigned" : "2017-12-01T21:42:56.836-0600"
},
{
"name" : "FTBFConfig_v69",
"assigned" : "2017-12-01T21:44:55.435-0600"
},
{
"name" : "FTBFConfig_v70",
"assigned" : "2017-12-01T21:59:14.647-0600"
},
{
"name" : "FTBFConfigNim_v0",
"assigned" : "2017-12-01T22:00:01.360-0600"
},
{
"name" : "FTBFConfigNim_v1",
"assigned" : "2017-12-01T22:13:03.073-0600"
},
{
"name" : "FTBFConfigNim_v2",
"assigned" : "2017-12-01T22:15:50.285-0600"
},
{
"name" : "FTBFConfigNim_v3",
"assigned" : "2017-12-01T22:16:58.225-0600"
},
{
"name" : "FTBFConfigNim_v4",
"assigned" : "2017-12-01T22:19:01.328-0600"
},
{
"name" : "FTBFConfigNim_v5",
"assigned" : "2017-12-01T22:21:52.006-0600"
},
{
"name" : "FTBFConfigNim_v6",
"assigned" : "2017-12-01T22:23:07.345-0600"
},
{
"name" : "FTBFConfigNim_v7",
"assigned" : "2017-12-01T22:25:11.907-0600"
},
{
"name" : "FTBFConfigNim_v8",
"assigned" : "2017-12-01T22:26:59.444-0600"
},
{
"name" : "FTBFConfigNim_v9",
"assigned" : "2017-12-01T22:29:23.733-0600"
},
{
"name" : "FTBFConfigNim_v10",
"assigned" : "2017-12-01T22:52:28.824-0600"
},
{
"name" : "FTBFConfigNim_v11",
"assigned" : "2017-12-01T22:57:23.248-0600"
},
{
"name" : "FTBFConfigNim_v12",
"assigned" : "2017-12-01T23:00:01.860-0600"
},
{
"name" : "FTBFConfigNim_v13",
"assigned" : "2017-12-01T23:52:29.965-0600"
},
{
"name" : "FTBFConfigNim_v14",
"assigned" : "2017-12-01T23:58:04.340-0600"
},
{
"name" : "FTBFConfigNim_v15",
"assigned" : "2017-12-02T00:00:28.606-0600"
},
{
"name" : "FTBFConfigNim_v16",
"assigned" : "2017-12-02T00:13:03.701-0600"
},
{
"name" : "FTBFConfigNim_v17",
"assigned" : "2017-12-02T00:28:22.702-0600"
},
{
"name" : "FTBFConfigNim_v18",
"assigned" : "2017-12-02T00:29:28.713-0600"
},
{
"name" : "FTBFConfigNim_v19",
"assigned" : "2017-12-02T00:31:04.573-0600"
},
{
"name" : "FTBFConfigNim_v20",
"assigned" : "2017-12-02T00:57:21.683-0600"
},
{
"name" : "FTBFConfigNim_v21",
"assigned" : "2017-12-02T10:57:56.229-0600"
},
{
"name" : "FTBFConfigNim_v22",
"assigned" : "2017-12-02T11:08:12.385-0600"
},
{
"name" : "FTBFConfigNim_v23",
"assigned" : "2017-12-02T11:12:33.936-0600"
},
{
"name" : "FTBFConfigNim_v24",
"assigned" : "2017-12-02T11:18:36.709-0600"
},
{
"name" : "FTBFConfigNim_v25",
"assigned" : "2017-12-02T11:26:59.961-0600"
},
{
"name" : "FTBFConfigNim_v26",
"assigned" : "2017-12-02T11:38:30.994-0600"
},
{
"name" : "FTBFConfigNim_v27",
"assigned" : "2017-12-02T11:49:02.091-0600"
},
{
"name" : "FTBFConfigNim_v28",
"assigned" : "2017-12-02T11:55:03.495-0600"
},
{
"name" : "FTBFConfigNim_v29",
"assigned" : "2017-12-02T12:06:20.359-0600"
},
{
"name" : "FTBFConfig_v71",
"assigned" : "2017-12-02T12:24:08.973-0600"
},
{
"name" : "FTBFConfig_v72",
"assigned" : "2017-12-02T12:43:29.725-0600"
},
{
"name" : "FTBFConfig_v73",
"assigned" : "2017-12-02T13:55:29.271-0600"
},
{
"name" : "FTBFConfig_v74",
"assigned" : "2017-12-02T14:09:01.539-0600"
},
{
"name" : "FTBFConfig_v75",
"assigned" : "2017-12-02T14:12:12.406-0600"
},
{
"name" : "FTBFConfig_v76",
"assigned" : "2017-12-02T19:05:47.553-0600"
},
{
"name" : "FTBFConfig_v77",
"assigned" : "2017-12-02T19:12:07.325-0600"
},
{
"name" : "FTBFConfig_v78",
"assigned" : "2017-12-03T14:03:42.510-0600"
},
{
"name" : "FTBFConfig_v79",
"assigned" : "2017-12-03T14:09:00.664-0600"
},
{
"name" : "FTBFConfig_v80",
"assigned" : "2017-12-03T14:11:04.420-0600"
},
{
"name" : "FTBFConfig_v81",
"assigned" : "2017-12-03T14:22:27.442-0600"
},
{
"name" : "FTBFConfig_v82",
"assigned" : "2017-12-03T14:40:32.179-0600"
},
{
"name" : "FTBFConfig_v83",
"assigned" : "2017-12-03T14:44:59.473-0600"
},
{
"name" : "FTBFConfig_v84",
"assigned" : "2017-12-04T14:51:24.959-0600"
},
{
"name" : "FTBFConfig_v85",
"assigned" : "2017-12-04T14:55:38.021-0600"
},
{
"name" : "FTBFConfig_v86",
"assigned" : "2017-12-04T16:51:01.014-0600"
},
{
"name" : "FTBFConfig_v87",
"assigned" : "2017-12-04T16:56:41.635-0600"
},
{
"name" : "FTBFConfig_v88",
"assigned" : "2017-12-04T17:01:06.313-0600"
},
{
"name" : "FTBFConfig_v89",
"assigned" : "2017-12-04T17:03:51.363-0600"
},
{
"name" : "FTBFConfig_v90",
"assigned" : "2017-12-04T17:07:11.008-0600"
},
{
"name" : "FTBFConfig_v91",
"assigned" : "2017-12-04T17:09:20.093-0600"
},
{
"name" : "FTBFConfig_v92",
"assigned" : "2017-12-04T17:11:32.554-0600"
},
{
"name" : "FTBFConfig_v93",
"assigned" : "2017-12-04T21:05:15.190-0600"
},
{
"name" : "FTBFConfig_v94",
"assigned" : "2017-12-04T21:17:05.999-0600"
},
{
"name" : "FTBFConfig_v95",
"assigned" : "2017-12-04T21:41:11.762-0600"
},
{
"name" : "FTBFConfig_v96",
"assigned" : "2017-12-04T22:38:56.367-0600"
},
{
"name" : "FTBFConfig_v97",
"assigned" : "2017-12-04T23:01:06.828-0600"
},
{
"name" : "FTBFConfig_v98",
"assigned" : "2017-12-07T11:07:40.816-0600"
},
{
"name" : "FTBFConfig_v99",
"assigned" : "2017-12-07T11:49:53.530-0600"
},
{
"name" : "FTBFConfig_v100",
"assigned" : "2017-12-07T11:58:20.250-0600"
},
{
"name" : "FTBFConfig_v101",
"assigned" : "2017-12-08T13:30:42.309-0600"
},
{
"name" : "FTBFConfig_v102",
"assigned" : "2017-12-08T13:32:29.219-0600"
},
{
"name" : "FTBFConfig_v103",
"assigned" : "2017-12-12T11:02:58.960-0600"
},
{
"name" : "FTBFConfig_v104",
"assigned" : "2017-12-12T13:50:53.134-0600"
},
{
"name" : "FTBFConfig_v105",
"assigned" : "2017-12-12T15:24:59.170-0600"
},
{
"name" : "FTBFConfig_v106",
"assigned" : "2017-12-13T10:24:17.672-0600"
},
{
"name" : "FTBFConfig_v107",
"assigned" : "2017-12-13T10:26:56.469-0600"
},
{
"name" : "FTBFConfig_v108",
"assigned" : "2018-02-01T21:14:19.555-0600"
},
{
"name" : "FTBFConfig_v109",
"assigned" : "2018-02-01T21:20:56.714-0600"
},
{
"name" : "FTBFConfig_v110",
"assigned" : "2018-02-02T11:25:27.661-0600"
},
{
"name" : "FTBFConfig_v111",
"assigned" : "2018-02-02T11:37:06.481-0600"
},
{
"name" : "FTBFConfig_v112",
"assigned" : "2018-02-02T11:47:08.901-0600"
},
{
"name" : "FTBFConfig_v113",
"assigned" : "2018-02-02T11:53:30.148-0600"
},
{
"name" : "FTBFConfig_v114",
"assigned" : "2018-02-02T12:00:46.199-0600"
},
{
"name" : "FTBFConfig_v115",
"assigned" : "2018-02-02T12:27:07.696-0600"
},
{
"name" : "FTBFConfig_v116",
"assigned" : "2018-02-02T14:28:47.151-0600"
},
{
"name" : "FTBFConfig_v117",
"assigned" : "2018-02-02T14:30:13.517-0600"
},
{
"name" : "FTBFConfig_v118",
"assigned" : "2018-02-02T14:33:54.701-0600"
},
{
"name" : "FTBFConfig_v119",
"assigned" : "2018-02-02T14:36:21.283-0600"
},
{
"name" : "FTBFConfig_v120",
"assigned" : "2018-02-02T14:38:34.642-0600"
},
{
"name" : "FTBFConfig_v121",
"assigned" : "2018-02-02T14:41:43.971-0600"
},
{
"name" : "FTBFConfig_v122",
"assigned" : "2018-02-02T14:50:17.923-0600"
},
{
"name" : "FTBFConfig_v123",
"assigned" : "2018-02-02T14:52:50.809-0600"
},
{
"name" : "FTBFConfig_v124",
"assigned" : "2018-02-02T14:59:44.109-0600"
},
{
"name" : "FTBFConfig_v125",
"assigned" : "2018-02-02T15:04:02.196-0600"
},
{
"name" : "FTBFConfig_v126",
"assigned" : "2018-02-02T15:50:05.395-0600"
},
{
"name" : "FTBFConfig_v127",
"assigned" : "2018-02-02T15:51:24.836-0600"
},
{
"name" : "FTBFConfig_v128",
"assigned" : "2018-02-02T15:52:30.003-0600"
},
{
"name" : "FTBFConfig_v129",
"assigned" : "2018-02-02T16:02:38.888-0600"
},
{
"name" : "FTBFConfig_v130",
"assigned" : "2018-02-02T16:08:38.374-0600"
},
{
"name" : "FTBFConfig_v131",
"assigned" : "2018-02-02T16:11:24.135-0600"
},
{
"name" : "FTBFConfig_v132",
"assigned" : "2018-02-02T16:12:51.988-0600"
},
{
"name" : "FTBFConfig_v133",
"assigned" : "2018-02-02T16:14:22.543-0600"
},
{
"name" : "FTBFConfig_v134",
"assigned" : "2018-02-02T16:26:15.457-0600"
},
{
"name" : "FTBFConfig_v135",
"assigned" : "2018-02-02T16:27:02.549-0600"
},
{
"name" : "FTBFConfig_v136",
"assigned" : "2018-02-02T16:29:23.857-0600"
},
{
"name" : "FTBFConfig_v137",
"assigned" : "2018-02-02T16:31:34.359-0600"
},
{
"name" : "FTBFConfig_v138",
"assigned" : "2018-02-02T16:34:07.055-0600"
},
{
"name" : "FTBFConfig_v139",
"assigned" : "2018-02-02T17:39:23.090-0600"
},
{
"name" : "FTBFConfig_v140",
"assigned" : "2018-02-02T17:42:45.218-0600"
},
{
"name" : "FTBFConfig_v141",
"assigned" : "2018-02-02T17:47:30.399-0600"
},
{
"name" : "FTBFConfig_v142",
"assigned" : "2018-02-02T17:53:54.338-0600"
}
],
"changelog" : "notprovided",
"bookkeeping" : {
"isdeleted" : false,
"isreadonly" : false,
"updates" : [
{
"event" : "addConfiguration",
"timestamp" : "2017-11-15T13:02:03.936-0600",
"value" : {
"name" : "notprovided",
"assigned" : "2017-11-15T13:02:03.936-0600"
}
},
{
"event" : "setVersion",
"timestamp" : "2017-11-15T13:02:03.936-0600",
"value" : {
"name" : "1",
"assigned" : "2017-11-15T13:02:03.936-0600"
}
},
{
"event" : "setCollection",
"timestamp" : "2017-11-15T13:02:03.937-0600",
"value" : {
"name" : "ARTDAQAggregatorDaqConfiguration",
"assigned" : "2017-11-15T13:02:03.937-0600"
}
},
{
"event" : "addEntity",
"timestamp" : "2017-11-15T13:02:03.937-0600",
"value" : {
"name" : "OTSROOT",
"assigned" : "2017-11-15T13:02:03.937-0600"
}
},
{
"event" : "addConfiguration",
"timestamp" : "2017-11-15T13:02:54.383-0600",
"value" : {
"name" : "FTBFConfig_v9",
"assigned" : "2017-11-15T13:02:54.383-0600"
}
},
{
"event" : "addConfiguration",
"timestamp" : "2017-11-15T13:04:21.970-0600",
"value" : {
"name" : "FTBFConfig_v10",
"assigned" : "2017-11-15T13:04:21.970-0600"
}
},
{
"event" : "addConfiguration",
"timestamp" : "2017-11-15T13:07:49.424-0600",
"value" : {
"name" : "FTBFConfig_v11",
"assigned" : "2017-11-15T13:07:49.424-0600"
}
},
{
"event" : "addConfiguration",
"timestamp" : "2017-11-15T13:11:56.837-0600",
"value" : {
"name" : "FTBFConfig_v12",
"assigned" : "2017-11-15T13:11:56.837-0600"
}
},
{
"event" : "addConfiguration",
"timestamp" : "2017-11-15T13:13:50.797-0600",
"value" : {
"name" : "FTBFConfig_v13",
"assigned" : "2017-11-15T13:13:50.797-0600"
}
},
{
"event" : "addConfiguration",
"timestamp" : "2017-11-15T13:27:22.457-0600",
"value" : {
"name" : "FTBFConfig_v14",
"assigned" : "2017-11-15T13:27:22.457-0600"
}
},
{
"event" : "addConfiguration",
"timestamp" : "2017-11-15T13:35:44.752-0600",
"value" : {
"name" : "FTBFConfig_v15",
"assigned" : "2017-11-15T13:35:44.752-0600"
}
},
{
"event" : "addConfiguration",
"timestamp" : "2017-11-15T13:36:49.387-0600",
"value" : {
"name" : "FTBFConfig_v16",
"assigned" : "2017-11-15T13:36:49.387-0600"
}
},
{
"event" : "addConfiguration",
"timestamp" : "2017-11-15T15:33:27.905-0600",
"value" : {
"name" : "FTBFConfig_v17",
"assigned" : "2017-11-15T15:33:27.905-0600"
}
},
{
"event" : "addConfiguration",
"timestamp" : "2017-11-15T15:35:31.405-0600",
"value" : {
"name" : "FTBFConfig_v18",
"assigned" : "2017-11-15T15:35:31.405-0600"
}
},
{
"event" : "addConfiguration",
"timestamp" : "2017-11-15T15:38:00.328-0600",
"value" : {
"name" : "FTBFConfig_v19",
"assigned" : "2017-11-15T15:38:00.328-0600"
}
},
{
"event" : "addConfiguration",
"timestamp" : "2017-11-15T16:26:27.901-0600",
"value" : {
"name" : "FTBFConfig_v20",
"assigned" : "2017-11-15T16:26:27.901-0600"
}
},
{
"event" : "addConfiguration",
"timestamp" : "2017-11-16T09:22:29.116-0600",
"value" : {
"name" : "FTBFConfig_v21",
"assigned" : "2017-11-16T09:22:29.116-0600"
}
},
{
"event" : "addConfiguration",
"timestamp" : "2017-11-17T10:23:25.289-0600",
"value" : {
"name" : "FTBFConfig_v22",
"assigned" : "2017-11-17T10:23:25.289-0600"
}
},
{
"event" : "addConfiguration",
"timestamp" : "2017-11-17T17:26:42.754-0600",
"value" : {
"name" : "FTBFConfig_v23",
"assigned" : "2017-11-17T17:26:42.754-0600"
}
},
{
"event" : "addConfiguration",
"timestamp" : "2017-11-17T17:58:23.174-0600",
"value" : {
"name" : "FTBFConfig_v24",
"assigned" : "2017-11-17T17:58:23.173-0600"
}
},
{
"event" : "addConfiguration",
"timestamp" : "2017-11-17T18:24:42.859-0600",
"value" : {
"name" : "FTBFConfig_v25",
"assigned" : "2017-11-17T18:24:42.859-0600"
}
},
{
"event" : "addConfiguration",
"timestamp" : "2017-11-17T18:32:19.454-0600",
"value" : {
"name" : "FTBFConfig_v26",
"assigned" : "2017-11-17T18:32:19.454-0600"
}
},
{
"event" : "addConfiguration",
"timestamp" : "2017-11-17T18:43:26.518-0600",
"value" : {
"name" : "FTBFConfig_v27",
"assigned" : "2017-11-17T18:43:26.518-0600"
}
},
{
"event" : "addConfiguration",
"timestamp" : "2017-11-17T18:48:28.575-0600",
"value" : {
"name" : "FTBFConfig_v28",
"assigned" : "2017-11-17T18:48:28.575-0600"
}
},
{
"event" : "addConfiguration",
"timestamp" : "2017-11-20T14:48:28.069-0600",
"value" : {
"name" : "FTBFConfig_v29",
"assigned" : "2017-11-20T14:48:28.069-0600"
}
},
{
"event" : "addConfiguration",
"timestamp" : "2017-11-20T15:39:53.338-0600",
"value" : {
"name" : "FTBFConfig_v30",
"assigned" : "2017-11-20T15:39:53.337-0600"
}
},
{
"event" : "addConfiguration",
"timestamp" : "2017-11-20T16:40:59.286-0600",
"value" : {
"name" : "FTBFConfig_v31",
"assigned" : "2017-11-20T16:40:59.286-0600"
}
},
{
"event" : "addConfiguration",
"timestamp" : "2017-11-20T18:55:32.070-0600",
"value" : {
"name" : "FTBFConfig_v32",
"assigned" : "2017-11-20T18:55:32.069-0600"
}
},
{
"event" : "addConfiguration",
"timestamp" : "2017-11-20T18:57:27.341-0600",
"value" : {
"name" : "FTBFConfig_v33",
"assigned" : "2017-11-20T18:57:27.341-0600"
}
},
{
"event" : "addConfiguration",
"timestamp" : "2017-11-29T17:50:36.819-0600",
"value" : {
"name" : "FTBFConfig_v34",
"assigned" : "2017-11-29T17:50:36.819-0600"
}
},
{
"event" : "addConfiguration",
"timestamp" : "2017-11-29T18:00:29.696-0600",
"value" : {
"name" : "FTBFConfig_v35",
"assigned" : "2017-11-29T18:00:29.696-0600"
}
},
{
"event" : "addConfiguration",
"timestamp" : "2017-11-29T18:35:08.567-0600",
"value" : {
"name" : "FTBFConfig_v36",
"assigned" : "2017-11-29T18:35:08.566-0600"
}
},
{
"event" : "addConfiguration",
"timestamp" : "2017-12-01T09:36:14.689-0600",
"value" : {
"name" : "FTBFConfig_v37",
"assigned" : "2017-12-01T09:36:14.689-0600"
}
},
{
"event" : "addConfiguration",
"timestamp" : "2017-12-01T09:51:58.019-0600",
"value" : {
"name" : "FTBFConfig_v38",
"assigned" : "2017-12-01T09:51:58.019-0600"
}
},
{
"event" : "addConfiguration",
"timestamp" : "2017-12-01T11:51:55.266-0600",
"value" : {
"name" : "FTBFConfig_v39",
"assigned" : "2017-12-01T11:51:55.266-0600"
}
},
{
"event" : "addConfiguration",
"timestamp" : "2017-12-01T12:18:17.116-0600",
"value" : {
"name" : "FTBFConfig_v40",
"assigned" : "2017-12-01T12:18:17.115-0600"
}
},
{
"event" : "addConfiguration",
"timestamp" : "2017-12-01T12:20:59.324-0600",
"value" : {
"name" : "FTBFConfig_v41",
"assigned" : "2017-12-01T12:20:59.324-0600"
}
},
{
"event" : "addConfiguration",
"timestamp" : "2017-12-01T12:43:18.321-0600",
"value" : {
"name" : "FTBFConfig_v42",
"assigned" : "2017-12-01T12:43:18.321-0600"
}
},
{
"event" : "addConfiguration",
"timestamp" : "2017-12-01T12:57:55.196-0600",
"value" : {
"name" : "FTBFConfig_v43",
"assigned" : "2017-12-01T12:57:55.196-0600"
}
},
{
"event" : "addConfiguration",
"timestamp" : "2017-12-01T13:00:47.544-0600",
"value" : {
"name" : "FTBFConfig_v44",
"assigned" : "2017-12-01T13:00:47.544-0600"
}
},
{
"event" : "addConfiguration",
"timestamp" : "2017-12-01T13:25:45.257-0600",
"value" : {
"name" : "FTBFConfig_v45",
"assigned" : "2017-12-01T13:25:45.257-0600"
}
},
{
"event" : "addConfiguration",
"timestamp" : "2017-12-01T13:35:40.086-0600",
"value" : {
"name" : "FTBFConfig_v46",
"assigned" : "2017-12-01T13:35:40.086-0600"
}
},
{
"event" : "addConfiguration",
"timestamp" : "2017-12-01T14:00:48.508-0600",
"value" : {
"name" : "FTBFConfig_v47",
"assigned" : "2017-12-01T14:00:48.507-0600"
}
},
{
"event" : "addConfiguration",
"timestamp" : "2017-12-01T14:03:55.771-0600",
"value" : {
"name" : "FTBFConfig_v48",
"assigned" : "2017-12-01T14:03:55.771-0600"
}
},
{
"event" : "addConfiguration",
"timestamp" : "2017-12-01T15:31:55.891-0600",
"value" : {
"name" : "FTBFConfig_v49",
"assigned" : "2017-12-01T15:31:55.891-0600"
}
},
{
"event" : "addConfiguration",
"timestamp" : "2017-12-01T15:33:47.739-0600",
"value" : {
"name" : "FTBFConfig_v50",
"assigned" : "2017-12-01T15:33:47.738-0600"
}
},
{
"event" : "addConfiguration",
"timestamp" : "2017-12-01T15:36:17.355-0600",
"value" : {
"name" : "FTBFConfig_v51",
"assigned" : "2017-12-01T15:36:17.355-0600"
}
},
{
"event" : "addConfiguration",
"timestamp" : "2017-12-01T15:37:26.248-0600",
"value" : {
"name" : "FTBFConfig_v52",
"assigned" : "2017-12-01T15:37:26.248-0600"
}
},
{
"event" : "addConfiguration",
"timestamp" : "2017-12-01T15:40:55.472-0600",
"value" : {
"name" : "FTBFConfig_v53",
"assigned" : "2017-12-01T15:40:55.472-0600"
}
},
{
"event" : "addConfiguration",
"timestamp" : "2017-12-01T15:52:45.781-0600",
"value" : {
"name" : "FTBFConfig_v54",
"assigned" : "2017-12-01T15:52:45.781-0600"
}
},
{
"event" : "addConfiguration",
"timestamp" : "2017-12-01T15:54:30.882-0600",
"value" : {
"name" : "FTBFConfig_v55",
"assigned" : "2017-12-01T15:54:30.882-0600"
}
},
{
"event" : "addConfiguration",
"timestamp" : "2017-12-01T15:55:30.402-0600",
"value" : {
"name" : "FTBFConfig_v56",
"assigned" : "2017-12-01T15:55:30.402-0600"
}
},
{
"event" : "addConfiguration",
"timestamp" : "2017-12-01T15:56:36.149-0600",
"value" : {
"name" : "FTBFConfig_v57",
"assigned" : "2017-12-01T15:56:36.149-0600"
}
},
{
"event" : "addConfiguration",
"timestamp" : "2017-12-01T15:57:34.248-0600",
"value" : {
"name" : "FTBFConfig_v58",
"assigned" : "2017-12-01T15:57:34.248-0600"
}
},
{
"event" : "addConfiguration",
"timestamp" : "2017-12-01T15:58:26.122-0600",
"value" : {
"name" : "FTBFConfig_v59",
"assigned" : "2017-12-01T15:58:26.122-0600"
}
},
{
"event" : "addConfiguration",
"timestamp" : "2017-12-01T15:59:27.331-0600",
"value" : {
"name" : "FTBFConfig_v60",
"assigned" : "2017-12-01T15:59:27.330-0600"
}
},
{
"event" : "addConfiguration",
"timestamp" : "2017-12-01T16:19:37.016-0600",
"value" : {
"name" : "FTBFConfig_v61",
"assigned" : "2017-12-01T16:19:37.015-0600"
}
},
{
"event" : "addConfiguration",
"timestamp" : "2017-12-01T16:21:59.573-0600",
"value" : {
"name" : "FTBFConfig_v62",
"assigned" : "2017-12-01T16:21:59.573-0600"
}
},
{
"event" : "addConfiguration",
"timestamp" : "2017-12-01T16:31:20.152-0600",
"value" : {
"name" : "FTBFConfig_v63",
"assigned" : "2017-12-01T16:31:20.152-0600"
}
},
{
"event" : "addConfiguration",
"timestamp" : "2017-12-01T17:06:26.981-0600",
"value" : {
"name" : "FTBFConfig_v64",
"assigned" : "2017-12-01T17:06:26.980-0600"
}
},
{
"event" : "addConfiguration",
"timestamp" : "2017-12-01T17:32:39.303-0600",
"value" : {
"name" : "FTBFConfig_v65",
"assigned" : "2017-12-01T17:32:39.303-0600"
}
},
{
"event" : "addConfiguration",
"timestamp" : "2017-12-01T20:38:45.650-0600",
"value" : {
"name" : "FTBFConfig_v66",
"assigned" : "2017-12-01T20:38:45.650-0600"
}
},
{
"event" : "addConfiguration",
"timestamp" : "2017-12-01T21:24:57.203-0600",
"value" : {
"name" : "FTBFConfig_v67",
"assigned" : "2017-12-01T21:24:57.203-0600"
}
},
{
"event" : "addConfiguration",
"timestamp" : "2017-12-01T21:42:56.837-0600",
"value" : {
"name" : "FTBFConfig_v68",
"assigned" : "2017-12-01T21:42:56.836-0600"
}
},
{
"event" : "addConfiguration",
"timestamp" : "2017-12-01T21:44:55.435-0600",
"value" : {
"name" : "FTBFConfig_v69",
"assigned" : "2017-12-01T21:44:55.435-0600"
}
},
{
"event" : "addConfiguration",
"timestamp" : "2017-12-01T21:59:14.647-0600",
"value" : {
"name" : "FTBFConfig_v70",
"assigned" : "2017-12-01T21:59:14.647-0600"
}
},
{
"event" : "addConfiguration",
"timestamp" : "2017-12-01T22:00:01.360-0600",
"value" : {
"name" : "FTBFConfigNim_v0",
"assigned" : "2017-12-01T22:00:01.360-0600"
}
},
{
"event" : "addConfiguration",
"timestamp" : "2017-12-01T22:13:03.073-0600",
"value" : {
"name" : "FTBFConfigNim_v1",
"assigned" : "2017-12-01T22:13:03.073-0600"
}
},
{
"event" : "addConfiguration",
"timestamp" : "2017-12-01T22:15:50.285-0600",
"value" : {
"name" : "FTBFConfigNim_v2",
"assigned" : "2017-12-01T22:15:50.285-0600"
}
},
{
"event" : "addConfiguration",
"timestamp" : "2017-12-01T22:16:58.225-0600",
"value" : {
"name" : "FTBFConfigNim_v3",
"assigned" : "2017-12-01T22:16:58.225-0600"
}
},
{
"event" : "addConfiguration",
"timestamp" : "2017-12-01T22:19:01.329-0600",
"value" : {
"name" : "FTBFConfigNim_v4",
"assigned" : "2017-12-01T22:19:01.328-0600"
}
},
{
"event" : "addConfiguration",
"timestamp" : "2017-12-01T22:21:52.006-0600",
"value" : {
"name" : "FTBFConfigNim_v5",
"assigned" : "2017-12-01T22:21:52.006-0600"
}
},
{
"event" : "addConfiguration",
"timestamp" : "2017-12-01T22:23:07.346-0600",
"value" : {
"name" : "FTBFConfigNim_v6",
"assigned" : "2017-12-01T22:23:07.345-0600"
}
},
{
"event" : "addConfiguration",
"timestamp" : "2017-12-01T22:25:11.907-0600",
"value" : {
"name" : "FTBFConfigNim_v7",
"assigned" : "2017-12-01T22:25:11.907-0600"
}
},
{
"event" : "addConfiguration",
"timestamp" : "2017-12-01T22:26:59.444-0600",
"value" : {
"name" : "FTBFConfigNim_v8",
"assigned" : "2017-12-01T22:26:59.444-0600"
}
},
{
"event" : "addConfiguration",
"timestamp" : "2017-12-01T22:29:23.733-0600",
"value" : {
"name" : "FTBFConfigNim_v9",
"assigned" : "2017-12-01T22:29:23.733-0600"
}
},
{
"event" : "addConfiguration",
"timestamp" : "2017-12-01T22:52:28.824-0600",
"value" : {
"name" : "FTBFConfigNim_v10",
"assigned" : "2017-12-01T22:52:28.824-0600"
}
},
{
"event" : "addConfiguration",
"timestamp" : "2017-12-01T22:57:23.248-0600",
"value" : {
"name" : "FTBFConfigNim_v11",
"assigned" : "2017-12-01T22:57:23.248-0600"
}
},
{
"event" : "addConfiguration",
"timestamp" : "2017-12-01T23:00:01.860-0600",
"value" : {
"name" : "FTBFConfigNim_v12",
"assigned" : "2017-12-01T23:00:01.860-0600"
}
},
{
"event" : "addConfiguration",
"timestamp" : "2017-12-01T23:52:29.965-0600",
"value" : {
"name" : "FTBFConfigNim_v13",
"assigned" : "2017-12-01T23:52:29.965-0600"
}
},
{
"event" : "addConfiguration",
"timestamp" : "2017-12-01T23:58:04.340-0600",
"value" : {
"name" : "FTBFConfigNim_v14",
"assigned" : "2017-12-01T23:58:04.340-0600"
}
},
{
"event" : "addConfiguration",
"timestamp" : "2017-12-02T00:00:28.606-0600",
"value" : {
"name" : "FTBFConfigNim_v15",
"assigned" : "2017-12-02T00:00:28.606-0600"
}
},
{
"event" : "addConfiguration",
"timestamp" : "2017-12-02T00:13:03.701-0600",
"value" : {
"name" : "FTBFConfigNim_v16",
"assigned" : "2017-12-02T00:13:03.701-0600"
}
},
{
"event" : "addConfiguration",
"timestamp" : "2017-12-02T00:28:22.702-0600",
"value" : {
"name" : "FTBFConfigNim_v17",
"assigned" : "2017-12-02T00:28:22.702-0600"
}
},
{
"event" : "addConfiguration",
"timestamp" : "2017-12-02T00:29:28.713-0600",
"value" : {
"name" : "FTBFConfigNim_v18",
"assigned" : "2017-12-02T00:29:28.713-0600"
}
},
{
"event" : "addConfiguration",
"timestamp" : "2017-12-02T00:31:04.573-0600",
"value" : {
"name" : "FTBFConfigNim_v19",
"assigned" : "2017-12-02T00:31:04.573-0600"
}
},
{
"event" : "addConfiguration",
"timestamp" : "2017-12-02T00:57:21.684-0600",
"value" : {
"name" : "FTBFConfigNim_v20",
"assigned" : "2017-12-02T00:57:21.683-0600"
}
},
{
"event" : "addConfiguration",
"timestamp" : "2017-12-02T10:57:56.229-0600",
"value" : {
"name" : "FTBFConfigNim_v21",
"assigned" : "2017-12-02T10:57:56.229-0600"
}
},
{
"event" : "addConfiguration",
"timestamp" : "2017-12-02T11:08:12.385-0600",
"value" : {
"name" : "FTBFConfigNim_v22",
"assigned" : "2017-12-02T11:08:12.385-0600"
}
},
{
"event" : "addConfiguration",
"timestamp" : "2017-12-02T11:12:33.936-0600",
"value" : {
"name" : "FTBFConfigNim_v23",
"assigned" : "2017-12-02T11:12:33.936-0600"
}
},
{
"event" : "addConfiguration",
"timestamp" : "2017-12-02T11:18:36.709-0600",
"value" : {
"name" : "FTBFConfigNim_v24",
"assigned" : "2017-12-02T11:18:36.709-0600"
}
},
{
"event" : "addConfiguration",
"timestamp" : "2017-12-02T11:26:59.961-0600",
"value" : {
"name" : "FTBFConfigNim_v25",
"assigned" : "2017-12-02T11:26:59.961-0600"
}
},
{
"event" : "addConfiguration",
"timestamp" : "2017-12-02T11:38:30.994-0600",
"value" : {
"name" : "FTBFConfigNim_v26",
"assigned" : "2017-12-02T11:38:30.994-0600"
}
},
{
"event" : "addConfiguration",
"timestamp" : "2017-12-02T11:49:02.091-0600",
"value" : {
"name" : "FTBFConfigNim_v27",
"assigned" : "2017-12-02T11:49:02.091-0600"
}
},
{
"event" : "addConfiguration",
"timestamp" : "2017-12-02T11:55:03.495-0600",
"value" : {
"name" : "FTBFConfigNim_v28",
"assigned" : "2017-12-02T11:55:03.495-0600"
}
},
{
"event" : "addConfiguration",
"timestamp" : "2017-12-02T12:06:20.359-0600",
"value" : {
"name" : "FTBFConfigNim_v29",
"assigned" : "2017-12-02T12:06:20.359-0600"
}
},
{
"event" : "addConfiguration",
"timestamp" : "2017-12-02T12:24:08.973-0600",
"value" : {
"name" : "FTBFConfig_v71",
"assigned" : "2017-12-02T12:24:08.973-0600"
}
},
{
"event" : "addConfiguration",
"timestamp" : "2017-12-02T12:43:29.726-0600",
"value" : {
"name" : "FTBFConfig_v72",
"assigned" : "2017-12-02T12:43:29.725-0600"
}
},
{
"event" : "addConfiguration",
"timestamp" : "2017-12-02T13:55:29.271-0600",
"value" : {
"name" : "FTBFConfig_v73",
"assigned" : "2017-12-02T13:55:29.271-0600"
}
},
{
"event" : "addConfiguration",
"timestamp" : "2017-12-02T14:09:01.539-0600",
"value" : {
"name" : "FTBFConfig_v74",
"assigned" : "2017-12-02T14:09:01.539-0600"
}
},
{
"event" : "addConfiguration",
"timestamp" : "2017-12-02T14:12:12.406-0600",
"value" : {
"name" : "FTBFConfig_v75",
"assigned" : "2017-12-02T14:12:12.406-0600"
}
},
{
"event" : "addConfiguration",
"timestamp" : "2017-12-02T19:05:47.553-0600",
"value" : {
"name" : "FTBFConfig_v76",
"assigned" : "2017-12-02T19:05:47.553-0600"
}
},
{
"event" : "addConfiguration",
"timestamp" : "2017-12-02T19:12:07.325-0600",
"value" : {
"name" : "FTBFConfig_v77",
"assigned" : "2017-12-02T19:12:07.325-0600"
}
},
{
"event" : "addConfiguration",
"timestamp" : "2017-12-03T14:03:42.510-0600",
"value" : {
"name" : "FTBFConfig_v78",
"assigned" : "2017-12-03T14:03:42.510-0600"
}
},
{
"event" : "addConfiguration",
"timestamp" : "2017-12-03T14:09:00.664-0600",
"value" : {
"name" : "FTBFConfig_v79",
"assigned" : "2017-12-03T14:09:00.664-0600"
}
},
{
"event" : "addConfiguration",
"timestamp" : "2017-12-03T14:11:04.420-0600",
"value" : {
"name" : "FTBFConfig_v80",
"assigned" : "2017-12-03T14:11:04.420-0600"
}
},
{
"event" : "addConfiguration",
"timestamp" : "2017-12-03T14:22:27.442-0600",
"value" : {
"name" : "FTBFConfig_v81",
"assigned" : "2017-12-03T14:22:27.442-0600"
}
},
{
"event" : "addConfiguration",
"timestamp" : "2017-12-03T14:40:32.179-0600",
"value" : {
"name" : "FTBFConfig_v82",
"assigned" : "2017-12-03T14:40:32.179-0600"
}
},
{
"event" : "addConfiguration",
"timestamp" : "2017-12-03T14:44:59.473-0600",
"value" : {
"name" : "FTBFConfig_v83",
"assigned" : "2017-12-03T14:44:59.473-0600"
}
},
{
"event" : "addConfiguration",
"timestamp" : "2017-12-04T14:51:24.959-0600",
"value" : {
"name" : "FTBFConfig_v84",
"assigned" : "2017-12-04T14:51:24.959-0600"
}
},
{
"event" : "addConfiguration",
"timestamp" : "2017-12-04T14:55:38.022-0600",
"value" : {
"name" : "FTBFConfig_v85",
"assigned" : "2017-12-04T14:55:38.021-0600"
}
},
{
"event" : "addConfiguration",
"timestamp" : "2017-12-04T16:51:01.014-0600",
"value" : {
"name" : "FTBFConfig_v86",
"assigned" : "2017-12-04T16:51:01.014-0600"
}
},
{
"event" : "addConfiguration",
"timestamp" : "2017-12-04T16:56:41.635-0600",
"value" : {
"name" : "FTBFConfig_v87",
"assigned" : "2017-12-04T16:56:41.635-0600"
}
},
{
"event" : "addConfiguration",
"timestamp" : "2017-12-04T17:01:06.314-0600",
"value" : {
"name" : "FTBFConfig_v88",
"assigned" : "2017-12-04T17:01:06.313-0600"
}
},
{
"event" : "addConfiguration",
"timestamp" : "2017-12-04T17:03:51.363-0600",
"value" : {
"name" : "FTBFConfig_v89",
"assigned" : "2017-12-04T17:03:51.363-0600"
}
},
{
"event" : "addConfiguration",
"timestamp" : "2017-12-04T17:07:11.008-0600",
"value" : {
"name" : "FTBFConfig_v90",
"assigned" : "2017-12-04T17:07:11.008-0600"
}
},
{
"event" : "addConfiguration",
"timestamp" : "2017-12-04T17:09:20.093-0600",
"value" : {
"name" : "FTBFConfig_v91",
"assigned" : "2017-12-04T17:09:20.093-0600"
}
},
{
"event" : "addConfiguration",
"timestamp" : "2017-12-04T17:11:32.554-0600",
"value" : {
"name" : "FTBFConfig_v92",
"assigned" : "2017-12-04T17:11:32.554-0600"
}
},
{
"event" : "addConfiguration",
"timestamp" : "2017-12-04T21:05:15.190-0600",
"value" : {
"name" : "FTBFConfig_v93",
"assigned" : "2017-12-04T21:05:15.190-0600"
}
},
{
"event" : "addConfiguration",
"timestamp" : "2017-12-04T21:17:05.999-0600",
"value" : {
"name" : "FTBFConfig_v94",
"assigned" : "2017-12-04T21:17:05.999-0600"
}
},
{
"event" : "addConfiguration",
"timestamp" : "2017-12-04T21:41:11.762-0600",
"value" : {
"name" : "FTBFConfig_v95",
"assigned" : "2017-12-04T21:41:11.762-0600"
}
},
{
"event" : "addConfiguration",
"timestamp" : "2017-12-04T22:38:56.367-0600",
"value" : {
"name" : "FTBFConfig_v96",
"assigned" : "2017-12-04T22:38:56.367-0600"
}
},
{
"event" : "addConfiguration",
"timestamp" : "2017-12-04T23:01:06.828-0600",
"value" : {
"name" : "FTBFConfig_v97",
"assigned" : "2017-12-04T23:01:06.828-0600"
}
},
{
"event" : "addConfiguration",
"timestamp" : "2017-12-07T11:07:40.816-0600",
"value" : {
"name" : "FTBFConfig_v98",
"assigned" : "2017-12-07T11:07:40.816-0600"
}
},
{
"event" : "addConfiguration",
"timestamp" : "2017-12-07T11:49:53.530-0600",
"value" : {
"name" : "FTBFConfig_v99",
"assigned" : "2017-12-07T11:49:53.530-0600"
}
},
{
"event" : "addConfiguration",
"timestamp" : "2017-12-07T11:58:20.250-0600",
"value" : {
"name" : "FTBFConfig_v100",
"assigned" : "2017-12-07T11:58:20.250-0600"
}
},
{
"event" : "addConfiguration",
"timestamp" : "2017-12-08T13:30:42.309-0600",
"value" : {
"name" : "FTBFConfig_v101",
"assigned" : "2017-12-08T13:30:42.309-0600"
}
},
{
"event" : "addConfiguration",
"timestamp" : "2017-12-08T13:32:29.220-0600",
"value" : {
"name" : "FTBFConfig_v102",
"assigned" : "2017-12-08T13:32:29.219-0600"
}
},
{
"event" : "addConfiguration",
"timestamp" : "2017-12-12T11:02:58.960-0600",
"value" : {
"name" : "FTBFConfig_v103",
"assigned" : "2017-12-12T11:02:58.960-0600"
}
},
{
"event" : "addConfiguration",
"timestamp" : "2017-12-12T13:50:53.134-0600",
"value" : {
"name" : "FTBFConfig_v104",
"assigned" : "2017-12-12T13:50:53.134-0600"
}
},
{
"event" : "addConfiguration",
"timestamp" : "2017-12-12T15:24:59.170-0600",
"value" : {
"name" : "FTBFConfig_v105",
"assigned" : "2017-12-12T15:24:59.170-0600"
}
},
{
"event" : "addConfiguration",
"timestamp" : "2017-12-13T10:24:17.673-0600",
"value" : {
"name" : "FTBFConfig_v106",
"assigned" : "2017-12-13T10:24:17.672-0600"
}
},
{
"event" : "addConfiguration",
"timestamp" : "2017-12-13T10:26:56.469-0600",
"value" : {
"name" : "FTBFConfig_v107",
"assigned" : "2017-12-13T10:26:56.469-0600"
}
},
{
"event" : "addConfiguration",
"timestamp" : "2018-02-01T21:14:19.555-0600",
"value" : {
"name" : "FTBFConfig_v108",
"assigned" : "2018-02-01T21:14:19.555-0600"
}
},
{
"event" : "addConfiguration",
"timestamp" : "2018-02-01T21:20:56.714-0600",
"value" : {
"name" : "FTBFConfig_v109",
"assigned" : "2018-02-01T21:20:56.714-0600"
}
},
{
"event" : "addConfiguration",
"timestamp" : "2018-02-02T11:25:27.661-0600",
"value" : {
"name" : "FTBFConfig_v110",
"assigned" : "2018-02-02T11:25:27.661-0600"
}
},
{
"event" : "addConfiguration",
"timestamp" : "2018-02-02T11:37:06.482-0600",
"value" : {
"name" : "FTBFConfig_v111",
"assigned" : "2018-02-02T11:37:06.481-0600"
}
},
{
"event" : "addConfiguration",
"timestamp" : "2018-02-02T11:47:08.901-0600",
"value" : {
"name" : "FTBFConfig_v112",
"assigned" : "2018-02-02T11:47:08.901-0600"
}
},
{
"event" : "addConfiguration",
"timestamp" : "2018-02-02T11:53:30.148-0600",
"value" : {
"name" : "FTBFConfig_v113",
"assigned" : "2018-02-02T11:53:30.148-0600"
}
},
{
"event" : "addConfiguration",
"timestamp" : "2018-02-02T12:00:46.199-0600",
"value" : {
"name" : "FTBFConfig_v114",
"assigned" : "2018-02-02T12:00:46.199-0600"
}
},
{
"event" : "addConfiguration",
"timestamp" : "2018-02-02T12:27:07.697-0600",
"value" : {
"name" : "FTBFConfig_v115",
"assigned" : "2018-02-02T12:27:07.696-0600"
}
},
{
"event" : "addConfiguration",
"timestamp" : "2018-02-02T14:28:47.151-0600",
"value" : {
"name" : "FTBFConfig_v116",
"assigned" : "2018-02-02T14:28:47.151-0600"
}
},
{
"event" : "addConfiguration",
"timestamp" : "2018-02-02T14:30:13.517-0600",
"value" : {
"name" : "FTBFConfig_v117",
"assigned" : "2018-02-02T14:30:13.517-0600"
}
},
{
"event" : "addConfiguration",
"timestamp" : "2018-02-02T14:33:54.701-0600",
"value" : {
"name" : "FTBFConfig_v118",
"assigned" : "2018-02-02T14:33:54.701-0600"
}
},
{
"event" : "addConfiguration",
"timestamp" : "2018-02-02T14:36:21.284-0600",
"value" : {
"name" : "FTBFConfig_v119",
"assigned" : "2018-02-02T14:36:21.283-0600"
}
},
{
"event" : "addConfiguration",
"timestamp" : "2018-02-02T14:38:34.643-0600",
"value" : {
"name" : "FTBFConfig_v120",
"assigned" : "2018-02-02T14:38:34.642-0600"
}
},
{
"event" : "addConfiguration",
"timestamp" : "2018-02-02T14:41:43.972-0600",
"value" : {
"name" : "FTBFConfig_v121",
"assigned" : "2018-02-02T14:41:43.971-0600"
}
},
{
"event" : "addConfiguration",
"timestamp" : "2018-02-02T14:50:17.923-0600",
"value" : {
"name" : "FTBFConfig_v122",
"assigned" : "2018-02-02T14:50:17.923-0600"
}
},
{
"event" : "addConfiguration",
"timestamp" : "2018-02-02T14:52:50.809-0600",
"value" : {
"name" : "FTBFConfig_v123",
"assigned" : "2018-02-02T14:52:50.809-0600"
}
},
{
"event" : "addConfiguration",
"timestamp" : "2018-02-02T14:59:44.109-0600",
"value" : {
"name" : "FTBFConfig_v124",
"assigned" : "2018-02-02T14:59:44.109-0600"
}
},
{
"event" : "addConfiguration",
"timestamp" : "2018-02-02T15:04:02.196-0600",
"value" : {
"name" : "FTBFConfig_v125",
"assigned" : "2018-02-02T15:04:02.196-0600"
}
},
{
"event" : "addConfiguration",
"timestamp" : "2018-02-02T15:50:05.395-0600",
"value" : {
"name" : "FTBFConfig_v126",
"assigned" : "2018-02-02T15:50:05.395-0600"
}
},
{
"event" : "addConfiguration",
"timestamp" : "2018-02-02T15:51:24.836-0600",
"value" : {
"name" : "FTBFConfig_v127",
"assigned" : "2018-02-02T15:51:24.836-0600"
}
},
{
"event" : "addConfiguration",
"timestamp" : "2018-02-02T15:52:30.003-0600",
"value" : {
"name" : "FTBFConfig_v128",
"assigned" : "2018-02-02T15:52:30.003-0600"
}
},
{
"event" : "addConfiguration",
"timestamp" : "2018-02-02T16:02:38.888-0600",
"value" : {
"name" : "FTBFConfig_v129",
"assigned" : "2018-02-02T16:02:38.888-0600"
}
},
{
"event" : "addConfiguration",
"timestamp" : "2018-02-02T16:08:38.375-0600",
"value" : {
"name" : "FTBFConfig_v130",
"assigned" : "2018-02-02T16:08:38.374-0600"
}
},
{
"event" : "addConfiguration",
"timestamp" : "2018-02-02T16:11:24.135-0600",
"value" : {
"name" : "FTBFConfig_v131",
"assigned" : "2018-02-02T16:11:24.135-0600"
}
},
{
"event" : "addConfiguration",
"timestamp" : "2018-02-02T16:12:51.988-0600",
"value" : {
"name" : "FTBFConfig_v132",
"assigned" : "2018-02-02T16:12:51.988-0600"
}
},
{
"event" : "addConfiguration",
"timestamp" : "2018-02-02T16:14:22.543-0600",
"value" : {
"name" : "FTBFConfig_v133",
"assigned" : "2018-02-02T16:14:22.543-0600"
}
},
{
"event" : "addConfiguration",
"timestamp" : "2018-02-02T16:26:15.457-0600",
"value" : {
"name" : "FTBFConfig_v134",
"assigned" : "2018-02-02T16:26:15.457-0600"
}
},
{
"event" : "addConfiguration",
"timestamp" : "2018-02-02T16:27:02.550-0600",
"value" : {
"name" : "FTBFConfig_v135",
"assigned" : "2018-02-02T16:27:02.549-0600"
}
},
{
"event" : "addConfiguration",
"timestamp" : "2018-02-02T16:29:23.857-0600",
"value" : {
"name" : "FTBFConfig_v136",
"assigned" : "2018-02-02T16:29:23.857-0600"
}
},
{
"event" : "addConfiguration",
"timestamp" : "2018-02-02T16:31:34.360-0600",
"value" : {
"name" : "FTBFConfig_v137",
"assigned" : "2018-02-02T16:31:34.359-0600"
}
},
{
"event" : "addConfiguration",
"timestamp" : "2018-02-02T16:34:07.055-0600",
"value" : {
"name" : "FTBFConfig_v138",
"assigned" : "2018-02-02T16:34:07.055-0600"
}
},
{
"event" : "addConfiguration",
"timestamp" : "2018-02-02T17:39:23.090-0600",
"value" : {
"name" : "FTBFConfig_v139",
"assigned" : "2018-02-02T17:39:23.090-0600"
}
},
{
"event" : "addConfiguration",
"timestamp" : "2018-02-02T17:42:45.218-0600",
"value" : {
"name" : "FTBFConfig_v140",
"assigned" : "2018-02-02T17:42:45.218-0600"
}
},
{
"event" : "addConfiguration",
"timestamp" : "2018-02-02T17:47:30.399-0600",
"value" : {
"name" : "FTBFConfig_v141",
"assigned" : "2018-02-02T17:47:30.399-0600"
}
},
{
"event" : "addConfiguration",
"timestamp" : "2018-02-02T17:53:54.338-0600",
"value" : {
"name" : "FTBFConfig_v142",
"assigned" : "2018-02-02T17:53:54.338-0600"
}
}
],
"created" : "2017-11-15T13:02:03.935-0600"
},
"_id" : {
"$oid" : "271a7c622d2147019a4c5e81"
},
"collection" : "ARTDAQAggregatorDaqConfiguration",
"aliases" : {
"active" : [

],
"history" : [

]
},
"runs" : [

],
"attachments" : [

],
"configtype" : "notprovided"
}