{
"document" : {
"data" : {
"NAME" : "ARTDAQ_AGGREGATOR_DAQ_CONFIGURATION",
"COMMENT" : "Empty table.",
"AUTHOR" : "admin",
"CREATION_TIME" : 1504822216,
"COL_TYPES" : {
"DAQ_UID" : "VARCHAR2",
"DAQ_AGGREGATOR_PARAMETERS_LINK" : "VARCHAR2",
"DAQ_AGGREGATOR_PARAMETERS_LINK_GROUP_ID" : "VARCHAR2",
"DAQ_AGGREGATOR_SOURCES_LINK" : "VARCHAR2",
"DAQ_AGGREGATOR_SOURCES_LINK_GROUP_ID" : "VARCHAR2",
"DAQ_METRICS_LINK" : "VARCHAR2",
"DAQ_METRICS_LINK_GROUP_ID" : "VARCHAR2",
"DAQ_AGGREGATOR_DESTINATIONS_LINK" : "VARCHAR2",
"DAQ_AGGREGATOR_DESTINATIONS_LINK_GROUP_ID" : "VARCHAR2",
"COMMENT_DESCRIPTION" : "VARCHAR2",
"AUTHOR" : "VARCHAR2",
"RECORD_INSERTION_TIME" : "TIMESTAMP WITH TIMEZONE"
},
"DATA_SET" : [
{
"DAQ_UID" : "aggregator0daq0",
"DAQ_AGGREGATOR_PARAMETERS_LINK" : "ARTDAQAggregatorDaqParameterConfiguration",
"DAQ_AGGREGATOR_PARAMETERS_LINK_GROUP_ID" : "aggregator0daq0PGroup",
"DAQ_AGGREGATOR_SOURCES_LINK" : "ARTDAQDaqSourceConfiguration",
"DAQ_AGGREGATOR_SOURCES_LINK_GROUP_ID" : "aggregator0sources",
"DAQ_METRICS_LINK" : "ARTDAQDaqMetricConfiguration",
"DAQ_METRICS_LINK_GROUP_ID" : "aggreator0Metrics",
"DAQ_AGGREGATOR_DESTINATIONS_LINK" : "ARTDAQDaqDestinationConfiguration",
"DAQ_AGGREGATOR_DESTINATIONS_LINK_GROUP_ID" : "aggregator0destinations",
"COMMENT_DESCRIPTION" : "No Comment",
"AUTHOR" : "DEFAULT",
"RECORD_INSERTION_TIME" : "0"
}
]
},
"metadata" : {

},
"search" : [

]
},
"comments" : [

],
"origin" : {
"source" : "template",
"name" : "notprovided",
"format" : "json",
"created" : "2017-11-08T15:56:02.196-0600",
"rawdata" : [

]
},
"version" : "0",
"entities" : [
{
"name" : "OTSROOT",
"assigned" : "2017-11-08T15:56:02.198-0600"
}
],
"configurations" : [
{
"name" : "notprovided",
"assigned" : "2017-11-08T15:56:02.197-0600"
},
{
"name" : "FTBFConfig_v0",
"assigned" : "2017-11-08T15:56:04.749-0600"
},
{
"name" : "FTBFConfig_v1",
"assigned" : "2017-11-09T09:56:29.089-0600"
},
{
"name" : "FTBFConfig_v2",
"assigned" : "2017-11-09T10:05:58.035-0600"
},
{
"name" : "FTBFConfig_v3",
"assigned" : "2017-11-09T10:37:09.585-0600"
},
{
"name" : "FTBFConfig_v4",
"assigned" : "2017-11-15T11:30:08.304-0600"
},
{
"name" : "FTBFConfig_v5",
"assigned" : "2017-11-15T11:54:55.053-0600"
},
{
"name" : "FTBFConfig_v6",
"assigned" : "2017-11-15T11:57:47.644-0600"
},
{
"name" : "FTBFConfig_v7",
"assigned" : "2017-11-15T12:42:30.065-0600"
},
{
"name" : "FTBFConfig_v8",
"assigned" : "2017-11-15T13:01:01.004-0600"
}
],
"changelog" : "notprovided",
"bookkeeping" : {
"isdeleted" : false,
"isreadonly" : false,
"updates" : [
{
"event" : "addConfiguration",
"timestamp" : "2017-11-08T15:56:02.197-0600",
"value" : {
"name" : "notprovided",
"assigned" : "2017-11-08T15:56:02.197-0600"
}
},
{
"event" : "setVersion",
"timestamp" : "2017-11-08T15:56:02.197-0600",
"value" : {
"name" : "0",
"assigned" : "2017-11-08T15:56:02.197-0600"
}
},
{
"event" : "setCollection",
"timestamp" : "2017-11-08T15:56:02.198-0600",
"value" : {
"name" : "ARTDAQAggregatorDaqConfiguration",
"assigned" : "2017-11-08T15:56:02.198-0600"
}
},
{
"event" : "addEntity",
"timestamp" : "2017-11-08T15:56:02.198-0600",
"value" : {
"name" : "OTSROOT",
"assigned" : "2017-11-08T15:56:02.198-0600"
}
},
{
"event" : "addConfiguration",
"timestamp" : "2017-11-08T15:56:04.749-0600",
"value" : {
"name" : "FTBFConfig_v0",
"assigned" : "2017-11-08T15:56:04.749-0600"
}
},
{
"event" : "addConfiguration",
"timestamp" : "2017-11-09T09:56:29.089-0600",
"value" : {
"name" : "FTBFConfig_v1",
"assigned" : "2017-11-09T09:56:29.089-0600"
}
},
{
"event" : "addConfiguration",
"timestamp" : "2017-11-09T10:05:58.035-0600",
"value" : {
"name" : "FTBFConfig_v2",
"assigned" : "2017-11-09T10:05:58.035-0600"
}
},
{
"event" : "addConfiguration",
"timestamp" : "2017-11-09T10:37:09.585-0600",
"value" : {
"name" : "FTBFConfig_v3",
"assigned" : "2017-11-09T10:37:09.585-0600"
}
},
{
"event" : "addConfiguration",
"timestamp" : "2017-11-15T11:30:08.304-0600",
"value" : {
"name" : "FTBFConfig_v4",
"assigned" : "2017-11-15T11:30:08.304-0600"
}
},
{
"event" : "addConfiguration",
"timestamp" : "2017-11-15T11:54:55.053-0600",
"value" : {
"name" : "FTBFConfig_v5",
"assigned" : "2017-11-15T11:54:55.053-0600"
}
},
{
"event" : "addConfiguration",
"timestamp" : "2017-11-15T11:57:47.644-0600",
"value" : {
"name" : "FTBFConfig_v6",
"assigned" : "2017-11-15T11:57:47.644-0600"
}
},
{
"event" : "addConfiguration",
"timestamp" : "2017-11-15T12:42:30.065-0600",
"value" : {
"name" : "FTBFConfig_v7",
"assigned" : "2017-11-15T12:42:30.065-0600"
}
},
{
"event" : "addConfiguration",
"timestamp" : "2017-11-15T13:01:01.004-0600",
"value" : {
"name" : "FTBFConfig_v8",
"assigned" : "2017-11-15T13:01:01.004-0600"
}
}
],
"created" : "2017-11-08T15:56:02.196-0600"
},
"_id" : {
"$oid" : "ef99d4c28fbf4f6e9ae25228"
},
"collection" : "ARTDAQAggregatorDaqConfiguration",
"aliases" : {
"active" : [

],
"history" : [

]
},
"runs" : [

],
"attachments" : [

],
"configtype" : "notprovided"
}