{
"ouid" : [
"271a7c622d2147019a4c5e81",
"ef99d4c28fbf4f6e9ae25228"
],
"version" : {
"0" : [
"ef99d4c28fbf4f6e9ae25228"
],
"1" : [
"271a7c622d2147019a4c5e81"
]
},
"configurations.name" : {
"notprovided" : [
"271a7c622d2147019a4c5e81",
"ef99d4c28fbf4f6e9ae25228"
],
"FTBFConfig_v0" : [
"ef99d4c28fbf4f6e9ae25228"
],
"FTBFConfig_v1" : [
"ef99d4c28fbf4f6e9ae25228"
],
"FTBFConfig_v2" : [
"ef99d4c28fbf4f6e9ae25228"
],
"FTBFConfig_v3" : [
"ef99d4c28fbf4f6e9ae25228"
],
"FTBFConfig_v4" : [
"ef99d4c28fbf4f6e9ae25228"
],
"FTBFConfig_v5" : [
"ef99d4c28fbf4f6e9ae25228"
],
"FTBFConfig_v6" : [
"ef99d4c28fbf4f6e9ae25228"
],
"FTBFConfig_v7" : [
"ef99d4c28fbf4f6e9ae25228"
],
"FTBFConfig_v8" : [
"ef99d4c28fbf4f6e9ae25228"
],
"FTBFConfig_v9" : [
"271a7c622d2147019a4c5e81"
],
"FTBFConfig_v10" : [
"271a7c622d2147019a4c5e81"
],
"FTBFConfig_v11" : [
"271a7c622d2147019a4c5e81"
],
"FTBFConfig_v12" : [
"271a7c622d2147019a4c5e81"
],
"FTBFConfig_v13" : [
"271a7c622d2147019a4c5e81"
],
"FTBFConfig_v14" : [
"271a7c622d2147019a4c5e81"
],
"FTBFConfig_v15" : [
"271a7c622d2147019a4c5e81"
],
"FTBFConfig_v16" : [
"271a7c622d2147019a4c5e81"
],
"FTBFConfig_v17" : [
"271a7c622d2147019a4c5e81"
],
"FTBFConfig_v18" : [
"271a7c622d2147019a4c5e81"
],
"FTBFConfig_v19" : [
"271a7c622d2147019a4c5e81"
],
"FTBFConfig_v20" : [
"271a7c622d2147019a4c5e81"
],
"FTBFConfig_v21" : [
"271a7c622d2147019a4c5e81"
],
"FTBFConfig_v22" : [
"271a7c622d2147019a4c5e81"
],
"FTBFConfig_v23" : [
"271a7c622d2147019a4c5e81"
],
"FTBFConfig_v24" : [
"271a7c622d2147019a4c5e81"
],
"FTBFConfig_v25" : [
"271a7c622d2147019a4c5e81"
],
"FTBFConfig_v26" : [
"271a7c622d2147019a4c5e81"
],
"FTBFConfig_v27" : [
"271a7c622d2147019a4c5e81"
],
"FTBFConfig_v28" : [
"271a7c622d2147019a4c5e81"
],
"FTBFConfig_v29" : [
"271a7c622d2147019a4c5e81"
],
"FTBFConfig_v30" : [
"271a7c622d2147019a4c5e81"
],
"FTBFConfig_v31" : [
"271a7c622d2147019a4c5e81"
],
"FTBFConfig_v32" : [
"271a7c622d2147019a4c5e81"
],
"FTBFConfig_v33" : [
"271a7c622d2147019a4c5e81"
],
"FTBFConfig_v34" : [
"271a7c622d2147019a4c5e81"
],
"FTBFConfig_v35" : [
"271a7c622d2147019a4c5e81"
],
"FTBFConfig_v36" : [
"271a7c622d2147019a4c5e81"
],
"FTBFConfig_v37" : [
"271a7c622d2147019a4c5e81"
],
"FTBFConfig_v38" : [
"271a7c622d2147019a4c5e81"
],
"FTBFConfig_v39" : [
"271a7c622d2147019a4c5e81"
],
"FTBFConfig_v40" : [
"271a7c622d2147019a4c5e81"
],
"FTBFConfig_v41" : [
"271a7c622d2147019a4c5e81"
],
"FTBFConfig_v42" : [
"271a7c622d2147019a4c5e81"
],
"FTBFConfig_v43" : [
"271a7c622d2147019a4c5e81"
],
"FTBFConfig_v44" : [
"271a7c622d2147019a4c5e81"
],
"FTBFConfig_v45" : [
"271a7c622d2147019a4c5e81"
],
"FTBFConfig_v46" : [
"271a7c622d2147019a4c5e81"
],
"FTBFConfig_v47" : [
"271a7c622d2147019a4c5e81"
],
"FTBFConfig_v48" : [
"271a7c622d2147019a4c5e81"
],
"FTBFConfig_v49" : [
"271a7c622d2147019a4c5e81"
],
"FTBFConfig_v50" : [
"271a7c622d2147019a4c5e81"
],
"FTBFConfig_v51" : [
"271a7c622d2147019a4c5e81"
],
"FTBFConfig_v52" : [
"271a7c622d2147019a4c5e81"
],
"FTBFConfig_v53" : [
"271a7c622d2147019a4c5e81"
],
"FTBFConfig_v54" : [
"271a7c622d2147019a4c5e81"
],
"FTBFConfig_v55" : [
"271a7c622d2147019a4c5e81"
],
"FTBFConfig_v56" : [
"271a7c622d2147019a4c5e81"
],
"FTBFConfig_v57" : [
"271a7c622d2147019a4c5e81"
],
"FTBFConfig_v58" : [
"271a7c622d2147019a4c5e81"
],
"FTBFConfig_v59" : [
"271a7c622d2147019a4c5e81"
],
"FTBFConfig_v60" : [
"271a7c622d2147019a4c5e81"
],
"FTBFConfig_v61" : [
"271a7c622d2147019a4c5e81"
],
"FTBFConfig_v62" : [
"271a7c622d2147019a4c5e81"
],
"FTBFConfig_v63" : [
"271a7c622d2147019a4c5e81"
],
"FTBFConfig_v64" : [
"271a7c622d2147019a4c5e81"
],
"FTBFConfig_v65" : [
"271a7c622d2147019a4c5e81"
],
"FTBFConfig_v66" : [
"271a7c622d2147019a4c5e81"
],
"FTBFConfig_v67" : [
"271a7c622d2147019a4c5e81"
],
"FTBFConfig_v68" : [
"271a7c622d2147019a4c5e81"
],
"FTBFConfig_v69" : [
"271a7c622d2147019a4c5e81"
],
"FTBFConfig_v70" : [
"271a7c622d2147019a4c5e81"
],
"FTBFConfigNim_v0" : [
"271a7c622d2147019a4c5e81"
],
"FTBFConfigNim_v1" : [
"271a7c622d2147019a4c5e81"
],
"FTBFConfigNim_v2" : [
"271a7c622d2147019a4c5e81"
],
"FTBFConfigNim_v3" : [
"271a7c622d2147019a4c5e81"
],
"FTBFConfigNim_v4" : [
"271a7c622d2147019a4c5e81"
],
"FTBFConfigNim_v5" : [
"271a7c622d2147019a4c5e81"
],
"FTBFConfigNim_v6" : [
"271a7c622d2147019a4c5e81"
],
"FTBFConfigNim_v7" : [
"271a7c622d2147019a4c5e81"
],
"FTBFConfigNim_v8" : [
"271a7c622d2147019a4c5e81"
],
"FTBFConfigNim_v9" : [
"271a7c622d2147019a4c5e81"
],
"FTBFConfigNim_v10" : [
"271a7c622d2147019a4c5e81"
],
"FTBFConfigNim_v11" : [
"271a7c622d2147019a4c5e81"
],
"FTBFConfigNim_v12" : [
"271a7c622d2147019a4c5e81"
],
"FTBFConfigNim_v13" : [
"271a7c622d2147019a4c5e81"
],
"FTBFConfigNim_v14" : [
"271a7c622d2147019a4c5e81"
],
"FTBFConfigNim_v15" : [
"271a7c622d2147019a4c5e81"
],
"FTBFConfigNim_v16" : [
"271a7c622d2147019a4c5e81"
],
"FTBFConfigNim_v17" : [
"271a7c622d2147019a4c5e81"
],
"FTBFConfigNim_v18" : [
"271a7c622d2147019a4c5e81"
],
"FTBFConfigNim_v19" : [
"271a7c622d2147019a4c5e81"
],
"FTBFConfigNim_v20" : [
"271a7c622d2147019a4c5e81"
],
"FTBFConfigNim_v21" : [
"271a7c622d2147019a4c5e81"
],
"FTBFConfigNim_v22" : [
"271a7c622d2147019a4c5e81"
],
"FTBFConfigNim_v23" : [
"271a7c622d2147019a4c5e81"
],
"FTBFConfigNim_v24" : [
"271a7c622d2147019a4c5e81"
],
"FTBFConfigNim_v25" : [
"271a7c622d2147019a4c5e81"
],
"FTBFConfigNim_v26" : [
"271a7c622d2147019a4c5e81"
],
"FTBFConfigNim_v27" : [
"271a7c622d2147019a4c5e81"
],
"FTBFConfigNim_v28" : [
"271a7c622d2147019a4c5e81"
],
"FTBFConfigNim_v29" : [
"271a7c622d2147019a4c5e81"
],
"FTBFConfig_v71" : [
"271a7c622d2147019a4c5e81"
],
"FTBFConfig_v72" : [
"271a7c622d2147019a4c5e81"
],
"FTBFConfig_v73" : [
"271a7c622d2147019a4c5e81"
],
"FTBFConfig_v74" : [
"271a7c622d2147019a4c5e81"
],
"FTBFConfig_v75" : [
"271a7c622d2147019a4c5e81"
],
"FTBFConfig_v76" : [
"271a7c622d2147019a4c5e81"
],
"FTBFConfig_v77" : [
"271a7c622d2147019a4c5e81"
],
"FTBFConfig_v78" : [
"271a7c622d2147019a4c5e81"
],
"FTBFConfig_v79" : [
"271a7c622d2147019a4c5e81"
],
"FTBFConfig_v80" : [
"271a7c622d2147019a4c5e81"
],
"FTBFConfig_v81" : [
"271a7c622d2147019a4c5e81"
],
"FTBFConfig_v82" : [
"271a7c622d2147019a4c5e81"
],
"FTBFConfig_v83" : [
"271a7c622d2147019a4c5e81"
],
"FTBFConfig_v84" : [
"271a7c622d2147019a4c5e81"
],
"FTBFConfig_v85" : [
"271a7c622d2147019a4c5e81"
],
"FTBFConfig_v86" : [
"271a7c622d2147019a4c5e81"
],
"FTBFConfig_v87" : [
"271a7c622d2147019a4c5e81"
],
"FTBFConfig_v88" : [
"271a7c622d2147019a4c5e81"
],
"FTBFConfig_v89" : [
"271a7c622d2147019a4c5e81"
],
"FTBFConfig_v90" : [
"271a7c622d2147019a4c5e81"
],
"FTBFConfig_v91" : [
"271a7c622d2147019a4c5e81"
],
"FTBFConfig_v92" : [
"271a7c622d2147019a4c5e81"
],
"FTBFConfig_v93" : [
"271a7c622d2147019a4c5e81"
],
"FTBFConfig_v94" : [
"271a7c622d2147019a4c5e81"
],
"FTBFConfig_v95" : [
"271a7c622d2147019a4c5e81"
],
"FTBFConfig_v96" : [
"271a7c622d2147019a4c5e81"
],
"FTBFConfig_v97" : [
"271a7c622d2147019a4c5e81"
],
"FTBFConfig_v98" : [
"271a7c622d2147019a4c5e81"
],
"FTBFConfig_v99" : [
"271a7c622d2147019a4c5e81"
],
"FTBFConfig_v100" : [
"271a7c622d2147019a4c5e81"
],
"FTBFConfig_v101" : [
"271a7c622d2147019a4c5e81"
],
"FTBFConfig_v102" : [
"271a7c622d2147019a4c5e81"
],
"FTBFConfig_v103" : [
"271a7c622d2147019a4c5e81"
],
"FTBFConfig_v104" : [
"271a7c622d2147019a4c5e81"
],
"FTBFConfig_v105" : [
"271a7c622d2147019a4c5e81"
],
"FTBFConfig_v106" : [
"271a7c622d2147019a4c5e81"
],
"FTBFConfig_v107" : [
"271a7c622d2147019a4c5e81"
],
"FTBFConfig_v108" : [
"271a7c622d2147019a4c5e81"
],
"FTBFConfig_v109" : [
"271a7c622d2147019a4c5e81"
],
"FTBFConfig_v110" : [
"271a7c622d2147019a4c5e81"
],
"FTBFConfig_v111" : [
"271a7c622d2147019a4c5e81"
],
"FTBFConfig_v112" : [
"271a7c622d2147019a4c5e81"
],
"FTBFConfig_v113" : [
"271a7c622d2147019a4c5e81"
],
"FTBFConfig_v114" : [
"271a7c622d2147019a4c5e81"
],
"FTBFConfig_v115" : [
"271a7c622d2147019a4c5e81"
],
"FTBFConfig_v116" : [
"271a7c622d2147019a4c5e81"
],
"FTBFConfig_v117" : [
"271a7c622d2147019a4c5e81"
],
"FTBFConfig_v118" : [
"271a7c622d2147019a4c5e81"
],
"FTBFConfig_v119" : [
"271a7c622d2147019a4c5e81"
],
"FTBFConfig_v120" : [
"271a7c622d2147019a4c5e81"
],
"FTBFConfig_v121" : [
"271a7c622d2147019a4c5e81"
],
"FTBFConfig_v122" : [
"271a7c622d2147019a4c5e81"
],
"FTBFConfig_v123" : [
"271a7c622d2147019a4c5e81"
],
"FTBFConfig_v124" : [
"271a7c622d2147019a4c5e81"
],
"FTBFConfig_v125" : [
"271a7c622d2147019a4c5e81"
],
"FTBFConfig_v126" : [
"271a7c622d2147019a4c5e81"
],
"FTBFConfig_v127" : [
"271a7c622d2147019a4c5e81"
],
"FTBFConfig_v128" : [
"271a7c622d2147019a4c5e81"
],
"FTBFConfig_v129" : [
"271a7c622d2147019a4c5e81"
],
"FTBFConfig_v130" : [
"271a7c622d2147019a4c5e81"
],
"FTBFConfig_v131" : [
"271a7c622d2147019a4c5e81"
],
"FTBFConfig_v132" : [
"271a7c622d2147019a4c5e81"
],
"FTBFConfig_v133" : [
"271a7c622d2147019a4c5e81"
],
"FTBFConfig_v134" : [
"271a7c622d2147019a4c5e81"
],
"FTBFConfig_v135" : [
"271a7c622d2147019a4c5e81"
],
"FTBFConfig_v136" : [
"271a7c622d2147019a4c5e81"
],
"FTBFConfig_v137" : [
"271a7c622d2147019a4c5e81"
],
"FTBFConfig_v138" : [
"271a7c622d2147019a4c5e81"
],
"FTBFConfig_v139" : [
"271a7c622d2147019a4c5e81"
],
"FTBFConfig_v140" : [
"271a7c622d2147019a4c5e81"
],
"FTBFConfig_v141" : [
"271a7c622d2147019a4c5e81"
],
"FTBFConfig_v142" : [
"271a7c622d2147019a4c5e81"
]
},
"entities.name" : {
"OTSROOT" : [
"271a7c622d2147019a4c5e81",
"ef99d4c28fbf4f6e9ae25228"
]
},
"aliases.active.name" : {

},
"runs.name" : {

},
"configurations.assigned" : {
"notprovided" : [
"2017-11-08T15:56:02.197-0600",
"2017-11-15T13:02:03.936-0600"
],
"FTBFConfig_v0" : [
"2017-11-08T15:56:04.749-0600"
],
"FTBFConfig_v1" : [
"2017-11-09T09:56:29.089-0600"
],
"FTBFConfig_v2" : [
"2017-11-09T10:05:58.035-0600"
],
"FTBFConfig_v3" : [
"2017-11-09T10:37:09.585-0600"
],
"FTBFConfig_v4" : [
"2017-11-15T11:30:08.304-0600"
],
"FTBFConfig_v5" : [
"2017-11-15T11:54:55.053-0600"
],
"FTBFConfig_v6" : [
"2017-11-15T11:57:47.644-0600"
],
"FTBFConfig_v7" : [
"2017-11-15T12:42:30.065-0600"
],
"FTBFConfig_v8" : [
"2017-11-15T13:01:01.004-0600"
],
"FTBFConfig_v9" : [
"2017-11-15T13:02:54.383-0600"
],
"FTBFConfig_v10" : [
"2017-11-15T13:04:21.970-0600"
],
"FTBFConfig_v11" : [
"2017-11-15T13:07:49.424-0600"
],
"FTBFConfig_v12" : [
"2017-11-15T13:11:56.837-0600"
],
"FTBFConfig_v13" : [
"2017-11-15T13:13:50.797-0600"
],
"FTBFConfig_v14" : [
"2017-11-15T13:27:22.457-0600"
],
"FTBFConfig_v15" : [
"2017-11-15T13:35:44.752-0600"
],
"FTBFConfig_v16" : [
"2017-11-15T13:36:49.387-0600"
],
"FTBFConfig_v17" : [
"2017-11-15T15:33:27.905-0600"
],
"FTBFConfig_v18" : [
"2017-11-15T15:35:31.405-0600"
],
"FTBFConfig_v19" : [
"2017-11-15T15:38:00.328-0600"
],
"FTBFConfig_v20" : [
"2017-11-15T16:26:27.901-0600"
],
"FTBFConfig_v21" : [
"2017-11-16T09:22:29.116-0600"
],
"FTBFConfig_v22" : [
"2017-11-17T10:23:25.289-0600"
],
"FTBFConfig_v23" : [
"2017-11-17T17:26:42.754-0600"
],
"FTBFConfig_v24" : [
"2017-11-17T17:58:23.173-0600"
],
"FTBFConfig_v25" : [
"2017-11-17T18:24:42.859-0600"
],
"FTBFConfig_v26" : [
"2017-11-17T18:32:19.454-0600"
],
"FTBFConfig_v27" : [
"2017-11-17T18:43:26.518-0600"
],
"FTBFConfig_v28" : [
"2017-11-17T18:48:28.575-0600"
],
"FTBFConfig_v29" : [
"2017-11-20T14:48:28.069-0600"
],
"FTBFConfig_v30" : [
"2017-11-20T15:39:53.337-0600"
],
"FTBFConfig_v31" : [
"2017-11-20T16:40:59.286-0600"
],
"FTBFConfig_v32" : [
"2017-11-20T18:55:32.069-0600"
],
"FTBFConfig_v33" : [
"2017-11-20T18:57:27.341-0600"
],
"FTBFConfig_v34" : [
"2017-11-29T17:50:36.819-0600"
],
"FTBFConfig_v35" : [
"2017-11-29T18:00:29.696-0600"
],
"FTBFConfig_v36" : [
"2017-11-29T18:35:08.566-0600"
],
"FTBFConfig_v37" : [
"2017-12-01T09:36:14.689-0600"
],
"FTBFConfig_v38" : [
"2017-12-01T09:51:58.019-0600"
],
"FTBFConfig_v39" : [
"2017-12-01T11:51:55.266-0600"
],
"FTBFConfig_v40" : [
"2017-12-01T12:18:17.115-0600"
],
"FTBFConfig_v41" : [
"2017-12-01T12:20:59.324-0600"
],
"FTBFConfig_v42" : [
"2017-12-01T12:43:18.321-0600"
],
"FTBFConfig_v43" : [
"2017-12-01T12:57:55.196-0600"
],
"FTBFConfig_v44" : [
"2017-12-01T13:00:47.544-0600"
],
"FTBFConfig_v45" : [
"2017-12-01T13:25:45.257-0600"
],
"FTBFConfig_v46" : [
"2017-12-01T13:35:40.086-0600"
],
"FTBFConfig_v47" : [
"2017-12-01T14:00:48.507-0600"
],
"FTBFConfig_v48" : [
"2017-12-01T14:03:55.771-0600"
],
"FTBFConfig_v49" : [
"2017-12-01T15:31:55.891-0600"
],
"FTBFConfig_v50" : [
"2017-12-01T15:33:47.738-0600"
],
"FTBFConfig_v51" : [
"2017-12-01T15:36:17.355-0600"
],
"FTBFConfig_v52" : [
"2017-12-01T15:37:26.248-0600"
],
"FTBFConfig_v53" : [
"2017-12-01T15:40:55.472-0600"
],
"FTBFConfig_v54" : [
"2017-12-01T15:52:45.781-0600"
],
"FTBFConfig_v55" : [
"2017-12-01T15:54:30.882-0600"
],
"FTBFConfig_v56" : [
"2017-12-01T15:55:30.402-0600"
],
"FTBFConfig_v57" : [
"2017-12-01T15:56:36.149-0600"
],
"FTBFConfig_v58" : [
"2017-12-01T15:57:34.248-0600"
],
"FTBFConfig_v59" : [
"2017-12-01T15:58:26.122-0600"
],
"FTBFConfig_v60" : [
"2017-12-01T15:59:27.330-0600"
],
"FTBFConfig_v61" : [
"2017-12-01T16:19:37.015-0600"
],
"FTBFConfig_v62" : [
"2017-12-01T16:21:59.573-0600"
],
"FTBFConfig_v63" : [
"2017-12-01T16:31:20.152-0600"
],
"FTBFConfig_v64" : [
"2017-12-01T17:06:26.980-0600"
],
"FTBFConfig_v65" : [
"2017-12-01T17:32:39.303-0600"
],
"FTBFConfig_v66" : [
"2017-12-01T20:38:45.650-0600"
],
"FTBFConfig_v67" : [
"2017-12-01T21:24:57.203-0600"
],
"FTBFConfig_v68" : [
"2017-12-01T21:42:56.836-0600"
],
"FTBFConfig_v69" : [
"2017-12-01T21:44:55.435-0600"
],
"FTBFConfig_v70" : [
"2017-12-01T21:59:14.647-0600"
],
"FTBFConfigNim_v0" : [
"2017-12-01T22:00:01.360-0600"
],
"FTBFConfigNim_v1" : [
"2017-12-01T22:13:03.073-0600"
],
"FTBFConfigNim_v2" : [
"2017-12-01T22:15:50.285-0600"
],
"FTBFConfigNim_v3" : [
"2017-12-01T22:16:58.225-0600"
],
"FTBFConfigNim_v4" : [
"2017-12-01T22:19:01.328-0600"
],
"FTBFConfigNim_v5" : [
"2017-12-01T22:21:52.006-0600"
],
"FTBFConfigNim_v6" : [
"2017-12-01T22:23:07.345-0600"
],
"FTBFConfigNim_v7" : [
"2017-12-01T22:25:11.907-0600"
],
"FTBFConfigNim_v8" : [
"2017-12-01T22:26:59.444-0600"
],
"FTBFConfigNim_v9" : [
"2017-12-01T22:29:23.733-0600"
],
"FTBFConfigNim_v10" : [
"2017-12-01T22:52:28.824-0600"
],
"FTBFConfigNim_v11" : [
"2017-12-01T22:57:23.248-0600"
],
"FTBFConfigNim_v12" : [
"2017-12-01T23:00:01.860-0600"
],
"FTBFConfigNim_v13" : [
"2017-12-01T23:52:29.965-0600"
],
"FTBFConfigNim_v14" : [
"2017-12-01T23:58:04.340-0600"
],
"FTBFConfigNim_v15" : [
"2017-12-02T00:00:28.606-0600"
],
"FTBFConfigNim_v16" : [
"2017-12-02T00:13:03.701-0600"
],
"FTBFConfigNim_v17" : [
"2017-12-02T00:28:22.702-0600"
],
"FTBFConfigNim_v18" : [
"2017-12-02T00:29:28.713-0600"
],
"FTBFConfigNim_v19" : [
"2017-12-02T00:31:04.573-0600"
],
"FTBFConfigNim_v20" : [
"2017-12-02T00:57:21.683-0600"
],
"FTBFConfigNim_v21" : [
"2017-12-02T10:57:56.229-0600"
],
"FTBFConfigNim_v22" : [
"2017-12-02T11:08:12.385-0600"
],
"FTBFConfigNim_v23" : [
"2017-12-02T11:12:33.936-0600"
],
"FTBFConfigNim_v24" : [
"2017-12-02T11:18:36.709-0600"
],
"FTBFConfigNim_v25" : [
"2017-12-02T11:26:59.961-0600"
],
"FTBFConfigNim_v26" : [
"2017-12-02T11:38:30.994-0600"
],
"FTBFConfigNim_v27" : [
"2017-12-02T11:49:02.091-0600"
],
"FTBFConfigNim_v28" : [
"2017-12-02T11:55:03.495-0600"
],
"FTBFConfigNim_v29" : [
"2017-12-02T12:06:20.359-0600"
],
"FTBFConfig_v71" : [
"2017-12-02T12:24:08.973-0600"
],
"FTBFConfig_v72" : [
"2017-12-02T12:43:29.725-0600"
],
"FTBFConfig_v73" : [
"2017-12-02T13:55:29.271-0600"
],
"FTBFConfig_v74" : [
"2017-12-02T14:09:01.539-0600"
],
"FTBFConfig_v75" : [
"2017-12-02T14:12:12.406-0600"
],
"FTBFConfig_v76" : [
"2017-12-02T19:05:47.553-0600"
],
"FTBFConfig_v77" : [
"2017-12-02T19:12:07.325-0600"
],
"FTBFConfig_v78" : [
"2017-12-03T14:03:42.510-0600"
],
"FTBFConfig_v79" : [
"2017-12-03T14:09:00.664-0600"
],
"FTBFConfig_v80" : [
"2017-12-03T14:11:04.420-0600"
],
"FTBFConfig_v81" : [
"2017-12-03T14:22:27.442-0600"
],
"FTBFConfig_v82" : [
"2017-12-03T14:40:32.179-0600"
],
"FTBFConfig_v83" : [
"2017-12-03T14:44:59.473-0600"
],
"FTBFConfig_v84" : [
"2017-12-04T14:51:24.959-0600"
],
"FTBFConfig_v85" : [
"2017-12-04T14:55:38.021-0600"
],
"FTBFConfig_v86" : [
"2017-12-04T16:51:01.014-0600"
],
"FTBFConfig_v87" : [
"2017-12-04T16:56:41.635-0600"
],
"FTBFConfig_v88" : [
"2017-12-04T17:01:06.313-0600"
],
"FTBFConfig_v89" : [
"2017-12-04T17:03:51.363-0600"
],
"FTBFConfig_v90" : [
"2017-12-04T17:07:11.008-0600"
],
"FTBFConfig_v91" : [
"2017-12-04T17:09:20.093-0600"
],
"FTBFConfig_v92" : [
"2017-12-04T17:11:32.554-0600"
],
"FTBFConfig_v93" : [
"2017-12-04T21:05:15.190-0600"
],
"FTBFConfig_v94" : [
"2017-12-04T21:17:05.999-0600"
],
"FTBFConfig_v95" : [
"2017-12-04T21:41:11.762-0600"
],
"FTBFConfig_v96" : [
"2017-12-04T22:38:56.367-0600"
],
"FTBFConfig_v97" : [
"2017-12-04T23:01:06.828-0600"
],
"FTBFConfig_v98" : [
"2017-12-07T11:07:40.816-0600"
],
"FTBFConfig_v99" : [
"2017-12-07T11:49:53.530-0600"
],
"FTBFConfig_v100" : [
"2017-12-07T11:58:20.250-0600"
],
"FTBFConfig_v101" : [
"2017-12-08T13:30:42.309-0600"
],
"FTBFConfig_v102" : [
"2017-12-08T13:32:29.219-0600"
],
"FTBFConfig_v103" : [
"2017-12-12T11:02:58.960-0600"
],
"FTBFConfig_v104" : [
"2017-12-12T13:50:53.134-0600"
],
"FTBFConfig_v105" : [
"2017-12-12T15:24:59.170-0600"
],
"FTBFConfig_v106" : [
"2017-12-13T10:24:17.672-0600"
],
"FTBFConfig_v107" : [
"2017-12-13T10:26:56.469-0600"
],
"FTBFConfig_v108" : [
"2018-02-01T21:14:19.555-0600"
],
"FTBFConfig_v109" : [
"2018-02-01T21:20:56.714-0600"
],
"FTBFConfig_v110" : [
"2018-02-02T11:25:27.661-0600"
],
"FTBFConfig_v111" : [
"2018-02-02T11:37:06.481-0600"
],
"FTBFConfig_v112" : [
"2018-02-02T11:47:08.901-0600"
],
"FTBFConfig_v113" : [
"2018-02-02T11:53:30.148-0600"
],
"FTBFConfig_v114" : [
"2018-02-02T12:00:46.199-0600"
],
"FTBFConfig_v115" : [
"2018-02-02T12:27:07.696-0600"
],
"FTBFConfig_v116" : [
"2018-02-02T14:28:47.151-0600"
],
"FTBFConfig_v117" : [
"2018-02-02T14:30:13.517-0600"
],
"FTBFConfig_v118" : [
"2018-02-02T14:33:54.701-0600"
],
"FTBFConfig_v119" : [
"2018-02-02T14:36:21.283-0600"
],
"FTBFConfig_v120" : [
"2018-02-02T14:38:34.642-0600"
],
"FTBFConfig_v121" : [
"2018-02-02T14:41:43.971-0600"
],
"FTBFConfig_v122" : [
"2018-02-02T14:50:17.923-0600"
],
"FTBFConfig_v123" : [
"2018-02-02T14:52:50.809-0600"
],
"FTBFConfig_v124" : [
"2018-02-02T14:59:44.109-0600"
],
"FTBFConfig_v125" : [
"2018-02-02T15:04:02.196-0600"
],
"FTBFConfig_v126" : [
"2018-02-02T15:50:05.395-0600"
],
"FTBFConfig_v127" : [
"2018-02-02T15:51:24.836-0600"
],
"FTBFConfig_v128" : [
"2018-02-02T15:52:30.003-0600"
],
"FTBFConfig_v129" : [
"2018-02-02T16:02:38.888-0600"
],
"FTBFConfig_v130" : [
"2018-02-02T16:08:38.374-0600"
],
"FTBFConfig_v131" : [
"2018-02-02T16:11:24.135-0600"
],
"FTBFConfig_v132" : [
"2018-02-02T16:12:51.988-0600"
],
"FTBFConfig_v133" : [
"2018-02-02T16:14:22.543-0600"
],
"FTBFConfig_v134" : [
"2018-02-02T16:26:15.457-0600"
],
"FTBFConfig_v135" : [
"2018-02-02T16:27:02.549-0600"
],
"FTBFConfig_v136" : [
"2018-02-02T16:29:23.857-0600"
],
"FTBFConfig_v137" : [
"2018-02-02T16:31:34.359-0600"
],
"FTBFConfig_v138" : [
"2018-02-02T16:34:07.055-0600"
],
"FTBFConfig_v139" : [
"2018-02-02T17:39:23.090-0600"
],
"FTBFConfig_v140" : [
"2018-02-02T17:42:45.218-0600"
],
"FTBFConfig_v141" : [
"2018-02-02T17:47:30.399-0600"
],
"FTBFConfig_v142" : [
"2018-02-02T17:53:54.338-0600"
]
}
}