{
"document" : {
"data" : {
"NAME" : "XDAQ_CONTEXT_TABLE",
"COMMENT" : "Default simplest Outer Tracker table",
"AUTHOR" : "admin",
"CREATION_TIME" : 1603990464,
"COL_TYPES" : {
"CONTEXT_UID" : "STRING",
"STATUS" : "STRING",
"ID" : "NUMBER",
"ADDRESS" : "STRING",
"PORT" : "NUMBER",
"LINK_TO_APPLICATION_TABLE" : "STRING",
"LINK_TO_APPLICATION_GROUP_ID" : "STRING",
"COMMENT_DESCRIPTION" : "STRING",
"AUTHOR" : "STRING",
"RECORD_INSERTION_TIME" : "TIMESTAMP WITH TIMEZONE"
},
"DATA_SET" : [
{
"CONTEXT_UID" : "MainContext",
"STATUS" : "On",
"ID" : "0",
"ADDRESS" : "http://${HOSTNAME}",
"PORT" : "2015",
"LINK_TO_APPLICATION_TABLE" : "XDAQApplicationTable",
"LINK_TO_APPLICATION_GROUP_ID" : "MainContextApps",
"COMMENT_DESCRIPTION" : "main context",
"AUTHOR" : "admin",
"RECORD_INSERTION_TIME" : "1571774077"
},
{
"CONTEXT_UID" : "VisualizerContext",
"STATUS" : "On",
"ID" : "0",
"ADDRESS" : "http://${HOSTNAME}",
"PORT" : "2020",
"LINK_TO_APPLICATION_TABLE" : "XDAQApplicationTable",
"LINK_TO_APPLICATION_GROUP_ID" : "VisualizerContextApp",
"COMMENT_DESCRIPTION" : "No Comment",
"AUTHOR" : "admin",
"RECORD_INSERTION_TIME" : "1602266456"
},
{
"CONTEXT_UID" : "TrackerContext",
"STATUS" : "On",
"ID" : "0",
"ADDRESS" : "http://${HOSTNAME}",
"PORT" : "2021",
"LINK_TO_APPLICATION_TABLE" : "XDAQApplicationTable",
"LINK_TO_APPLICATION_GROUP_ID" : "TrackerContextApps",
"COMMENT_DESCRIPTION" : "No Comment",
"AUTHOR" : "admin",
"RECORD_INSERTION_TIME" : "1602275431"
},
{
"CONTEXT_UID" : "BurninBoxContext",
"STATUS" : "On",
"ID" : "0",
"ADDRESS" : "http://${HOSTNAME}",
"PORT" : "2022",
"LINK_TO_APPLICATION_TABLE" : "XDAQApplicationTable",
"LINK_TO_APPLICATION_GROUP_ID" : "BurninBoxContextApps",
"COMMENT_DESCRIPTION" : "No Comment",
"AUTHOR" : "admin",
"RECORD_INSERTION_TIME" : "1602266456"
},
{
"CONTEXT_UID" : "PowerSupplyContext",
"STATUS" : "On",
"ID" : "0",
"ADDRESS" : "http://${HOSTNAME}",
"PORT" : "2023",
"LINK_TO_APPLICATION_TABLE" : "XDAQApplicationTable",
"LINK_TO_APPLICATION_GROUP_ID" : "PowerSupplyContextApps",
"COMMENT_DESCRIPTION" : "No Comment",
"AUTHOR" : "admin",
"RECORD_INSERTION_TIME" : "1603990378"
}
]
},
"metadata" : {

},
"search" : [

]
},
"comments" : [

],
"origin" : {
"source" : "template",
"name" : "notprovided",
"format" : "json",
"created" : "2020-10-29T11:54:24.449-0500",
"rawdata" : [

]
},
"version" : "12",
"entities" : [
{
"name" : "OTSROOT",
"assigned" : "2020-10-29T11:54:24.450-0500"
}
],
"configurations" : [
{
"name" : "notprovided",
"assigned" : "2020-10-29T11:54:24.450-0500"
},
{
"name" : "DefaultContext_v27",
"assigned" : "2020-10-29T11:54:28.608-0500"
},
{
"name" : "DefaultContext_v36",
"assigned" : "2021-07-08T14:00:20.695-0500"
},
{
"name" : "DefaultContext_v39",
"assigned" : "2021-07-08T16:24:39.688-0500"
},
{
"name" : "DefaultContext_v43",
"assigned" : "2021-07-21T12:08:22.928-0500"
},
{
"name" : "DefaultContext_v49",
"assigned" : "2022-04-18T12:56:04.593-0400"
},
{
"name" : "DefaultContext_v79",
"assigned" : "2023-04-14T15:36:53.608-0500"
}
],
"changelog" : "notprovided",
"bookkeeping" : {
"isdeleted" : false,
"isreadonly" : false,
"updates" : [
{
"event" : "addConfiguration",
"timestamp" : "2020-10-29T11:54:24.450-0500",
"value" : {
"name" : "notprovided",
"assigned" : "2020-10-29T11:54:24.450-0500"
}
},
{
"event" : "setVersion",
"timestamp" : "2020-10-29T11:54:24.450-0500",
"value" : {
"name" : "12",
"assigned" : "2020-10-29T11:54:24.450-0500"
}
},
{
"event" : "setCollection",
"timestamp" : "2020-10-29T11:54:24.450-0500",
"value" : {
"name" : "XDAQContextTable",
"assigned" : "2020-10-29T11:54:24.450-0500"
}
},
{
"event" : "addEntity",
"timestamp" : "2020-10-29T11:54:24.450-0500",
"value" : {
"name" : "OTSROOT",
"assigned" : "2020-10-29T11:54:24.450-0500"
}
},
{
"event" : "addConfiguration",
"timestamp" : "2020-10-29T11:54:28.608-0500",
"value" : {
"name" : "DefaultContext_v27",
"assigned" : "2020-10-29T11:54:28.608-0500"
}
},
{
"event" : "addConfiguration",
"timestamp" : "2021-07-08T14:00:20.695-0500",
"value" : {
"name" : "DefaultContext_v36",
"assigned" : "2021-07-08T14:00:20.695-0500"
}
},
{
"event" : "addConfiguration",
"timestamp" : "2021-07-08T16:24:39.689-0500",
"value" : {
"name" : "DefaultContext_v39",
"assigned" : "2021-07-08T16:24:39.688-0500"
}
},
{
"event" : "addConfiguration",
"timestamp" : "2021-07-21T12:08:22.928-0500",
"value" : {
"name" : "DefaultContext_v43",
"assigned" : "2021-07-21T12:08:22.928-0500"
}
},
{
"event" : "addConfiguration",
"timestamp" : "2022-04-18T12:56:04.593-0400",
"value" : {
"name" : "DefaultContext_v49",
"assigned" : "2022-04-18T12:56:04.593-0400"
}
},
{
"event" : "addConfiguration",
"timestamp" : "2023-04-14T15:36:53.609-0500",
"value" : {
"name" : "DefaultContext_v79",
"assigned" : "2023-04-14T15:36:53.608-0500"
}
}
],
"created" : "2020-10-29T11:54:24.449-0500"
},
"_id" : {
"$oid" : "467e83e77969422c90a61170"
},
"collection" : "XDAQContextTable",
"aliases" : {
"active" : [

],
"history" : [

]
},
"runs" : [

],
"attachments" : [

],
"configtype" : "notprovided"
}