{
"document" : {
"data" : {
"NAME" : "XDAQ_CONTEXT_TABLE",
"COMMENT" : "Default simplest Outer Tracker table",
"AUTHOR" : "admin",
"CREATION_TIME" : 1596058481,
"COL_TYPES" : {
"CONTEXT_UID" : "STRING",
"STATUS" : "STRING",
"ID" : "NUMBER",
"ADDRESS" : "STRING",
"PORT" : "NUMBER",
"LINK_TO_APPLICATION_TABLE" : "STRING",
"LINK_TO_APPLICATION_GROUP_ID" : "STRING",
"COMMENT_DESCRIPTION" : "STRING",
"AUTHOR" : "STRING",
"RECORD_INSERTION_TIME" : "TIMESTAMP WITH TIMEZONE"
},
"DATA_SET" : [
{
"CONTEXT_UID" : "MainContext",
"STATUS" : "On",
"ID" : "0",
"ADDRESS" : "http://${HOSTNAME}",
"PORT" : "2015",
"LINK_TO_APPLICATION_TABLE" : "XDAQApplicationTable",
"LINK_TO_APPLICATION_GROUP_ID" : "MainContextApps",
"COMMENT_DESCRIPTION" : "main context",
"AUTHOR" : "admin",
"RECORD_INSERTION_TIME" : "1571774077"
},
{
"CONTEXT_UID" : "OuterTrackerContext",
"STATUS" : "On",
"ID" : "0",
"ADDRESS" : "http://${HOSTNAME}",
"PORT" : "2020",
"LINK_TO_APPLICATION_TABLE" : "XDAQApplicationTable",
"LINK_TO_APPLICATION_GROUP_ID" : "OuterTrackerContextApp",
"COMMENT_DESCRIPTION" : "No Comment",
"AUTHOR" : "admin",
"RECORD_INSERTION_TIME" : "1596058475"
},
{
"CONTEXT_UID" : "BurninBoxContext",
"STATUS" : "On",
"ID" : "0",
"ADDRESS" : "http://${HOSTNAME}",
"PORT" : "2021",
"LINK_TO_APPLICATION_TABLE" : "XDAQApplicationTable",
"LINK_TO_APPLICATION_GROUP_ID" : "BurninBoxContextApp",
"COMMENT_DESCRIPTION" : "No Comment",
"AUTHOR" : "admin",
"RECORD_INSERTION_TIME" : "1571774077"
}
]
},
"metadata" : {

},
"search" : [

]
},
"comments" : [

],
"origin" : {
"source" : "template",
"name" : "notprovided",
"format" : "json",
"created" : "2020-07-29T16:34:41.816-0500",
"rawdata" : [

]
},
"version" : "3",
"entities" : [
{
"name" : "OTSROOT",
"assigned" : "2020-07-29T16:34:41.819-0500"
}
],
"configurations" : [
{
"name" : "notprovided",
"assigned" : "2020-07-29T16:34:41.817-0500"
},
{
"name" : "DefaultContext_v7",
"assigned" : "2020-07-29T16:34:42.953-0500"
},
{
"name" : "DefaultContext_v8",
"assigned" : "2020-07-29T16:39:53.781-0500"
},
{
"name" : "DefaultContext_v9",
"assigned" : "2020-07-29T16:40:44.398-0500"
},
{
"name" : "DefaultContext_v10",
"assigned" : "2020-07-29T16:45:01.695-0500"
}
],
"changelog" : "notprovided",
"bookkeeping" : {
"isdeleted" : false,
"isreadonly" : false,
"updates" : [
{
"event" : "addConfiguration",
"timestamp" : "2020-07-29T16:34:41.818-0500",
"value" : {
"name" : "notprovided",
"assigned" : "2020-07-29T16:34:41.817-0500"
}
},
{
"event" : "setVersion",
"timestamp" : "2020-07-29T16:34:41.818-0500",
"value" : {
"name" : "3",
"assigned" : "2020-07-29T16:34:41.819-0500"
}
},
{
"event" : "setCollection",
"timestamp" : "2020-07-29T16:34:41.819-0500",
"value" : {
"name" : "XDAQContextTable",
"assigned" : "2020-07-29T16:34:41.819-0500"
}
},
{
"event" : "addEntity",
"timestamp" : "2020-07-29T16:34:41.819-0500",
"value" : {
"name" : "OTSROOT",
"assigned" : "2020-07-29T16:34:41.819-0500"
}
},
{
"event" : "addConfiguration",
"timestamp" : "2020-07-29T16:34:42.953-0500",
"value" : {
"name" : "DefaultContext_v7",
"assigned" : "2020-07-29T16:34:42.953-0500"
}
},
{
"event" : "addConfiguration",
"timestamp" : "2020-07-29T16:39:53.781-0500",
"value" : {
"name" : "DefaultContext_v8",
"assigned" : "2020-07-29T16:39:53.781-0500"
}
},
{
"event" : "addConfiguration",
"timestamp" : "2020-07-29T16:40:44.398-0500",
"value" : {
"name" : "DefaultContext_v9",
"assigned" : "2020-07-29T16:40:44.398-0500"
}
},
{
"event" : "addConfiguration",
"timestamp" : "2020-07-29T16:45:01.695-0500",
"value" : {
"name" : "DefaultContext_v10",
"assigned" : "2020-07-29T16:45:01.695-0500"
}
}
],
"created" : "2020-07-29T16:34:41.817-0500"
},
"_id" : {
"$oid" : "7991e0dce2f44ccebb9bb74d"
},
"collection" : "XDAQContextTable",
"aliases" : {
"active" : [

],
"history" : [

]
},
"runs" : [

],
"attachments" : [

],
"configtype" : "notprovided"
}