{
"document" : {
"data" : {
"NAME" : "XDAQ_CONTEXT_TABLE",
"COMMENT" : "Default simplest Outer Tracker table",
"AUTHOR" : "admin",
"CREATION_TIME" : 1603990494,
"COL_TYPES" : {
"CONTEXT_UID" : "STRING",
"STATUS" : "STRING",
"ID" : "NUMBER",
"ADDRESS" : "STRING",
"PORT" : "NUMBER",
"LINK_TO_APPLICATION_TABLE" : "STRING",
"LINK_TO_APPLICATION_GROUP_ID" : "STRING",
"COMMENT_DESCRIPTION" : "STRING",
"AUTHOR" : "STRING",
"RECORD_INSERTION_TIME" : "TIMESTAMP WITH TIMEZONE"
},
"DATA_SET" : [
{
"CONTEXT_UID" : "MainContext",
"STATUS" : "On",
"ID" : "0",
"ADDRESS" : "http://${HOSTNAME}",
"PORT" : "2015",
"LINK_TO_APPLICATION_TABLE" : "XDAQApplicationTable",
"LINK_TO_APPLICATION_GROUP_ID" : "MainContextApps",
"COMMENT_DESCRIPTION" : "main context",
"AUTHOR" : "admin",
"RECORD_INSERTION_TIME" : "1571774077"
},
{
"CONTEXT_UID" : "VisualizerContext",
"STATUS" : "On",
"ID" : "0",
"ADDRESS" : "http://${HOSTNAME}",
"PORT" : "2020",
"LINK_TO_APPLICATION_TABLE" : "XDAQApplicationTable",
"LINK_TO_APPLICATION_GROUP_ID" : "VisualizerContextApp",
"COMMENT_DESCRIPTION" : "No Comment",
"AUTHOR" : "admin",
"RECORD_INSERTION_TIME" : "1602266456"
},
{
"CONTEXT_UID" : "TrackerContext",
"STATUS" : "Off",
"ID" : "0",
"ADDRESS" : "http://${HOSTNAME}",
"PORT" : "2021",
"LINK_TO_APPLICATION_TABLE" : "XDAQApplicationTable",
"LINK_TO_APPLICATION_GROUP_ID" : "TrackerContextApps",
"COMMENT_DESCRIPTION" : "No Comment",
"AUTHOR" : "admin",
"RECORD_INSERTION_TIME" : "1603990491"
},
{
"CONTEXT_UID" : "BurninBoxContext",
"STATUS" : "On",
"ID" : "0",
"ADDRESS" : "http://${HOSTNAME}",
"PORT" : "2022",
"LINK_TO_APPLICATION_TABLE" : "XDAQApplicationTable",
"LINK_TO_APPLICATION_GROUP_ID" : "BurninBoxContextApps",
"COMMENT_DESCRIPTION" : "No Comment",
"AUTHOR" : "admin",
"RECORD_INSERTION_TIME" : "1602266456"
},
{
"CONTEXT_UID" : "PowerSupplyContext",
"STATUS" : "On",
"ID" : "0",
"ADDRESS" : "http://${HOSTNAME}",
"PORT" : "2023",
"LINK_TO_APPLICATION_TABLE" : "XDAQApplicationTable",
"LINK_TO_APPLICATION_GROUP_ID" : "PowerSupplyContextApps",
"COMMENT_DESCRIPTION" : "No Comment",
"AUTHOR" : "admin",
"RECORD_INSERTION_TIME" : "1603990378"
}
]
},
"metadata" : {

},
"search" : [

]
},
"comments" : [

],
"origin" : {
"source" : "template",
"name" : "notprovided",
"format" : "json",
"created" : "2020-10-29T11:54:54.976-0500",
"rawdata" : [

]
},
"version" : "13",
"entities" : [
{
"name" : "OTSROOT",
"assigned" : "2020-10-29T11:54:54.976-0500"
}
],
"configurations" : [
{
"name" : "notprovided",
"assigned" : "2020-10-29T11:54:54.976-0500"
},
{
"name" : "DefaultContext_v28",
"assigned" : "2020-10-29T11:54:56.592-0500"
},
{
"name" : "DefaultContext_v29",
"assigned" : "2020-10-29T13:33:31.358-0500"
},
{
"name" : "DefaultContext_v30",
"assigned" : "2020-11-16T17:04:43.606-0600"
},
{
"name" : "DefaultContext_v31",
"assigned" : "2020-11-16T17:07:49.967-0600"
},
{
"name" : "DefaultContext_v32",
"assigned" : "2020-11-16T17:10:04.119-0600"
},
{
"name" : "DefaultContext_v33",
"assigned" : "2021-07-07T14:45:52.519-0500"
},
{
"name" : "DefaultContext_v38",
"assigned" : "2021-07-08T16:21:56.527-0500"
},
{
"name" : "DefaultContext_v47",
"assigned" : "2021-09-28T10:22:57.967-0500"
}
],
"changelog" : "notprovided",
"bookkeeping" : {
"isdeleted" : false,
"isreadonly" : false,
"updates" : [
{
"event" : "addConfiguration",
"timestamp" : "2020-10-29T11:54:54.976-0500",
"value" : {
"name" : "notprovided",
"assigned" : "2020-10-29T11:54:54.976-0500"
}
},
{
"event" : "setVersion",
"timestamp" : "2020-10-29T11:54:54.976-0500",
"value" : {
"name" : "13",
"assigned" : "2020-10-29T11:54:54.976-0500"
}
},
{
"event" : "setCollection",
"timestamp" : "2020-10-29T11:54:54.976-0500",
"value" : {
"name" : "XDAQContextTable",
"assigned" : "2020-10-29T11:54:54.976-0500"
}
},
{
"event" : "addEntity",
"timestamp" : "2020-10-29T11:54:54.976-0500",
"value" : {
"name" : "OTSROOT",
"assigned" : "2020-10-29T11:54:54.976-0500"
}
},
{
"event" : "addConfiguration",
"timestamp" : "2020-10-29T11:54:56.592-0500",
"value" : {
"name" : "DefaultContext_v28",
"assigned" : "2020-10-29T11:54:56.592-0500"
}
},
{
"event" : "addConfiguration",
"timestamp" : "2020-10-29T13:33:31.358-0500",
"value" : {
"name" : "DefaultContext_v29",
"assigned" : "2020-10-29T13:33:31.358-0500"
}
},
{
"event" : "addConfiguration",
"timestamp" : "2020-11-16T17:04:43.606-0600",
"value" : {
"name" : "DefaultContext_v30",
"assigned" : "2020-11-16T17:04:43.606-0600"
}
},
{
"event" : "addConfiguration",
"timestamp" : "2020-11-16T17:07:49.967-0600",
"value" : {
"name" : "DefaultContext_v31",
"assigned" : "2020-11-16T17:07:49.967-0600"
}
},
{
"event" : "addConfiguration",
"timestamp" : "2020-11-16T17:10:04.119-0600",
"value" : {
"name" : "DefaultContext_v32",
"assigned" : "2020-11-16T17:10:04.119-0600"
}
},
{
"event" : "addConfiguration",
"timestamp" : "2021-07-07T14:45:52.519-0500",
"value" : {
"name" : "DefaultContext_v33",
"assigned" : "2021-07-07T14:45:52.519-0500"
}
},
{
"event" : "addConfiguration",
"timestamp" : "2021-07-08T16:21:56.527-0500",
"value" : {
"name" : "DefaultContext_v38",
"assigned" : "2021-07-08T16:21:56.527-0500"
}
},
{
"event" : "addConfiguration",
"timestamp" : "2021-09-28T10:22:57.967-0500",
"value" : {
"name" : "DefaultContext_v47",
"assigned" : "2021-09-28T10:22:57.967-0500"
}
}
],
"created" : "2020-10-29T11:54:54.976-0500"
},
"_id" : {
"$oid" : "846b958829c24d318c2652b7"
},
"collection" : "XDAQContextTable",
"aliases" : {
"active" : [

],
"history" : [

]
},
"runs" : [

],
"attachments" : [

],
"configtype" : "notprovided"
}