{
"ouid" : [
"caf1aa4d1a6d40b6840fb0a0"
],
"version" : {
"2" : [
"caf1aa4d1a6d40b6840fb0a0"
]
},
"configurations.name" : {
"notprovided" : [
"caf1aa4d1a6d40b6840fb0a0"
],
"DefaultContext_v2" : [
"caf1aa4d1a6d40b6840fb0a0"
],
"DefaultContext_v3" : [
"caf1aa4d1a6d40b6840fb0a0"
],
"DefaultContext_v4" : [
"caf1aa4d1a6d40b6840fb0a0"
],
"DefaultContext_v5" : [
"caf1aa4d1a6d40b6840fb0a0"
],
"DefaultContext_v6" : [
"caf1aa4d1a6d40b6840fb0a0"
],
"DefaultContext_v7" : [
"caf1aa4d1a6d40b6840fb0a0"
],
"DefaultContext_v8" : [
"caf1aa4d1a6d40b6840fb0a0"
],
"DefaultContext_v9" : [
"caf1aa4d1a6d40b6840fb0a0"
],
"DefaultContext_v10" : [
"caf1aa4d1a6d40b6840fb0a0"
],
"DefaultContext_v11" : [
"caf1aa4d1a6d40b6840fb0a0"
],
"DefaultContext_v12" : [
"caf1aa4d1a6d40b6840fb0a0"
],
"DefaultContext_v13" : [
"caf1aa4d1a6d40b6840fb0a0"
],
"DefaultContext_v14" : [
"caf1aa4d1a6d40b6840fb0a0"
],
"DefaultContext_v15" : [
"caf1aa4d1a6d40b6840fb0a0"
],
"DefaultContext_v16" : [
"caf1aa4d1a6d40b6840fb0a0"
],
"DefaultContext_v17" : [
"caf1aa4d1a6d40b6840fb0a0"
],
"DefaultContext_v18" : [
"caf1aa4d1a6d40b6840fb0a0"
],
"DefaultContext_v19" : [
"caf1aa4d1a6d40b6840fb0a0"
],
"DefaultContext_v20" : [
"caf1aa4d1a6d40b6840fb0a0"
],
"DefaultContext_v21" : [
"caf1aa4d1a6d40b6840fb0a0"
],
"DefaultContext_v22" : [
"caf1aa4d1a6d40b6840fb0a0"
],
"DefaultContext_v23" : [
"caf1aa4d1a6d40b6840fb0a0"
],
"DefaultContext_v24" : [
"caf1aa4d1a6d40b6840fb0a0"
],
"DefaultContext_v25" : [
"caf1aa4d1a6d40b6840fb0a0"
],
"DefaultContext_v26" : [
"caf1aa4d1a6d40b6840fb0a0"
],
"DefaultContext_v27" : [
"caf1aa4d1a6d40b6840fb0a0"
],
"DefaultContext_v28" : [
"caf1aa4d1a6d40b6840fb0a0"
],
"DefaultContext_v29" : [
"caf1aa4d1a6d40b6840fb0a0"
]
},
"entities.name" : {
"OTSROOT" : [
"caf1aa4d1a6d40b6840fb0a0"
]
},
"aliases.active.name" : {

},
"runs.name" : {

},
"configurations.assigned" : {
"notprovided" : [
"2019-02-22T16:11:43.335-0600"
],
"DefaultContext_v2" : [
"2019-02-22T16:11:43.557-0600"
],
"DefaultContext_v3" : [
"2019-07-23T09:05:25.637-0500"
],
"DefaultContext_v4" : [
"2019-11-19T16:07:21.780-0600"
],
"DefaultContext_v5" : [
"2019-11-20T14:24:12.732-0600"
],
"DefaultContext_v6" : [
"2019-11-20T14:39:27.587-0600"
],
"DefaultContext_v7" : [
"2019-11-20T15:26:58.616-0600"
],
"DefaultContext_v8" : [
"2019-11-20T15:27:24.653-0600"
],
"DefaultContext_v9" : [
"2019-11-20T15:28:33.833-0600"
],
"DefaultContext_v10" : [
"2019-11-20T15:56:57.894-0600"
],
"DefaultContext_v11" : [
"2019-11-20T16:00:09.294-0600"
],
"DefaultContext_v12" : [
"2019-12-05T17:52:36.390-0600"
],
"DefaultContext_v13" : [
"2019-12-06T09:54:12.757-0600"
],
"DefaultContext_v14" : [
"2019-12-09T11:56:59.539-0600"
],
"DefaultContext_v15" : [
"2019-12-13T13:20:56.301-0600"
],
"DefaultContext_v16" : [
"2021-04-29T11:04:33.244-0500"
],
"DefaultContext_v17" : [
"2021-04-29T12:14:45.905-0500"
],
"DefaultContext_v18" : [
"2021-04-29T12:25:33.404-0500"
],
"DefaultContext_v19" : [
"2021-04-29T12:25:52.881-0500"
],
"DefaultContext_v20" : [
"2021-04-29T12:40:04.150-0500"
],
"DefaultContext_v21" : [
"2021-04-29T13:20:40.386-0500"
],
"DefaultContext_v22" : [
"2021-05-10T11:39:30.258-0500"
],
"DefaultContext_v23" : [
"2021-05-12T15:51:58.371-0500"
],
"DefaultContext_v24" : [
"2021-05-14T15:34:26.151-0500"
],
"DefaultContext_v25" : [
"2021-05-14T16:41:02.811-0500"
],
"DefaultContext_v26" : [
"2021-05-25T12:01:05.014-0500"
],
"DefaultContext_v27" : [
"2021-05-25T12:57:26.600-0500"
],
"DefaultContext_v28" : [
"2021-05-25T13:06:03.435-0500"
],
"DefaultContext_v29" : [
"2021-05-25T13:51:13.377-0500"
]
}
}