{
"ouid" : [
"b564b967795c443ba72d1cb0"
],
"version" : {
"0" : [
"b564b967795c443ba72d1cb0"
]
},
"configurations.name" : {
"notprovided" : [
"b564b967795c443ba72d1cb0"
],
"FTBFConfig_v0" : [
"b564b967795c443ba72d1cb0"
],
"FTBFConfig_v1" : [
"b564b967795c443ba72d1cb0"
],
"FTBFConfig_v2" : [
"b564b967795c443ba72d1cb0"
],
"FTBFConfig_v3" : [
"b564b967795c443ba72d1cb0"
],
"FTBFConfig_v4" : [
"b564b967795c443ba72d1cb0"
],
"FTBFConfig_v5" : [
"b564b967795c443ba72d1cb0"
],
"FTBFConfig_v6" : [
"b564b967795c443ba72d1cb0"
],
"FTBFConfig_v7" : [
"b564b967795c443ba72d1cb0"
],
"FTBFConfig_v8" : [
"b564b967795c443ba72d1cb0"
],
"FTBFConfig_v9" : [
"b564b967795c443ba72d1cb0"
],
"FTBFConfig_v10" : [
"b564b967795c443ba72d1cb0"
],
"FTBFConfig_v11" : [
"b564b967795c443ba72d1cb0"
],
"FTBFConfig_v12" : [
"b564b967795c443ba72d1cb0"
],
"FTBFConfig_v13" : [
"b564b967795c443ba72d1cb0"
],
"FTBFConfig_v14" : [
"b564b967795c443ba72d1cb0"
],
"FTBFConfig_v15" : [
"b564b967795c443ba72d1cb0"
],
"FTBFConfig_v16" : [
"b564b967795c443ba72d1cb0"
],
"FTBFConfig_v17" : [
"b564b967795c443ba72d1cb0"
],
"FTBFConfig_v18" : [
"b564b967795c443ba72d1cb0"
],
"FTBFConfig_v19" : [
"b564b967795c443ba72d1cb0"
],
"FTBFConfig_v20" : [
"b564b967795c443ba72d1cb0"
],
"FTBFConfig_v21" : [
"b564b967795c443ba72d1cb0"
],
"FTBFConfig_v22" : [
"b564b967795c443ba72d1cb0"
],
"FTBFConfig_v23" : [
"b564b967795c443ba72d1cb0"
],
"FTBFConfig_v24" : [
"b564b967795c443ba72d1cb0"
],
"FTBFConfig_v25" : [
"b564b967795c443ba72d1cb0"
],
"FTBFConfig_v26" : [
"b564b967795c443ba72d1cb0"
],
"FTBFConfig_v27" : [
"b564b967795c443ba72d1cb0"
],
"FTBFConfig_v28" : [
"b564b967795c443ba72d1cb0"
],
"FTBFConfig_v29" : [
"b564b967795c443ba72d1cb0"
],
"FTBFConfig_v30" : [
"b564b967795c443ba72d1cb0"
],
"FTBFConfig_v31" : [
"b564b967795c443ba72d1cb0"
],
"FTBFConfig_v32" : [
"b564b967795c443ba72d1cb0"
],
"FTBFConfig_v33" : [
"b564b967795c443ba72d1cb0"
],
"FTBFConfig_v34" : [
"b564b967795c443ba72d1cb0"
],
"FTBFConfig_v35" : [
"b564b967795c443ba72d1cb0"
],
"FTBFConfig_v36" : [
"b564b967795c443ba72d1cb0"
],
"FTBFConfig_v37" : [
"b564b967795c443ba72d1cb0"
],
"FTBFConfig_v38" : [
"b564b967795c443ba72d1cb0"
],
"FTBFConfig_v39" : [
"b564b967795c443ba72d1cb0"
],
"FTBFConfig_v40" : [
"b564b967795c443ba72d1cb0"
],
"FTBFConfig_v41" : [
"b564b967795c443ba72d1cb0"
],
"FTBFConfig_v42" : [
"b564b967795c443ba72d1cb0"
],
"FTBFConfig_v43" : [
"b564b967795c443ba72d1cb0"
],
"FTBFConfig_v44" : [
"b564b967795c443ba72d1cb0"
],
"FTBFConfig_v45" : [
"b564b967795c443ba72d1cb0"
],
"FTBFConfig_v46" : [
"b564b967795c443ba72d1cb0"
],
"FTBFConfig_v47" : [
"b564b967795c443ba72d1cb0"
],
"FTBFConfig_v48" : [
"b564b967795c443ba72d1cb0"
],
"FTBFConfig_v49" : [
"b564b967795c443ba72d1cb0"
],
"FTBFConfig_v51" : [
"b564b967795c443ba72d1cb0"
],
"FTBFConfig_v53" : [
"b564b967795c443ba72d1cb0"
],
"FTBFConfig_v54" : [
"b564b967795c443ba72d1cb0"
],
"FTBFConfig_v55" : [
"b564b967795c443ba72d1cb0"
],
"FTBFConfig_v56" : [
"b564b967795c443ba72d1cb0"
],
"FTBFConfig_v57" : [
"b564b967795c443ba72d1cb0"
],
"FTBFConfig_v58" : [
"b564b967795c443ba72d1cb0"
],
"FTBFConfig_v59" : [
"b564b967795c443ba72d1cb0"
],
"FTBFConfig_v60" : [
"b564b967795c443ba72d1cb0"
],
"FTBFConfig_v61" : [
"b564b967795c443ba72d1cb0"
],
"FTBFConfig_v62" : [
"b564b967795c443ba72d1cb0"
],
"FTBFConfig_v63" : [
"b564b967795c443ba72d1cb0"
],
"FTBFConfig_v64" : [
"b564b967795c443ba72d1cb0"
],
"FTBFConfig_v65" : [
"b564b967795c443ba72d1cb0"
],
"FTBFConfig_v66" : [
"b564b967795c443ba72d1cb0"
],
"FTBFConfig_v67" : [
"b564b967795c443ba72d1cb0"
],
"FTBFConfig_v68" : [
"b564b967795c443ba72d1cb0"
],
"FTBFConfig_v69" : [
"b564b967795c443ba72d1cb0"
],
"FTBFConfig_v70" : [
"b564b967795c443ba72d1cb0"
],
"FTBFConfigNim_v0" : [
"b564b967795c443ba72d1cb0"
],
"FTBFConfigNim_v1" : [
"b564b967795c443ba72d1cb0"
],
"FTBFConfigNim_v2" : [
"b564b967795c443ba72d1cb0"
],
"FTBFConfigNim_v3" : [
"b564b967795c443ba72d1cb0"
],
"FTBFConfigNim_v4" : [
"b564b967795c443ba72d1cb0"
],
"FTBFConfigNim_v5" : [
"b564b967795c443ba72d1cb0"
],
"FTBFConfigNim_v6" : [
"b564b967795c443ba72d1cb0"
],
"FTBFConfigNim_v7" : [
"b564b967795c443ba72d1cb0"
],
"FTBFConfigNim_v8" : [
"b564b967795c443ba72d1cb0"
],
"FTBFConfigNim_v9" : [
"b564b967795c443ba72d1cb0"
],
"FTBFConfigNim_v10" : [
"b564b967795c443ba72d1cb0"
],
"FTBFConfigNim_v11" : [
"b564b967795c443ba72d1cb0"
],
"FTBFConfigNim_v12" : [
"b564b967795c443ba72d1cb0"
],
"FTBFConfigNim_v13" : [
"b564b967795c443ba72d1cb0"
],
"FTBFConfigNim_v14" : [
"b564b967795c443ba72d1cb0"
],
"FTBFConfigNim_v15" : [
"b564b967795c443ba72d1cb0"
],
"FTBFConfigNim_v16" : [
"b564b967795c443ba72d1cb0"
],
"FTBFConfigNim_v17" : [
"b564b967795c443ba72d1cb0"
],
"FTBFConfigNim_v18" : [
"b564b967795c443ba72d1cb0"
],
"FTBFConfigNim_v19" : [
"b564b967795c443ba72d1cb0"
],
"FTBFConfigNim_v20" : [
"b564b967795c443ba72d1cb0"
],
"FTBFConfigNim_v21" : [
"b564b967795c443ba72d1cb0"
],
"FTBFConfigNim_v22" : [
"b564b967795c443ba72d1cb0"
],
"FTBFConfigNim_v23" : [
"b564b967795c443ba72d1cb0"
],
"FTBFConfigNim_v24" : [
"b564b967795c443ba72d1cb0"
],
"FTBFConfigNim_v25" : [
"b564b967795c443ba72d1cb0"
],
"FTBFConfigNim_v26" : [
"b564b967795c443ba72d1cb0"
],
"FTBFConfigNim_v27" : [
"b564b967795c443ba72d1cb0"
],
"FTBFConfigNim_v28" : [
"b564b967795c443ba72d1cb0"
],
"FTBFConfigNim_v29" : [
"b564b967795c443ba72d1cb0"
],
"FTBFConfig_v71" : [
"b564b967795c443ba72d1cb0"
],
"FTBFConfig_v72" : [
"b564b967795c443ba72d1cb0"
],
"FTBFConfig_v73" : [
"b564b967795c443ba72d1cb0"
],
"FTBFConfig_v74" : [
"b564b967795c443ba72d1cb0"
],
"FTBFConfig_v75" : [
"b564b967795c443ba72d1cb0"
],
"FTBFConfig_v76" : [
"b564b967795c443ba72d1cb0"
],
"FTBFConfig_v77" : [
"b564b967795c443ba72d1cb0"
],
"FTBFConfig_v78" : [
"b564b967795c443ba72d1cb0"
],
"FTBFConfig_v79" : [
"b564b967795c443ba72d1cb0"
],
"FTBFConfig_v80" : [
"b564b967795c443ba72d1cb0"
],
"FTBFConfig_v81" : [
"b564b967795c443ba72d1cb0"
],
"FTBFConfig_v82" : [
"b564b967795c443ba72d1cb0"
],
"FTBFConfig_v83" : [
"b564b967795c443ba72d1cb0"
],
"FTBFConfig_v84" : [
"b564b967795c443ba72d1cb0"
],
"FTBFConfig_v85" : [
"b564b967795c443ba72d1cb0"
],
"FTBFConfig_v86" : [
"b564b967795c443ba72d1cb0"
],
"FTBFConfig_v87" : [
"b564b967795c443ba72d1cb0"
],
"FTBFConfig_v88" : [
"b564b967795c443ba72d1cb0"
],
"FTBFConfig_v89" : [
"b564b967795c443ba72d1cb0"
],
"FTBFConfig_v90" : [
"b564b967795c443ba72d1cb0"
],
"FTBFConfig_v91" : [
"b564b967795c443ba72d1cb0"
],
"FTBFConfig_v92" : [
"b564b967795c443ba72d1cb0"
],
"FTBFConfig_v93" : [
"b564b967795c443ba72d1cb0"
],
"FTBFConfig_v94" : [
"b564b967795c443ba72d1cb0"
],
"FTBFConfig_v95" : [
"b564b967795c443ba72d1cb0"
],
"FTBFConfig_v96" : [
"b564b967795c443ba72d1cb0"
],
"FTBFConfig_v97" : [
"b564b967795c443ba72d1cb0"
],
"FTBFConfig_v98" : [
"b564b967795c443ba72d1cb0"
],
"FTBFConfig_v99" : [
"b564b967795c443ba72d1cb0"
],
"FTBFConfig_v100" : [
"b564b967795c443ba72d1cb0"
],
"FTBFConfig_v101" : [
"b564b967795c443ba72d1cb0"
],
"FTBFConfig_v102" : [
"b564b967795c443ba72d1cb0"
],
"FTBFConfig_v103" : [
"b564b967795c443ba72d1cb0"
],
"FTBFConfig_v104" : [
"b564b967795c443ba72d1cb0"
],
"FTBFConfig_v105" : [
"b564b967795c443ba72d1cb0"
],
"FTBFConfig_v106" : [
"b564b967795c443ba72d1cb0"
],
"FTBFConfig_v107" : [
"b564b967795c443ba72d1cb0"
],
"FTBFConfig_v108" : [
"b564b967795c443ba72d1cb0"
],
"FTBFConfig_v109" : [
"b564b967795c443ba72d1cb0"
],
"FTBFConfig_v110" : [
"b564b967795c443ba72d1cb0"
],
"FTBFConfig_v111" : [
"b564b967795c443ba72d1cb0"
],
"FTBFConfig_v112" : [
"b564b967795c443ba72d1cb0"
],
"FTBFConfig_v113" : [
"b564b967795c443ba72d1cb0"
],
"FTBFConfig_v114" : [
"b564b967795c443ba72d1cb0"
],
"FTBFConfig_v115" : [
"b564b967795c443ba72d1cb0"
],
"FTBFConfig_v116" : [
"b564b967795c443ba72d1cb0"
],
"FTBFConfig_v117" : [
"b564b967795c443ba72d1cb0"
],
"FTBFConfig_v118" : [
"b564b967795c443ba72d1cb0"
],
"FTBFConfig_v119" : [
"b564b967795c443ba72d1cb0"
],
"FTBFConfig_v120" : [
"b564b967795c443ba72d1cb0"
],
"FTBFConfig_v121" : [
"b564b967795c443ba72d1cb0"
],
"FTBFConfig_v122" : [
"b564b967795c443ba72d1cb0"
],
"FTBFConfig_v123" : [
"b564b967795c443ba72d1cb0"
],
"FTBFConfig_v124" : [
"b564b967795c443ba72d1cb0"
],
"FTBFConfig_v125" : [
"b564b967795c443ba72d1cb0"
],
"FTBFConfig_v126" : [
"b564b967795c443ba72d1cb0"
],
"FTBFConfig_v127" : [
"b564b967795c443ba72d1cb0"
],
"FTBFConfig_v128" : [
"b564b967795c443ba72d1cb0"
],
"FTBFConfig_v129" : [
"b564b967795c443ba72d1cb0"
],
"FTBFConfig_v130" : [
"b564b967795c443ba72d1cb0"
],
"FTBFConfig_v131" : [
"b564b967795c443ba72d1cb0"
],
"FTBFConfig_v132" : [
"b564b967795c443ba72d1cb0"
],
"FTBFConfig_v133" : [
"b564b967795c443ba72d1cb0"
],
"FTBFConfig_v134" : [
"b564b967795c443ba72d1cb0"
],
"FTBFConfig_v135" : [
"b564b967795c443ba72d1cb0"
],
"FTBFConfig_v136" : [
"b564b967795c443ba72d1cb0"
],
"FTBFConfig_v137" : [
"b564b967795c443ba72d1cb0"
],
"FTBFConfig_v138" : [
"b564b967795c443ba72d1cb0"
],
"FTBFConfig_v139" : [
"b564b967795c443ba72d1cb0"
],
"FTBFConfig_v140" : [
"b564b967795c443ba72d1cb0"
],
"FTBFConfig_v141" : [
"b564b967795c443ba72d1cb0"
],
"FTBFConfig_v142" : [
"b564b967795c443ba72d1cb0"
]
},
"entities.name" : {
"OTSROOT" : [
"b564b967795c443ba72d1cb0"
]
},
"aliases.active.name" : {

},
"runs.name" : {

},
"configurations.assigned" : {
"notprovided" : [
"2017-11-08T15:56:02.816-0600"
],
"FTBFConfig_v0" : [
"2017-11-08T15:56:05.465-0600"
],
"FTBFConfig_v1" : [
"2017-11-09T09:56:29.994-0600"
],
"FTBFConfig_v2" : [
"2017-11-09T10:05:58.953-0600"
],
"FTBFConfig_v3" : [
"2017-11-09T10:37:10.517-0600"
],
"FTBFConfig_v4" : [
"2017-11-15T11:30:09.281-0600"
],
"FTBFConfig_v5" : [
"2017-11-15T11:54:56.065-0600"
],
"FTBFConfig_v6" : [
"2017-11-15T11:57:48.690-0600"
],
"FTBFConfig_v7" : [
"2017-11-15T12:42:31.089-0600"
],
"FTBFConfig_v8" : [
"2017-11-15T13:01:02.068-0600"
],
"FTBFConfig_v9" : [
"2017-11-15T13:02:55.455-0600"
],
"FTBFConfig_v10" : [
"2017-11-15T13:04:23.043-0600"
],
"FTBFConfig_v11" : [
"2017-11-15T13:07:50.529-0600"
],
"FTBFConfig_v12" : [
"2017-11-15T13:11:57.950-0600"
],
"FTBFConfig_v13" : [
"2017-11-15T13:13:51.905-0600"
],
"FTBFConfig_v14" : [
"2017-11-15T13:27:26.046-0600"
],
"FTBFConfig_v15" : [
"2017-11-15T13:35:45.861-0600"
],
"FTBFConfig_v16" : [
"2017-11-15T13:36:50.494-0600"
],
"FTBFConfig_v17" : [
"2017-11-15T15:33:29.039-0600"
],
"FTBFConfig_v18" : [
"2017-11-15T15:35:32.646-0600"
],
"FTBFConfig_v19" : [
"2017-11-15T15:38:01.479-0600"
],
"FTBFConfig_v20" : [
"2017-11-15T16:26:29.175-0600"
],
"FTBFConfig_v21" : [
"2017-11-16T09:22:30.277-0600"
],
"FTBFConfig_v22" : [
"2017-11-17T10:23:26.474-0600"
],
"FTBFConfig_v23" : [
"2017-11-17T17:26:43.992-0600"
],
"FTBFConfig_v24" : [
"2017-11-17T17:58:24.456-0600"
],
"FTBFConfig_v25" : [
"2017-11-17T18:24:44.138-0600"
],
"FTBFConfig_v26" : [
"2017-11-17T18:32:21.169-0600"
],
"FTBFConfig_v27" : [
"2017-11-17T18:43:28.310-0600"
],
"FTBFConfig_v28" : [
"2017-11-17T18:48:30.276-0600"
],
"FTBFConfig_v29" : [
"2017-11-20T14:48:29.437-0600"
],
"FTBFConfig_v30" : [
"2017-11-20T15:39:54.622-0600"
],
"FTBFConfig_v31" : [
"2017-11-20T16:41:00.599-0600"
],
"FTBFConfig_v32" : [
"2017-11-20T18:55:33.432-0600"
],
"FTBFConfig_v33" : [
"2017-11-20T18:57:28.718-0600"
],
"FTBFConfig_v34" : [
"2017-11-29T17:50:38.210-0600"
],
"FTBFConfig_v35" : [
"2017-11-29T18:00:31.066-0600"
],
"FTBFConfig_v36" : [
"2017-11-29T18:35:09.914-0600"
],
"FTBFConfig_v37" : [
"2017-12-01T09:36:16.131-0600"
],
"FTBFConfig_v38" : [
"2017-12-01T09:51:59.511-0600"
],
"FTBFConfig_v39" : [
"2017-12-01T11:51:56.725-0600"
],
"FTBFConfig_v40" : [
"2017-12-01T12:18:18.711-0600"
],
"FTBFConfig_v41" : [
"2017-12-01T12:21:00.853-0600"
],
"FTBFConfig_v42" : [
"2017-12-01T12:43:19.988-0600"
],
"FTBFConfig_v43" : [
"2017-12-01T12:57:57.224-0600"
],
"FTBFConfig_v44" : [
"2017-12-01T13:00:50.107-0600"
],
"FTBFConfig_v45" : [
"2017-12-01T13:25:46.965-0600"
],
"FTBFConfig_v46" : [
"2017-12-01T13:35:41.830-0600"
],
"FTBFConfig_v47" : [
"2017-12-01T14:00:50.125-0600"
],
"FTBFConfig_v48" : [
"2017-12-01T14:03:57.383-0600"
],
"FTBFConfig_v49" : [
"2017-12-01T15:31:57.590-0600"
],
"FTBFConfig_v51" : [
"2017-12-01T15:37:24.036-0600"
],
"FTBFConfig_v53" : [
"2017-12-01T15:40:57.113-0600"
],
"FTBFConfig_v54" : [
"2017-12-01T15:52:47.417-0600"
],
"FTBFConfig_v55" : [
"2017-12-01T15:54:32.555-0600"
],
"FTBFConfig_v56" : [
"2017-12-01T15:55:32.085-0600"
],
"FTBFConfig_v57" : [
"2017-12-01T15:56:37.876-0600"
],
"FTBFConfig_v58" : [
"2017-12-01T15:57:35.958-0600"
],
"FTBFConfig_v59" : [
"2017-12-01T15:58:27.859-0600"
],
"FTBFConfig_v60" : [
"2017-12-01T15:59:29.045-0600"
],
"FTBFConfig_v61" : [
"2017-12-01T16:19:38.782-0600"
],
"FTBFConfig_v62" : [
"2017-12-01T16:22:01.332-0600"
],
"FTBFConfig_v63" : [
"2017-12-01T16:31:21.946-0600"
],
"FTBFConfig_v64" : [
"2017-12-01T17:06:28.873-0600"
],
"FTBFConfig_v65" : [
"2017-12-01T17:32:41.209-0600"
],
"FTBFConfig_v66" : [
"2017-12-01T20:38:47.569-0600"
],
"FTBFConfig_v67" : [
"2017-12-01T21:24:59.044-0600"
],
"FTBFConfig_v68" : [
"2017-12-01T21:42:58.696-0600"
],
"FTBFConfig_v69" : [
"2017-12-01T21:44:57.342-0600"
],
"FTBFConfig_v70" : [
"2017-12-01T21:59:16.550-0600"
],
"FTBFConfigNim_v0" : [
"2017-12-01T22:00:03.269-0600"
],
"FTBFConfigNim_v1" : [
"2017-12-01T22:13:04.991-0600"
],
"FTBFConfigNim_v2" : [
"2017-12-01T22:15:52.209-0600"
],
"FTBFConfigNim_v3" : [
"2017-12-01T22:17:00.353-0600"
],
"FTBFConfigNim_v4" : [
"2017-12-01T22:19:03.302-0600"
],
"FTBFConfigNim_v5" : [
"2017-12-01T22:21:54.007-0600"
],
"FTBFConfigNim_v6" : [
"2017-12-01T22:23:10.159-0600"
],
"FTBFConfigNim_v7" : [
"2017-12-01T22:25:13.943-0600"
],
"FTBFConfigNim_v8" : [
"2017-12-01T22:27:01.505-0600"
],
"FTBFConfigNim_v9" : [
"2017-12-01T22:29:25.755-0600"
],
"FTBFConfigNim_v10" : [
"2017-12-01T22:52:30.874-0600"
],
"FTBFConfigNim_v11" : [
"2017-12-01T22:57:25.649-0600"
],
"FTBFConfigNim_v12" : [
"2017-12-01T23:00:03.922-0600"
],
"FTBFConfigNim_v13" : [
"2017-12-01T23:52:32.034-0600"
],
"FTBFConfigNim_v14" : [
"2017-12-01T23:58:06.420-0600"
],
"FTBFConfigNim_v15" : [
"2017-12-02T00:00:30.698-0600"
],
"FTBFConfigNim_v16" : [
"2017-12-02T00:13:05.834-0600"
],
"FTBFConfigNim_v17" : [
"2017-12-02T00:28:24.793-0600"
],
"FTBFConfigNim_v18" : [
"2017-12-02T00:29:30.836-0600"
],
"FTBFConfigNim_v19" : [
"2017-12-02T00:31:07.657-0600"
],
"FTBFConfigNim_v20" : [
"2017-12-02T00:57:23.814-0600"
],
"FTBFConfigNim_v21" : [
"2017-12-02T10:57:58.366-0600"
],
"FTBFConfigNim_v22" : [
"2017-12-02T11:08:14.541-0600"
],
"FTBFConfigNim_v23" : [
"2017-12-02T11:12:36.103-0600"
],
"FTBFConfigNim_v24" : [
"2017-12-02T11:18:38.914-0600"
],
"FTBFConfigNim_v25" : [
"2017-12-02T11:27:02.155-0600"
],
"FTBFConfigNim_v26" : [
"2017-12-02T11:38:33.196-0600"
],
"FTBFConfigNim_v27" : [
"2017-12-02T11:49:04.329-0600"
],
"FTBFConfigNim_v28" : [
"2017-12-02T11:55:05.790-0600"
],
"FTBFConfigNim_v29" : [
"2017-12-02T12:06:22.610-0600"
],
"FTBFConfig_v71" : [
"2017-12-02T12:24:11.251-0600"
],
"FTBFConfig_v72" : [
"2017-12-02T12:43:32.062-0600"
],
"FTBFConfig_v73" : [
"2017-12-02T13:55:31.660-0600"
],
"FTBFConfig_v74" : [
"2017-12-02T14:09:03.954-0600"
],
"FTBFConfig_v75" : [
"2017-12-02T14:12:14.795-0600"
],
"FTBFConfig_v76" : [
"2017-12-02T19:05:49.888-0600"
],
"FTBFConfig_v77" : [
"2017-12-02T19:12:09.704-0600"
],
"FTBFConfig_v78" : [
"2017-12-03T14:03:44.886-0600"
],
"FTBFConfig_v79" : [
"2017-12-03T14:09:03.077-0600"
],
"FTBFConfig_v80" : [
"2017-12-03T14:11:06.843-0600"
],
"FTBFConfig_v81" : [
"2017-12-03T14:22:29.862-0600"
],
"FTBFConfig_v82" : [
"2017-12-03T14:40:34.641-0600"
],
"FTBFConfig_v83" : [
"2017-12-03T14:45:01.984-0600"
],
"FTBFConfig_v84" : [
"2017-12-04T14:51:27.368-0600"
],
"FTBFConfig_v85" : [
"2017-12-04T14:55:40.538-0600"
],
"FTBFConfig_v86" : [
"2017-12-04T16:51:03.504-0600"
],
"FTBFConfig_v87" : [
"2017-12-04T16:56:44.118-0600"
],
"FTBFConfig_v88" : [
"2017-12-04T17:01:08.828-0600"
],
"FTBFConfig_v89" : [
"2017-12-04T17:03:53.921-0600"
],
"FTBFConfig_v90" : [
"2017-12-04T17:07:13.547-0600"
],
"FTBFConfig_v91" : [
"2017-12-04T17:09:22.660-0600"
],
"FTBFConfig_v92" : [
"2017-12-04T17:11:35.142-0600"
],
"FTBFConfig_v93" : [
"2017-12-04T21:05:17.764-0600"
],
"FTBFConfig_v94" : [
"2017-12-04T21:17:08.596-0600"
],
"FTBFConfig_v95" : [
"2017-12-04T21:41:14.318-0600"
],
"FTBFConfig_v96" : [
"2017-12-04T22:38:58.932-0600"
],
"FTBFConfig_v97" : [
"2017-12-04T23:01:09.443-0600"
],
"FTBFConfig_v98" : [
"2017-12-07T11:07:43.457-0600"
],
"FTBFConfig_v99" : [
"2017-12-07T11:49:56.138-0600"
],
"FTBFConfig_v100" : [
"2017-12-07T11:58:22.857-0600"
],
"FTBFConfig_v101" : [
"2017-12-08T13:30:44.944-0600"
],
"FTBFConfig_v102" : [
"2017-12-08T13:32:31.839-0600"
],
"FTBFConfig_v103" : [
"2017-12-12T11:03:01.617-0600"
],
"FTBFConfig_v104" : [
"2017-12-12T13:50:55.925-0600"
],
"FTBFConfig_v105" : [
"2017-12-12T15:25:01.943-0600"
],
"FTBFConfig_v106" : [
"2017-12-13T10:24:20.372-0600"
],
"FTBFConfig_v107" : [
"2017-12-13T10:26:59.121-0600"
],
"FTBFConfig_v108" : [
"2018-02-01T21:14:22.486-0600"
],
"FTBFConfig_v109" : [
"2018-02-01T21:20:59.595-0600"
],
"FTBFConfig_v110" : [
"2018-02-02T11:25:30.536-0600"
],
"FTBFConfig_v111" : [
"2018-02-02T11:37:09.367-0600"
],
"FTBFConfig_v112" : [
"2018-02-02T11:47:11.831-0600"
],
"FTBFConfig_v113" : [
"2018-02-02T11:53:33.073-0600"
],
"FTBFConfig_v114" : [
"2018-02-02T12:00:49.135-0600"
],
"FTBFConfig_v115" : [
"2018-02-02T12:27:10.627-0600"
],
"FTBFConfig_v116" : [
"2018-02-02T14:28:50.164-0600"
],
"FTBFConfig_v117" : [
"2018-02-02T14:30:16.472-0600"
],
"FTBFConfig_v118" : [
"2018-02-02T14:33:57.677-0600"
],
"FTBFConfig_v119" : [
"2018-02-02T14:36:24.290-0600"
],
"FTBFConfig_v120" : [
"2018-02-02T14:38:37.649-0600"
],
"FTBFConfig_v121" : [
"2018-02-02T14:41:46.964-0600"
],
"FTBFConfig_v122" : [
"2018-02-02T14:50:21.024-0600"
],
"FTBFConfig_v123" : [
"2018-02-02T14:52:53.827-0600"
],
"FTBFConfig_v124" : [
"2018-02-02T14:59:47.151-0600"
],
"FTBFConfig_v125" : [
"2018-02-02T15:04:05.251-0600"
],
"FTBFConfig_v126" : [
"2018-02-02T15:50:08.445-0600"
],
"FTBFConfig_v127" : [
"2018-02-02T15:51:27.924-0600"
],
"FTBFConfig_v128" : [
"2018-02-02T15:52:33.094-0600"
],
"FTBFConfig_v129" : [
"2018-02-02T16:02:41.969-0600"
],
"FTBFConfig_v130" : [
"2018-02-02T16:08:41.492-0600"
],
"FTBFConfig_v131" : [
"2018-02-02T16:11:27.298-0600"
],
"FTBFConfig_v132" : [
"2018-02-02T16:12:55.134-0600"
],
"FTBFConfig_v133" : [
"2018-02-02T16:14:25.699-0600"
],
"FTBFConfig_v134" : [
"2018-02-02T16:26:18.621-0600"
],
"FTBFConfig_v135" : [
"2018-02-02T16:27:05.735-0600"
],
"FTBFConfig_v136" : [
"2018-02-02T16:29:27.086-0600"
],
"FTBFConfig_v137" : [
"2018-02-02T16:31:37.557-0600"
],
"FTBFConfig_v138" : [
"2018-02-02T16:34:10.291-0600"
],
"FTBFConfig_v139" : [
"2018-02-02T17:39:26.335-0600"
],
"FTBFConfig_v140" : [
"2018-02-02T17:42:48.495-0600"
],
"FTBFConfig_v141" : [
"2018-02-02T17:47:33.672-0600"
],
"FTBFConfig_v142" : [
"2018-02-02T17:53:57.664-0600"
]
}
}