{
"ouid" : [
"204fb63e8a8d4b408d2e5040"
],
"version" : {
"1" : [
"204fb63e8a8d4b408d2e5040"
]
},
"configurations.name" : {
"notprovided" : [
"204fb63e8a8d4b408d2e5040"
],
"DefaultConfig_v1" : [
"204fb63e8a8d4b408d2e5040"
],
"DefaultConfig_v2" : [
"204fb63e8a8d4b408d2e5040"
],
"DefaultConfig_v3" : [
"204fb63e8a8d4b408d2e5040"
],
"DefaultConfig_v4" : [
"204fb63e8a8d4b408d2e5040"
]
},
"entities.name" : {
"OTSROOT" : [
"204fb63e8a8d4b408d2e5040"
]
},
"aliases.active.name" : {

},
"runs.name" : {

},
"configurations.assigned" : {
"notprovided" : [
"2020-07-21T14:27:46.452-0500"
],
"DefaultConfig_v1" : [
"2020-07-21T14:27:46.953-0500"
],
"DefaultConfig_v2" : [
"2020-07-21T14:44:16.650-0500"
],
"DefaultConfig_v3" : [
"2020-07-21T14:57:50.524-0500"
],
"DefaultConfig_v4" : [
"2020-07-28T10:52:34.413-0500"
]
}
}