{
"document" : {
"data" : {
"NAME" : "DQM_HISTO_MAKER_CONSUMER_TABLE",
"COMMENT" : "No comment.",
"AUTHOR" : "admin",
"CREATION_TIME" : 1620853808,
"COL_TYPES" : {
"PROCESSOR_UID" : "STRING",
"FILE_PATH" : "STRING",
"RADIX_FILE_NAME" : "STRING",
"SAVE_FILE" : "STRING",
"COMMENT_DESCRIPTION" : "STRING",
"AUTHOR" : "STRING",
"RECORD_INSERTION_TIME" : "TIMESTAMP WITH TIMEZONE"
},
"DATA_SET" : [
{
"PROCESSOR_UID" : "VisualDataBufferHistoMakerHistosPS0",
"FILE_PATH" : "${OTSDAQ_DATA}/OtsHistos",
"RADIX_FILE_NAME" : "HistoMaker",
"SAVE_FILE" : "Yes",
"COMMENT_DESCRIPTION" : "No Comment",
"AUTHOR" : "admin",
"RECORD_INSERTION_TIME" : "1620853808"
},
{
"PROCESSOR_UID" : "VisualDataBufferHistoMakerHistos2S0",
"FILE_PATH" : "${OTSDAQ_DATA}/OtsHistos",
"RADIX_FILE_NAME" : "HistoMaker",
"SAVE_FILE" : "Yes",
"COMMENT_DESCRIPTION" : "No Comment",
"AUTHOR" : "admin",
"RECORD_INSERTION_TIME" : "1620853808"
}
]
},
"metadata" : {

},
"search" : [

]
},
"comments" : [

],
"origin" : {
"source" : "template",
"name" : "notprovided",
"format" : "json",
"created" : "2021-05-12T16:10:08.009-0500",
"rawdata" : [

]
},
"version" : "2",
"entities" : [
{
"name" : "OTSROOT",
"assigned" : "2021-05-12T16:10:08.009-0500"
}
],
"configurations" : [
{
"name" : "notprovided",
"assigned" : "2021-05-12T16:10:08.009-0500"
},
{
"name" : "DefaultConfig_v35",
"assigned" : "2021-05-12T16:11:00.942-0500"
},
{
"name" : "DefaultConfig_v36",
"assigned" : "2021-05-14T15:34:24.331-0500"
},
{
"name" : "DefaultConfig_v37",
"assigned" : "2021-05-14T16:41:00.961-0500"
}
],
"changelog" : "notprovided",
"bookkeeping" : {
"isdeleted" : false,
"isreadonly" : false,
"updates" : [
{
"event" : "addConfiguration",
"timestamp" : "2021-05-12T16:10:08.009-0500",
"value" : {
"name" : "notprovided",
"assigned" : "2021-05-12T16:10:08.009-0500"
}
},
{
"event" : "setVersion",
"timestamp" : "2021-05-12T16:10:08.009-0500",
"value" : {
"name" : "2",
"assigned" : "2021-05-12T16:10:08.009-0500"
}
},
{
"event" : "setCollection",
"timestamp" : "2021-05-12T16:10:08.009-0500",
"value" : {
"name" : "DQMHistoMakerConsumerTable",
"assigned" : "2021-05-12T16:10:08.009-0500"
}
},
{
"event" : "addEntity",
"timestamp" : "2021-05-12T16:10:08.009-0500",
"value" : {
"name" : "OTSROOT",
"assigned" : "2021-05-12T16:10:08.009-0500"
}
},
{
"event" : "addConfiguration",
"timestamp" : "2021-05-12T16:11:00.942-0500",
"value" : {
"name" : "DefaultConfig_v35",
"assigned" : "2021-05-12T16:11:00.942-0500"
}
},
{
"event" : "addConfiguration",
"timestamp" : "2021-05-14T15:34:24.331-0500",
"value" : {
"name" : "DefaultConfig_v36",
"assigned" : "2021-05-14T15:34:24.331-0500"
}
},
{
"event" : "addConfiguration",
"timestamp" : "2021-05-14T16:41:00.961-0500",
"value" : {
"name" : "DefaultConfig_v37",
"assigned" : "2021-05-14T16:41:00.961-0500"
}
}
],
"created" : "2021-05-12T16:10:08.009-0500"
},
"_id" : {
"$oid" : "7cf4e79be7004aba9ffca989"
},
"collection" : "DQMHistoMakerConsumerTable",
"aliases" : {
"active" : [

],
"history" : [

]
},
"runs" : [

],
"attachments" : [

],
"configtype" : "notprovided"
}