{
"document" : {
"data" : {
"NAME" : "DQM_HISTO_MAKER_CONSUMER_TABLE",
"COMMENT" : "No comment.",
"AUTHOR" : "admin",
"CREATION_TIME" : 1574284924,
"COL_TYPES" : {
"PROCESSOR_UID" : "STRING",
"FILE_PATH" : "STRING",
"RADIX_FILE_NAME" : "STRING",
"SAVE_FILE" : "STRING",
"COMMENT_DESCRIPTION" : "STRING",
"AUTHOR" : "STRING",
"RECORD_INSERTION_TIME" : "TIMESTAMP WITH TIMEZONE"
},
"DATA_SET" : [
{
"PROCESSOR_UID" : "VisualDataBufferHistoMakerHistos",
"FILE_PATH" : "${OTSDAQ_DATA}/OtsHistos",
"RADIX_FILE_NAME" : "HistoMaker",
"SAVE_FILE" : "Yes",
"COMMENT_DESCRIPTION" : "No Comment",
"AUTHOR" : "admin",
"RECORD_INSERTION_TIME" : "1574284924"
}
]
},
"metadata" : {

},
"search" : [

]
},
"comments" : [

],
"origin" : {
"source" : "template",
"name" : "notprovided",
"format" : "json",
"created" : "2019-11-20T15:22:04.488-0600",
"rawdata" : [

]
},
"version" : "1",
"entities" : [
{
"name" : "OTSROOT",
"assigned" : "2019-11-20T15:22:04.489-0600"
}
],
"configurations" : [
{
"name" : "notprovided",
"assigned" : "2019-11-20T15:22:04.489-0600"
},
{
"name" : "DefaultConfig_v10",
"assigned" : "2019-11-20T15:25:38.286-0600"
},
{
"name" : "DefaultConfig_v11",
"assigned" : "2019-11-20T15:28:12.296-0600"
},
{
"name" : "DefaultConfig_v12",
"assigned" : "2019-11-20T15:58:29.560-0600"
},
{
"name" : "DefaultConfig_v13",
"assigned" : "2019-11-20T16:23:03.301-0600"
},
{
"name" : "DefaultConfig_v14",
"assigned" : "2019-11-20T16:24:45.432-0600"
},
{
"name" : "DefaultConfig_v15",
"assigned" : "2019-11-20T16:27:46.241-0600"
},
{
"name" : "DefaultConfig_v16",
"assigned" : "2019-11-20T16:42:10.773-0600"
},
{
"name" : "DefaultConfig_v17",
"assigned" : "2019-12-09T19:33:37.378-0600"
},
{
"name" : "DefaultConfig_v18",
"assigned" : "2019-12-10T14:21:49.331-0600"
},
{
"name" : "DefaultConfig_v19",
"assigned" : "2021-04-29T11:28:51.571-0500"
},
{
"name" : "DefaultConfig_v20",
"assigned" : "2021-04-29T11:36:29.580-0500"
},
{
"name" : "DefaultConfig_v21",
"assigned" : "2021-04-29T11:56:49.931-0500"
},
{
"name" : "DefaultConfig_v22",
"assigned" : "2021-04-29T12:03:11.597-0500"
},
{
"name" : "DefaultConfig_v23",
"assigned" : "2021-04-29T12:06:21.422-0500"
},
{
"name" : "DefaultConfig_v24",
"assigned" : "2021-04-29T13:06:39.051-0500"
},
{
"name" : "DefaultConfig_v25",
"assigned" : "2021-04-30T09:33:56.887-0500"
},
{
"name" : "DefaultConfig_v26",
"assigned" : "2021-04-30T09:34:32.444-0500"
},
{
"name" : "DefaultConfig_v27",
"assigned" : "2021-04-30T09:36:19.188-0500"
},
{
"name" : "DefaultConfig_v28",
"assigned" : "2021-04-30T11:59:05.764-0500"
},
{
"name" : "DefaultConfig_v29",
"assigned" : "2021-04-30T12:10:52.326-0500"
},
{
"name" : "DefaultConfig_v30",
"assigned" : "2021-04-30T12:11:38.587-0500"
},
{
"name" : "DefaultConfig_v31",
"assigned" : "2021-05-06T17:42:15.136-0500"
},
{
"name" : "DefaultConfig_v32",
"assigned" : "2021-05-10T10:42:46.904-0500"
},
{
"name" : "DefaultConfig_v33",
"assigned" : "2021-05-10T11:08:52.672-0500"
},
{
"name" : "DefaultConfig_v34",
"assigned" : "2021-05-12T15:51:22.757-0500"
}
],
"changelog" : "notprovided",
"bookkeeping" : {
"isdeleted" : false,
"isreadonly" : false,
"updates" : [
{
"event" : "addConfiguration",
"timestamp" : "2019-11-20T15:22:04.489-0600",
"value" : {
"name" : "notprovided",
"assigned" : "2019-11-20T15:22:04.489-0600"
}
},
{
"event" : "setVersion",
"timestamp" : "2019-11-20T15:22:04.489-0600",
"value" : {
"name" : "1",
"assigned" : "2019-11-20T15:22:04.489-0600"
}
},
{
"event" : "setCollection",
"timestamp" : "2019-11-20T15:22:04.489-0600",
"value" : {
"name" : "DQMHistoMakerConsumerTable",
"assigned" : "2019-11-20T15:22:04.489-0600"
}
},
{
"event" : "addEntity",
"timestamp" : "2019-11-20T15:22:04.489-0600",
"value" : {
"name" : "OTSROOT",
"assigned" : "2019-11-20T15:22:04.489-0600"
}
},
{
"event" : "addConfiguration",
"timestamp" : "2019-11-20T15:25:38.286-0600",
"value" : {
"name" : "DefaultConfig_v10",
"assigned" : "2019-11-20T15:25:38.286-0600"
}
},
{
"event" : "addConfiguration",
"timestamp" : "2019-11-20T15:28:12.296-0600",
"value" : {
"name" : "DefaultConfig_v11",
"assigned" : "2019-11-20T15:28:12.296-0600"
}
},
{
"event" : "addConfiguration",
"timestamp" : "2019-11-20T15:58:29.560-0600",
"value" : {
"name" : "DefaultConfig_v12",
"assigned" : "2019-11-20T15:58:29.560-0600"
}
},
{
"event" : "addConfiguration",
"timestamp" : "2019-11-20T16:23:03.301-0600",
"value" : {
"name" : "DefaultConfig_v13",
"assigned" : "2019-11-20T16:23:03.301-0600"
}
},
{
"event" : "addConfiguration",
"timestamp" : "2019-11-20T16:24:45.432-0600",
"value" : {
"name" : "DefaultConfig_v14",
"assigned" : "2019-11-20T16:24:45.432-0600"
}
},
{
"event" : "addConfiguration",
"timestamp" : "2019-11-20T16:27:46.241-0600",
"value" : {
"name" : "DefaultConfig_v15",
"assigned" : "2019-11-20T16:27:46.241-0600"
}
},
{
"event" : "addConfiguration",
"timestamp" : "2019-11-20T16:42:10.773-0600",
"value" : {
"name" : "DefaultConfig_v16",
"assigned" : "2019-11-20T16:42:10.773-0600"
}
},
{
"event" : "addConfiguration",
"timestamp" : "2019-12-09T19:33:37.378-0600",
"value" : {
"name" : "DefaultConfig_v17",
"assigned" : "2019-12-09T19:33:37.378-0600"
}
},
{
"event" : "addConfiguration",
"timestamp" : "2019-12-10T14:21:49.331-0600",
"value" : {
"name" : "DefaultConfig_v18",
"assigned" : "2019-12-10T14:21:49.331-0600"
}
},
{
"event" : "addConfiguration",
"timestamp" : "2021-04-29T11:28:51.571-0500",
"value" : {
"name" : "DefaultConfig_v19",
"assigned" : "2021-04-29T11:28:51.571-0500"
}
},
{
"event" : "addConfiguration",
"timestamp" : "2021-04-29T11:36:29.580-0500",
"value" : {
"name" : "DefaultConfig_v20",
"assigned" : "2021-04-29T11:36:29.580-0500"
}
},
{
"event" : "addConfiguration",
"timestamp" : "2021-04-29T11:56:49.931-0500",
"value" : {
"name" : "DefaultConfig_v21",
"assigned" : "2021-04-29T11:56:49.931-0500"
}
},
{
"event" : "addConfiguration",
"timestamp" : "2021-04-29T12:03:11.597-0500",
"value" : {
"name" : "DefaultConfig_v22",
"assigned" : "2021-04-29T12:03:11.597-0500"
}
},
{
"event" : "addConfiguration",
"timestamp" : "2021-04-29T12:06:21.422-0500",
"value" : {
"name" : "DefaultConfig_v23",
"assigned" : "2021-04-29T12:06:21.422-0500"
}
},
{
"event" : "addConfiguration",
"timestamp" : "2021-04-29T13:06:39.051-0500",
"value" : {
"name" : "DefaultConfig_v24",
"assigned" : "2021-04-29T13:06:39.051-0500"
}
},
{
"event" : "addConfiguration",
"timestamp" : "2021-04-30T09:33:56.887-0500",
"value" : {
"name" : "DefaultConfig_v25",
"assigned" : "2021-04-30T09:33:56.887-0500"
}
},
{
"event" : "addConfiguration",
"timestamp" : "2021-04-30T09:34:32.444-0500",
"value" : {
"name" : "DefaultConfig_v26",
"assigned" : "2021-04-30T09:34:32.444-0500"
}
},
{
"event" : "addConfiguration",
"timestamp" : "2021-04-30T09:36:19.188-0500",
"value" : {
"name" : "DefaultConfig_v27",
"assigned" : "2021-04-30T09:36:19.188-0500"
}
},
{
"event" : "addConfiguration",
"timestamp" : "2021-04-30T11:59:05.764-0500",
"value" : {
"name" : "DefaultConfig_v28",
"assigned" : "2021-04-30T11:59:05.764-0500"
}
},
{
"event" : "addConfiguration",
"timestamp" : "2021-04-30T12:10:52.326-0500",
"value" : {
"name" : "DefaultConfig_v29",
"assigned" : "2021-04-30T12:10:52.326-0500"
}
},
{
"event" : "addConfiguration",
"timestamp" : "2021-04-30T12:11:38.587-0500",
"value" : {
"name" : "DefaultConfig_v30",
"assigned" : "2021-04-30T12:11:38.587-0500"
}
},
{
"event" : "addConfiguration",
"timestamp" : "2021-05-06T17:42:15.136-0500",
"value" : {
"name" : "DefaultConfig_v31",
"assigned" : "2021-05-06T17:42:15.136-0500"
}
},
{
"event" : "addConfiguration",
"timestamp" : "2021-05-10T10:42:46.904-0500",
"value" : {
"name" : "DefaultConfig_v32",
"assigned" : "2021-05-10T10:42:46.904-0500"
}
},
{
"event" : "addConfiguration",
"timestamp" : "2021-05-10T11:08:52.672-0500",
"value" : {
"name" : "DefaultConfig_v33",
"assigned" : "2021-05-10T11:08:52.672-0500"
}
},
{
"event" : "addConfiguration",
"timestamp" : "2021-05-12T15:51:22.757-0500",
"value" : {
"name" : "DefaultConfig_v34",
"assigned" : "2021-05-12T15:51:22.757-0500"
}
}
],
"created" : "2019-11-20T15:22:04.488-0600"
},
"_id" : {
"$oid" : "8f0c7bed19b44fa0be375c73"
},
"collection" : "DQMHistoMakerConsumerTable",
"aliases" : {
"active" : [

],
"history" : [

]
},
"runs" : [

],
"attachments" : [

],
"configtype" : "notprovided"
}