{
"document" : {
"data" : {
"NAME" : "XDAQ_CONTEXT_TABLE",
"COMMENT" : "Default simplest Outer Tracker table",
"AUTHOR" : "admin",
"CREATION_TIME" : 1597949207,
"COL_TYPES" : {
"CONTEXT_UID" : "STRING",
"STATUS" : "STRING",
"ID" : "NUMBER",
"ADDRESS" : "STRING",
"PORT" : "NUMBER",
"LINK_TO_APPLICATION_TABLE" : "STRING",
"LINK_TO_APPLICATION_GROUP_ID" : "STRING",
"COMMENT_DESCRIPTION" : "STRING",
"AUTHOR" : "STRING",
"RECORD_INSERTION_TIME" : "TIMESTAMP WITH TIMEZONE"
},
"DATA_SET" : [
{
"CONTEXT_UID" : "MainContext",
"STATUS" : "On",
"ID" : "0",
"ADDRESS" : "http://${HOSTNAME}",
"PORT" : "2030",
"LINK_TO_APPLICATION_TABLE" : "XDAQApplicationTable",
"LINK_TO_APPLICATION_GROUP_ID" : "MainContextApps",
"COMMENT_DESCRIPTION" : "main context",
"AUTHOR" : "admin",
"RECORD_INSERTION_TIME" : "1597949184"
},
{
"CONTEXT_UID" : "OuterTrackerContext",
"STATUS" : "Off",
"ID" : "0",
"ADDRESS" : "http://${HOSTNAME}",
"PORT" : "2031",
"LINK_TO_APPLICATION_TABLE" : "XDAQApplicationTable",
"LINK_TO_APPLICATION_GROUP_ID" : "OuterTrackerContextApp",
"COMMENT_DESCRIPTION" : "No Comment",
"AUTHOR" : "admin",
"RECORD_INSERTION_TIME" : "1597949197"
},
{
"CONTEXT_UID" : "TestContext",
"STATUS" : "On",
"ID" : "0",
"ADDRESS" : "http://${HOSTNAME}",
"PORT" : "2032",
"LINK_TO_APPLICATION_TABLE" : "XDAQApplicationTable",
"LINK_TO_APPLICATION_GROUP_ID" : "TestContextApps",
"COMMENT_DESCRIPTION" : "No Comment",
"AUTHOR" : "admin",
"RECORD_INSERTION_TIME" : "1597949201"
}
]
},
"metadata" : {

},
"search" : [

]
},
"comments" : [

],
"origin" : {
"source" : "template",
"name" : "notprovided",
"format" : "json",
"created" : "2020-08-20T13:46:47.907-0500",
"rawdata" : [

]
},
"version" : "4",
"entities" : [
{
"name" : "OTSROOT",
"assigned" : "2020-08-20T13:46:47.908-0500"
}
],
"configurations" : [
{
"name" : "notprovided",
"assigned" : "2020-08-20T13:46:47.907-0500"
},
{
"name" : "DefaultContext_v9",
"assigned" : "2020-08-20T13:46:48.835-0500"
},
{
"name" : "DefaultContext_v10",
"assigned" : "2020-08-20T13:52:00.989-0500"
},
{
"name" : "DefaultContext_v11",
"assigned" : "2020-08-20T14:43:55.278-0500"
}
],
"changelog" : "notprovided",
"bookkeeping" : {
"isdeleted" : false,
"isreadonly" : false,
"updates" : [
{
"event" : "addConfiguration",
"timestamp" : "2020-08-20T13:46:47.907-0500",
"value" : {
"name" : "notprovided",
"assigned" : "2020-08-20T13:46:47.907-0500"
}
},
{
"event" : "setVersion",
"timestamp" : "2020-08-20T13:46:47.908-0500",
"value" : {
"name" : "4",
"assigned" : "2020-08-20T13:46:47.908-0500"
}
},
{
"event" : "setCollection",
"timestamp" : "2020-08-20T13:46:47.908-0500",
"value" : {
"name" : "XDAQContextTable",
"assigned" : "2020-08-20T13:46:47.908-0500"
}
},
{
"event" : "addEntity",
"timestamp" : "2020-08-20T13:46:47.908-0500",
"value" : {
"name" : "OTSROOT",
"assigned" : "2020-08-20T13:46:47.908-0500"
}
},
{
"event" : "addConfiguration",
"timestamp" : "2020-08-20T13:46:48.835-0500",
"value" : {
"name" : "DefaultContext_v9",
"assigned" : "2020-08-20T13:46:48.835-0500"
}
},
{
"event" : "addConfiguration",
"timestamp" : "2020-08-20T13:52:00.989-0500",
"value" : {
"name" : "DefaultContext_v10",
"assigned" : "2020-08-20T13:52:00.989-0500"
}
},
{
"event" : "addConfiguration",
"timestamp" : "2020-08-20T14:43:55.278-0500",
"value" : {
"name" : "DefaultContext_v11",
"assigned" : "2020-08-20T14:43:55.278-0500"
}
}
],
"created" : "2020-08-20T13:46:47.907-0500"
},
"_id" : {
"$oid" : "9a2706917149458286790d8c"
},
"collection" : "XDAQContextTable",
"aliases" : {
"active" : [

],
"history" : [

]
},
"runs" : [

],
"attachments" : [

],
"configtype" : "notprovided"
}