{
"document" : {
"data" : {
"NAME" : "XDAQ_CONTEXT_TABLE",
"COMMENT" : "Default simplest Outer Tracker table",
"AUTHOR" : "admin",
"CREATION_TIME" : 1598458253,
"COL_TYPES" : {
"CONTEXT_UID" : "STRING",
"STATUS" : "STRING",
"ID" : "NUMBER",
"ADDRESS" : "STRING",
"PORT" : "NUMBER",
"LINK_TO_APPLICATION_TABLE" : "STRING",
"LINK_TO_APPLICATION_GROUP_ID" : "STRING",
"COMMENT_DESCRIPTION" : "STRING",
"AUTHOR" : "STRING",
"RECORD_INSERTION_TIME" : "TIMESTAMP WITH TIMEZONE"
},
"DATA_SET" : [
{
"CONTEXT_UID" : "MainContext",
"STATUS" : "On",
"ID" : "0",
"ADDRESS" : "http://${HOSTNAME}",
"PORT" : "2030",
"LINK_TO_APPLICATION_TABLE" : "XDAQApplicationTable",
"LINK_TO_APPLICATION_GROUP_ID" : "MainContextApps",
"COMMENT_DESCRIPTION" : "main context",
"AUTHOR" : "admin",
"RECORD_INSERTION_TIME" : "1597949184"
},
{
"CONTEXT_UID" : "OuterTrackerContext",
"STATUS" : "Off",
"ID" : "0",
"ADDRESS" : "http://${HOSTNAME}",
"PORT" : "${OTS_MAIN_PORT}+1",
"LINK_TO_APPLICATION_TABLE" : "XDAQApplicationTable",
"LINK_TO_APPLICATION_GROUP_ID" : "OuterTrackerContextApp",
"COMMENT_DESCRIPTION" : "No Comment",
"AUTHOR" : "admin",
"RECORD_INSERTION_TIME" : "1598454948"
},
{
"CONTEXT_UID" : "TestContext",
"STATUS" : "Off",
"ID" : "0",
"ADDRESS" : "http://${HOSTNAME}",
"PORT" : "${OTS_MAIN_PORT}+2",
"LINK_TO_APPLICATION_TABLE" : "XDAQApplicationTable",
"LINK_TO_APPLICATION_GROUP_ID" : "TestContextApps",
"COMMENT_DESCRIPTION" : "No Comment",
"AUTHOR" : "admin",
"RECORD_INSERTION_TIME" : "1598458246"
},
{
"CONTEXT_UID" : "PowerSupplyContext",
"STATUS" : "On",
"ID" : "0",
"ADDRESS" : "http://${HOSTNAME}",
"PORT" : "${OTS_MAIN_PORT}+3",
"LINK_TO_APPLICATION_TABLE" : "XDAQApplicationTable",
"LINK_TO_APPLICATION_GROUP_ID" : "PowerSupplyContextApps",
"COMMENT_DESCRIPTION" : "No Comment",
"AUTHOR" : "admin",
"RECORD_INSERTION_TIME" : "1598454948"
}
]
},
"metadata" : {

},
"search" : [

]
},
"comments" : [

],
"origin" : {
"source" : "template",
"name" : "notprovided",
"format" : "json",
"created" : "2020-08-26T11:10:53.400-0500",
"rawdata" : [

]
},
"version" : "7",
"entities" : [
{
"name" : "OTSROOT",
"assigned" : "2020-08-26T11:10:53.402-0500"
}
],
"configurations" : [
{
"name" : "notprovided",
"assigned" : "2020-08-26T11:10:53.401-0500"
},
{
"name" : "DefaultContext_v13",
"assigned" : "2020-08-26T11:10:54.466-0500"
},
{
"name" : "DefaultContext_v14",
"assigned" : "2020-08-26T16:17:12.970-0500"
},
{
"name" : "DefaultContext_v15",
"assigned" : "2020-11-10T13:18:46.361-0600"
},
{
"name" : "DefaultContext_v16",
"assigned" : "2020-11-10T13:35:42.084-0600"
},
{
"name" : "DefaultContext_v17",
"assigned" : "2020-11-10T13:38:42.048-0600"
},
{
"name" : "DefaultContext_v18",
"assigned" : "2020-11-10T13:39:23.873-0600"
},
{
"name" : "DefaultContext_v19",
"assigned" : "2020-11-10T13:41:30.783-0600"
},
{
"name" : "DefaultContext_v20",
"assigned" : "2020-11-10T15:30:52.976-0600"
},
{
"name" : "DefaultContext_v21",
"assigned" : "2020-11-10T15:36:57.235-0600"
},
{
"name" : "DefaultContext_v26",
"assigned" : "2020-11-11T15:51:48.324-0600"
},
{
"name" : "DefaultContext_v27",
"assigned" : "2020-11-13T11:04:51.047-0600"
},
{
"name" : "DefaultContext_v28",
"assigned" : "2020-11-13T11:24:26.970-0600"
},
{
"name" : "DefaultContext_v29",
"assigned" : "2020-11-13T14:27:41.963-0600"
},
{
"name" : "DefaultContext_v30",
"assigned" : "2020-11-23T16:30:54.501-0600"
},
{
"name" : "DefaultContext_v31",
"assigned" : "2020-12-21T11:05:57.364-0600"
}
],
"changelog" : "notprovided",
"bookkeeping" : {
"isdeleted" : false,
"isreadonly" : false,
"updates" : [
{
"event" : "addConfiguration",
"timestamp" : "2020-08-26T11:10:53.401-0500",
"value" : {
"name" : "notprovided",
"assigned" : "2020-08-26T11:10:53.401-0500"
}
},
{
"event" : "setVersion",
"timestamp" : "2020-08-26T11:10:53.401-0500",
"value" : {
"name" : "7",
"assigned" : "2020-08-26T11:10:53.401-0500"
}
},
{
"event" : "setCollection",
"timestamp" : "2020-08-26T11:10:53.402-0500",
"value" : {
"name" : "XDAQContextTable",
"assigned" : "2020-08-26T11:10:53.402-0500"
}
},
{
"event" : "addEntity",
"timestamp" : "2020-08-26T11:10:53.402-0500",
"value" : {
"name" : "OTSROOT",
"assigned" : "2020-08-26T11:10:53.402-0500"
}
},
{
"event" : "addConfiguration",
"timestamp" : "2020-08-26T11:10:54.466-0500",
"value" : {
"name" : "DefaultContext_v13",
"assigned" : "2020-08-26T11:10:54.466-0500"
}
},
{
"event" : "addConfiguration",
"timestamp" : "2020-08-26T16:17:12.970-0500",
"value" : {
"name" : "DefaultContext_v14",
"assigned" : "2020-08-26T16:17:12.970-0500"
}
},
{
"event" : "addConfiguration",
"timestamp" : "2020-11-10T13:18:46.361-0600",
"value" : {
"name" : "DefaultContext_v15",
"assigned" : "2020-11-10T13:18:46.361-0600"
}
},
{
"event" : "addConfiguration",
"timestamp" : "2020-11-10T13:35:42.084-0600",
"value" : {
"name" : "DefaultContext_v16",
"assigned" : "2020-11-10T13:35:42.084-0600"
}
},
{
"event" : "addConfiguration",
"timestamp" : "2020-11-10T13:38:42.048-0600",
"value" : {
"name" : "DefaultContext_v17",
"assigned" : "2020-11-10T13:38:42.048-0600"
}
},
{
"event" : "addConfiguration",
"timestamp" : "2020-11-10T13:39:23.873-0600",
"value" : {
"name" : "DefaultContext_v18",
"assigned" : "2020-11-10T13:39:23.873-0600"
}
},
{
"event" : "addConfiguration",
"timestamp" : "2020-11-10T13:41:30.783-0600",
"value" : {
"name" : "DefaultContext_v19",
"assigned" : "2020-11-10T13:41:30.783-0600"
}
},
{
"event" : "addConfiguration",
"timestamp" : "2020-11-10T15:30:52.976-0600",
"value" : {
"name" : "DefaultContext_v20",
"assigned" : "2020-11-10T15:30:52.976-0600"
}
},
{
"event" : "addConfiguration",
"timestamp" : "2020-11-10T15:36:57.236-0600",
"value" : {
"name" : "DefaultContext_v21",
"assigned" : "2020-11-10T15:36:57.235-0600"
}
},
{
"event" : "addConfiguration",
"timestamp" : "2020-11-11T15:51:48.324-0600",
"value" : {
"name" : "DefaultContext_v26",
"assigned" : "2020-11-11T15:51:48.324-0600"
}
},
{
"event" : "addConfiguration",
"timestamp" : "2020-11-13T11:04:51.047-0600",
"value" : {
"name" : "DefaultContext_v27",
"assigned" : "2020-11-13T11:04:51.047-0600"
}
},
{
"event" : "addConfiguration",
"timestamp" : "2020-11-13T11:24:26.970-0600",
"value" : {
"name" : "DefaultContext_v28",
"assigned" : "2020-11-13T11:24:26.970-0600"
}
},
{
"event" : "addConfiguration",
"timestamp" : "2020-11-13T14:27:41.963-0600",
"value" : {
"name" : "DefaultContext_v29",
"assigned" : "2020-11-13T14:27:41.963-0600"
}
},
{
"event" : "addConfiguration",
"timestamp" : "2020-11-23T16:30:54.501-0600",
"value" : {
"name" : "DefaultContext_v30",
"assigned" : "2020-11-23T16:30:54.501-0600"
}
},
{
"event" : "addConfiguration",
"timestamp" : "2020-12-21T11:05:57.365-0600",
"value" : {
"name" : "DefaultContext_v31",
"assigned" : "2020-12-21T11:05:57.364-0600"
}
}
],
"created" : "2020-08-26T11:10:53.400-0500"
},
"_id" : {
"$oid" : "c1c9f6270d81497b89bb0c7a"
},
"collection" : "XDAQContextTable",
"aliases" : {
"active" : [

],
"history" : [

]
},
"runs" : [

],
"attachments" : [

],
"configtype" : "notprovided"
}