{
"document" : {
"data" : {
"NAME" : "GATEWAY_SUPERVISOR_TABLE",
"COMMENT" : "No comment.",
"AUTHOR" : "admin",
"CREATION_TIME" : 1550763600,
"COL_TYPES" : {
"SUPERVISOR_UID" : "VARCHAR2",
"NUMBER_OF_STATE_MACHINE_BROADCAST_THREADS" : "NUMBER",
"LINK_TO_STATE_MACHINE_TABLE" : "VARCHAR2",
"STATE_MACHINE_GROUP_ID" : "VARCHAR2",
"ENABLE_STATE_CHANGES_OVER_UDP" : "VARCHAR2",
"IP_ADDRESS_FOR_STATE_CHANGES_OVER_UDP" : "VARCHAR2",
"PORT_FOR_STATE_CHANGES_OVER_UDP" : "NUMBER",
"ENABLE_ACK_FOR_STATE_CHANGES_OVER_UDP" : "VARCHAR2",
"ENABLE_ARTDAQ_COMMANDER_PLUGIN" : "VARCHAR2",
"ARTDAQ_COMMANDER_PLUGIN_TYPE" : "VARCHAR2",
"ARTDAQ_COMMANDER_ID" : "NUMBER",
"COMMENT_DESCRIPTION" : "VARCHAR2",
"AUTHOR" : "VARCHAR2",
"RECORD_INSERTION_TIME" : "TIMESTAMP WITH TIMEZONE"
},
"DATA_SET" : [
{
"SUPERVISOR_UID" : "Supervisor0",
"NUMBER_OF_STATE_MACHINE_BROADCAST_THREADS" : "0",
"LINK_TO_STATE_MACHINE_TABLE" : "StateMachineTable",
"STATE_MACHINE_GROUP_ID" : "Supervisor0_FSMs",
"ENABLE_STATE_CHANGES_OVER_UDP" : "No",
"IP_ADDRESS_FOR_STATE_CHANGES_OVER_UDP" : "DEFAULT",
"PORT_FOR_STATE_CHANGES_OVER_UDP" : "0",
"ENABLE_ACK_FOR_STATE_CHANGES_OVER_UDP" : "No",
"ENABLE_ARTDAQ_COMMANDER_PLUGIN" : "No",
"ARTDAQ_COMMANDER_PLUGIN_TYPE" : "DEFAULT",
"ARTDAQ_COMMANDER_ID" : "0",
"COMMENT_DESCRIPTION" : "Link to a group of state machines.",
"AUTHOR" : "admin",
"RECORD_INSERTION_TIME" : "1550763600"
}
]
},
"metadata" : {

},
"search" : [

]
},
"comments" : [

],
"origin" : {
"source" : "template",
"name" : "notprovided",
"format" : "json",
"created" : "2019-02-22T16:11:43.256-0600",
"rawdata" : [

]
},
"version" : "2",
"entities" : [
{
"name" : "OTSROOT",
"assigned" : "2019-02-22T16:11:43.256-0600"
}
],
"tables" : [
{
"name" : "notprovided",
"assigned" : "2019-02-22T16:11:43.256-0600"
},
{
"name" : "DefaultContext_v2",
"assigned" : "2019-02-22T16:11:43.478-0600"
}
],
"changelog" : "notprovided",
"bookkeeping" : {
"isdeleted" : false,
"isreadonly" : false,
"updates" : [
{
"event" : "addTable",
"timestamp" : "2019-02-22T16:11:43.256-0600",
"value" : {
"name" : "notprovided",
"assigned" : "2019-02-22T16:11:43.256-0600"
}
},
{
"event" : "setVersion",
"timestamp" : "2019-02-22T16:11:43.256-0600",
"value" : {
"name" : "2",
"assigned" : "2019-02-22T16:11:43.256-0600"
}
},
{
"event" : "setCollection",
"timestamp" : "2019-02-22T16:11:43.256-0600",
"value" : {
"name" : "GatewaySupervisorTable",
"assigned" : "2019-02-22T16:11:43.256-0600"
}
},
{
"event" : "addEntity",
"timestamp" : "2019-02-22T16:11:43.256-0600",
"value" : {
"name" : "OTSROOT",
"assigned" : "2019-02-22T16:11:43.256-0600"
}
},
{
"event" : "addTable",
"timestamp" : "2019-02-22T16:11:43.478-0600",
"value" : {
"name" : "DefaultContext_v2",
"assigned" : "2019-02-22T16:11:43.478-0600"
}
},
{
"event" : "addConfiguration",
"timestamp" : "2019-07-23T09:05:25.481-0500",
"value" : {
"name" : "DefaultContext_v3",
"assigned" : "2019-07-23T09:05:25.481-0500"
}
},
{
"event" : "addConfiguration",
"timestamp" : "2019-11-19T16:07:21.626-0600",
"value" : {
"name" : "DefaultContext_v4",
"assigned" : "2019-11-19T16:07:21.626-0600"
}
},
{
"event" : "addConfiguration",
"timestamp" : "2019-11-20T14:24:12.574-0600",
"value" : {
"name" : "DefaultContext_v5",
"assigned" : "2019-11-20T14:24:12.574-0600"
}
},
{
"event" : "addConfiguration",
"timestamp" : "2019-11-20T14:39:27.432-0600",
"value" : {
"name" : "DefaultContext_v6",
"assigned" : "2019-11-20T14:39:27.431-0600"
}
},
{
"event" : "addConfiguration",
"timestamp" : "2019-11-20T15:26:58.460-0600",
"value" : {
"name" : "DefaultContext_v7",
"assigned" : "2019-11-20T15:26:58.460-0600"
}
},
{
"event" : "addConfiguration",
"timestamp" : "2019-11-20T15:27:24.493-0600",
"value" : {
"name" : "DefaultContext_v8",
"assigned" : "2019-11-20T15:27:24.493-0600"
}
},
{
"event" : "addConfiguration",
"timestamp" : "2019-11-20T15:28:33.672-0600",
"value" : {
"name" : "DefaultContext_v9",
"assigned" : "2019-11-20T15:28:33.672-0600"
}
},
{
"event" : "addConfiguration",
"timestamp" : "2019-11-20T15:56:57.717-0600",
"value" : {
"name" : "DefaultContext_v10",
"assigned" : "2019-11-20T15:56:57.717-0600"
}
},
{
"event" : "addConfiguration",
"timestamp" : "2019-11-20T16:00:09.127-0600",
"value" : {
"name" : "DefaultContext_v11",
"assigned" : "2019-11-20T16:00:09.127-0600"
}
},
{
"event" : "addConfiguration",
"timestamp" : "2019-12-05T17:52:36.267-0600",
"value" : {
"name" : "DefaultContext_v12",
"assigned" : "2019-12-05T17:52:36.267-0600"
}
},
{
"event" : "addConfiguration",
"timestamp" : "2019-12-06T09:54:12.578-0600",
"value" : {
"name" : "DefaultContext_v13",
"assigned" : "2019-12-06T09:54:12.578-0600"
}
},
{
"event" : "addConfiguration",
"timestamp" : "2019-12-09T11:56:59.385-0600",
"value" : {
"name" : "DefaultContext_v14",
"assigned" : "2019-12-09T11:56:59.385-0600"
}
}
],
"created" : "2019-02-22T16:11:43.256-0600"
},
"_id" : {
"$oid" : "346f0a77d8014912af95200b"
},
"collection" : "GatewaySupervisorTable",
"aliases" : {
"active" : [

],
"history" : [

]
},
"runs" : [

],
"attachments" : [

],
"configtype" : "notprovided",
"configurations" : [
{
"name" : "DefaultContext_v3",
"assigned" : "2019-07-23T09:05:25.481-0500"
},
{
"name" : "DefaultContext_v4",
"assigned" : "2019-11-19T16:07:21.626-0600"
},
{
"name" : "DefaultContext_v5",
"assigned" : "2019-11-20T14:24:12.574-0600"
},
{
"name" : "DefaultContext_v6",
"assigned" : "2019-11-20T14:39:27.431-0600"
},
{
"name" : "DefaultContext_v7",
"assigned" : "2019-11-20T15:26:58.460-0600"
},
{
"name" : "DefaultContext_v8",
"assigned" : "2019-11-20T15:27:24.493-0600"
},
{
"name" : "DefaultContext_v9",
"assigned" : "2019-11-20T15:28:33.672-0600"
},
{
"name" : "DefaultContext_v10",
"assigned" : "2019-11-20T15:56:57.717-0600"
},
{
"name" : "DefaultContext_v11",
"assigned" : "2019-11-20T16:00:09.127-0600"
},
{
"name" : "DefaultContext_v12",
"assigned" : "2019-12-05T17:52:36.267-0600"
},
{
"name" : "DefaultContext_v13",
"assigned" : "2019-12-06T09:54:12.578-0600"
},
{
"name" : "DefaultContext_v14",
"assigned" : "2019-12-09T11:56:59.385-0600"
}
]
}