{
"document" : {
"data" : {
"NAME" : "GATEWAY_SUPERVISOR_TABLE",
"COMMENT" : "No comment.",
"AUTHOR" : "admin",
"CREATION_TIME" : 1576264853,
"COL_TYPES" : {
"SUPERVISOR_UID" : "STRING",
"NUMBER_OF_STATE_MACHINE_BROADCAST_THREADS" : "NUMBER",
"LINK_TO_STATE_MACHINE_TABLE" : "STRING",
"STATE_MACHINE_GROUP_ID" : "STRING",
"ENABLE_APPLICATION_STATUS_MONITORING" : "STRING",
"ENABLE_STATE_CHANGES_OVER_UDP" : "STRING",
"IP_ADDRESS_FOR_STATE_CHANGES_OVER_UDP" : "STRING",
"PORT_FOR_STATE_CHANGES_OVER_UDP" : "NUMBER",
"ENABLE_ACK_FOR_STATE_CHANGES_OVER_UDP" : "STRING",
"ENABLE_ARTDAQ_COMMANDER_PLUGIN" : "STRING",
"ARTDAQ_COMMANDER_PLUGIN_TYPE" : "STRING",
"ARTDAQ_COMMANDER_ID" : "NUMBER",
"COMMENT_DESCRIPTION" : "STRING",
"AUTHOR" : "STRING",
"RECORD_INSERTION_TIME" : "TIMESTAMP WITH TIMEZONE"
},
"DATA_SET" : [
{
"SUPERVISOR_UID" : "Supervisor0",
"NUMBER_OF_STATE_MACHINE_BROADCAST_THREADS" : "1",
"LINK_TO_STATE_MACHINE_TABLE" : "StateMachineTable",
"STATE_MACHINE_GROUP_ID" : "Supervisor0_FSMs",
"ENABLE_APPLICATION_STATUS_MONITORING" : "No",
"ENABLE_STATE_CHANGES_OVER_UDP" : "Yes",
"IP_ADDRESS_FOR_STATE_CHANGES_OVER_UDP" : "131.225.179.157",
"PORT_FOR_STATE_CHANGES_OVER_UDP" : "17000",
"ENABLE_ACK_FOR_STATE_CHANGES_OVER_UDP" : "No",
"ENABLE_ARTDAQ_COMMANDER_PLUGIN" : "No",
"ARTDAQ_COMMANDER_PLUGIN_TYPE" : "DEFAULT",
"ARTDAQ_COMMANDER_ID" : "0",
"COMMENT_DESCRIPTION" : "Link to a group of state machines.",
"AUTHOR" : "admin",
"RECORD_INSERTION_TIME" : "1576264853"
}
]
},
"metadata" : {

},
"search" : [

]
},
"comments" : [

],
"origin" : {
"source" : "template",
"name" : "notprovided",
"format" : "json",
"created" : "2019-12-13T13:20:53.188-0600",
"rawdata" : [

]
},
"version" : "3",
"entities" : [
{
"name" : "OTSROOT",
"assigned" : "2019-12-13T13:20:53.188-0600"
}
],
"configurations" : [
{
"name" : "notprovided",
"assigned" : "2019-12-13T13:20:53.188-0600"
},
{
"name" : "DefaultContext_v15",
"assigned" : "2019-12-13T13:20:55.173-0600"
}
],
"changelog" : "notprovided",
"bookkeeping" : {
"isdeleted" : false,
"isreadonly" : false,
"updates" : [
{
"event" : "addConfiguration",
"timestamp" : "2019-12-13T13:20:53.188-0600",
"value" : {
"name" : "notprovided",
"assigned" : "2019-12-13T13:20:53.188-0600"
}
},
{
"event" : "setVersion",
"timestamp" : "2019-12-13T13:20:53.188-0600",
"value" : {
"name" : "3",
"assigned" : "2019-12-13T13:20:53.188-0600"
}
},
{
"event" : "setCollection",
"timestamp" : "2019-12-13T13:20:53.188-0600",
"value" : {
"name" : "GatewaySupervisorTable",
"assigned" : "2019-12-13T13:20:53.188-0600"
}
},
{
"event" : "addEntity",
"timestamp" : "2019-12-13T13:20:53.188-0600",
"value" : {
"name" : "OTSROOT",
"assigned" : "2019-12-13T13:20:53.188-0600"
}
},
{
"event" : "addConfiguration",
"timestamp" : "2019-12-13T13:20:55.173-0600",
"value" : {
"name" : "DefaultContext_v15",
"assigned" : "2019-12-13T13:20:55.173-0600"
}
}
],
"created" : "2019-12-13T13:20:53.188-0600"
},
"_id" : {
"$oid" : "6b881ee31f024ce687bb0c95"
},
"collection" : "GatewaySupervisorTable",
"aliases" : {
"active" : [

],
"history" : [

]
},
"runs" : [

],
"attachments" : [

],
"configtype" : "notprovided"
}