{
"ouid" : [
"7167d6734ab4430e9cfe2125"
],
"version" : {
"2" : [
"7167d6734ab4430e9cfe2125"
]
},
"configurations.name" : {
"notprovided" : [
"7167d6734ab4430e9cfe2125"
],
"DefaultContext_v2" : [
"7167d6734ab4430e9cfe2125"
],
"DefaultContext_v3" : [
"7167d6734ab4430e9cfe2125"
],
"DefaultContext_v4" : [
"7167d6734ab4430e9cfe2125"
],
"DefaultContext_v5" : [
"7167d6734ab4430e9cfe2125"
],
"DefaultContext_v6" : [
"7167d6734ab4430e9cfe2125"
],
"DefaultContext_v7" : [
"7167d6734ab4430e9cfe2125"
],
"DefaultContext_v8" : [
"7167d6734ab4430e9cfe2125"
],
"DefaultContext_v9" : [
"7167d6734ab4430e9cfe2125"
],
"DefaultContext_v10" : [
"7167d6734ab4430e9cfe2125"
]
},
"entities.name" : {
"OTSROOT" : [
"7167d6734ab4430e9cfe2125"
]
},
"aliases.active.name" : {

},
"runs.name" : {

},
"configurations.assigned" : {
"notprovided" : [
"2020-07-21T14:27:47.437-0500"
],
"DefaultContext_v2" : [
"2020-07-21T14:27:47.829-0500"
],
"DefaultContext_v3" : [
"2020-07-21T14:42:50.630-0500"
],
"DefaultContext_v4" : [
"2020-07-21T14:46:44.498-0500"
],
"DefaultContext_v5" : [
"2020-07-21T14:51:16.764-0500"
],
"DefaultContext_v6" : [
"2020-07-21T14:55:17.099-0500"
],
"DefaultContext_v7" : [
"2020-07-21T14:55:57.109-0500"
],
"DefaultContext_v8" : [
"2020-07-21T15:50:01.485-0500"
],
"DefaultContext_v9" : [
"2020-09-09T19:38:00.867+0200"
],
"DefaultContext_v10" : [
"2020-09-11T17:53:13.593+0200"
]
}
}