{
"document" : {
"data" : {
"NAME" : "DQM_BURNIN_BOX_HISTOS_CONSUMER_TABLE",
"COMMENT" : "No comment.",
"AUTHOR" : "admin",
"CREATION_TIME" : 1680633744,
"COL_TYPES" : {
"PROCESSOR_UID" : "STRING",
"FILE_PATH" : "STRING",
"RADIX_FILE_NAME" : "STRING",
"SAVE_FILE" : "STRING",
"COMMENT_DESCRIPTION" : "STRING",
"AUTHOR" : "STRING",
"RECORD_INSERTION_TIME" : "TIMESTAMP WITH TIMEZONE"
},
"DATA_SET" : [
{
"PROCESSOR_UID" : "VBBurninBoxDQMHistos",
"FILE_PATH" : "${OTSDAQ_DATA}/BurninBoxHistos",
"RADIX_FILE_NAME" : "BurninBoxHistos_",
"SAVE_FILE" : "Yes",
"COMMENT_DESCRIPTION" : "No Comment",
"AUTHOR" : "admin",
"RECORD_INSERTION_TIME" : "1680633744"
}
]
},
"metadata" : {

},
"search" : [

]
},
"comments" : [

],
"origin" : {
"source" : "template",
"name" : "notprovided",
"format" : "json",
"created" : "2023-04-04T13:42:24.513-0500",
"rawdata" : [

]
},
"version" : "0",
"entities" : [
{
"name" : "OTSROOT",
"assigned" : "2023-04-04T13:42:24.514-0500"
}
],
"configurations" : [
{
"name" : "notprovided",
"assigned" : "2023-04-04T13:42:24.514-0500"
},
{
"name" : "BurninBoxConfiguration_v123",
"assigned" : "2023-04-04T13:48:51.145-0500"
},
{
"name" : "BurninBoxConfiguration_v124",
"assigned" : "2023-04-04T13:51:58.303-0500"
},
{
"name" : "BurninBoxConfiguration_v125",
"assigned" : "2023-04-04T14:30:59.640-0500"
},
{
"name" : "BurninBoxConfiguration_v126",
"assigned" : "2023-04-04T16:05:03.818-0500"
},
{
"name" : "BurninBoxConfiguration_v127",
"assigned" : "2023-04-07T10:09:31.674-0500"
},
{
"name" : "BurninBoxConfiguration_v128",
"assigned" : "2023-04-07T16:20:28.997-0500"
},
{
"name" : "BurninBoxConfiguration_v129",
"assigned" : "2023-04-14T10:53:43.190-0500"
},
{
"name" : "BurninBoxConfiguration_v130",
"assigned" : "2023-04-14T11:01:22.848-0500"
},
{
"name" : "BurninBoxConfiguration_v131",
"assigned" : "2023-04-14T11:05:24.906-0500"
},
{
"name" : "BurninBoxConfiguration_v132",
"assigned" : "2023-04-14T12:25:10.061-0500"
},
{
"name" : "BurninBoxConfiguration_v133",
"assigned" : "2023-04-14T14:03:26.120-0500"
},
{
"name" : "BurninBoxConfiguration_v134",
"assigned" : "2023-04-14T15:36:48.738-0500"
},
{
"name" : "BurninBoxConfiguration_v135",
"assigned" : "2023-04-14T15:57:03.302-0500"
},
{
"name" : "BurninBoxConfiguration_v136",
"assigned" : "2023-04-14T15:58:59.794-0500"
},
{
"name" : "BurninBoxConfiguration_v137",
"assigned" : "2023-04-14T16:18:31.932-0500"
},
{
"name" : "BurninBoxConfiguration_v138",
"assigned" : "2023-04-14T16:20:11.143-0500"
},
{
"name" : "BurninBoxConfiguration_v139",
"assigned" : "2023-04-17T15:51:48.019-0500"
},
{
"name" : "BurninBoxConfiguration_v140",
"assigned" : "2023-04-18T10:48:01.428-0500"
},
{
"name" : "BurninBoxConfiguration_v141",
"assigned" : "2023-04-18T12:02:40.528-0500"
},
{
"name" : "BurninBoxConfiguration_v142",
"assigned" : "2023-04-18T12:03:56.039-0500"
},
{
"name" : "BurninBoxConfiguration_v143",
"assigned" : "2023-04-18T13:48:30.962-0500"
},
{
"name" : "BurninBoxConfiguration_v144",
"assigned" : "2023-04-18T14:33:54.307-0500"
},
{
"name" : "BurninBoxConfiguration_v145",
"assigned" : "2023-04-18T16:14:30.801-0500"
},
{
"name" : "BurninBoxConfiguration_v146",
"assigned" : "2023-04-18T16:20:20.385-0500"
},
{
"name" : "BurninBoxConfiguration_v147",
"assigned" : "2023-04-21T15:02:47.297-0500"
},
{
"name" : "BurninBoxConfiguration_v148",
"assigned" : "2023-05-09T09:06:43.514-0500"
},
{
"name" : "BurninBoxConfiguration_v149",
"assigned" : "2023-05-11T08:26:01.668-0500"
},
{
"name" : "BurninBoxConfiguration_v150",
"assigned" : "2023-05-11T14:10:22.083-0500"
},
{
"name" : "BurninBoxConfiguration_v151",
"assigned" : "2023-05-11T14:10:59.059-0500"
},
{
"name" : "BurninBoxConfiguration_v152",
"assigned" : "2023-05-11T14:12:47.085-0500"
},
{
"name" : "BurninBoxConfiguration_v153",
"assigned" : "2023-05-19T11:54:16.962-0500"
},
{
"name" : "BurninBoxConfiguration_v154",
"assigned" : "2023-05-19T11:57:26.782-0500"
},
{
"name" : "BurninBoxConfiguration_v155",
"assigned" : "2023-05-19T13:22:52.941-0500"
},
{
"name" : "BurninBoxConfiguration_v156",
"assigned" : "2023-06-01T09:40:18.119-0500"
},
{
"name" : "BurninBoxConfiguration_v157",
"assigned" : "2023-06-01T09:58:09.159-0500"
},
{
"name" : "BurninBoxConfiguration_v158",
"assigned" : "2023-06-01T09:59:55.101-0500"
},
{
"name" : "BurninBoxConfiguration_v159",
"assigned" : "2023-06-01T10:20:01.216-0500"
},
{
"name" : "BurninBoxConfiguration_v160",
"assigned" : "2023-06-01T10:23:57.689-0500"
},
{
"name" : "BurninBoxConfiguration_v161",
"assigned" : "2023-06-01T10:27:30.590-0500"
},
{
"name" : "BurninBoxConfiguration_v162",
"assigned" : "2023-06-09T12:06:36.757-0500"
},
{
"name" : "BurninBoxConfiguration_v163",
"assigned" : "2023-06-09T12:17:05.962-0500"
},
{
"name" : "BurninBoxConfiguration_v164",
"assigned" : "2023-06-12T09:41:23.211-0500"
},
{
"name" : "BurninBoxConfiguration_v165",
"assigned" : "2023-06-12T11:53:36.400-0500"
},
{
"name" : "BurninBoxConfiguration_v166",
"assigned" : "2023-06-12T16:53:39.759-0500"
}
],
"changelog" : "notprovided",
"bookkeeping" : {
"isdeleted" : false,
"isreadonly" : false,
"updates" : [
{
"event" : "addConfiguration",
"timestamp" : "2023-04-04T13:42:24.514-0500",
"value" : {
"name" : "notprovided",
"assigned" : "2023-04-04T13:42:24.514-0500"
}
},
{
"event" : "setVersion",
"timestamp" : "2023-04-04T13:42:24.514-0500",
"value" : {
"name" : "0",
"assigned" : "2023-04-04T13:42:24.514-0500"
}
},
{
"event" : "setCollection",
"timestamp" : "2023-04-04T13:42:24.514-0500",
"value" : {
"name" : "DQMBurninBoxHistosConsumerTable",
"assigned" : "2023-04-04T13:42:24.514-0500"
}
},
{
"event" : "addEntity",
"timestamp" : "2023-04-04T13:42:24.514-0500",
"value" : {
"name" : "OTSROOT",
"assigned" : "2023-04-04T13:42:24.514-0500"
}
},
{
"event" : "addConfiguration",
"timestamp" : "2023-04-04T13:48:51.145-0500",
"value" : {
"name" : "BurninBoxConfiguration_v123",
"assigned" : "2023-04-04T13:48:51.145-0500"
}
},
{
"event" : "addConfiguration",
"timestamp" : "2023-04-04T13:51:58.303-0500",
"value" : {
"name" : "BurninBoxConfiguration_v124",
"assigned" : "2023-04-04T13:51:58.303-0500"
}
},
{
"event" : "addConfiguration",
"timestamp" : "2023-04-04T14:30:59.640-0500",
"value" : {
"name" : "BurninBoxConfiguration_v125",
"assigned" : "2023-04-04T14:30:59.640-0500"
}
},
{
"event" : "addConfiguration",
"timestamp" : "2023-04-04T16:05:03.818-0500",
"value" : {
"name" : "BurninBoxConfiguration_v126",
"assigned" : "2023-04-04T16:05:03.818-0500"
}
},
{
"event" : "addConfiguration",
"timestamp" : "2023-04-07T10:09:31.674-0500",
"value" : {
"name" : "BurninBoxConfiguration_v127",
"assigned" : "2023-04-07T10:09:31.674-0500"
}
},
{
"event" : "addConfiguration",
"timestamp" : "2023-04-07T16:20:28.997-0500",
"value" : {
"name" : "BurninBoxConfiguration_v128",
"assigned" : "2023-04-07T16:20:28.997-0500"
}
},
{
"event" : "addConfiguration",
"timestamp" : "2023-04-14T10:53:43.190-0500",
"value" : {
"name" : "BurninBoxConfiguration_v129",
"assigned" : "2023-04-14T10:53:43.190-0500"
}
},
{
"event" : "addConfiguration",
"timestamp" : "2023-04-14T11:01:22.848-0500",
"value" : {
"name" : "BurninBoxConfiguration_v130",
"assigned" : "2023-04-14T11:01:22.848-0500"
}
},
{
"event" : "addConfiguration",
"timestamp" : "2023-04-14T11:05:24.906-0500",
"value" : {
"name" : "BurninBoxConfiguration_v131",
"assigned" : "2023-04-14T11:05:24.906-0500"
}
},
{
"event" : "addConfiguration",
"timestamp" : "2023-04-14T12:25:10.061-0500",
"value" : {
"name" : "BurninBoxConfiguration_v132",
"assigned" : "2023-04-14T12:25:10.061-0500"
}
},
{
"event" : "addConfiguration",
"timestamp" : "2023-04-14T14:03:26.120-0500",
"value" : {
"name" : "BurninBoxConfiguration_v133",
"assigned" : "2023-04-14T14:03:26.120-0500"
}
},
{
"event" : "addConfiguration",
"timestamp" : "2023-04-14T15:36:48.738-0500",
"value" : {
"name" : "BurninBoxConfiguration_v134",
"assigned" : "2023-04-14T15:36:48.738-0500"
}
},
{
"event" : "addConfiguration",
"timestamp" : "2023-04-14T15:57:03.302-0500",
"value" : {
"name" : "BurninBoxConfiguration_v135",
"assigned" : "2023-04-14T15:57:03.302-0500"
}
},
{
"event" : "addConfiguration",
"timestamp" : "2023-04-14T15:58:59.794-0500",
"value" : {
"name" : "BurninBoxConfiguration_v136",
"assigned" : "2023-04-14T15:58:59.794-0500"
}
},
{
"event" : "addConfiguration",
"timestamp" : "2023-04-14T16:18:31.932-0500",
"value" : {
"name" : "BurninBoxConfiguration_v137",
"assigned" : "2023-04-14T16:18:31.932-0500"
}
},
{
"event" : "addConfiguration",
"timestamp" : "2023-04-14T16:20:11.143-0500",
"value" : {
"name" : "BurninBoxConfiguration_v138",
"assigned" : "2023-04-14T16:20:11.143-0500"
}
},
{
"event" : "addConfiguration",
"timestamp" : "2023-04-17T15:51:48.019-0500",
"value" : {
"name" : "BurninBoxConfiguration_v139",
"assigned" : "2023-04-17T15:51:48.019-0500"
}
},
{
"event" : "addConfiguration",
"timestamp" : "2023-04-18T10:48:01.428-0500",
"value" : {
"name" : "BurninBoxConfiguration_v140",
"assigned" : "2023-04-18T10:48:01.428-0500"
}
},
{
"event" : "addConfiguration",
"timestamp" : "2023-04-18T12:02:40.528-0500",
"value" : {
"name" : "BurninBoxConfiguration_v141",
"assigned" : "2023-04-18T12:02:40.528-0500"
}
},
{
"event" : "addConfiguration",
"timestamp" : "2023-04-18T12:03:56.039-0500",
"value" : {
"name" : "BurninBoxConfiguration_v142",
"assigned" : "2023-04-18T12:03:56.039-0500"
}
},
{
"event" : "addConfiguration",
"timestamp" : "2023-04-18T13:48:30.962-0500",
"value" : {
"name" : "BurninBoxConfiguration_v143",
"assigned" : "2023-04-18T13:48:30.962-0500"
}
},
{
"event" : "addConfiguration",
"timestamp" : "2023-04-18T14:33:54.307-0500",
"value" : {
"name" : "BurninBoxConfiguration_v144",
"assigned" : "2023-04-18T14:33:54.307-0500"
}
},
{
"event" : "addConfiguration",
"timestamp" : "2023-04-18T16:14:30.801-0500",
"value" : {
"name" : "BurninBoxConfiguration_v145",
"assigned" : "2023-04-18T16:14:30.801-0500"
}
},
{
"event" : "addConfiguration",
"timestamp" : "2023-04-18T16:20:20.385-0500",
"value" : {
"name" : "BurninBoxConfiguration_v146",
"assigned" : "2023-04-18T16:20:20.385-0500"
}
},
{
"event" : "addConfiguration",
"timestamp" : "2023-04-21T15:02:47.297-0500",
"value" : {
"name" : "BurninBoxConfiguration_v147",
"assigned" : "2023-04-21T15:02:47.297-0500"
}
},
{
"event" : "addConfiguration",
"timestamp" : "2023-05-09T09:06:43.514-0500",
"value" : {
"name" : "BurninBoxConfiguration_v148",
"assigned" : "2023-05-09T09:06:43.514-0500"
}
},
{
"event" : "addConfiguration",
"timestamp" : "2023-05-11T08:26:01.668-0500",
"value" : {
"name" : "BurninBoxConfiguration_v149",
"assigned" : "2023-05-11T08:26:01.668-0500"
}
},
{
"event" : "addConfiguration",
"timestamp" : "2023-05-11T14:10:22.083-0500",
"value" : {
"name" : "BurninBoxConfiguration_v150",
"assigned" : "2023-05-11T14:10:22.083-0500"
}
},
{
"event" : "addConfiguration",
"timestamp" : "2023-05-11T14:10:59.059-0500",
"value" : {
"name" : "BurninBoxConfiguration_v151",
"assigned" : "2023-05-11T14:10:59.059-0500"
}
},
{
"event" : "addConfiguration",
"timestamp" : "2023-05-11T14:12:47.085-0500",
"value" : {
"name" : "BurninBoxConfiguration_v152",
"assigned" : "2023-05-11T14:12:47.085-0500"
}
},
{
"event" : "addConfiguration",
"timestamp" : "2023-05-19T11:54:16.962-0500",
"value" : {
"name" : "BurninBoxConfiguration_v153",
"assigned" : "2023-05-19T11:54:16.962-0500"
}
},
{
"event" : "addConfiguration",
"timestamp" : "2023-05-19T11:57:26.782-0500",
"value" : {
"name" : "BurninBoxConfiguration_v154",
"assigned" : "2023-05-19T11:57:26.782-0500"
}
},
{
"event" : "addConfiguration",
"timestamp" : "2023-05-19T13:22:52.941-0500",
"value" : {
"name" : "BurninBoxConfiguration_v155",
"assigned" : "2023-05-19T13:22:52.941-0500"
}
},
{
"event" : "addConfiguration",
"timestamp" : "2023-06-01T09:40:18.119-0500",
"value" : {
"name" : "BurninBoxConfiguration_v156",
"assigned" : "2023-06-01T09:40:18.119-0500"
}
},
{
"event" : "addConfiguration",
"timestamp" : "2023-06-01T09:58:09.159-0500",
"value" : {
"name" : "BurninBoxConfiguration_v157",
"assigned" : "2023-06-01T09:58:09.159-0500"
}
},
{
"event" : "addConfiguration",
"timestamp" : "2023-06-01T09:59:55.101-0500",
"value" : {
"name" : "BurninBoxConfiguration_v158",
"assigned" : "2023-06-01T09:59:55.101-0500"
}
},
{
"event" : "addConfiguration",
"timestamp" : "2023-06-01T10:20:01.216-0500",
"value" : {
"name" : "BurninBoxConfiguration_v159",
"assigned" : "2023-06-01T10:20:01.216-0500"
}
},
{
"event" : "addConfiguration",
"timestamp" : "2023-06-01T10:23:57.689-0500",
"value" : {
"name" : "BurninBoxConfiguration_v160",
"assigned" : "2023-06-01T10:23:57.689-0500"
}
},
{
"event" : "addConfiguration",
"timestamp" : "2023-06-01T10:27:30.590-0500",
"value" : {
"name" : "BurninBoxConfiguration_v161",
"assigned" : "2023-06-01T10:27:30.590-0500"
}
},
{
"event" : "addConfiguration",
"timestamp" : "2023-06-09T12:06:36.757-0500",
"value" : {
"name" : "BurninBoxConfiguration_v162",
"assigned" : "2023-06-09T12:06:36.757-0500"
}
},
{
"event" : "addConfiguration",
"timestamp" : "2023-06-09T12:17:05.962-0500",
"value" : {
"name" : "BurninBoxConfiguration_v163",
"assigned" : "2023-06-09T12:17:05.962-0500"
}
},
{
"event" : "addConfiguration",
"timestamp" : "2023-06-12T09:41:23.211-0500",
"value" : {
"name" : "BurninBoxConfiguration_v164",
"assigned" : "2023-06-12T09:41:23.211-0500"
}
},
{
"event" : "addConfiguration",
"timestamp" : "2023-06-12T11:53:36.400-0500",
"value" : {
"name" : "BurninBoxConfiguration_v165",
"assigned" : "2023-06-12T11:53:36.400-0500"
}
},
{
"event" : "addConfiguration",
"timestamp" : "2023-06-12T16:53:39.759-0500",
"value" : {
"name" : "BurninBoxConfiguration_v166",
"assigned" : "2023-06-12T16:53:39.759-0500"
}
}
],
"created" : "2023-04-04T13:42:24.514-0500"
},
"_id" : {
"$oid" : "d7eac573bf5949f1af801ac6"
},
"collection" : "DQMBurninBoxHistosConsumerTable",
"aliases" : {
"active" : [

],
"history" : [

]
},
"runs" : [

],
"attachments" : [

],
"configtype" : "notprovided"
}