{
"document" : {
"data" : {
"NAME" : "FE_INTERFACE_TABLE",
"COMMENT" : "FE interfaces top level.",
"AUTHOR" : "admin",
"CREATION_TIME" : 1574284338,
"COL_TYPES" : {
"FE_INTERFACE_GROUP_ID" : "STRING",
"FE_INTERFACE_UID" : "STRING",
"STATUS" : "STRING",
"FE_INTERFACE_PLUGIN_NAME" : "STRING",
"LINK_TO_FE_TYPE_TABLE" : "STRING",
"LINK_TO_FE_TYPE_UID" : "STRING",
"LINK_TO_SLOW_CONTROLS_CHANNEL_TABLE" : "STRING",
"LINK_TO_SLOW_CONTROLS_CHANNEL_GROUP_ID" : "STRING",
"LINK_TO_SLOW_CONTROLS_SUPERVISOR_TABLE" : "STRING",
"LINK_TO_SLOW_CONTROLS_SUPERVISOR_UID" : "STRING",
"SLOW_CONTROLS_TX_SOCKET_IP_ADDRESS" : "STRING",
"SLOW_CONTROLS_TX_SOCKET_PORT" : "NUMBER",
"SLOW_CONTROLS_LOCAL_AGGREGATE_SAVING_ENABLED" : "STRING",
"SLOW_CONTROLS_LOCAL_FILE_PATH" : "STRING",
"SLOW_CONTROLS_RADIX_FILE_NAME" : "STRING",
"SLOW_CONTROLS_SAVE_BINARY_FILE" : "STRING",
"COMMENT_DESCRIPTION" : "STRING",
"AUTHOR" : "STRING",
"RECORD_INSERTION_TIME" : "TIMESTAMP WITH TIMEZONE"
},
"DATA_SET" : [
{
"FE_INTERFACE_GROUP_ID" : "OuterTrackerFESupervisor0",
"FE_INTERFACE_UID" : "OuterTrackerFEInterface0",
"STATUS" : "On",
"FE_INTERFACE_PLUGIN_NAME" : "FEMiddlewareInterface",
"LINK_TO_FE_TYPE_TABLE" : "FEMiddlewareInterfaceTable",
"LINK_TO_FE_TYPE_UID" : "OuterTrackerFEInterface0",
"LINK_TO_SLOW_CONTROLS_CHANNEL_TABLE" : "NO_LINK",
"LINK_TO_SLOW_CONTROLS_CHANNEL_GROUP_ID" : "DEFAULT",
"LINK_TO_SLOW_CONTROLS_SUPERVISOR_TABLE" : "NO_LINK",
"LINK_TO_SLOW_CONTROLS_SUPERVISOR_UID" : "DEFAULT",
"SLOW_CONTROLS_TX_SOCKET_IP_ADDRESS" : "DEFAULT",
"SLOW_CONTROLS_TX_SOCKET_PORT" : "0",
"SLOW_CONTROLS_LOCAL_AGGREGATE_SAVING_ENABLED" : "No",
"SLOW_CONTROLS_LOCAL_FILE_PATH" : "DEFAULT",
"SLOW_CONTROLS_RADIX_FILE_NAME" : "DEFAULT",
"SLOW_CONTROLS_SAVE_BINARY_FILE" : "False",
"COMMENT_DESCRIPTION" : "No Comment",
"AUTHOR" : "admin",
"RECORD_INSERTION_TIME" : "1563812695"
},
{
"FE_INTERFACE_GROUP_ID" : "HistoMakerFESupervisor0",
"FE_INTERFACE_UID" : "HistoMakerFEInterface0",
"STATUS" : "On",
"FE_INTERFACE_PLUGIN_NAME" : "FEHistoMakerInterface",
"LINK_TO_FE_TYPE_TABLE" : "FEHistoMakerInterfaceTable",
"LINK_TO_FE_TYPE_UID" : "HistoMakerFEInterface0",
"LINK_TO_SLOW_CONTROLS_CHANNEL_TABLE" : "NO_LINK",
"LINK_TO_SLOW_CONTROLS_CHANNEL_GROUP_ID" : "DEFAULT",
"LINK_TO_SLOW_CONTROLS_SUPERVISOR_TABLE" : "NO_LINK",
"LINK_TO_SLOW_CONTROLS_SUPERVISOR_UID" : "DEFAULT",
"SLOW_CONTROLS_TX_SOCKET_IP_ADDRESS" : "DEFAULT",
"SLOW_CONTROLS_TX_SOCKET_PORT" : "0",
"SLOW_CONTROLS_LOCAL_AGGREGATE_SAVING_ENABLED" : "No",
"SLOW_CONTROLS_LOCAL_FILE_PATH" : "DEFAULT",
"SLOW_CONTROLS_RADIX_FILE_NAME" : "DEFAULT",
"SLOW_CONTROLS_SAVE_BINARY_FILE" : "False",
"COMMENT_DESCRIPTION" : "No Comment",
"AUTHOR" : "admin",
"RECORD_INSERTION_TIME" : "1574284338"
}
]
},
"metadata" : {

},
"search" : [

]
},
"comments" : [

],
"origin" : {
"source" : "template",
"name" : "notprovided",
"format" : "json",
"created" : "2019-11-20T15:12:18.222-0600",
"rawdata" : [

]
},
"version" : "3",
"entities" : [
{
"name" : "OTSROOT",
"assigned" : "2019-11-20T15:12:18.222-0600"
}
],
"configurations" : [
{
"name" : "notprovided",
"assigned" : "2019-11-20T15:12:18.222-0600"
},
{
"name" : "DefaultConfig_v10",
"assigned" : "2019-11-20T15:25:38.472-0600"
},
{
"name" : "DefaultConfig_v11",
"assigned" : "2019-11-20T15:28:12.495-0600"
},
{
"name" : "DefaultConfig_v12",
"assigned" : "2019-11-20T15:58:29.785-0600"
},
{
"name" : "DefaultConfig_v13",
"assigned" : "2019-11-20T16:23:03.499-0600"
},
{
"name" : "DefaultConfig_v14",
"assigned" : "2019-11-20T16:24:45.622-0600"
},
{
"name" : "DefaultConfig_v15",
"assigned" : "2019-11-20T16:27:46.460-0600"
},
{
"name" : "DefaultConfig_v16",
"assigned" : "2019-11-20T16:42:10.995-0600"
},
{
"name" : "DefaultConfig_v17",
"assigned" : "2019-12-09T19:33:37.579-0600"
},
{
"name" : "DefaultConfig_v18",
"assigned" : "2019-12-10T14:21:51.073-0600"
}
],
"changelog" : "notprovided",
"bookkeeping" : {
"isdeleted" : false,
"isreadonly" : false,
"updates" : [
{
"event" : "addConfiguration",
"timestamp" : "2019-11-20T15:12:18.222-0600",
"value" : {
"name" : "notprovided",
"assigned" : "2019-11-20T15:12:18.222-0600"
}
},
{
"event" : "setVersion",
"timestamp" : "2019-11-20T15:12:18.222-0600",
"value" : {
"name" : "3",
"assigned" : "2019-11-20T15:12:18.222-0600"
}
},
{
"event" : "setCollection",
"timestamp" : "2019-11-20T15:12:18.222-0600",
"value" : {
"name" : "FEInterfaceTable",
"assigned" : "2019-11-20T15:12:18.222-0600"
}
},
{
"event" : "addEntity",
"timestamp" : "2019-11-20T15:12:18.222-0600",
"value" : {
"name" : "OTSROOT",
"assigned" : "2019-11-20T15:12:18.222-0600"
}
},
{
"event" : "addConfiguration",
"timestamp" : "2019-11-20T15:25:38.472-0600",
"value" : {
"name" : "DefaultConfig_v10",
"assigned" : "2019-11-20T15:25:38.472-0600"
}
},
{
"event" : "addConfiguration",
"timestamp" : "2019-11-20T15:28:12.496-0600",
"value" : {
"name" : "DefaultConfig_v11",
"assigned" : "2019-11-20T15:28:12.495-0600"
}
},
{
"event" : "addConfiguration",
"timestamp" : "2019-11-20T15:58:29.785-0600",
"value" : {
"name" : "DefaultConfig_v12",
"assigned" : "2019-11-20T15:58:29.785-0600"
}
},
{
"event" : "addConfiguration",
"timestamp" : "2019-11-20T16:23:03.499-0600",
"value" : {
"name" : "DefaultConfig_v13",
"assigned" : "2019-11-20T16:23:03.499-0600"
}
},
{
"event" : "addConfiguration",
"timestamp" : "2019-11-20T16:24:45.622-0600",
"value" : {
"name" : "DefaultConfig_v14",
"assigned" : "2019-11-20T16:24:45.622-0600"
}
},
{
"event" : "addConfiguration",
"timestamp" : "2019-11-20T16:27:46.460-0600",
"value" : {
"name" : "DefaultConfig_v15",
"assigned" : "2019-11-20T16:27:46.460-0600"
}
},
{
"event" : "addConfiguration",
"timestamp" : "2019-11-20T16:42:10.995-0600",
"value" : {
"name" : "DefaultConfig_v16",
"assigned" : "2019-11-20T16:42:10.995-0600"
}
},
{
"event" : "addConfiguration",
"timestamp" : "2019-12-09T19:33:37.579-0600",
"value" : {
"name" : "DefaultConfig_v17",
"assigned" : "2019-12-09T19:33:37.579-0600"
}
},
{
"event" : "addConfiguration",
"timestamp" : "2019-12-10T14:21:51.073-0600",
"value" : {
"name" : "DefaultConfig_v18",
"assigned" : "2019-12-10T14:21:51.073-0600"
}
}
],
"created" : "2019-11-20T15:12:18.222-0600"
},
"_id" : {
"$oid" : "d77320a5562348a480adb5c2"
},
"collection" : "FEInterfaceTable",
"aliases" : {
"active" : [

],
"history" : [

]
},
"runs" : [

],
"attachments" : [

],
"configtype" : "notprovided"
}