{
"ouid" : [
"16e8b6d4fcbd43bfbce696ca",
"8677d5e9efb841ee80ae4296",
"d77320a5562348a480adb5c2"
],
"version" : {
"1" : [
"8677d5e9efb841ee80ae4296"
],
"2" : [
"16e8b6d4fcbd43bfbce696ca"
],
"3" : [
"d77320a5562348a480adb5c2"
]
},
"configurations.name" : {
"notprovided" : [
"16e8b6d4fcbd43bfbce696ca",
"8677d5e9efb841ee80ae4296",
"d77320a5562348a480adb5c2"
],
"DefaultConfig_v1" : [
"8677d5e9efb841ee80ae4296"
],
"DefaultConfig_v2" : [
"16e8b6d4fcbd43bfbce696ca"
],
"DefaultConfig_v3" : [
"16e8b6d4fcbd43bfbce696ca"
],
"DefaultConfig_v4" : [
"16e8b6d4fcbd43bfbce696ca"
],
"DefaultConfig_v5" : [
"16e8b6d4fcbd43bfbce696ca"
],
"DefaultConfig_v6" : [
"16e8b6d4fcbd43bfbce696ca"
],
"DefaultConfig_v7" : [
"16e8b6d4fcbd43bfbce696ca"
],
"DefaultConfig_v8" : [
"16e8b6d4fcbd43bfbce696ca"
],
"DefaultConfig_v9" : [
"16e8b6d4fcbd43bfbce696ca"
],
"DefaultConfig_v10" : [
"d77320a5562348a480adb5c2"
],
"DefaultConfig_v11" : [
"d77320a5562348a480adb5c2"
],
"DefaultConfig_v12" : [
"d77320a5562348a480adb5c2"
],
"DefaultConfig_v13" : [
"d77320a5562348a480adb5c2"
],
"DefaultConfig_v14" : [
"d77320a5562348a480adb5c2"
],
"DefaultConfig_v15" : [
"d77320a5562348a480adb5c2"
],
"DefaultConfig_v16" : [
"d77320a5562348a480adb5c2"
],
"DefaultConfig_v17" : [
"d77320a5562348a480adb5c2"
],
"DefaultConfig_v18" : [
"d77320a5562348a480adb5c2"
]
},
"entities.name" : {
"OTSROOT" : [
"16e8b6d4fcbd43bfbce696ca",
"8677d5e9efb841ee80ae4296",
"d77320a5562348a480adb5c2"
]
},
"aliases.active.name" : {

},
"runs.name" : {

},
"configurations.assigned" : {
"notprovided" : [
"2019-02-22T16:11:42.726-0600",
"2019-07-22T11:24:55.404-0500",
"2019-11-20T15:12:18.222-0600"
],
"DefaultConfig_v1" : [
"2019-02-22T16:11:43.015-0600"
],
"DefaultConfig_v2" : [
"2019-07-22T11:27:30.289-0500"
],
"DefaultConfig_v3" : [
"2019-07-22T14:43:10.155-0500"
],
"DefaultConfig_v4" : [
"2019-07-22T14:47:01.321-0500"
],
"DefaultConfig_v5" : [
"2019-07-22T15:05:41.390-0500"
],
"DefaultConfig_v6" : [
"2019-07-23T09:00:31.869-0500"
],
"DefaultConfig_v7" : [
"2019-07-23T09:04:43.577-0500"
],
"DefaultConfig_v8" : [
"2019-07-23T09:48:11.681-0500"
],
"DefaultConfig_v9" : [
"2019-08-07T11:00:29.277-0500"
],
"DefaultConfig_v10" : [
"2019-11-20T15:25:38.472-0600"
],
"DefaultConfig_v11" : [
"2019-11-20T15:28:12.495-0600"
],
"DefaultConfig_v12" : [
"2019-11-20T15:58:29.785-0600"
],
"DefaultConfig_v13" : [
"2019-11-20T16:23:03.499-0600"
],
"DefaultConfig_v14" : [
"2019-11-20T16:24:45.622-0600"
],
"DefaultConfig_v15" : [
"2019-11-20T16:27:46.460-0600"
],
"DefaultConfig_v16" : [
"2019-11-20T16:42:10.995-0600"
],
"DefaultConfig_v17" : [
"2019-12-09T19:33:37.579-0600"
],
"DefaultConfig_v18" : [
"2019-12-10T14:21:51.073-0600"
]
}
}