{
"document" : {
"data" : {
"NAME" : "GROUP_ALIASES_CONFIGURATION",
"COMMENT" : "Default for Mini Module",
"AUTHOR" : "admin",
"CREATION_TIME" : 1499460059,
"COL_TYPES" : {
"GROUP_KEY_ALIAS" : "VARCHAR2",
"GROUP_NAME" : "VARCHAR2",
"GROUP_KEY" : "VARCHAR2",
"COMMENT_DESCRIPTION" : "VARCHAR2",
"AUTHOR" : "VARCHAR2",
"RECORD_INSERTION_TIME" : "TIMESTAMP WITH TIMEZONE"
},
"DATA_SET" : [
{
"GROUP_KEY_ALIAS" : "OTMiniModuleContext",
"GROUP_NAME" : "OTMiniModuleContext",
"GROUP_KEY" : "4",
"COMMENT_DESCRIPTION" : "default safe context",
"AUTHOR" : "admin",
"RECORD_INSERTION_TIME" : "1498146097"
},
{
"GROUP_KEY_ALIAS" : "OTMiniModuleConfiguration",
"GROUP_NAME" : "OTMiniModuleConfiguration",
"GROUP_KEY" : "0",
"COMMENT_DESCRIPTION" : "This Group Alias was automatically setup by the server.",
"AUTHOR" : "admin",
"RECORD_INSERTION_TIME" : "1497993394"
},
{
"GROUP_KEY_ALIAS" : "OTD19CModuleConfiguration",
"GROUP_NAME" : "OTMiniModuleConfiguration",
"GROUP_KEY" : "1",
"COMMENT_DESCRIPTION" : "This Group Alias was automatically setup by the server.",
"AUTHOR" : "admin",
"RECORD_INSERTION_TIME" : "1498749047"
},
{
"GROUP_KEY_ALIAS" : "OTD19CVisualizerConfiguration",
"GROUP_NAME" : "OTMiniModuleConfiguration",
"GROUP_KEY" : "10",
"COMMENT_DESCRIPTION" : "This Group Alias was automatically setup by the server.",
"AUTHOR" : "admin",
"RECORD_INSERTION_TIME" : "1499460059"
},
{
"GROUP_KEY_ALIAS" : "OTMiniModuleVisualizerContext",
"GROUP_NAME" : "OTMiniModuleContext",
"GROUP_KEY" : "5",
"COMMENT_DESCRIPTION" : "This Group Alias was automatically setup by the server.",
"AUTHOR" : "admin",
"RECORD_INSERTION_TIME" : "1499007348"
}
]
},
"metadata" : {

},
"search" : [

]
},
"comments" : [

],
"origin" : {
"source" : "template",
"name" : "notprovided",
"format" : "json",
"created" : "Fri Jul 07 22:54:23 2017",
"rawdata" : [

]
},
"version" : "5",
"entities" : [
{
"name" : "OTSROOT",
"assigned" : "Fri Jul 07 22:54:23 2017"
}
],
"configurations" : [
{
"name" : "notprovided",
"assigned" : "Fri Jul 07 22:54:23 2017"
},
{
"name" : "TableEditWizBackone_v5",
"assigned" : "Fri Jul 07 22:54:23 2017"
}
],
"changelog" : "notprovided",
"bookkeeping" : {
"isdeleted" : false,
"isreadonly" : false,
"updates" : [
{
"event" : "addConfiguration",
"timestamp" : "Fri Jul 07 22:54:23 2017",
"value" : {
"name" : "notprovided",
"assigned" : "Fri Jul 07 22:54:23 2017"
}
},
{
"event" : "setVersion",
"timestamp" : "Fri Jul 07 22:54:23 2017",
"value" : {
"name" : "5",
"assigned" : "Fri Jul 07 22:54:23 2017"
}
},
{
"event" : "setCollection",
"timestamp" : "Fri Jul 07 22:54:23 2017",
"value" : {
"name" : "GroupAliasesConfiguration",
"assigned" : "Fri Jul 07 22:54:23 2017"
}
},
{
"event" : "addEntity",
"timestamp" : "Fri Jul 07 22:54:23 2017",
"value" : {
"name" : "OTSROOT",
"assigned" : "Fri Jul 07 22:54:23 2017"
}
},
{
"event" : "addConfiguration",
"timestamp" : "Fri Jul 07 22:54:23 2017",
"value" : {
"name" : "TableEditWizBackone_v5",
"assigned" : "Fri Jul 07 22:54:23 2017"
}
}
],
"created" : "Fri Jul 07 22:54:23 2017"
},
"_id" : {
"$oid" : "ae1f0422e7d8431db2abe46c"
},
"collection" : "GroupAliasesConfiguration",
"aliases" : {
"active" : [

],
"history" : [

]
},
"runs" : [

],
"attachments" : [

],
"configtype" : "notprovided"
}