{
"ouid" : [
"16fdb59d8bac431f9e2e70ba",
"35c3f31ab04a43dbbab123dd"
],
"version" : {
"3" : [
"35c3f31ab04a43dbbab123dd"
],
"4" : [
"16fdb59d8bac431f9e2e70ba"
]
},
"configurations.name" : {
"notprovided" : [
"16fdb59d8bac431f9e2e70ba",
"35c3f31ab04a43dbbab123dd"
],
"OTMiniModuleContext_v3" : [
"35c3f31ab04a43dbbab123dd"
],
"OTMiniModuleContext_v4" : [
"16fdb59d8bac431f9e2e70ba"
]
},
"entities.name" : {
"OTSROOT" : [
"16fdb59d8bac431f9e2e70ba",
"35c3f31ab04a43dbbab123dd"
]
},
"aliases.active.name" : {

},
"runs.name" : {

}
}