{
"ouid" : [
"8df7fae40b894411a626f648",
"a2243744bdc04d8d9c428f64"
],
"version" : {
"0" : [
"a2243744bdc04d8d9c428f64"
],
"1" : [
"8df7fae40b894411a626f648"
]
},
"configurations.name" : {
"notprovided" : [
"8df7fae40b894411a626f648",
"a2243744bdc04d8d9c428f64"
],
"FTBFConfig_v0" : [
"a2243744bdc04d8d9c428f64"
],
"FTBFConfig_v1" : [
"a2243744bdc04d8d9c428f64"
],
"FTBFConfig_v2" : [
"a2243744bdc04d8d9c428f64"
],
"FTBFConfig_v3" : [
"a2243744bdc04d8d9c428f64"
],
"FTBFConfig_v4" : [
"a2243744bdc04d8d9c428f64"
],
"FTBFConfig_v5" : [
"a2243744bdc04d8d9c428f64"
],
"FTBFConfig_v6" : [
"a2243744bdc04d8d9c428f64"
],
"FTBFConfig_v7" : [
"a2243744bdc04d8d9c428f64"
],
"FTBFConfig_v8" : [
"a2243744bdc04d8d9c428f64"
],
"FTBFConfig_v9" : [
"a2243744bdc04d8d9c428f64"
],
"FTBFConfig_v10" : [
"a2243744bdc04d8d9c428f64"
],
"FTBFConfig_v11" : [
"a2243744bdc04d8d9c428f64"
],
"FTBFConfig_v12" : [
"a2243744bdc04d8d9c428f64"
],
"FTBFConfig_v13" : [
"a2243744bdc04d8d9c428f64"
],
"FTBFConfig_v14" : [
"a2243744bdc04d8d9c428f64"
],
"FTBFConfig_v15" : [
"a2243744bdc04d8d9c428f64"
],
"FTBFConfig_v16" : [
"8df7fae40b894411a626f648"
],
"FTBFConfig_v17" : [
"8df7fae40b894411a626f648"
],
"FTBFConfig_v18" : [
"8df7fae40b894411a626f648"
],
"FTBFConfig_v19" : [
"8df7fae40b894411a626f648"
],
"FTBFConfig_v20" : [
"8df7fae40b894411a626f648"
],
"FTBFConfig_v21" : [
"8df7fae40b894411a626f648"
],
"FTBFConfig_v22" : [
"8df7fae40b894411a626f648"
],
"FTBFConfig_v23" : [
"8df7fae40b894411a626f648"
],
"FTBFConfig_v24" : [
"8df7fae40b894411a626f648"
],
"FTBFConfig_v25" : [
"8df7fae40b894411a626f648"
],
"FTBFConfig_v26" : [
"8df7fae40b894411a626f648"
],
"FTBFConfig_v27" : [
"8df7fae40b894411a626f648"
],
"FTBFConfig_v28" : [
"8df7fae40b894411a626f648"
],
"FTBFConfig_v29" : [
"8df7fae40b894411a626f648"
],
"FTBFConfig_v30" : [
"8df7fae40b894411a626f648"
],
"FTBFConfig_v31" : [
"8df7fae40b894411a626f648"
],
"FTBFConfig_v32" : [
"8df7fae40b894411a626f648"
],
"FTBFConfig_v33" : [
"8df7fae40b894411a626f648"
],
"FTBFConfig_v34" : [
"8df7fae40b894411a626f648"
],
"FTBFConfig_v35" : [
"8df7fae40b894411a626f648"
],
"FTBFConfig_v36" : [
"8df7fae40b894411a626f648"
],
"FTBFConfig_v37" : [
"8df7fae40b894411a626f648"
],
"FTBFConfig_v38" : [
"8df7fae40b894411a626f648"
],
"FTBFConfig_v39" : [
"8df7fae40b894411a626f648"
],
"FTBFConfig_v40" : [
"8df7fae40b894411a626f648"
],
"FTBFConfig_v41" : [
"8df7fae40b894411a626f648"
],
"FTBFConfig_v42" : [
"8df7fae40b894411a626f648"
],
"FTBFConfig_v43" : [
"8df7fae40b894411a626f648"
],
"FTBFConfig_v44" : [
"8df7fae40b894411a626f648"
],
"FTBFConfig_v45" : [
"8df7fae40b894411a626f648"
],
"FTBFConfig_v46" : [
"8df7fae40b894411a626f648"
],
"FTBFConfig_v47" : [
"8df7fae40b894411a626f648"
],
"FTBFConfig_v48" : [
"8df7fae40b894411a626f648"
],
"FTBFConfig_v49" : [
"8df7fae40b894411a626f648"
],
"FTBFConfig_v51" : [
"8df7fae40b894411a626f648"
],
"FTBFConfig_v52" : [
"8df7fae40b894411a626f648"
],
"FTBFConfig_v53" : [
"8df7fae40b894411a626f648"
],
"FTBFConfig_v54" : [
"8df7fae40b894411a626f648"
],
"FTBFConfig_v55" : [
"8df7fae40b894411a626f648"
],
"FTBFConfig_v56" : [
"8df7fae40b894411a626f648"
],
"FTBFConfig_v57" : [
"8df7fae40b894411a626f648"
],
"FTBFConfig_v58" : [
"8df7fae40b894411a626f648"
],
"FTBFConfig_v59" : [
"8df7fae40b894411a626f648"
],
"FTBFConfig_v60" : [
"8df7fae40b894411a626f648"
],
"FTBFConfig_v61" : [
"8df7fae40b894411a626f648"
],
"FTBFConfig_v62" : [
"8df7fae40b894411a626f648"
],
"FTBFConfig_v63" : [
"8df7fae40b894411a626f648"
],
"FTBFConfig_v64" : [
"8df7fae40b894411a626f648"
],
"FTBFConfig_v65" : [
"8df7fae40b894411a626f648"
],
"FTBFConfig_v66" : [
"8df7fae40b894411a626f648"
],
"FTBFConfig_v67" : [
"8df7fae40b894411a626f648"
],
"FTBFConfig_v68" : [
"8df7fae40b894411a626f648"
],
"FTBFConfig_v69" : [
"8df7fae40b894411a626f648"
],
"FTBFConfig_v70" : [
"8df7fae40b894411a626f648"
],
"FTBFConfigNim_v0" : [
"8df7fae40b894411a626f648"
],
"FTBFConfigNim_v1" : [
"8df7fae40b894411a626f648"
],
"FTBFConfigNim_v2" : [
"8df7fae40b894411a626f648"
],
"FTBFConfigNim_v3" : [
"8df7fae40b894411a626f648"
],
"FTBFConfigNim_v4" : [
"8df7fae40b894411a626f648"
],
"FTBFConfigNim_v5" : [
"8df7fae40b894411a626f648"
],
"FTBFConfigNim_v6" : [
"8df7fae40b894411a626f648"
],
"FTBFConfigNim_v7" : [
"8df7fae40b894411a626f648"
],
"FTBFConfigNim_v8" : [
"8df7fae40b894411a626f648"
],
"FTBFConfigNim_v9" : [
"8df7fae40b894411a626f648"
],
"FTBFConfigNim_v10" : [
"8df7fae40b894411a626f648"
],
"FTBFConfigNim_v11" : [
"8df7fae40b894411a626f648"
],
"FTBFConfigNim_v12" : [
"8df7fae40b894411a626f648"
],
"FTBFConfigNim_v13" : [
"8df7fae40b894411a626f648"
],
"FTBFConfigNim_v14" : [
"8df7fae40b894411a626f648"
],
"FTBFConfigNim_v15" : [
"8df7fae40b894411a626f648"
],
"FTBFConfigNim_v16" : [
"8df7fae40b894411a626f648"
],
"FTBFConfigNim_v17" : [
"8df7fae40b894411a626f648"
],
"FTBFConfigNim_v18" : [
"8df7fae40b894411a626f648"
],
"FTBFConfigNim_v19" : [
"8df7fae40b894411a626f648"
],
"FTBFConfigNim_v20" : [
"8df7fae40b894411a626f648"
],
"FTBFConfigNim_v21" : [
"8df7fae40b894411a626f648"
],
"FTBFConfigNim_v22" : [
"8df7fae40b894411a626f648"
],
"FTBFConfigNim_v23" : [
"8df7fae40b894411a626f648"
],
"FTBFConfigNim_v24" : [
"8df7fae40b894411a626f648"
],
"FTBFConfigNim_v25" : [
"8df7fae40b894411a626f648"
],
"FTBFConfigNim_v26" : [
"8df7fae40b894411a626f648"
],
"FTBFConfigNim_v27" : [
"8df7fae40b894411a626f648"
],
"FTBFConfigNim_v28" : [
"8df7fae40b894411a626f648"
],
"FTBFConfigNim_v29" : [
"8df7fae40b894411a626f648"
],
"FTBFConfig_v71" : [
"8df7fae40b894411a626f648"
],
"FTBFConfig_v72" : [
"8df7fae40b894411a626f648"
],
"FTBFConfig_v73" : [
"8df7fae40b894411a626f648"
],
"FTBFConfig_v74" : [
"8df7fae40b894411a626f648"
],
"FTBFConfig_v75" : [
"8df7fae40b894411a626f648"
],
"FTBFConfig_v76" : [
"8df7fae40b894411a626f648"
],
"FTBFConfig_v77" : [
"8df7fae40b894411a626f648"
],
"FTBFConfig_v78" : [
"8df7fae40b894411a626f648"
],
"FTBFConfig_v79" : [
"8df7fae40b894411a626f648"
],
"FTBFConfig_v80" : [
"8df7fae40b894411a626f648"
],
"FTBFConfig_v81" : [
"8df7fae40b894411a626f648"
],
"FTBFConfig_v82" : [
"8df7fae40b894411a626f648"
],
"FTBFConfig_v83" : [
"8df7fae40b894411a626f648"
],
"FTBFConfig_v84" : [
"8df7fae40b894411a626f648"
],
"FTBFConfig_v85" : [
"8df7fae40b894411a626f648"
],
"FTBFConfig_v86" : [
"8df7fae40b894411a626f648"
],
"FTBFConfig_v87" : [
"8df7fae40b894411a626f648"
],
"FTBFConfig_v88" : [
"8df7fae40b894411a626f648"
],
"FTBFConfig_v89" : [
"8df7fae40b894411a626f648"
],
"FTBFConfig_v90" : [
"8df7fae40b894411a626f648"
],
"FTBFConfig_v91" : [
"8df7fae40b894411a626f648"
],
"FTBFConfig_v92" : [
"8df7fae40b894411a626f648"
],
"FTBFConfig_v93" : [
"8df7fae40b894411a626f648"
],
"FTBFConfig_v94" : [
"8df7fae40b894411a626f648"
],
"FTBFConfig_v95" : [
"8df7fae40b894411a626f648"
],
"FTBFConfig_v96" : [
"8df7fae40b894411a626f648"
],
"FTBFConfig_v97" : [
"8df7fae40b894411a626f648"
],
"FTBFConfig_v98" : [
"8df7fae40b894411a626f648"
],
"FTBFConfig_v99" : [
"8df7fae40b894411a626f648"
],
"FTBFConfig_v100" : [
"8df7fae40b894411a626f648"
],
"FTBFConfig_v101" : [
"8df7fae40b894411a626f648"
],
"FTBFConfig_v102" : [
"8df7fae40b894411a626f648"
],
"FTBFConfig_v103" : [
"8df7fae40b894411a626f648"
],
"FTBFConfig_v104" : [
"8df7fae40b894411a626f648"
],
"FTBFConfig_v105" : [
"8df7fae40b894411a626f648"
],
"FTBFConfig_v106" : [
"8df7fae40b894411a626f648"
],
"FTBFConfig_v107" : [
"8df7fae40b894411a626f648"
],
"FTBFConfig_v108" : [
"8df7fae40b894411a626f648"
],
"FTBFConfig_v109" : [
"8df7fae40b894411a626f648"
],
"FTBFConfig_v110" : [
"8df7fae40b894411a626f648"
],
"FTBFConfig_v111" : [
"8df7fae40b894411a626f648"
],
"FTBFConfig_v112" : [
"8df7fae40b894411a626f648"
],
"FTBFConfig_v113" : [
"8df7fae40b894411a626f648"
],
"FTBFConfig_v114" : [
"8df7fae40b894411a626f648"
],
"FTBFConfig_v115" : [
"8df7fae40b894411a626f648"
],
"FTBFConfig_v116" : [
"8df7fae40b894411a626f648"
],
"FTBFConfig_v117" : [
"8df7fae40b894411a626f648"
],
"FTBFConfig_v118" : [
"8df7fae40b894411a626f648"
],
"FTBFConfig_v119" : [
"8df7fae40b894411a626f648"
],
"FTBFConfig_v120" : [
"8df7fae40b894411a626f648"
],
"FTBFConfig_v121" : [
"8df7fae40b894411a626f648"
],
"FTBFConfig_v122" : [
"8df7fae40b894411a626f648"
],
"FTBFConfig_v123" : [
"8df7fae40b894411a626f648"
],
"FTBFConfig_v124" : [
"8df7fae40b894411a626f648"
],
"FTBFConfig_v125" : [
"8df7fae40b894411a626f648"
],
"FTBFConfig_v126" : [
"8df7fae40b894411a626f648"
],
"FTBFConfig_v127" : [
"8df7fae40b894411a626f648"
],
"FTBFConfig_v128" : [
"8df7fae40b894411a626f648"
],
"FTBFConfig_v129" : [
"8df7fae40b894411a626f648"
],
"FTBFConfig_v130" : [
"8df7fae40b894411a626f648"
],
"FTBFConfig_v131" : [
"8df7fae40b894411a626f648"
],
"FTBFConfig_v132" : [
"8df7fae40b894411a626f648"
],
"FTBFConfig_v133" : [
"8df7fae40b894411a626f648"
],
"FTBFConfig_v134" : [
"8df7fae40b894411a626f648"
],
"FTBFConfig_v135" : [
"8df7fae40b894411a626f648"
],
"FTBFConfig_v136" : [
"8df7fae40b894411a626f648"
],
"FTBFConfig_v137" : [
"8df7fae40b894411a626f648"
],
"FTBFConfig_v138" : [
"8df7fae40b894411a626f648"
],
"FTBFConfig_v139" : [
"8df7fae40b894411a626f648"
],
"FTBFConfig_v140" : [
"8df7fae40b894411a626f648"
],
"FTBFConfig_v141" : [
"8df7fae40b894411a626f648"
],
"FTBFConfig_v142" : [
"8df7fae40b894411a626f648"
]
},
"entities.name" : {
"OTSROOT" : [
"8df7fae40b894411a626f648",
"a2243744bdc04d8d9c428f64"
]
},
"aliases.active.name" : {

},
"runs.name" : {

},
"configurations.assigned" : {
"notprovided" : [
"2017-11-08T15:56:02.582-0600",
"2017-11-15T13:36:44.478-0600"
],
"FTBFConfig_v0" : [
"2017-11-08T15:56:05.185-0600"
],
"FTBFConfig_v1" : [
"2017-11-09T09:56:29.626-0600"
],
"FTBFConfig_v2" : [
"2017-11-09T10:05:58.585-0600"
],
"FTBFConfig_v3" : [
"2017-11-09T10:37:10.146-0600"
],
"FTBFConfig_v4" : [
"2017-11-15T11:30:08.890-0600"
],
"FTBFConfig_v5" : [
"2017-11-15T11:54:55.653-0600"
],
"FTBFConfig_v6" : [
"2017-11-15T11:57:48.280-0600"
],
"FTBFConfig_v7" : [
"2017-11-15T12:42:30.694-0600"
],
"FTBFConfig_v8" : [
"2017-11-15T13:01:01.645-0600"
],
"FTBFConfig_v9" : [
"2017-11-15T13:02:55.024-0600"
],
"FTBFConfig_v10" : [
"2017-11-15T13:04:22.611-0600"
],
"FTBFConfig_v11" : [
"2017-11-15T13:07:50.080-0600"
],
"FTBFConfig_v12" : [
"2017-11-15T13:11:57.510-0600"
],
"FTBFConfig_v13" : [
"2017-11-15T13:13:51.472-0600"
],
"FTBFConfig_v14" : [
"2017-11-15T13:27:24.683-0600"
],
"FTBFConfig_v15" : [
"2017-11-15T13:35:45.415-0600"
],
"FTBFConfig_v16" : [
"2017-11-15T13:36:50.050-0600"
],
"FTBFConfig_v17" : [
"2017-11-15T15:33:28.594-0600"
],
"FTBFConfig_v18" : [
"2017-11-15T15:35:32.166-0600"
],
"FTBFConfig_v19" : [
"2017-11-15T15:38:01.020-0600"
],
"FTBFConfig_v20" : [
"2017-11-15T16:26:28.658-0600"
],
"FTBFConfig_v21" : [
"2017-11-16T09:22:29.817-0600"
],
"FTBFConfig_v22" : [
"2017-11-17T10:23:26.001-0600"
],
"FTBFConfig_v23" : [
"2017-11-17T17:26:43.512-0600"
],
"FTBFConfig_v24" : [
"2017-11-17T17:58:23.947-0600"
],
"FTBFConfig_v25" : [
"2017-11-17T18:24:43.636-0600"
],
"FTBFConfig_v26" : [
"2017-11-17T18:32:20.452-0600"
],
"FTBFConfig_v27" : [
"2017-11-17T18:43:27.571-0600"
],
"FTBFConfig_v28" : [
"2017-11-17T18:48:29.583-0600"
],
"FTBFConfig_v29" : [
"2017-11-20T14:48:28.856-0600"
],
"FTBFConfig_v30" : [
"2017-11-20T15:39:54.098-0600"
],
"FTBFConfig_v31" : [
"2017-11-20T16:41:00.075-0600"
],
"FTBFConfig_v32" : [
"2017-11-20T18:55:32.880-0600"
],
"FTBFConfig_v33" : [
"2017-11-20T18:57:28.167-0600"
],
"FTBFConfig_v34" : [
"2017-11-29T17:50:37.644-0600"
],
"FTBFConfig_v35" : [
"2017-11-29T18:00:30.513-0600"
],
"FTBFConfig_v36" : [
"2017-11-29T18:35:09.376-0600"
],
"FTBFConfig_v37" : [
"2017-12-01T09:36:15.561-0600"
],
"FTBFConfig_v38" : [
"2017-12-01T09:51:58.915-0600"
],
"FTBFConfig_v39" : [
"2017-12-01T11:51:56.146-0600"
],
"FTBFConfig_v40" : [
"2017-12-01T12:18:18.118-0600"
],
"FTBFConfig_v41" : [
"2017-12-01T12:21:00.238-0600"
],
"FTBFConfig_v42" : [
"2017-12-01T12:43:19.355-0600"
],
"FTBFConfig_v43" : [
"2017-12-01T12:57:56.518-0600"
],
"FTBFConfig_v44" : [
"2017-12-01T13:00:49.134-0600"
],
"FTBFConfig_v45" : [
"2017-12-01T13:25:46.210-0600"
],
"FTBFConfig_v46" : [
"2017-12-01T13:35:41.030-0600"
],
"FTBFConfig_v47" : [
"2017-12-01T14:00:49.491-0600"
],
"FTBFConfig_v48" : [
"2017-12-01T14:03:56.730-0600"
],
"FTBFConfig_v49" : [
"2017-12-01T15:31:56.933-0600"
],
"FTBFConfig_v51" : [
"2017-12-01T15:36:48.340-0600"
],
"FTBFConfig_v52" : [
"2017-12-01T15:37:27.761-0600"
],
"FTBFConfig_v53" : [
"2017-12-01T15:40:56.448-0600"
],
"FTBFConfig_v54" : [
"2017-12-01T15:52:46.767-0600"
],
"FTBFConfig_v55" : [
"2017-12-01T15:54:31.895-0600"
],
"FTBFConfig_v56" : [
"2017-12-01T15:55:31.416-0600"
],
"FTBFConfig_v57" : [
"2017-12-01T15:56:37.212-0600"
],
"FTBFConfig_v58" : [
"2017-12-01T15:57:35.284-0600"
],
"FTBFConfig_v59" : [
"2017-12-01T15:58:27.176-0600"
],
"FTBFConfig_v60" : [
"2017-12-01T15:59:28.363-0600"
],
"FTBFConfig_v61" : [
"2017-12-01T16:19:38.073-0600"
],
"FTBFConfig_v62" : [
"2017-12-01T16:22:00.626-0600"
],
"FTBFConfig_v63" : [
"2017-12-01T16:31:21.232-0600"
],
"FTBFConfig_v64" : [
"2017-12-01T17:06:28.051-0600"
],
"FTBFConfig_v65" : [
"2017-12-01T17:32:40.425-0600"
],
"FTBFConfig_v66" : [
"2017-12-01T20:38:46.841-0600"
],
"FTBFConfig_v67" : [
"2017-12-01T21:24:58.309-0600"
],
"FTBFConfig_v68" : [
"2017-12-01T21:42:57.962-0600"
],
"FTBFConfig_v69" : [
"2017-12-01T21:44:56.576-0600"
],
"FTBFConfig_v70" : [
"2017-12-01T21:59:15.798-0600"
],
"FTBFConfigNim_v0" : [
"2017-12-01T22:00:02.496-0600"
],
"FTBFConfigNim_v1" : [
"2017-12-01T22:13:04.222-0600"
],
"FTBFConfigNim_v2" : [
"2017-12-01T22:15:51.430-0600"
],
"FTBFConfigNim_v3" : [
"2017-12-01T22:16:59.464-0600"
],
"FTBFConfigNim_v4" : [
"2017-12-01T22:19:02.500-0600"
],
"FTBFConfigNim_v5" : [
"2017-12-01T22:21:53.203-0600"
],
"FTBFConfigNim_v6" : [
"2017-12-01T22:23:09.355-0600"
],
"FTBFConfigNim_v7" : [
"2017-12-01T22:25:13.132-0600"
],
"FTBFConfigNim_v8" : [
"2017-12-01T22:27:00.660-0600"
],
"FTBFConfigNim_v9" : [
"2017-12-01T22:29:24.947-0600"
],
"FTBFConfigNim_v10" : [
"2017-12-01T22:52:30.040-0600"
],
"FTBFConfigNim_v11" : [
"2017-12-01T22:57:24.752-0600"
],
"FTBFConfigNim_v12" : [
"2017-12-01T23:00:03.091-0600"
],
"FTBFConfigNim_v13" : [
"2017-12-01T23:52:31.201-0600"
],
"FTBFConfigNim_v14" : [
"2017-12-01T23:58:05.594-0600"
],
"FTBFConfigNim_v15" : [
"2017-12-02T00:00:29.874-0600"
],
"FTBFConfigNim_v16" : [
"2017-12-02T00:13:04.957-0600"
],
"FTBFConfigNim_v17" : [
"2017-12-02T00:28:23.956-0600"
],
"FTBFConfigNim_v18" : [
"2017-12-02T00:29:29.993-0600"
],
"FTBFConfigNim_v19" : [
"2017-12-02T00:31:06.601-0600"
],
"FTBFConfigNim_v20" : [
"2017-12-02T00:57:22.969-0600"
],
"FTBFConfigNim_v21" : [
"2017-12-02T10:57:57.514-0600"
],
"FTBFConfigNim_v22" : [
"2017-12-02T11:08:13.678-0600"
],
"FTBFConfigNim_v23" : [
"2017-12-02T11:12:35.234-0600"
],
"FTBFConfigNim_v24" : [
"2017-12-02T11:18:38.050-0600"
],
"FTBFConfigNim_v25" : [
"2017-12-02T11:27:01.280-0600"
],
"FTBFConfigNim_v26" : [
"2017-12-02T11:38:32.316-0600"
],
"FTBFConfigNim_v27" : [
"2017-12-02T11:49:03.430-0600"
],
"FTBFConfigNim_v28" : [
"2017-12-02T11:55:04.896-0600"
],
"FTBFConfigNim_v29" : [
"2017-12-02T12:06:21.711-0600"
],
"FTBFConfig_v71" : [
"2017-12-02T12:24:10.347-0600"
],
"FTBFConfig_v72" : [
"2017-12-02T12:43:31.126-0600"
],
"FTBFConfig_v73" : [
"2017-12-02T13:55:30.704-0600"
],
"FTBFConfig_v74" : [
"2017-12-02T14:09:02.987-0600"
],
"FTBFConfig_v75" : [
"2017-12-02T14:12:13.832-0600"
],
"FTBFConfig_v76" : [
"2017-12-02T19:05:48.949-0600"
],
"FTBFConfig_v77" : [
"2017-12-02T19:12:08.746-0600"
],
"FTBFConfig_v78" : [
"2017-12-03T14:03:43.942-0600"
],
"FTBFConfig_v79" : [
"2017-12-03T14:09:02.103-0600"
],
"FTBFConfig_v80" : [
"2017-12-03T14:11:05.857-0600"
],
"FTBFConfig_v81" : [
"2017-12-03T14:22:28.897-0600"
],
"FTBFConfig_v82" : [
"2017-12-03T14:40:33.657-0600"
],
"FTBFConfig_v83" : [
"2017-12-03T14:45:00.944-0600"
],
"FTBFConfig_v84" : [
"2017-12-04T14:51:26.403-0600"
],
"FTBFConfig_v85" : [
"2017-12-04T14:55:39.548-0600"
],
"FTBFConfig_v86" : [
"2017-12-04T16:51:02.499-0600"
],
"FTBFConfig_v87" : [
"2017-12-04T16:56:43.126-0600"
],
"FTBFConfig_v88" : [
"2017-12-04T17:01:07.826-0600"
],
"FTBFConfig_v89" : [
"2017-12-04T17:03:52.914-0600"
],
"FTBFConfig_v90" : [
"2017-12-04T17:07:12.530-0600"
],
"FTBFConfig_v91" : [
"2017-12-04T17:09:21.646-0600"
],
"FTBFConfig_v92" : [
"2017-12-04T17:11:34.101-0600"
],
"FTBFConfig_v93" : [
"2017-12-04T21:05:16.714-0600"
],
"FTBFConfig_v94" : [
"2017-12-04T21:17:07.563-0600"
],
"FTBFConfig_v95" : [
"2017-12-04T21:41:13.296-0600"
],
"FTBFConfig_v96" : [
"2017-12-04T22:38:57.900-0600"
],
"FTBFConfig_v97" : [
"2017-12-04T23:01:08.414-0600"
],
"FTBFConfig_v98" : [
"2017-12-07T11:07:42.430-0600"
],
"FTBFConfig_v99" : [
"2017-12-07T11:49:55.108-0600"
],
"FTBFConfig_v100" : [
"2017-12-07T11:58:21.822-0600"
],
"FTBFConfig_v101" : [
"2017-12-08T13:30:43.896-0600"
],
"FTBFConfig_v102" : [
"2017-12-08T13:32:30.789-0600"
],
"FTBFConfig_v103" : [
"2017-12-12T11:03:00.556-0600"
],
"FTBFConfig_v104" : [
"2017-12-12T13:50:54.827-0600"
],
"FTBFConfig_v105" : [
"2017-12-12T15:25:00.814-0600"
],
"FTBFConfig_v106" : [
"2017-12-13T10:24:19.299-0600"
],
"FTBFConfig_v107" : [
"2017-12-13T10:26:58.060-0600"
],
"FTBFConfig_v108" : [
"2018-02-01T21:14:21.349-0600"
],
"FTBFConfig_v109" : [
"2018-02-01T21:20:58.440-0600"
],
"FTBFConfig_v110" : [
"2018-02-02T11:25:29.380-0600"
],
"FTBFConfig_v111" : [
"2018-02-02T11:37:08.210-0600"
],
"FTBFConfig_v112" : [
"2018-02-02T11:47:10.658-0600"
],
"FTBFConfig_v113" : [
"2018-02-02T11:53:31.904-0600"
],
"FTBFConfig_v114" : [
"2018-02-02T12:00:47.960-0600"
],
"FTBFConfig_v115" : [
"2018-02-02T12:27:09.459-0600"
],
"FTBFConfig_v116" : [
"2018-02-02T14:28:48.974-0600"
],
"FTBFConfig_v117" : [
"2018-02-02T14:30:15.293-0600"
],
"FTBFConfig_v118" : [
"2018-02-02T14:33:56.489-0600"
],
"FTBFConfig_v119" : [
"2018-02-02T14:36:23.074-0600"
],
"FTBFConfig_v120" : [
"2018-02-02T14:38:36.457-0600"
],
"FTBFConfig_v121" : [
"2018-02-02T14:41:45.769-0600"
],
"FTBFConfig_v122" : [
"2018-02-02T14:50:19.754-0600"
],
"FTBFConfig_v123" : [
"2018-02-02T14:52:52.624-0600"
],
"FTBFConfig_v124" : [
"2018-02-02T14:59:45.942-0600"
],
"FTBFConfig_v125" : [
"2018-02-02T15:04:04.025-0600"
],
"FTBFConfig_v126" : [
"2018-02-02T15:50:07.234-0600"
],
"FTBFConfig_v127" : [
"2018-02-02T15:51:26.699-0600"
],
"FTBFConfig_v128" : [
"2018-02-02T15:52:31.863-0600"
],
"FTBFConfig_v129" : [
"2018-02-02T16:02:40.731-0600"
],
"FTBFConfig_v130" : [
"2018-02-02T16:08:40.245-0600"
],
"FTBFConfig_v131" : [
"2018-02-02T16:11:26.029-0600"
],
"FTBFConfig_v132" : [
"2018-02-02T16:12:53.878-0600"
],
"FTBFConfig_v133" : [
"2018-02-02T16:14:24.440-0600"
],
"FTBFConfig_v134" : [
"2018-02-02T16:26:17.355-0600"
],
"FTBFConfig_v135" : [
"2018-02-02T16:27:04.466-0600"
],
"FTBFConfig_v136" : [
"2018-02-02T16:29:25.773-0600"
],
"FTBFConfig_v137" : [
"2018-02-02T16:31:36.276-0600"
],
"FTBFConfig_v138" : [
"2018-02-02T16:34:09.006-0600"
],
"FTBFConfig_v139" : [
"2018-02-02T17:39:25.032-0600"
],
"FTBFConfig_v140" : [
"2018-02-02T17:42:47.197-0600"
],
"FTBFConfig_v141" : [
"2018-02-02T17:47:32.359-0600"
],
"FTBFConfig_v142" : [
"2018-02-02T17:53:56.335-0600"
]
}
}