{
"ouid" : [
"e721bf94839f466b8e3ad76e"
],
"version" : {
"2" : [
"e721bf94839f466b8e3ad76e"
]
},
"configurations.name" : {
"notprovided" : [
"e721bf94839f466b8e3ad76e"
],
"DefaultContext_v2" : [
"e721bf94839f466b8e3ad76e"
],
"DefaultContext_v3" : [
"e721bf94839f466b8e3ad76e"
],
"DefaultContext_v4" : [
"e721bf94839f466b8e3ad76e"
],
"DefaultContext_v5" : [
"e721bf94839f466b8e3ad76e"
],
"DefaultContext_v6" : [
"e721bf94839f466b8e3ad76e"
],
"DefaultContext_v7" : [
"e721bf94839f466b8e3ad76e"
],
"DefaultContext_v8" : [
"e721bf94839f466b8e3ad76e"
],
"DefaultContext_v9" : [
"e721bf94839f466b8e3ad76e"
],
"DefaultContext_v10" : [
"e721bf94839f466b8e3ad76e"
]
},
"entities.name" : {
"OTSROOT" : [
"e721bf94839f466b8e3ad76e"
]
},
"aliases.active.name" : {

},
"runs.name" : {

},
"configurations.assigned" : {
"notprovided" : [
"2020-07-21T14:27:47.318-0500"
],
"DefaultContext_v2" : [
"2020-07-21T14:27:47.705-0500"
],
"DefaultContext_v3" : [
"2020-07-21T14:42:50.450-0500"
],
"DefaultContext_v4" : [
"2020-07-21T14:46:44.331-0500"
],
"DefaultContext_v5" : [
"2020-07-21T14:51:16.617-0500"
],
"DefaultContext_v6" : [
"2020-07-21T14:55:16.932-0500"
],
"DefaultContext_v7" : [
"2020-07-21T14:55:56.944-0500"
],
"DefaultContext_v8" : [
"2020-07-21T15:50:01.301-0500"
],
"DefaultContext_v9" : [
"2020-09-09T19:38:00.735+0200"
],
"DefaultContext_v10" : [
"2020-09-11T17:53:13.409+0200"
]
}
}