{
"document" : {
"data" : {
"NAME" : "FE_OTS_UDP_TEMPLATE_INTERFACE_CONFIGURATION",
"COMMENT" : "testing off",
"AUTHOR" : "admin",
"CREATION_TIME" : 1505424546,
"COL_TYPES" : {
"INTERFACE_ID" : "VARCHAR2",
"FIRMWARE_VERSION" : "NUMBER",
"INTERFACE_IP_ADDRESS" : "VARCHAR2",
"INTERFACE_PORT" : "NUMBER",
"HOST_IP_ADDRESS" : "VARCHAR2",
"HOST_PORT" : "NUMBER",
"STREAM_TO_IP_ADDRESS" : "VARCHAR2",
"STREAM_TO_PORT" : "NUMBER",
"COMMENT_DESCRIPTION" : "VARCHAR2",
"AUTHOR" : "VARCHAR2",
"RECORD_INSERTION_TIME" : "TIMESTAMP WITH TIMEZONE"
},
"DATA_SET" : [
{
"INTERFACE_ID" : "OtsInterface0",
"FIRMWARE_VERSION" : "-1",
"INTERFACE_IP_ADDRESS" : "127.0.0.1",
"INTERFACE_PORT" : "4000",
"HOST_IP_ADDRESS" : "127.0.0.1",
"HOST_PORT" : "4002",
"STREAM_TO_IP_ADDRESS" : "127.0.0.1",
"STREAM_TO_PORT" : "4121",
"COMMENT_DESCRIPTION" : "Using HW emulator port 4000",
"AUTHOR" : "admin",
"RECORD_INSERTION_TIME" : "1505424541"
},
{
"INTERFACE_ID" : "KC705_Interface0",
"FIRMWARE_VERSION" : "0",
"INTERFACE_IP_ADDRESS" : "192.168.133.4",
"INTERFACE_PORT" : "4020",
"HOST_IP_ADDRESS" : "127.0.0.1",
"HOST_PORT" : "4021",
"STREAM_TO_IP_ADDRESS" : "127.0.0.1",
"STREAM_TO_PORT" : "4131",
"COMMENT_DESCRIPTION" : "Using KC705 with data gen FW",
"AUTHOR" : "admin",
"RECORD_INSERTION_TIME" : "1480652283"
}
]
},
"metadata" : {

},
"search" : [

]
},
"comments" : [

],
"origin" : {
"source" : "template",
"name" : "notprovided",
"format" : "json",
"created" : "2017-11-08T15:56:03.787-0600",
"rawdata" : [

]
},
"version" : "0",
"entities" : [
{
"name" : "OTSROOT",
"assigned" : "2017-11-08T15:56:03.789-0600"
}
],
"configurations" : [
{
"name" : "notprovided",
"assigned" : "2017-11-08T15:56:03.788-0600"
},
{
"name" : "FTBFConfig_v0",
"assigned" : "2017-11-08T15:56:06.740-0600"
},
{
"name" : "FTBFConfig_v1",
"assigned" : "2017-11-09T09:56:31.476-0600"
},
{
"name" : "FTBFConfig_v2",
"assigned" : "2017-11-09T10:06:00.453-0600"
},
{
"name" : "FTBFConfig_v3",
"assigned" : "2017-11-09T10:37:12.032-0600"
},
{
"name" : "FTBFConfig_v4",
"assigned" : "2017-11-15T11:30:10.867-0600"
},
{
"name" : "FTBFConfig_v5",
"assigned" : "2017-11-15T11:54:57.698-0600"
},
{
"name" : "FTBFConfig_v6",
"assigned" : "2017-11-15T11:57:50.333-0600"
},
{
"name" : "FTBFConfig_v7",
"assigned" : "2017-11-15T12:42:32.787-0600"
},
{
"name" : "FTBFConfig_v8",
"assigned" : "2017-11-15T13:01:03.811-0600"
},
{
"name" : "FTBFConfig_v9",
"assigned" : "2017-11-15T13:02:57.173-0600"
},
{
"name" : "FTBFConfig_v10",
"assigned" : "2017-11-15T13:04:24.747-0600"
},
{
"name" : "FTBFConfig_v11",
"assigned" : "2017-11-15T13:07:52.253-0600"
},
{
"name" : "FTBFConfig_v12",
"assigned" : "2017-11-15T13:11:59.730-0600"
},
{
"name" : "FTBFConfig_v13",
"assigned" : "2017-11-15T13:13:53.679-0600"
},
{
"name" : "FTBFConfig_v14",
"assigned" : "2017-11-15T13:27:31.833-0600"
},
{
"name" : "FTBFConfig_v15",
"assigned" : "2017-11-15T13:35:47.681-0600"
},
{
"name" : "FTBFConfig_v16",
"assigned" : "2017-11-15T13:36:52.298-0600"
},
{
"name" : "FTBFConfig_v17",
"assigned" : "2017-11-15T15:33:30.848-0600"
},
{
"name" : "FTBFConfig_v18",
"assigned" : "2017-11-15T15:35:34.473-0600"
},
{
"name" : "FTBFConfig_v19",
"assigned" : "2017-11-15T15:38:03.336-0600"
},
{
"name" : "FTBFConfig_v20",
"assigned" : "2017-11-15T16:26:31.296-0600"
},
{
"name" : "FTBFConfig_v21",
"assigned" : "2017-11-16T09:22:32.144-0600"
},
{
"name" : "FTBFConfig_v22",
"assigned" : "2017-11-17T10:23:28.375-0600"
},
{
"name" : "FTBFConfig_v23",
"assigned" : "2017-11-17T17:26:45.951-0600"
},
{
"name" : "FTBFConfig_v24",
"assigned" : "2017-11-17T17:58:26.521-0600"
},
{
"name" : "FTBFConfig_v25",
"assigned" : "2017-11-17T18:24:46.165-0600"
},
{
"name" : "FTBFConfig_v26",
"assigned" : "2017-11-17T18:32:23.924-0600"
},
{
"name" : "FTBFConfig_v27",
"assigned" : "2017-11-17T18:43:31.110-0600"
},
{
"name" : "FTBFConfig_v28",
"assigned" : "2017-11-17T18:48:33.155-0600"
},
{
"name" : "FTBFConfig_v29",
"assigned" : "2017-11-20T14:48:31.614-0600"
},
{
"name" : "FTBFConfig_v30",
"assigned" : "2017-11-20T15:39:56.688-0600"
},
{
"name" : "FTBFConfig_v31",
"assigned" : "2017-11-20T16:41:02.721-0600"
},
{
"name" : "FTBFConfig_v32",
"assigned" : "2017-11-20T18:55:35.658-0600"
},
{
"name" : "FTBFConfig_v33",
"assigned" : "2017-11-20T18:57:30.960-0600"
},
{
"name" : "FTBFConfig_v34",
"assigned" : "2017-11-29T17:50:40.424-0600"
},
{
"name" : "FTBFConfig_v35",
"assigned" : "2017-11-29T18:00:33.375-0600"
},
{
"name" : "FTBFConfig_v36",
"assigned" : "2017-11-29T18:35:12.084-0600"
},
{
"name" : "FTBFConfig_v37",
"assigned" : "2017-12-01T09:36:18.785-0600"
},
{
"name" : "FTBFConfig_v38",
"assigned" : "2017-12-01T09:52:01.846-0600"
},
{
"name" : "FTBFConfig_v39",
"assigned" : "2017-12-01T11:51:59.119-0600"
},
{
"name" : "FTBFConfig_v40",
"assigned" : "2017-12-01T12:18:21.228-0600"
},
{
"name" : "FTBFConfig_v41",
"assigned" : "2017-12-01T12:21:03.226-0600"
},
{
"name" : "FTBFConfig_v42",
"assigned" : "2017-12-01T12:43:22.662-0600"
},
{
"name" : "FTBFConfig_v43",
"assigned" : "2017-12-01T12:58:00.502-0600"
},
{
"name" : "FTBFConfig_v44",
"assigned" : "2017-12-01T13:00:53.023-0600"
},
{
"name" : "FTBFConfig_v45",
"assigned" : "2017-12-01T13:25:49.582-0600"
},
{
"name" : "FTBFConfig_v46",
"assigned" : "2017-12-01T13:35:44.365-0600"
},
{
"name" : "FTBFConfig_v47",
"assigned" : "2017-12-01T14:00:52.638-0600"
},
{
"name" : "FTBFConfig_v48",
"assigned" : "2017-12-01T14:03:59.999-0600"
},
{
"name" : "FTBFConfig_v49",
"assigned" : "2017-12-01T15:32:00.167-0600"
},
{
"name" : "FTBFConfig_v52",
"assigned" : "2017-12-01T15:37:32.776-0600"
},
{
"name" : "FTBFConfig_v53",
"assigned" : "2017-12-01T15:40:59.667-0600"
},
{
"name" : "FTBFConfig_v54",
"assigned" : "2017-12-01T15:52:49.989-0600"
},
{
"name" : "FTBFConfig_v55",
"assigned" : "2017-12-01T15:54:35.164-0600"
},
{
"name" : "FTBFConfig_v56",
"assigned" : "2017-12-01T15:55:34.743-0600"
},
{
"name" : "FTBFConfig_v57",
"assigned" : "2017-12-01T15:56:40.581-0600"
},
{
"name" : "FTBFConfig_v58",
"assigned" : "2017-12-01T15:57:38.630-0600"
},
{
"name" : "FTBFConfig_v59",
"assigned" : "2017-12-01T15:58:30.549-0600"
},
{
"name" : "FTBFConfig_v60",
"assigned" : "2017-12-01T15:59:31.764-0600"
},
{
"name" : "FTBFConfig_v61",
"assigned" : "2017-12-01T16:19:41.594-0600"
},
{
"name" : "FTBFConfig_v62",
"assigned" : "2017-12-01T16:22:04.076-0600"
},
{
"name" : "FTBFConfig_v63",
"assigned" : "2017-12-01T16:31:24.712-0600"
},
{
"name" : "FTBFConfig_v64",
"assigned" : "2017-12-01T17:06:32.012-0600"
},
{
"name" : "FTBFConfig_v65",
"assigned" : "2017-12-01T17:32:44.142-0600"
},
{
"name" : "FTBFConfig_v66",
"assigned" : "2017-12-01T20:38:50.587-0600"
},
{
"name" : "FTBFConfig_v67",
"assigned" : "2017-12-01T21:25:01.936-0600"
},
{
"name" : "FTBFConfig_v68",
"assigned" : "2017-12-01T21:43:01.631-0600"
},
{
"name" : "FTBFConfig_v69",
"assigned" : "2017-12-01T21:45:00.220-0600"
},
{
"name" : "FTBFConfig_v70",
"assigned" : "2017-12-01T21:59:19.500-0600"
},
{
"name" : "FTBFConfigNim_v0",
"assigned" : "2017-12-01T22:00:06.230-0600"
},
{
"name" : "FTBFConfigNim_v1",
"assigned" : "2017-12-01T22:13:07.996-0600"
},
{
"name" : "FTBFConfigNim_v2",
"assigned" : "2017-12-01T22:15:55.242-0600"
},
{
"name" : "FTBFConfigNim_v3",
"assigned" : "2017-12-01T22:17:03.800-0600"
},
{
"name" : "FTBFConfigNim_v4",
"assigned" : "2017-12-01T22:19:06.333-0600"
},
{
"name" : "FTBFConfigNim_v5",
"assigned" : "2017-12-01T22:21:57.106-0600"
},
{
"name" : "FTBFConfigNim_v6",
"assigned" : "2017-12-01T22:23:14.519-0600"
},
{
"name" : "FTBFConfigNim_v7",
"assigned" : "2017-12-01T22:25:17.093-0600"
},
{
"name" : "FTBFConfigNim_v8",
"assigned" : "2017-12-01T22:27:04.763-0600"
},
{
"name" : "FTBFConfigNim_v9",
"assigned" : "2017-12-01T22:29:28.899-0600"
},
{
"name" : "FTBFConfigNim_v10",
"assigned" : "2017-12-01T22:52:34.219-0600"
},
{
"name" : "FTBFConfigNim_v11",
"assigned" : "2017-12-01T22:57:28.899-0600"
},
{
"name" : "FTBFConfigNim_v12",
"assigned" : "2017-12-01T23:00:07.091-0600"
},
{
"name" : "FTBFConfigNim_v13",
"assigned" : "2017-12-01T23:52:35.236-0600"
},
{
"name" : "FTBFConfigNim_v14",
"assigned" : "2017-12-01T23:58:09.685-0600"
},
{
"name" : "FTBFConfigNim_v15",
"assigned" : "2017-12-02T00:00:33.911-0600"
},
{
"name" : "FTBFConfigNim_v16",
"assigned" : "2017-12-02T00:13:09.136-0600"
},
{
"name" : "FTBFConfigNim_v17",
"assigned" : "2017-12-02T00:28:28.036-0600"
},
{
"name" : "FTBFConfigNim_v18",
"assigned" : "2017-12-02T00:29:34.099-0600"
},
{
"name" : "FTBFConfigNim_v19",
"assigned" : "2017-12-02T00:31:12.949-0600"
},
{
"name" : "FTBFConfigNim_v20",
"assigned" : "2017-12-02T00:57:27.137-0600"
},
{
"name" : "FTBFConfigNim_v21",
"assigned" : "2017-12-02T10:58:01.683-0600"
},
{
"name" : "FTBFConfigNim_v22",
"assigned" : "2017-12-02T11:08:17.890-0600"
},
{
"name" : "FTBFConfigNim_v23",
"assigned" : "2017-12-02T11:12:39.510-0600"
},
{
"name" : "FTBFConfigNim_v24",
"assigned" : "2017-12-02T11:18:42.375-0600"
},
{
"name" : "FTBFConfigNim_v25",
"assigned" : "2017-12-02T11:27:05.571-0600"
},
{
"name" : "FTBFConfigNim_v26",
"assigned" : "2017-12-02T11:38:36.615-0600"
},
{
"name" : "FTBFConfigNim_v27",
"assigned" : "2017-12-02T11:49:07.818-0600"
},
{
"name" : "FTBFConfigNim_v28",
"assigned" : "2017-12-02T11:55:09.332-0600"
},
{
"name" : "FTBFConfigNim_v29",
"assigned" : "2017-12-02T12:06:26.114-0600"
},
{
"name" : "FTBFConfig_v71",
"assigned" : "2017-12-02T12:24:14.775-0600"
},
{
"name" : "FTBFConfig_v72",
"assigned" : "2017-12-02T12:43:35.652-0600"
},
{
"name" : "FTBFConfig_v73",
"assigned" : "2017-12-02T13:55:35.317-0600"
},
{
"name" : "FTBFConfig_v75",
"assigned" : "2017-12-02T14:12:18.506-0600"
},
{
"name" : "FTBFConfig_v76",
"assigned" : "2017-12-02T19:05:53.558-0600"
},
{
"name" : "FTBFConfig_v77",
"assigned" : "2017-12-02T19:12:13.383-0600"
},
{
"name" : "FTBFConfig_v78",
"assigned" : "2017-12-03T14:03:48.534-0600"
},
{
"name" : "FTBFConfig_v79",
"assigned" : "2017-12-03T14:09:06.798-0600"
},
{
"name" : "FTBFConfig_v80",
"assigned" : "2017-12-03T14:11:10.530-0600"
},
{
"name" : "FTBFConfig_v81",
"assigned" : "2017-12-03T14:22:33.590-0600"
},
{
"name" : "FTBFConfig_v82",
"assigned" : "2017-12-03T14:40:38.403-0600"
},
{
"name" : "FTBFConfig_v83",
"assigned" : "2017-12-03T14:45:05.754-0600"
},
{
"name" : "FTBFConfig_v84",
"assigned" : "2017-12-04T14:51:31.049-0600"
},
{
"name" : "FTBFConfig_v85",
"assigned" : "2017-12-04T14:55:44.241-0600"
},
{
"name" : "FTBFConfig_v86",
"assigned" : "2017-12-04T16:51:07.299-0600"
},
{
"name" : "FTBFConfig_v87",
"assigned" : "2017-12-04T16:56:47.939-0600"
},
{
"name" : "FTBFConfig_v88",
"assigned" : "2017-12-04T17:01:12.676-0600"
},
{
"name" : "FTBFConfig_v89",
"assigned" : "2017-12-04T17:03:57.790-0600"
},
{
"name" : "FTBFConfig_v90",
"assigned" : "2017-12-04T17:07:17.438-0600"
},
{
"name" : "FTBFConfig_v91",
"assigned" : "2017-12-04T17:09:26.560-0600"
},
{
"name" : "FTBFConfig_v92",
"assigned" : "2017-12-04T17:11:39.085-0600"
},
{
"name" : "FTBFConfig_v93",
"assigned" : "2017-12-04T21:05:21.626-0600"
},
{
"name" : "FTBFConfig_v94",
"assigned" : "2017-12-04T21:17:12.596-0600"
},
{
"name" : "FTBFConfig_v95",
"assigned" : "2017-12-04T21:41:18.243-0600"
},
{
"name" : "FTBFConfig_v96",
"assigned" : "2017-12-04T22:39:02.902-0600"
},
{
"name" : "FTBFConfig_v97",
"assigned" : "2017-12-04T23:01:13.408-0600"
},
{
"name" : "FTBFConfig_v98",
"assigned" : "2017-12-07T11:07:47.409-0600"
},
{
"name" : "FTBFConfig_v99",
"assigned" : "2017-12-07T11:50:00.070-0600"
},
{
"name" : "FTBFConfig_v100",
"assigned" : "2017-12-07T11:58:26.819-0600"
},
{
"name" : "FTBFConfig_v101",
"assigned" : "2017-12-08T13:30:48.987-0600"
},
{
"name" : "FTBFConfig_v102",
"assigned" : "2017-12-08T13:32:35.851-0600"
},
{
"name" : "FTBFConfig_v103",
"assigned" : "2017-12-12T11:03:05.669-0600"
},
{
"name" : "FTBFConfig_v104",
"assigned" : "2017-12-12T13:51:00.186-0600"
},
{
"name" : "FTBFConfig_v105",
"assigned" : "2017-12-12T15:25:06.149-0600"
},
{
"name" : "FTBFConfig_v106",
"assigned" : "2017-12-13T10:24:24.476-0600"
},
{
"name" : "FTBFConfig_v107",
"assigned" : "2017-12-13T10:27:03.210-0600"
},
{
"name" : "FTBFConfig_v108",
"assigned" : "2018-02-01T21:14:26.843-0600"
},
{
"name" : "FTBFConfig_v109",
"assigned" : "2018-02-01T21:21:03.972-0600"
},
{
"name" : "FTBFConfig_v110",
"assigned" : "2018-02-02T11:25:34.933-0600"
},
{
"name" : "FTBFConfig_v111",
"assigned" : "2018-02-02T11:37:13.776-0600"
},
{
"name" : "FTBFConfig_v112",
"assigned" : "2018-02-02T11:47:16.280-0600"
},
{
"name" : "FTBFConfig_v113",
"assigned" : "2018-02-02T11:53:37.530-0600"
},
{
"name" : "FTBFConfig_v114",
"assigned" : "2018-02-02T12:00:53.645-0600"
},
{
"name" : "FTBFConfig_v115",
"assigned" : "2018-02-02T12:27:15.119-0600"
},
{
"name" : "FTBFConfig_v116",
"assigned" : "2018-02-02T14:28:54.638-0600"
},
{
"name" : "FTBFConfig_v117",
"assigned" : "2018-02-02T14:30:21.002-0600"
},
{
"name" : "FTBFConfig_v118",
"assigned" : "2018-02-02T14:34:02.251-0600"
},
{
"name" : "FTBFConfig_v119",
"assigned" : "2018-02-02T14:36:28.850-0600"
},
{
"name" : "FTBFConfig_v120",
"assigned" : "2018-02-02T14:38:42.212-0600"
},
{
"name" : "FTBFConfig_v121",
"assigned" : "2018-02-02T14:41:51.508-0600"
},
{
"name" : "FTBFConfig_v122",
"assigned" : "2018-02-02T14:50:25.594-0600"
},
{
"name" : "FTBFConfig_v123",
"assigned" : "2018-02-02T14:52:58.469-0600"
},
{
"name" : "FTBFConfig_v124",
"assigned" : "2018-02-02T14:59:51.782-0600"
},
{
"name" : "FTBFConfig_v125",
"assigned" : "2018-02-02T15:04:09.902-0600"
},
{
"name" : "FTBFConfig_v126",
"assigned" : "2018-02-02T15:50:13.150-0600"
},
{
"name" : "FTBFConfig_v127",
"assigned" : "2018-02-02T15:51:32.608-0600"
},
{
"name" : "FTBFConfig_v128",
"assigned" : "2018-02-02T15:52:37.769-0600"
},
{
"name" : "FTBFConfig_v129",
"assigned" : "2018-02-02T16:02:46.689-0600"
},
{
"name" : "FTBFConfig_v130",
"assigned" : "2018-02-02T16:08:46.239-0600"
},
{
"name" : "FTBFConfig_v131",
"assigned" : "2018-02-02T16:11:32.084-0600"
},
{
"name" : "FTBFConfig_v132",
"assigned" : "2018-02-02T16:12:59.951-0600"
},
{
"name" : "FTBFConfig_v133",
"assigned" : "2018-02-02T16:14:30.540-0600"
},
{
"name" : "FTBFConfig_v134",
"assigned" : "2018-02-02T16:26:23.468-0600"
},
{
"name" : "FTBFConfig_v135",
"assigned" : "2018-02-02T16:27:10.572-0600"
},
{
"name" : "FTBFConfig_v136",
"assigned" : "2018-02-02T16:29:31.933-0600"
},
{
"name" : "FTBFConfig_v137",
"assigned" : "2018-02-02T16:31:42.552-0600"
},
{
"name" : "FTBFConfig_v138",
"assigned" : "2018-02-02T16:34:15.227-0600"
},
{
"name" : "FTBFConfig_v139",
"assigned" : "2018-02-02T17:39:31.275-0600"
},
{
"name" : "FTBFConfig_v140",
"assigned" : "2018-02-02T17:42:53.456-0600"
},
{
"name" : "FTBFConfig_v141",
"assigned" : "2018-02-02T17:47:38.682-0600"
},
{
"name" : "FTBFConfig_v142",
"assigned" : "2018-02-02T17:54:02.674-0600"
}
],
"changelog" : "notprovided",
"bookkeeping" : {
"isdeleted" : false,
"isreadonly" : false,
"updates" : [
{
"event" : "addConfiguration",
"timestamp" : "2017-11-08T15:56:03.788-0600",
"value" : {
"name" : "notprovided",
"assigned" : "2017-11-08T15:56:03.788-0600"
}
},
{
"event" : "setVersion",
"timestamp" : "2017-11-08T15:56:03.788-0600",
"value" : {
"name" : "0",
"assigned" : "2017-11-08T15:56:03.788-0600"
}
},
{
"event" : "setCollection",
"timestamp" : "2017-11-08T15:56:03.788-0600",
"value" : {
"name" : "FEOtsUDPTemplateInterfaceConfiguration",
"assigned" : "2017-11-08T15:56:03.788-0600"
}
},
{
"event" : "addEntity",
"timestamp" : "2017-11-08T15:56:03.789-0600",
"value" : {
"name" : "OTSROOT",
"assigned" : "2017-11-08T15:56:03.789-0600"
}
},
{
"event" : "addConfiguration",
"timestamp" : "2017-11-08T15:56:06.740-0600",
"value" : {
"name" : "FTBFConfig_v0",
"assigned" : "2017-11-08T15:56:06.740-0600"
}
},
{
"event" : "addConfiguration",
"timestamp" : "2017-11-09T09:56:31.476-0600",
"value" : {
"name" : "FTBFConfig_v1",
"assigned" : "2017-11-09T09:56:31.476-0600"
}
},
{
"event" : "addConfiguration",
"timestamp" : "2017-11-09T10:06:00.453-0600",
"value" : {
"name" : "FTBFConfig_v2",
"assigned" : "2017-11-09T10:06:00.453-0600"
}
},
{
"event" : "addConfiguration",
"timestamp" : "2017-11-09T10:37:12.032-0600",
"value" : {
"name" : "FTBFConfig_v3",
"assigned" : "2017-11-09T10:37:12.032-0600"
}
},
{
"event" : "addConfiguration",
"timestamp" : "2017-11-15T11:30:10.867-0600",
"value" : {
"name" : "FTBFConfig_v4",
"assigned" : "2017-11-15T11:30:10.867-0600"
}
},
{
"event" : "addConfiguration",
"timestamp" : "2017-11-15T11:54:57.698-0600",
"value" : {
"name" : "FTBFConfig_v5",
"assigned" : "2017-11-15T11:54:57.698-0600"
}
},
{
"event" : "addConfiguration",
"timestamp" : "2017-11-15T11:57:50.333-0600",
"value" : {
"name" : "FTBFConfig_v6",
"assigned" : "2017-11-15T11:57:50.333-0600"
}
},
{
"event" : "addConfiguration",
"timestamp" : "2017-11-15T12:42:32.787-0600",
"value" : {
"name" : "FTBFConfig_v7",
"assigned" : "2017-11-15T12:42:32.787-0600"
}
},
{
"event" : "addConfiguration",
"timestamp" : "2017-11-15T13:01:03.811-0600",
"value" : {
"name" : "FTBFConfig_v8",
"assigned" : "2017-11-15T13:01:03.811-0600"
}
},
{
"event" : "addConfiguration",
"timestamp" : "2017-11-15T13:02:57.173-0600",
"value" : {
"name" : "FTBFConfig_v9",
"assigned" : "2017-11-15T13:02:57.173-0600"
}
},
{
"event" : "addConfiguration",
"timestamp" : "2017-11-15T13:04:24.747-0600",
"value" : {
"name" : "FTBFConfig_v10",
"assigned" : "2017-11-15T13:04:24.747-0600"
}
},
{
"event" : "addConfiguration",
"timestamp" : "2017-11-15T13:07:52.253-0600",
"value" : {
"name" : "FTBFConfig_v11",
"assigned" : "2017-11-15T13:07:52.253-0600"
}
},
{
"event" : "addConfiguration",
"timestamp" : "2017-11-15T13:11:59.730-0600",
"value" : {
"name" : "FTBFConfig_v12",
"assigned" : "2017-11-15T13:11:59.730-0600"
}
},
{
"event" : "addConfiguration",
"timestamp" : "2017-11-15T13:13:53.679-0600",
"value" : {
"name" : "FTBFConfig_v13",
"assigned" : "2017-11-15T13:13:53.679-0600"
}
},
{
"event" : "addConfiguration",
"timestamp" : "2017-11-15T13:27:31.833-0600",
"value" : {
"name" : "FTBFConfig_v14",
"assigned" : "2017-11-15T13:27:31.833-0600"
}
},
{
"event" : "addConfiguration",
"timestamp" : "2017-11-15T13:35:47.681-0600",
"value" : {
"name" : "FTBFConfig_v15",
"assigned" : "2017-11-15T13:35:47.681-0600"
}
},
{
"event" : "addConfiguration",
"timestamp" : "2017-11-15T13:36:52.298-0600",
"value" : {
"name" : "FTBFConfig_v16",
"assigned" : "2017-11-15T13:36:52.298-0600"
}
},
{
"event" : "addConfiguration",
"timestamp" : "2017-11-15T15:33:30.848-0600",
"value" : {
"name" : "FTBFConfig_v17",
"assigned" : "2017-11-15T15:33:30.848-0600"
}
},
{
"event" : "addConfiguration",
"timestamp" : "2017-11-15T15:35:34.473-0600",
"value" : {
"name" : "FTBFConfig_v18",
"assigned" : "2017-11-15T15:35:34.473-0600"
}
},
{
"event" : "addConfiguration",
"timestamp" : "2017-11-15T15:38:03.336-0600",
"value" : {
"name" : "FTBFConfig_v19",
"assigned" : "2017-11-15T15:38:03.336-0600"
}
},
{
"event" : "addConfiguration",
"timestamp" : "2017-11-15T16:26:31.296-0600",
"value" : {
"name" : "FTBFConfig_v20",
"assigned" : "2017-11-15T16:26:31.296-0600"
}
},
{
"event" : "addConfiguration",
"timestamp" : "2017-11-16T09:22:32.144-0600",
"value" : {
"name" : "FTBFConfig_v21",
"assigned" : "2017-11-16T09:22:32.144-0600"
}
},
{
"event" : "addConfiguration",
"timestamp" : "2017-11-17T10:23:28.375-0600",
"value" : {
"name" : "FTBFConfig_v22",
"assigned" : "2017-11-17T10:23:28.375-0600"
}
},
{
"event" : "addConfiguration",
"timestamp" : "2017-11-17T17:26:45.952-0600",
"value" : {
"name" : "FTBFConfig_v23",
"assigned" : "2017-11-17T17:26:45.951-0600"
}
},
{
"event" : "addConfiguration",
"timestamp" : "2017-11-17T17:58:26.521-0600",
"value" : {
"name" : "FTBFConfig_v24",
"assigned" : "2017-11-17T17:58:26.521-0600"
}
},
{
"event" : "addConfiguration",
"timestamp" : "2017-11-17T18:24:46.165-0600",
"value" : {
"name" : "FTBFConfig_v25",
"assigned" : "2017-11-17T18:24:46.165-0600"
}
},
{
"event" : "addConfiguration",
"timestamp" : "2017-11-17T18:32:23.924-0600",
"value" : {
"name" : "FTBFConfig_v26",
"assigned" : "2017-11-17T18:32:23.924-0600"
}
},
{
"event" : "addConfiguration",
"timestamp" : "2017-11-17T18:43:31.110-0600",
"value" : {
"name" : "FTBFConfig_v27",
"assigned" : "2017-11-17T18:43:31.110-0600"
}
},
{
"event" : "addConfiguration",
"timestamp" : "2017-11-17T18:48:33.155-0600",
"value" : {
"name" : "FTBFConfig_v28",
"assigned" : "2017-11-17T18:48:33.155-0600"
}
},
{
"event" : "addConfiguration",
"timestamp" : "2017-11-20T14:48:31.614-0600",
"value" : {
"name" : "FTBFConfig_v29",
"assigned" : "2017-11-20T14:48:31.614-0600"
}
},
{
"event" : "addConfiguration",
"timestamp" : "2017-11-20T15:39:56.688-0600",
"value" : {
"name" : "FTBFConfig_v30",
"assigned" : "2017-11-20T15:39:56.688-0600"
}
},
{
"event" : "addConfiguration",
"timestamp" : "2017-11-20T16:41:02.721-0600",
"value" : {
"name" : "FTBFConfig_v31",
"assigned" : "2017-11-20T16:41:02.721-0600"
}
},
{
"event" : "addConfiguration",
"timestamp" : "2017-11-20T18:55:35.658-0600",
"value" : {
"name" : "FTBFConfig_v32",
"assigned" : "2017-11-20T18:55:35.658-0600"
}
},
{
"event" : "addConfiguration",
"timestamp" : "2017-11-20T18:57:30.960-0600",
"value" : {
"name" : "FTBFConfig_v33",
"assigned" : "2017-11-20T18:57:30.960-0600"
}
},
{
"event" : "addConfiguration",
"timestamp" : "2017-11-29T17:50:40.424-0600",
"value" : {
"name" : "FTBFConfig_v34",
"assigned" : "2017-11-29T17:50:40.424-0600"
}
},
{
"event" : "addConfiguration",
"timestamp" : "2017-11-29T18:00:33.375-0600",
"value" : {
"name" : "FTBFConfig_v35",
"assigned" : "2017-11-29T18:00:33.375-0600"
}
},
{
"event" : "addConfiguration",
"timestamp" : "2017-11-29T18:35:12.084-0600",
"value" : {
"name" : "FTBFConfig_v36",
"assigned" : "2017-11-29T18:35:12.084-0600"
}
},
{
"event" : "addConfiguration",
"timestamp" : "2017-12-01T09:36:18.785-0600",
"value" : {
"name" : "FTBFConfig_v37",
"assigned" : "2017-12-01T09:36:18.785-0600"
}
},
{
"event" : "addConfiguration",
"timestamp" : "2017-12-01T09:52:01.846-0600",
"value" : {
"name" : "FTBFConfig_v38",
"assigned" : "2017-12-01T09:52:01.846-0600"
}
},
{
"event" : "addConfiguration",
"timestamp" : "2017-12-01T11:51:59.119-0600",
"value" : {
"name" : "FTBFConfig_v39",
"assigned" : "2017-12-01T11:51:59.119-0600"
}
},
{
"event" : "addConfiguration",
"timestamp" : "2017-12-01T12:18:21.228-0600",
"value" : {
"name" : "FTBFConfig_v40",
"assigned" : "2017-12-01T12:18:21.228-0600"
}
},
{
"event" : "addConfiguration",
"timestamp" : "2017-12-01T12:21:03.226-0600",
"value" : {
"name" : "FTBFConfig_v41",
"assigned" : "2017-12-01T12:21:03.226-0600"
}
},
{
"event" : "addConfiguration",
"timestamp" : "2017-12-01T12:43:22.662-0600",
"value" : {
"name" : "FTBFConfig_v42",
"assigned" : "2017-12-01T12:43:22.662-0600"
}
},
{
"event" : "addConfiguration",
"timestamp" : "2017-12-01T12:58:00.502-0600",
"value" : {
"name" : "FTBFConfig_v43",
"assigned" : "2017-12-01T12:58:00.502-0600"
}
},
{
"event" : "addConfiguration",
"timestamp" : "2017-12-01T13:00:53.023-0600",
"value" : {
"name" : "FTBFConfig_v44",
"assigned" : "2017-12-01T13:00:53.023-0600"
}
},
{
"event" : "addConfiguration",
"timestamp" : "2017-12-01T13:25:49.582-0600",
"value" : {
"name" : "FTBFConfig_v45",
"assigned" : "2017-12-01T13:25:49.582-0600"
}
},
{
"event" : "addConfiguration",
"timestamp" : "2017-12-01T13:35:44.365-0600",
"value" : {
"name" : "FTBFConfig_v46",
"assigned" : "2017-12-01T13:35:44.365-0600"
}
},
{
"event" : "addConfiguration",
"timestamp" : "2017-12-01T14:00:52.638-0600",
"value" : {
"name" : "FTBFConfig_v47",
"assigned" : "2017-12-01T14:00:52.638-0600"
}
},
{
"event" : "addConfiguration",
"timestamp" : "2017-12-01T14:03:59.999-0600",
"value" : {
"name" : "FTBFConfig_v48",
"assigned" : "2017-12-01T14:03:59.999-0600"
}
},
{
"event" : "addConfiguration",
"timestamp" : "2017-12-01T15:32:00.167-0600",
"value" : {
"name" : "FTBFConfig_v49",
"assigned" : "2017-12-01T15:32:00.167-0600"
}
},
{
"event" : "addConfiguration",
"timestamp" : "2017-12-01T15:37:32.776-0600",
"value" : {
"name" : "FTBFConfig_v52",
"assigned" : "2017-12-01T15:37:32.776-0600"
}
},
{
"event" : "addConfiguration",
"timestamp" : "2017-12-01T15:40:59.667-0600",
"value" : {
"name" : "FTBFConfig_v53",
"assigned" : "2017-12-01T15:40:59.667-0600"
}
},
{
"event" : "addConfiguration",
"timestamp" : "2017-12-01T15:52:49.990-0600",
"value" : {
"name" : "FTBFConfig_v54",
"assigned" : "2017-12-01T15:52:49.989-0600"
}
},
{
"event" : "addConfiguration",
"timestamp" : "2017-12-01T15:54:35.164-0600",
"value" : {
"name" : "FTBFConfig_v55",
"assigned" : "2017-12-01T15:54:35.164-0600"
}
},
{
"event" : "addConfiguration",
"timestamp" : "2017-12-01T15:55:34.743-0600",
"value" : {
"name" : "FTBFConfig_v56",
"assigned" : "2017-12-01T15:55:34.743-0600"
}
},
{
"event" : "addConfiguration",
"timestamp" : "2017-12-01T15:56:40.581-0600",
"value" : {
"name" : "FTBFConfig_v57",
"assigned" : "2017-12-01T15:56:40.581-0600"
}
},
{
"event" : "addConfiguration",
"timestamp" : "2017-12-01T15:57:38.630-0600",
"value" : {
"name" : "FTBFConfig_v58",
"assigned" : "2017-12-01T15:57:38.630-0600"
}
},
{
"event" : "addConfiguration",
"timestamp" : "2017-12-01T15:58:30.550-0600",
"value" : {
"name" : "FTBFConfig_v59",
"assigned" : "2017-12-01T15:58:30.549-0600"
}
},
{
"event" : "addConfiguration",
"timestamp" : "2017-12-01T15:59:31.764-0600",
"value" : {
"name" : "FTBFConfig_v60",
"assigned" : "2017-12-01T15:59:31.764-0600"
}
},
{
"event" : "addConfiguration",
"timestamp" : "2017-12-01T16:19:41.594-0600",
"value" : {
"name" : "FTBFConfig_v61",
"assigned" : "2017-12-01T16:19:41.594-0600"
}
},
{
"event" : "addConfiguration",
"timestamp" : "2017-12-01T16:22:04.076-0600",
"value" : {
"name" : "FTBFConfig_v62",
"assigned" : "2017-12-01T16:22:04.076-0600"
}
},
{
"event" : "addConfiguration",
"timestamp" : "2017-12-01T16:31:24.712-0600",
"value" : {
"name" : "FTBFConfig_v63",
"assigned" : "2017-12-01T16:31:24.712-0600"
}
},
{
"event" : "addConfiguration",
"timestamp" : "2017-12-01T17:06:32.012-0600",
"value" : {
"name" : "FTBFConfig_v64",
"assigned" : "2017-12-01T17:06:32.012-0600"
}
},
{
"event" : "addConfiguration",
"timestamp" : "2017-12-01T17:32:44.142-0600",
"value" : {
"name" : "FTBFConfig_v65",
"assigned" : "2017-12-01T17:32:44.142-0600"
}
},
{
"event" : "addConfiguration",
"timestamp" : "2017-12-01T20:38:50.587-0600",
"value" : {
"name" : "FTBFConfig_v66",
"assigned" : "2017-12-01T20:38:50.587-0600"
}
},
{
"event" : "addConfiguration",
"timestamp" : "2017-12-01T21:25:01.936-0600",
"value" : {
"name" : "FTBFConfig_v67",
"assigned" : "2017-12-01T21:25:01.936-0600"
}
},
{
"event" : "addConfiguration",
"timestamp" : "2017-12-01T21:43:01.631-0600",
"value" : {
"name" : "FTBFConfig_v68",
"assigned" : "2017-12-01T21:43:01.631-0600"
}
},
{
"event" : "addConfiguration",
"timestamp" : "2017-12-01T21:45:00.220-0600",
"value" : {
"name" : "FTBFConfig_v69",
"assigned" : "2017-12-01T21:45:00.220-0600"
}
},
{
"event" : "addConfiguration",
"timestamp" : "2017-12-01T21:59:19.500-0600",
"value" : {
"name" : "FTBFConfig_v70",
"assigned" : "2017-12-01T21:59:19.500-0600"
}
},
{
"event" : "addConfiguration",
"timestamp" : "2017-12-01T22:00:06.230-0600",
"value" : {
"name" : "FTBFConfigNim_v0",
"assigned" : "2017-12-01T22:00:06.230-0600"
}
},
{
"event" : "addConfiguration",
"timestamp" : "2017-12-01T22:13:07.997-0600",
"value" : {
"name" : "FTBFConfigNim_v1",
"assigned" : "2017-12-01T22:13:07.996-0600"
}
},
{
"event" : "addConfiguration",
"timestamp" : "2017-12-01T22:15:55.242-0600",
"value" : {
"name" : "FTBFConfigNim_v2",
"assigned" : "2017-12-01T22:15:55.242-0600"
}
},
{
"event" : "addConfiguration",
"timestamp" : "2017-12-01T22:17:03.800-0600",
"value" : {
"name" : "FTBFConfigNim_v3",
"assigned" : "2017-12-01T22:17:03.800-0600"
}
},
{
"event" : "addConfiguration",
"timestamp" : "2017-12-01T22:19:06.334-0600",
"value" : {
"name" : "FTBFConfigNim_v4",
"assigned" : "2017-12-01T22:19:06.333-0600"
}
},
{
"event" : "addConfiguration",
"timestamp" : "2017-12-01T22:21:57.106-0600",
"value" : {
"name" : "FTBFConfigNim_v5",
"assigned" : "2017-12-01T22:21:57.106-0600"
}
},
{
"event" : "addConfiguration",
"timestamp" : "2017-12-01T22:23:14.519-0600",
"value" : {
"name" : "FTBFConfigNim_v6",
"assigned" : "2017-12-01T22:23:14.519-0600"
}
},
{
"event" : "addConfiguration",
"timestamp" : "2017-12-01T22:25:17.093-0600",
"value" : {
"name" : "FTBFConfigNim_v7",
"assigned" : "2017-12-01T22:25:17.093-0600"
}
},
{
"event" : "addConfiguration",
"timestamp" : "2017-12-01T22:27:04.763-0600",
"value" : {
"name" : "FTBFConfigNim_v8",
"assigned" : "2017-12-01T22:27:04.763-0600"
}
},
{
"event" : "addConfiguration",
"timestamp" : "2017-12-01T22:29:28.899-0600",
"value" : {
"name" : "FTBFConfigNim_v9",
"assigned" : "2017-12-01T22:29:28.899-0600"
}
},
{
"event" : "addConfiguration",
"timestamp" : "2017-12-01T22:52:34.219-0600",
"value" : {
"name" : "FTBFConfigNim_v10",
"assigned" : "2017-12-01T22:52:34.219-0600"
}
},
{
"event" : "addConfiguration",
"timestamp" : "2017-12-01T22:57:28.899-0600",
"value" : {
"name" : "FTBFConfigNim_v11",
"assigned" : "2017-12-01T22:57:28.899-0600"
}
},
{
"event" : "addConfiguration",
"timestamp" : "2017-12-01T23:00:07.091-0600",
"value" : {
"name" : "FTBFConfigNim_v12",
"assigned" : "2017-12-01T23:00:07.091-0600"
}
},
{
"event" : "addConfiguration",
"timestamp" : "2017-12-01T23:52:35.236-0600",
"value" : {
"name" : "FTBFConfigNim_v13",
"assigned" : "2017-12-01T23:52:35.236-0600"
}
},
{
"event" : "addConfiguration",
"timestamp" : "2017-12-01T23:58:09.685-0600",
"value" : {
"name" : "FTBFConfigNim_v14",
"assigned" : "2017-12-01T23:58:09.685-0600"
}
},
{
"event" : "addConfiguration",
"timestamp" : "2017-12-02T00:00:33.911-0600",
"value" : {
"name" : "FTBFConfigNim_v15",
"assigned" : "2017-12-02T00:00:33.911-0600"
}
},
{
"event" : "addConfiguration",
"timestamp" : "2017-12-02T00:13:09.136-0600",
"value" : {
"name" : "FTBFConfigNim_v16",
"assigned" : "2017-12-02T00:13:09.136-0600"
}
},
{
"event" : "addConfiguration",
"timestamp" : "2017-12-02T00:28:28.036-0600",
"value" : {
"name" : "FTBFConfigNim_v17",
"assigned" : "2017-12-02T00:28:28.036-0600"
}
},
{
"event" : "addConfiguration",
"timestamp" : "2017-12-02T00:29:34.099-0600",
"value" : {
"name" : "FTBFConfigNim_v18",
"assigned" : "2017-12-02T00:29:34.099-0600"
}
},
{
"event" : "addConfiguration",
"timestamp" : "2017-12-02T00:31:12.950-0600",
"value" : {
"name" : "FTBFConfigNim_v19",
"assigned" : "2017-12-02T00:31:12.949-0600"
}
},
{
"event" : "addConfiguration",
"timestamp" : "2017-12-02T00:57:27.137-0600",
"value" : {
"name" : "FTBFConfigNim_v20",
"assigned" : "2017-12-02T00:57:27.137-0600"
}
},
{
"event" : "addConfiguration",
"timestamp" : "2017-12-02T10:58:01.684-0600",
"value" : {
"name" : "FTBFConfigNim_v21",
"assigned" : "2017-12-02T10:58:01.683-0600"
}
},
{
"event" : "addConfiguration",
"timestamp" : "2017-12-02T11:08:17.890-0600",
"value" : {
"name" : "FTBFConfigNim_v22",
"assigned" : "2017-12-02T11:08:17.890-0600"
}
},
{
"event" : "addConfiguration",
"timestamp" : "2017-12-02T11:12:39.510-0600",
"value" : {
"name" : "FTBFConfigNim_v23",
"assigned" : "2017-12-02T11:12:39.510-0600"
}
},
{
"event" : "addConfiguration",
"timestamp" : "2017-12-02T11:18:42.375-0600",
"value" : {
"name" : "FTBFConfigNim_v24",
"assigned" : "2017-12-02T11:18:42.375-0600"
}
},
{
"event" : "addConfiguration",
"timestamp" : "2017-12-02T11:27:05.571-0600",
"value" : {
"name" : "FTBFConfigNim_v25",
"assigned" : "2017-12-02T11:27:05.571-0600"
}
},
{
"event" : "addConfiguration",
"timestamp" : "2017-12-02T11:38:36.615-0600",
"value" : {
"name" : "FTBFConfigNim_v26",
"assigned" : "2017-12-02T11:38:36.615-0600"
}
},
{
"event" : "addConfiguration",
"timestamp" : "2017-12-02T11:49:07.818-0600",
"value" : {
"name" : "FTBFConfigNim_v27",
"assigned" : "2017-12-02T11:49:07.818-0600"
}
},
{
"event" : "addConfiguration",
"timestamp" : "2017-12-02T11:55:09.332-0600",
"value" : {
"name" : "FTBFConfigNim_v28",
"assigned" : "2017-12-02T11:55:09.332-0600"
}
},
{
"event" : "addConfiguration",
"timestamp" : "2017-12-02T12:06:26.114-0600",
"value" : {
"name" : "FTBFConfigNim_v29",
"assigned" : "2017-12-02T12:06:26.114-0600"
}
},
{
"event" : "addConfiguration",
"timestamp" : "2017-12-02T12:24:14.776-0600",
"value" : {
"name" : "FTBFConfig_v71",
"assigned" : "2017-12-02T12:24:14.775-0600"
}
},
{
"event" : "addConfiguration",
"timestamp" : "2017-12-02T12:43:35.652-0600",
"value" : {
"name" : "FTBFConfig_v72",
"assigned" : "2017-12-02T12:43:35.652-0600"
}
},
{
"event" : "addConfiguration",
"timestamp" : "2017-12-02T13:55:35.317-0600",
"value" : {
"name" : "FTBFConfig_v73",
"assigned" : "2017-12-02T13:55:35.317-0600"
}
},
{
"event" : "addConfiguration",
"timestamp" : "2017-12-02T14:12:18.507-0600",
"value" : {
"name" : "FTBFConfig_v75",
"assigned" : "2017-12-02T14:12:18.506-0600"
}
},
{
"event" : "addConfiguration",
"timestamp" : "2017-12-02T19:05:53.558-0600",
"value" : {
"name" : "FTBFConfig_v76",
"assigned" : "2017-12-02T19:05:53.558-0600"
}
},
{
"event" : "addConfiguration",
"timestamp" : "2017-12-02T19:12:13.383-0600",
"value" : {
"name" : "FTBFConfig_v77",
"assigned" : "2017-12-02T19:12:13.383-0600"
}
},
{
"event" : "addConfiguration",
"timestamp" : "2017-12-03T14:03:48.535-0600",
"value" : {
"name" : "FTBFConfig_v78",
"assigned" : "2017-12-03T14:03:48.534-0600"
}
},
{
"event" : "addConfiguration",
"timestamp" : "2017-12-03T14:09:06.799-0600",
"value" : {
"name" : "FTBFConfig_v79",
"assigned" : "2017-12-03T14:09:06.798-0600"
}
},
{
"event" : "addConfiguration",
"timestamp" : "2017-12-03T14:11:10.530-0600",
"value" : {
"name" : "FTBFConfig_v80",
"assigned" : "2017-12-03T14:11:10.530-0600"
}
},
{
"event" : "addConfiguration",
"timestamp" : "2017-12-03T14:22:33.590-0600",
"value" : {
"name" : "FTBFConfig_v81",
"assigned" : "2017-12-03T14:22:33.590-0600"
}
},
{
"event" : "addConfiguration",
"timestamp" : "2017-12-03T14:40:38.403-0600",
"value" : {
"name" : "FTBFConfig_v82",
"assigned" : "2017-12-03T14:40:38.403-0600"
}
},
{
"event" : "addConfiguration",
"timestamp" : "2017-12-03T14:45:05.754-0600",
"value" : {
"name" : "FTBFConfig_v83",
"assigned" : "2017-12-03T14:45:05.754-0600"
}
},
{
"event" : "addConfiguration",
"timestamp" : "2017-12-04T14:51:31.049-0600",
"value" : {
"name" : "FTBFConfig_v84",
"assigned" : "2017-12-04T14:51:31.049-0600"
}
},
{
"event" : "addConfiguration",
"timestamp" : "2017-12-04T14:55:44.241-0600",
"value" : {
"name" : "FTBFConfig_v85",
"assigned" : "2017-12-04T14:55:44.241-0600"
}
},
{
"event" : "addConfiguration",
"timestamp" : "2017-12-04T16:51:07.299-0600",
"value" : {
"name" : "FTBFConfig_v86",
"assigned" : "2017-12-04T16:51:07.299-0600"
}
},
{
"event" : "addConfiguration",
"timestamp" : "2017-12-04T16:56:47.940-0600",
"value" : {
"name" : "FTBFConfig_v87",
"assigned" : "2017-12-04T16:56:47.939-0600"
}
},
{
"event" : "addConfiguration",
"timestamp" : "2017-12-04T17:01:12.676-0600",
"value" : {
"name" : "FTBFConfig_v88",
"assigned" : "2017-12-04T17:01:12.676-0600"
}
},
{
"event" : "addConfiguration",
"timestamp" : "2017-12-04T17:03:57.790-0600",
"value" : {
"name" : "FTBFConfig_v89",
"assigned" : "2017-12-04T17:03:57.790-0600"
}
},
{
"event" : "addConfiguration",
"timestamp" : "2017-12-04T17:07:17.438-0600",
"value" : {
"name" : "FTBFConfig_v90",
"assigned" : "2017-12-04T17:07:17.438-0600"
}
},
{
"event" : "addConfiguration",
"timestamp" : "2017-12-04T17:09:26.560-0600",
"value" : {
"name" : "FTBFConfig_v91",
"assigned" : "2017-12-04T17:09:26.560-0600"
}
},
{
"event" : "addConfiguration",
"timestamp" : "2017-12-04T17:11:39.085-0600",
"value" : {
"name" : "FTBFConfig_v92",
"assigned" : "2017-12-04T17:11:39.085-0600"
}
},
{
"event" : "addConfiguration",
"timestamp" : "2017-12-04T21:05:21.626-0600",
"value" : {
"name" : "FTBFConfig_v93",
"assigned" : "2017-12-04T21:05:21.626-0600"
}
},
{
"event" : "addConfiguration",
"timestamp" : "2017-12-04T21:17:12.596-0600",
"value" : {
"name" : "FTBFConfig_v94",
"assigned" : "2017-12-04T21:17:12.596-0600"
}
},
{
"event" : "addConfiguration",
"timestamp" : "2017-12-04T21:41:18.244-0600",
"value" : {
"name" : "FTBFConfig_v95",
"assigned" : "2017-12-04T21:41:18.243-0600"
}
},
{
"event" : "addConfiguration",
"timestamp" : "2017-12-04T22:39:02.902-0600",
"value" : {
"name" : "FTBFConfig_v96",
"assigned" : "2017-12-04T22:39:02.902-0600"
}
},
{
"event" : "addConfiguration",
"timestamp" : "2017-12-04T23:01:13.408-0600",
"value" : {
"name" : "FTBFConfig_v97",
"assigned" : "2017-12-04T23:01:13.408-0600"
}
},
{
"event" : "addConfiguration",
"timestamp" : "2017-12-07T11:07:47.409-0600",
"value" : {
"name" : "FTBFConfig_v98",
"assigned" : "2017-12-07T11:07:47.409-0600"
}
},
{
"event" : "addConfiguration",
"timestamp" : "2017-12-07T11:50:00.070-0600",
"value" : {
"name" : "FTBFConfig_v99",
"assigned" : "2017-12-07T11:50:00.070-0600"
}
},
{
"event" : "addConfiguration",
"timestamp" : "2017-12-07T11:58:26.819-0600",
"value" : {
"name" : "FTBFConfig_v100",
"assigned" : "2017-12-07T11:58:26.819-0600"
}
},
{
"event" : "addConfiguration",
"timestamp" : "2017-12-08T13:30:48.987-0600",
"value" : {
"name" : "FTBFConfig_v101",
"assigned" : "2017-12-08T13:30:48.987-0600"
}
},
{
"event" : "addConfiguration",
"timestamp" : "2017-12-08T13:32:35.851-0600",
"value" : {
"name" : "FTBFConfig_v102",
"assigned" : "2017-12-08T13:32:35.851-0600"
}
},
{
"event" : "addConfiguration",
"timestamp" : "2017-12-12T11:03:05.669-0600",
"value" : {
"name" : "FTBFConfig_v103",
"assigned" : "2017-12-12T11:03:05.669-0600"
}
},
{
"event" : "addConfiguration",
"timestamp" : "2017-12-12T13:51:00.186-0600",
"value" : {
"name" : "FTBFConfig_v104",
"assigned" : "2017-12-12T13:51:00.186-0600"
}
},
{
"event" : "addConfiguration",
"timestamp" : "2017-12-12T15:25:06.149-0600",
"value" : {
"name" : "FTBFConfig_v105",
"assigned" : "2017-12-12T15:25:06.149-0600"
}
},
{
"event" : "addConfiguration",
"timestamp" : "2017-12-13T10:24:24.476-0600",
"value" : {
"name" : "FTBFConfig_v106",
"assigned" : "2017-12-13T10:24:24.476-0600"
}
},
{
"event" : "addConfiguration",
"timestamp" : "2017-12-13T10:27:03.210-0600",
"value" : {
"name" : "FTBFConfig_v107",
"assigned" : "2017-12-13T10:27:03.210-0600"
}
},
{
"event" : "addConfiguration",
"timestamp" : "2018-02-01T21:14:26.844-0600",
"value" : {
"name" : "FTBFConfig_v108",
"assigned" : "2018-02-01T21:14:26.843-0600"
}
},
{
"event" : "addConfiguration",
"timestamp" : "2018-02-01T21:21:03.972-0600",
"value" : {
"name" : "FTBFConfig_v109",
"assigned" : "2018-02-01T21:21:03.972-0600"
}
},
{
"event" : "addConfiguration",
"timestamp" : "2018-02-02T11:25:34.933-0600",
"value" : {
"name" : "FTBFConfig_v110",
"assigned" : "2018-02-02T11:25:34.933-0600"
}
},
{
"event" : "addConfiguration",
"timestamp" : "2018-02-02T11:37:13.776-0600",
"value" : {
"name" : "FTBFConfig_v111",
"assigned" : "2018-02-02T11:37:13.776-0600"
}
},
{
"event" : "addConfiguration",
"timestamp" : "2018-02-02T11:47:16.280-0600",
"value" : {
"name" : "FTBFConfig_v112",
"assigned" : "2018-02-02T11:47:16.280-0600"
}
},
{
"event" : "addConfiguration",
"timestamp" : "2018-02-02T11:53:37.530-0600",
"value" : {
"name" : "FTBFConfig_v113",
"assigned" : "2018-02-02T11:53:37.530-0600"
}
},
{
"event" : "addConfiguration",
"timestamp" : "2018-02-02T12:00:53.645-0600",
"value" : {
"name" : "FTBFConfig_v114",
"assigned" : "2018-02-02T12:00:53.645-0600"
}
},
{
"event" : "addConfiguration",
"timestamp" : "2018-02-02T12:27:15.119-0600",
"value" : {
"name" : "FTBFConfig_v115",
"assigned" : "2018-02-02T12:27:15.119-0600"
}
},
{
"event" : "addConfiguration",
"timestamp" : "2018-02-02T14:28:54.638-0600",
"value" : {
"name" : "FTBFConfig_v116",
"assigned" : "2018-02-02T14:28:54.638-0600"
}
},
{
"event" : "addConfiguration",
"timestamp" : "2018-02-02T14:30:21.002-0600",
"value" : {
"name" : "FTBFConfig_v117",
"assigned" : "2018-02-02T14:30:21.002-0600"
}
},
{
"event" : "addConfiguration",
"timestamp" : "2018-02-02T14:34:02.252-0600",
"value" : {
"name" : "FTBFConfig_v118",
"assigned" : "2018-02-02T14:34:02.251-0600"
}
},
{
"event" : "addConfiguration",
"timestamp" : "2018-02-02T14:36:28.850-0600",
"value" : {
"name" : "FTBFConfig_v119",
"assigned" : "2018-02-02T14:36:28.850-0600"
}
},
{
"event" : "addConfiguration",
"timestamp" : "2018-02-02T14:38:42.212-0600",
"value" : {
"name" : "FTBFConfig_v120",
"assigned" : "2018-02-02T14:38:42.212-0600"
}
},
{
"event" : "addConfiguration",
"timestamp" : "2018-02-02T14:41:51.508-0600",
"value" : {
"name" : "FTBFConfig_v121",
"assigned" : "2018-02-02T14:41:51.508-0600"
}
},
{
"event" : "addConfiguration",
"timestamp" : "2018-02-02T14:50:25.594-0600",
"value" : {
"name" : "FTBFConfig_v122",
"assigned" : "2018-02-02T14:50:25.594-0600"
}
},
{
"event" : "addConfiguration",
"timestamp" : "2018-02-02T14:52:58.470-0600",
"value" : {
"name" : "FTBFConfig_v123",
"assigned" : "2018-02-02T14:52:58.469-0600"
}
},
{
"event" : "addConfiguration",
"timestamp" : "2018-02-02T14:59:51.783-0600",
"value" : {
"name" : "FTBFConfig_v124",
"assigned" : "2018-02-02T14:59:51.782-0600"
}
},
{
"event" : "addConfiguration",
"timestamp" : "2018-02-02T15:04:09.902-0600",
"value" : {
"name" : "FTBFConfig_v125",
"assigned" : "2018-02-02T15:04:09.902-0600"
}
},
{
"event" : "addConfiguration",
"timestamp" : "2018-02-02T15:50:13.150-0600",
"value" : {
"name" : "FTBFConfig_v126",
"assigned" : "2018-02-02T15:50:13.150-0600"
}
},
{
"event" : "addConfiguration",
"timestamp" : "2018-02-02T15:51:32.608-0600",
"value" : {
"name" : "FTBFConfig_v127",
"assigned" : "2018-02-02T15:51:32.608-0600"
}
},
{
"event" : "addConfiguration",
"timestamp" : "2018-02-02T15:52:37.769-0600",
"value" : {
"name" : "FTBFConfig_v128",
"assigned" : "2018-02-02T15:52:37.769-0600"
}
},
{
"event" : "addConfiguration",
"timestamp" : "2018-02-02T16:02:46.689-0600",
"value" : {
"name" : "FTBFConfig_v129",
"assigned" : "2018-02-02T16:02:46.689-0600"
}
},
{
"event" : "addConfiguration",
"timestamp" : "2018-02-02T16:08:46.239-0600",
"value" : {
"name" : "FTBFConfig_v130",
"assigned" : "2018-02-02T16:08:46.239-0600"
}
},
{
"event" : "addConfiguration",
"timestamp" : "2018-02-02T16:11:32.085-0600",
"value" : {
"name" : "FTBFConfig_v131",
"assigned" : "2018-02-02T16:11:32.084-0600"
}
},
{
"event" : "addConfiguration",
"timestamp" : "2018-02-02T16:12:59.951-0600",
"value" : {
"name" : "FTBFConfig_v132",
"assigned" : "2018-02-02T16:12:59.951-0600"
}
},
{
"event" : "addConfiguration",
"timestamp" : "2018-02-02T16:14:30.541-0600",
"value" : {
"name" : "FTBFConfig_v133",
"assigned" : "2018-02-02T16:14:30.540-0600"
}
},
{
"event" : "addConfiguration",
"timestamp" : "2018-02-02T16:26:23.468-0600",
"value" : {
"name" : "FTBFConfig_v134",
"assigned" : "2018-02-02T16:26:23.468-0600"
}
},
{
"event" : "addConfiguration",
"timestamp" : "2018-02-02T16:27:10.572-0600",
"value" : {
"name" : "FTBFConfig_v135",
"assigned" : "2018-02-02T16:27:10.572-0600"
}
},
{
"event" : "addConfiguration",
"timestamp" : "2018-02-02T16:29:31.933-0600",
"value" : {
"name" : "FTBFConfig_v136",
"assigned" : "2018-02-02T16:29:31.933-0600"
}
},
{
"event" : "addConfiguration",
"timestamp" : "2018-02-02T16:31:42.552-0600",
"value" : {
"name" : "FTBFConfig_v137",
"assigned" : "2018-02-02T16:31:42.552-0600"
}
},
{
"event" : "addConfiguration",
"timestamp" : "2018-02-02T16:34:15.227-0600",
"value" : {
"name" : "FTBFConfig_v138",
"assigned" : "2018-02-02T16:34:15.227-0600"
}
},
{
"event" : "addConfiguration",
"timestamp" : "2018-02-02T17:39:31.275-0600",
"value" : {
"name" : "FTBFConfig_v139",
"assigned" : "2018-02-02T17:39:31.275-0600"
}
},
{
"event" : "addConfiguration",
"timestamp" : "2018-02-02T17:42:53.456-0600",
"value" : {
"name" : "FTBFConfig_v140",
"assigned" : "2018-02-02T17:42:53.456-0600"
}
},
{
"event" : "addConfiguration",
"timestamp" : "2018-02-02T17:47:38.682-0600",
"value" : {
"name" : "FTBFConfig_v141",
"assigned" : "2018-02-02T17:47:38.682-0600"
}
},
{
"event" : "addConfiguration",
"timestamp" : "2018-02-02T17:54:02.674-0600",
"value" : {
"name" : "FTBFConfig_v142",
"assigned" : "2018-02-02T17:54:02.674-0600"
}
}
],
"created" : "2017-11-08T15:56:03.787-0600"
},
"_id" : {
"$oid" : "3686bb068b6445a68ddb3ff2"
},
"collection" : "FEOtsUDPTemplateInterfaceConfiguration",
"aliases" : {
"active" : [

],
"history" : [

]
},
"runs" : [

],
"attachments" : [

],
"configtype" : "notprovided"
}