{
"document" : {
"data" : {
"NAME" : "XDAQ_APPLICATION_CONFIGURATION",
"COMMENT" : "FTBF \"facility daq\" default supervisor apps.",
"AUTHOR" : "rrivera",
"CREATION_TIME" : 1510157028,
"COL_TYPES" : {
"APPLICATION_GROUP_ID" : "VARCHAR2",
"APPLICATION_UID" : "VARCHAR2",
"LINK_TO_SUPERVISOR_TABLE" : "VARCHAR2",
"LINK_TO_SUPERVISOR_UID" : "VARCHAR2",
"STATUS" : "VARCHAR2",
"CLASS" : "VARCHAR2",
"ID" : "NUMBER",
"INSTANCE" : "NUMBER",
"NETWORK" : "VARCHAR2",
"GROUP" : "VARCHAR2",
"MODULE" : "VARCHAR2",
"COMMENT_DESCRIPTION" : "VARCHAR2",
"AUTHOR" : "VARCHAR2",
"RECORD_INSERTION_TIME" : "TIMESTAMP WITH TIMEZONE"
},
"DATA_SET" : [
{
"APPLICATION_GROUP_ID" : "MainContextApps",
"APPLICATION_UID" : "Supervisor",
"LINK_TO_SUPERVISOR_TABLE" : "TheSupervisorConfiguration",
"LINK_TO_SUPERVISOR_UID" : "Supervisor0",
"STATUS" : "On",
"CLASS" : "ots::Supervisor",
"ID" : "200",
"INSTANCE" : "1",
"NETWORK" : "local",
"GROUP" : "daq",
"MODULE" : "${OTSDAQ_LIB}/libSupervisor.so",
"COMMENT_DESCRIPTION" : "DEFAULT",
"AUTHOR" : "admin",
"RECORD_INSERTION_TIME" : "1509656619"
},
{
"APPLICATION_GROUP_ID" : "StripTelescopeContextApps",
"APPLICATION_UID" : "FESupervisorFSSR0",
"LINK_TO_SUPERVISOR_TABLE" : "FESupervisorConfiguration",
"LINK_TO_SUPERVISOR_UID" : "FESupervisorFSSR0",
"STATUS" : "Off",
"CLASS" : "ots::FESupervisor",
"ID" : "210",
"INSTANCE" : "1",
"NETWORK" : "local",
"GROUP" : "daq",
"MODULE" : "${OTSDAQ_LIB}/libCoreSupervisors.so",
"COMMENT_DESCRIPTION" : "DEFAULT",
"AUTHOR" : "rrivera",
"RECORD_INSERTION_TIME" : "1510157006"
},
{
"APPLICATION_GROUP_ID" : "StripTelescopeContextApps",
"APPLICATION_UID" : "FESupervisorFSSR1",
"LINK_TO_SUPERVISOR_TABLE" : "FESupervisorConfiguration",
"LINK_TO_SUPERVISOR_UID" : "FESupervisorFSSR1",
"STATUS" : "Off",
"CLASS" : "ots::FESupervisor",
"ID" : "211",
"INSTANCE" : "2",
"NETWORK" : "local",
"GROUP" : "daq",
"MODULE" : "${OTSDAQ_LIB}/libCoreSupervisors.so",
"COMMENT_DESCRIPTION" : "DEFAULT",
"AUTHOR" : "uplegger",
"RECORD_INSERTION_TIME" : "1510094616"
},
{
"APPLICATION_GROUP_ID" : "StripTelescopeContextApps",
"APPLICATION_UID" : "FESupervisorFSSR2",
"LINK_TO_SUPERVISOR_TABLE" : "FESupervisorConfiguration",
"LINK_TO_SUPERVISOR_UID" : "FESupervisorFSSR2",
"STATUS" : "On",
"CLASS" : "ots::FESupervisor",
"ID" : "212",
"INSTANCE" : "3",
"NETWORK" : "local",
"GROUP" : "daq",
"MODULE" : "${OTSDAQ_LIB}/libCoreSupervisors.so",
"COMMENT_DESCRIPTION" : "DEFAULT",
"AUTHOR" : "rrivera",
"RECORD_INSERTION_TIME" : "1510157013"
},
{
"APPLICATION_GROUP_ID" : "StripTelescopeContextApps",
"APPLICATION_UID" : "FESupervisorNetworkMaster",
"LINK_TO_SUPERVISOR_TABLE" : "FESupervisorConfiguration",
"LINK_TO_SUPERVISOR_UID" : "FESupervisorNetworkMaster",
"STATUS" : "On",
"CLASS" : "ots::FESupervisor",
"ID" : "213",
"INSTANCE" : "4",
"NETWORK" : "local",
"GROUP" : "daq",
"MODULE" : "${OTSDAQ_LIB}/libCoreSupervisors.so",
"COMMENT_DESCRIPTION" : "DEFAULT",
"AUTHOR" : "admin",
"RECORD_INSERTION_TIME" : "1509717159"
},
{
"APPLICATION_GROUP_ID" : "StripTelescopeContextApps",
"APPLICATION_UID" : "DataManagerSupervisorFSSR0",
"LINK_TO_SUPERVISOR_TABLE" : "DataManagerSupervisorConfiguration",
"LINK_TO_SUPERVISOR_UID" : "DataManagerSupervisorFSSR0",
"STATUS" : "On",
"CLASS" : "ots::DataManagerSupervisor",
"ID" : "310",
"INSTANCE" : "1",
"NETWORK" : "DEFAULT",
"GROUP" : "DEFAULT",
"MODULE" : "${OTSDAQ_LIB}/libCoreSupervisors.so",
"COMMENT_DESCRIPTION" : "strip telescope data manager",
"AUTHOR" : "admin",
"RECORD_INSERTION_TIME" : "1509717159"
},
{
"APPLICATION_GROUP_ID" : "StripTelescopeContextApps",
"APPLICATION_UID" : "DataManagerSupervisorFSSR1",
"LINK_TO_SUPERVISOR_TABLE" : "DataManagerSupervisorConfiguration",
"LINK_TO_SUPERVISOR_UID" : "DataManagerSupervisorFSSR1",
"STATUS" : "On",
"CLASS" : "ots::DataManagerSupervisor",
"ID" : "311",
"INSTANCE" : "2",
"NETWORK" : "DEFAULT",
"GROUP" : "DEFAULT",
"MODULE" : "${OTSDAQ_LIB}/libCoreSupervisors.so",
"COMMENT_DESCRIPTION" : "strip telescope data manager",
"AUTHOR" : "admin",
"RECORD_INSERTION_TIME" : "1509717159"
},
{
"APPLICATION_GROUP_ID" : "StripTelescopeContextApps",
"APPLICATION_UID" : "DataManagerSupervisorFSSR2",
"LINK_TO_SUPERVISOR_TABLE" : "DataManagerSupervisorConfiguration",
"LINK_TO_SUPERVISOR_UID" : "DataManagerSupervisorFSSR2",
"STATUS" : "On",
"CLASS" : "ots::DataManagerSupervisor",
"ID" : "312",
"INSTANCE" : "3",
"NETWORK" : "DEFAULT",
"GROUP" : "DEFAULT",
"MODULE" : "${OTSDAQ_LIB}/libCoreSupervisors.so",
"COMMENT_DESCRIPTION" : "strip telescope data manager",
"AUTHOR" : "admin",
"RECORD_INSERTION_TIME" : "1509717159"
},
{
"APPLICATION_GROUP_ID" : "MainContextApps",
"APPLICATION_UID" : "ChatSupervisor",
"LINK_TO_SUPERVISOR_TABLE" : "NO_LINK",
"LINK_TO_SUPERVISOR_UID" : "ChatSupervisor0",
"STATUS" : "On",
"CLASS" : "ots::ChatSupervisor",
"ID" : "250",
"INSTANCE" : "1",
"NETWORK" : "local",
"GROUP" : "daq",
"MODULE" : "${OTSDAQ_UTILITIES_LIB}/libChat.so",
"COMMENT_DESCRIPTION" : "DEFAULT",
"AUTHOR" : "admin",
"RECORD_INSERTION_TIME" : "1509717159"
},
{
"APPLICATION_GROUP_ID" : "MainContextApps",
"APPLICATION_UID" : "ConsoleSupervisor",
"LINK_TO_SUPERVISOR_TABLE" : "NO_LINK",
"LINK_TO_SUPERVISOR_UID" : "ConsoleSupervisor0",
"STATUS" : "On",
"CLASS" : "ots::ConsoleSupervisor",
"ID" : "260",
"INSTANCE" : "1",
"NETWORK" : "local",
"GROUP" : "daq",
"MODULE" : "${OTSDAQ_UTILITIES_LIB}/libConsole.so",
"COMMENT_DESCRIPTION" : "DEFAULT",
"AUTHOR" : "admin",
"RECORD_INSERTION_TIME" : "1509717159"
},
{
"APPLICATION_GROUP_ID" : "MainContextApps",
"APPLICATION_UID" : "LogbookSupervisor",
"LINK_TO_SUPERVISOR_TABLE" : "NO_LINK",
"LINK_TO_SUPERVISOR_UID" : "LogbookSupervisor0",
"STATUS" : "On",
"CLASS" : "ots::LogbookSupervisor",
"ID" : "261",
"INSTANCE" : "1",
"NETWORK" : "local",
"GROUP" : "daq",
"MODULE" : "${OTSDAQ_UTILITIES_LIB}/libLogbook.so",
"COMMENT_DESCRIPTION" : "DEFAULT",
"AUTHOR" : "admin",
"RECORD_INSERTION_TIME" : "1509717159"
},
{
"APPLICATION_GROUP_ID" : "MainContextApps",
"APPLICATION_UID" : "VisualSupervisor",
"LINK_TO_SUPERVISOR_TABLE" : "DataManagerSupervisorConfiguration",
"LINK_TO_SUPERVISOR_UID" : "VisualSupervisor0",
"STATUS" : "On",
"CLASS" : "ots::VisualSupervisor",
"ID" : "270",
"INSTANCE" : "1",
"NETWORK" : "local",
"GROUP" : "daq",
"MODULE" : "${OTSDAQ_UTILITIES_LIB}/libVisualization.so",
"COMMENT_DESCRIPTION" : "DEFAULT",
"AUTHOR" : "admin",
"RECORD_INSERTION_TIME" : "1509717159"
},
{
"APPLICATION_GROUP_ID" : "MainContextApps",
"APPLICATION_UID" : "ConfigurationGUISupervisor",
"LINK_TO_SUPERVISOR_TABLE" : "NO_LINK",
"LINK_TO_SUPERVISOR_UID" : "ConfigurationGUISupervisor0",
"STATUS" : "On",
"CLASS" : "ots::ConfigurationGUISupervisor",
"ID" : "281",
"INSTANCE" : "1",
"NETWORK" : "local",
"GROUP" : "daq",
"MODULE" : "${OTSDAQ_UTILITIES_LIB}/libConfigurationGUI.so",
"COMMENT_DESCRIPTION" : "DEFAULT",
"AUTHOR" : "admin",
"RECORD_INSERTION_TIME" : "1509717159"
},
{
"APPLICATION_GROUP_ID" : "testContextApps",
"APPLICATION_UID" : "ControlsDashboardSupervisor",
"LINK_TO_SUPERVISOR_TABLE" : "NO_LINK",
"LINK_TO_SUPERVISOR_UID" : "ControlsDashboardSupervisor0",
"STATUS" : "On",
"CLASS" : "ots::ControlsDashboardSupervisor",
"ID" : "282",
"INSTANCE" : "1",
"NETWORK" : "local",
"GROUP" : "daq",
"MODULE" : "${OTSDAQ_UTILITIES_LIB}/libControlsDashboard.so",
"COMMENT_DESCRIPTION" : "Used for arbitrary controls guis",
"AUTHOR" : "admin",
"RECORD_INSERTION_TIME" : "1509717159"
},
{
"APPLICATION_GROUP_ID" : "MainContextApps",
"APPLICATION_UID" : "MacroMakerSupervisor",
"LINK_TO_SUPERVISOR_TABLE" : "NO_LINK",
"LINK_TO_SUPERVISOR_UID" : "MacroMakerSupervisor0",
"STATUS" : "On",
"CLASS" : "ots::MacroMakerSupervisor",
"ID" : "300",
"INSTANCE" : "1",
"NETWORK" : "local",
"GROUP" : "daq",
"MODULE" : "${OTSDAQ_UTILITIES_LIB}/libMacroMaker.so",
"COMMENT_DESCRIPTION" : "DEFAULT",
"AUTHOR" : "admin",
"RECORD_INSERTION_TIME" : "1509717159"
},
{
"APPLICATION_GROUP_ID" : "BoardReader0Apps",
"APPLICATION_UID" : "ARTDAQBoardReaderSupervisor0",
"LINK_TO_SUPERVISOR_TABLE" : "DataManagerSupervisorConfiguration",
"LINK_TO_SUPERVISOR_UID" : "ARTDAQDataManagerSupervisor0",
"STATUS" : "On",
"CLASS" : "ots::ARTDAQDataManagerSupervisor",
"ID" : "500",
"INSTANCE" : "1",
"NETWORK" : "DEFAULT",
"GROUP" : "DEFAULT",
"MODULE" : "${OTSDAQ_LIB}/libCoreSupervisors.so",
"COMMENT_DESCRIPTION" : "For an artdaq board reader",
"AUTHOR" : "admin",
"RECORD_INSERTION_TIME" : "1509717159"
},
{
"APPLICATION_GROUP_ID" : "EventBuilder0Apps",
"APPLICATION_UID" : "ARTDAQEventBuilderApp0",
"LINK_TO_SUPERVISOR_TABLE" : "ARTDAQBuilderConfiguration",
"LINK_TO_SUPERVISOR_UID" : "builder0",
"STATUS" : "On",
"CLASS" : "ots::EventBuilderApp",
"ID" : "501",
"INSTANCE" : "1",
"NETWORK" : "DEFAULT",
"GROUP" : "DEFAULT",
"MODULE" : "${OTSDAQ_LIB}/libEventBuilderApp.so",
"COMMENT_DESCRIPTION" : "No Comment",
"AUTHOR" : "admin",
"RECORD_INSERTION_TIME" : "1509717159"
},
{
"APPLICATION_GROUP_ID" : "EventBuilder1Apps",
"APPLICATION_UID" : "ARTDAQEventBuilderApp1",
"LINK_TO_SUPERVISOR_TABLE" : "ARTDAQBuilderConfiguration",
"LINK_TO_SUPERVISOR_UID" : "builder0",
"STATUS" : "On",
"CLASS" : "ots::EventBuilderApp",
"ID" : "503",
"INSTANCE" : "1",
"NETWORK" : "DEFAULT",
"GROUP" : "DEFAULT",
"MODULE" : "${OTSDAQ_LIB}/libEventBuilderApp.so",
"COMMENT_DESCRIPTION" : "No Comment",
"AUTHOR" : "admin",
"RECORD_INSERTION_TIME" : "1509717159"
},
{
"APPLICATION_GROUP_ID" : "Aggregator0Apps",
"APPLICATION_UID" : "ARTDAQAggregatorApp0",
"LINK_TO_SUPERVISOR_TABLE" : "ARTDAQAggregatorConfiguration",
"LINK_TO_SUPERVISOR_UID" : "aggregator0",
"STATUS" : "On",
"CLASS" : "ots::AggregatorApp",
"ID" : "502",
"INSTANCE" : "1",
"NETWORK" : "DEFAULT",
"GROUP" : "DEFAULT",
"MODULE" : "${OTSDAQ_LIB}/libAggregatorApp.so",
"COMMENT_DESCRIPTION" : "No Comment",
"AUTHOR" : "admin",
"RECORD_INSERTION_TIME" : "1509717159"
},
{
"APPLICATION_GROUP_ID" : "NimPlusContextApps",
"APPLICATION_UID" : "NimPlusFESupervisor0",
"LINK_TO_SUPERVISOR_TABLE" : "FESupervisorConfiguration",
"LINK_TO_SUPERVISOR_UID" : "NimPlusFESupervisor0",
"STATUS" : "On",
"CLASS" : "ots::FESupervisor",
"ID" : "600",
"INSTANCE" : "1",
"NETWORK" : "DEFAULT",
"GROUP" : "DEFAULT",
"MODULE" : "${OTSDAQ_LIB}/libCoreSupervisors.so",
"COMMENT_DESCRIPTION" : "For NIM+x",
"AUTHOR" : "admin",
"RECORD_INSERTION_TIME" : "1509717159"
}
]
},
"metadata" : {

},
"search" : [

]
},
"comments" : [

],
"origin" : {
"source" : "template",
"name" : "notprovided",
"format" : "json",
"created" : "2017-11-08T15:56:08.085-0600",
"rawdata" : [

]
},
"version" : "1",
"entities" : [
{
"name" : "OTSROOT",
"assigned" : "2017-11-08T15:56:08.092-0600"
}
],
"configurations" : [
{
"name" : "notprovided",
"assigned" : "2017-11-08T15:56:08.088-0600"
},
{
"name" : "FTBFContext_v1",
"assigned" : "2017-11-08T15:56:08.444-0600"
},
{
"name" : "FTBFContext_v2",
"assigned" : "2017-11-09T10:39:03.889-0600"
},
{
"name" : "FTBFContext_v3",
"assigned" : "2017-11-10T10:18:38.353-0600"
},
{
"name" : "FTBFContext_v4",
"assigned" : "2017-11-10T10:28:46.881-0600"
},
{
"name" : "FTBFContext_v5",
"assigned" : "2017-11-10T10:40:33.312-0600"
},
{
"name" : "FTBFContext_v6",
"assigned" : "2017-11-10T10:52:05.710-0600"
},
{
"name" : "FTBFContext_v7",
"assigned" : "2017-11-10T11:21:01.601-0600"
},
{
"name" : "FTBFContext_v8",
"assigned" : "2017-11-10T11:44:49.845-0600"
},
{
"name" : "FTBFContext_v9",
"assigned" : "2017-11-10T12:15:26.167-0600"
},
{
"name" : "FTBFContext_v10",
"assigned" : "2017-11-10T12:16:54.681-0600"
},
{
"name" : "FTBFContext_v11",
"assigned" : "2017-11-10T12:22:19.901-0600"
},
{
"name" : "FTBFContext_v12",
"assigned" : "2017-11-10T12:35:32.402-0600"
},
{
"name" : "FTBFContext_v13",
"assigned" : "2017-11-10T12:37:10.498-0600"
},
{
"name" : "FTBFContext_v14",
"assigned" : "2017-11-10T12:38:15.000-0600"
},
{
"name" : "FTBFContext_v15",
"assigned" : "2017-11-10T17:04:41.363-0600"
},
{
"name" : "FTBFContext_v16",
"assigned" : "2017-11-13T10:55:06.280-0600"
},
{
"name" : "FTBFContext_v17",
"assigned" : "2017-11-13T14:51:54.091-0600"
},
{
"name" : "FTBFContext_v18",
"assigned" : "2017-11-13T15:21:33.005-0600"
},
{
"name" : "FTBFContext_v19",
"assigned" : "2017-11-14T11:21:18.298-0600"
},
{
"name" : "FTBFContext_v20",
"assigned" : "2017-11-14T16:15:29.231-0600"
},
{
"name" : "FTBFContext_v21",
"assigned" : "2017-11-15T12:29:36.791-0600"
},
{
"name" : "FTBFContext_v22",
"assigned" : "2017-11-15T12:31:22.693-0600"
}
],
"changelog" : "notprovided",
"bookkeeping" : {
"isdeleted" : false,
"isreadonly" : false,
"updates" : [
{
"event" : "addConfiguration",
"timestamp" : "2017-11-08T15:56:08.088-0600",
"value" : {
"name" : "notprovided",
"assigned" : "2017-11-08T15:56:08.088-0600"
}
},
{
"event" : "setVersion",
"timestamp" : "2017-11-08T15:56:08.089-0600",
"value" : {
"name" : "1",
"assigned" : "2017-11-08T15:56:08.089-0600"
}
},
{
"event" : "setCollection",
"timestamp" : "2017-11-08T15:56:08.091-0600",
"value" : {
"name" : "XDAQApplicationConfiguration",
"assigned" : "2017-11-08T15:56:08.091-0600"
}
},
{
"event" : "addEntity",
"timestamp" : "2017-11-08T15:56:08.092-0600",
"value" : {
"name" : "OTSROOT",
"assigned" : "2017-11-08T15:56:08.092-0600"
}
},
{
"event" : "addConfiguration",
"timestamp" : "2017-11-08T15:56:08.444-0600",
"value" : {
"name" : "FTBFContext_v1",
"assigned" : "2017-11-08T15:56:08.444-0600"
}
},
{
"event" : "addConfiguration",
"timestamp" : "2017-11-09T10:39:03.889-0600",
"value" : {
"name" : "FTBFContext_v2",
"assigned" : "2017-11-09T10:39:03.889-0600"
}
},
{
"event" : "addConfiguration",
"timestamp" : "2017-11-10T10:18:38.353-0600",
"value" : {
"name" : "FTBFContext_v3",
"assigned" : "2017-11-10T10:18:38.353-0600"
}
},
{
"event" : "addConfiguration",
"timestamp" : "2017-11-10T10:28:46.881-0600",
"value" : {
"name" : "FTBFContext_v4",
"assigned" : "2017-11-10T10:28:46.881-0600"
}
},
{
"event" : "addConfiguration",
"timestamp" : "2017-11-10T10:40:33.312-0600",
"value" : {
"name" : "FTBFContext_v5",
"assigned" : "2017-11-10T10:40:33.312-0600"
}
},
{
"event" : "addConfiguration",
"timestamp" : "2017-11-10T10:52:05.710-0600",
"value" : {
"name" : "FTBFContext_v6",
"assigned" : "2017-11-10T10:52:05.710-0600"
}
},
{
"event" : "addConfiguration",
"timestamp" : "2017-11-10T11:21:01.601-0600",
"value" : {
"name" : "FTBFContext_v7",
"assigned" : "2017-11-10T11:21:01.601-0600"
}
},
{
"event" : "addConfiguration",
"timestamp" : "2017-11-10T11:44:49.845-0600",
"value" : {
"name" : "FTBFContext_v8",
"assigned" : "2017-11-10T11:44:49.845-0600"
}
},
{
"event" : "addConfiguration",
"timestamp" : "2017-11-10T12:15:26.168-0600",
"value" : {
"name" : "FTBFContext_v9",
"assigned" : "2017-11-10T12:15:26.167-0600"
}
},
{
"event" : "addConfiguration",
"timestamp" : "2017-11-10T12:16:54.681-0600",
"value" : {
"name" : "FTBFContext_v10",
"assigned" : "2017-11-10T12:16:54.681-0600"
}
},
{
"event" : "addConfiguration",
"timestamp" : "2017-11-10T12:22:19.901-0600",
"value" : {
"name" : "FTBFContext_v11",
"assigned" : "2017-11-10T12:22:19.901-0600"
}
},
{
"event" : "addConfiguration",
"timestamp" : "2017-11-10T12:35:32.402-0600",
"value" : {
"name" : "FTBFContext_v12",
"assigned" : "2017-11-10T12:35:32.402-0600"
}
},
{
"event" : "addConfiguration",
"timestamp" : "2017-11-10T12:37:10.498-0600",
"value" : {
"name" : "FTBFContext_v13",
"assigned" : "2017-11-10T12:37:10.498-0600"
}
},
{
"event" : "addConfiguration",
"timestamp" : "2017-11-10T12:38:15.000-0600",
"value" : {
"name" : "FTBFContext_v14",
"assigned" : "2017-11-10T12:38:15.000-0600"
}
},
{
"event" : "addConfiguration",
"timestamp" : "2017-11-10T17:04:41.363-0600",
"value" : {
"name" : "FTBFContext_v15",
"assigned" : "2017-11-10T17:04:41.363-0600"
}
},
{
"event" : "addConfiguration",
"timestamp" : "2017-11-13T10:55:06.280-0600",
"value" : {
"name" : "FTBFContext_v16",
"assigned" : "2017-11-13T10:55:06.280-0600"
}
},
{
"event" : "addConfiguration",
"timestamp" : "2017-11-13T14:51:54.091-0600",
"value" : {
"name" : "FTBFContext_v17",
"assigned" : "2017-11-13T14:51:54.091-0600"
}
},
{
"event" : "addConfiguration",
"timestamp" : "2017-11-13T15:21:33.005-0600",
"value" : {
"name" : "FTBFContext_v18",
"assigned" : "2017-11-13T15:21:33.005-0600"
}
},
{
"event" : "addConfiguration",
"timestamp" : "2017-11-14T11:21:18.298-0600",
"value" : {
"name" : "FTBFContext_v19",
"assigned" : "2017-11-14T11:21:18.298-0600"
}
},
{
"event" : "addConfiguration",
"timestamp" : "2017-11-14T16:15:29.231-0600",
"value" : {
"name" : "FTBFContext_v20",
"assigned" : "2017-11-14T16:15:29.231-0600"
}
},
{
"event" : "addConfiguration",
"timestamp" : "2017-11-15T12:29:36.791-0600",
"value" : {
"name" : "FTBFContext_v21",
"assigned" : "2017-11-15T12:29:36.791-0600"
}
},
{
"event" : "addConfiguration",
"timestamp" : "2017-11-15T12:31:22.693-0600",
"value" : {
"name" : "FTBFContext_v22",
"assigned" : "2017-11-15T12:31:22.693-0600"
}
}
],
"created" : "2017-11-08T15:56:08.085-0600"
},
"_id" : {
"$oid" : "9967f75c982c4bfbb4533d64"
},
"collection" : "XDAQApplicationConfiguration",
"aliases" : {
"active" : [

],
"history" : [

]
},
"runs" : [

],
"attachments" : [

],
"configtype" : "notprovided"
}