{
"document" : {
"data" : {
"NAME" : "XDAQ_APPLICATION_CONFIGURATION",
"COMMENT" : "FTBF \"facility daq\" default supervisor apps.",
"AUTHOR" : "admin",
"CREATION_TIME" : 1510772262,
"COL_TYPES" : {
"APPLICATION_GROUP_ID" : "VARCHAR2",
"APPLICATION_UID" : "VARCHAR2",
"LINK_TO_SUPERVISOR_TABLE" : "VARCHAR2",
"LINK_TO_SUPERVISOR_UID" : "VARCHAR2",
"STATUS" : "VARCHAR2",
"CLASS" : "VARCHAR2",
"ID" : "NUMBER",
"INSTANCE" : "NUMBER",
"NETWORK" : "VARCHAR2",
"GROUP" : "VARCHAR2",
"MODULE" : "VARCHAR2",
"COMMENT_DESCRIPTION" : "VARCHAR2",
"AUTHOR" : "VARCHAR2",
"RECORD_INSERTION_TIME" : "TIMESTAMP WITH TIMEZONE"
},
"DATA_SET" : [
{
"APPLICATION_GROUP_ID" : "MainContextApps",
"APPLICATION_UID" : "Supervisor",
"LINK_TO_SUPERVISOR_TABLE" : "TheSupervisorConfiguration",
"LINK_TO_SUPERVISOR_UID" : "Supervisor0",
"STATUS" : "On",
"CLASS" : "ots::Supervisor",
"ID" : "200",
"INSTANCE" : "1",
"NETWORK" : "local",
"GROUP" : "daq",
"MODULE" : "${OTSDAQ_LIB}/libSupervisor.so",
"COMMENT_DESCRIPTION" : "DEFAULT",
"AUTHOR" : "admin",
"RECORD_INSERTION_TIME" : "1509656619"
},
{
"APPLICATION_GROUP_ID" : "StripTelescopeContextApps",
"APPLICATION_UID" : "FESupervisorFSSR0",
"LINK_TO_SUPERVISOR_TABLE" : "FESupervisorConfiguration",
"LINK_TO_SUPERVISOR_UID" : "FESupervisorFSSR0",
"STATUS" : "Off",
"CLASS" : "ots::FESupervisor",
"ID" : "210",
"INSTANCE" : "1",
"NETWORK" : "local",
"GROUP" : "daq",
"MODULE" : "${OTSDAQ_LIB}/libCoreSupervisors.so",
"COMMENT_DESCRIPTION" : "DEFAULT",
"AUTHOR" : "rrivera",
"RECORD_INSERTION_TIME" : "1510157006"
},
{
"APPLICATION_GROUP_ID" : "StripTelescopeContextApps",
"APPLICATION_UID" : "FESupervisorFSSR1",
"LINK_TO_SUPERVISOR_TABLE" : "FESupervisorConfiguration",
"LINK_TO_SUPERVISOR_UID" : "FESupervisorFSSR1",
"STATUS" : "Off",
"CLASS" : "ots::FESupervisor",
"ID" : "211",
"INSTANCE" : "2",
"NETWORK" : "local",
"GROUP" : "daq",
"MODULE" : "${OTSDAQ_LIB}/libCoreSupervisors.so",
"COMMENT_DESCRIPTION" : "DEFAULT",
"AUTHOR" : "uplegger",
"RECORD_INSERTION_TIME" : "1510094616"
},
{
"APPLICATION_GROUP_ID" : "StripTelescopeContextApps",
"APPLICATION_UID" : "FESupervisorFSSR2",
"LINK_TO_SUPERVISOR_TABLE" : "FESupervisorConfiguration",
"LINK_TO_SUPERVISOR_UID" : "FESupervisorFSSR2",
"STATUS" : "On",
"CLASS" : "ots::FESupervisor",
"ID" : "212",
"INSTANCE" : "3",
"NETWORK" : "local",
"GROUP" : "daq",
"MODULE" : "${OTSDAQ_LIB}/libCoreSupervisors.so",
"COMMENT_DESCRIPTION" : "DEFAULT",
"AUTHOR" : "rrivera",
"RECORD_INSERTION_TIME" : "1510157013"
},
{
"APPLICATION_GROUP_ID" : "StripTelescopeContextApps",
"APPLICATION_UID" : "FESupervisorNetworkMaster",
"LINK_TO_SUPERVISOR_TABLE" : "FESupervisorConfiguration",
"LINK_TO_SUPERVISOR_UID" : "FESupervisorNetworkMaster",
"STATUS" : "On",
"CLASS" : "ots::FESupervisor",
"ID" : "213",
"INSTANCE" : "4",
"NETWORK" : "local",
"GROUP" : "daq",
"MODULE" : "${OTSDAQ_LIB}/libCoreSupervisors.so",
"COMMENT_DESCRIPTION" : "DEFAULT",
"AUTHOR" : "admin",
"RECORD_INSERTION_TIME" : "1509717159"
},
{
"APPLICATION_GROUP_ID" : "StripTelescopeContextApps",
"APPLICATION_UID" : "DataManagerSupervisorFSSR0",
"LINK_TO_SUPERVISOR_TABLE" : "DataManagerSupervisorConfiguration",
"LINK_TO_SUPERVISOR_UID" : "DataManagerSupervisorFSSR0",
"STATUS" : "On",
"CLASS" : "ots::DataManagerSupervisor",
"ID" : "310",
"INSTANCE" : "1",
"NETWORK" : "DEFAULT",
"GROUP" : "DEFAULT",
"MODULE" : "${OTSDAQ_LIB}/libCoreSupervisors.so",
"COMMENT_DESCRIPTION" : "strip telescope data manager",
"AUTHOR" : "admin",
"RECORD_INSERTION_TIME" : "1509717159"
},
{
"APPLICATION_GROUP_ID" : "StripTelescopeContextApps",
"APPLICATION_UID" : "DataManagerSupervisorFSSR1",
"LINK_TO_SUPERVISOR_TABLE" : "DataManagerSupervisorConfiguration",
"LINK_TO_SUPERVISOR_UID" : "DataManagerSupervisorFSSR1",
"STATUS" : "On",
"CLASS" : "ots::DataManagerSupervisor",
"ID" : "311",
"INSTANCE" : "2",
"NETWORK" : "DEFAULT",
"GROUP" : "DEFAULT",
"MODULE" : "${OTSDAQ_LIB}/libCoreSupervisors.so",
"COMMENT_DESCRIPTION" : "strip telescope data manager",
"AUTHOR" : "admin",
"RECORD_INSERTION_TIME" : "1509717159"
},
{
"APPLICATION_GROUP_ID" : "StripTelescopeContextApps",
"APPLICATION_UID" : "DataManagerSupervisorFSSR2",
"LINK_TO_SUPERVISOR_TABLE" : "DataManagerSupervisorConfiguration",
"LINK_TO_SUPERVISOR_UID" : "DataManagerSupervisorFSSR2",
"STATUS" : "On",
"CLASS" : "ots::DataManagerSupervisor",
"ID" : "312",
"INSTANCE" : "3",
"NETWORK" : "DEFAULT",
"GROUP" : "DEFAULT",
"MODULE" : "${OTSDAQ_LIB}/libCoreSupervisors.so",
"COMMENT_DESCRIPTION" : "strip telescope data manager",
"AUTHOR" : "admin",
"RECORD_INSERTION_TIME" : "1509717159"
},
{
"APPLICATION_GROUP_ID" : "MainContextApps",
"APPLICATION_UID" : "ChatSupervisor",
"LINK_TO_SUPERVISOR_TABLE" : "NO_LINK",
"LINK_TO_SUPERVISOR_UID" : "ChatSupervisor0",
"STATUS" : "On",
"CLASS" : "ots::ChatSupervisor",
"ID" : "250",
"INSTANCE" : "1",
"NETWORK" : "local",
"GROUP" : "daq",
"MODULE" : "${OTSDAQ_UTILITIES_LIB}/libChat.so",
"COMMENT_DESCRIPTION" : "DEFAULT",
"AUTHOR" : "admin",
"RECORD_INSERTION_TIME" : "1509717159"
},
{
"APPLICATION_GROUP_ID" : "MainContextApps",
"APPLICATION_UID" : "ConsoleSupervisor",
"LINK_TO_SUPERVISOR_TABLE" : "NO_LINK",
"LINK_TO_SUPERVISOR_UID" : "ConsoleSupervisor0",
"STATUS" : "On",
"CLASS" : "ots::ConsoleSupervisor",
"ID" : "260",
"INSTANCE" : "1",
"NETWORK" : "local",
"GROUP" : "daq",
"MODULE" : "${OTSDAQ_UTILITIES_LIB}/libConsole.so",
"COMMENT_DESCRIPTION" : "DEFAULT",
"AUTHOR" : "admin",
"RECORD_INSERTION_TIME" : "1509717159"
},
{
"APPLICATION_GROUP_ID" : "MainContextApps",
"APPLICATION_UID" : "LogbookSupervisor",
"LINK_TO_SUPERVISOR_TABLE" : "NO_LINK",
"LINK_TO_SUPERVISOR_UID" : "LogbookSupervisor0",
"STATUS" : "On",
"CLASS" : "ots::LogbookSupervisor",
"ID" : "261",
"INSTANCE" : "1",
"NETWORK" : "local",
"GROUP" : "daq",
"MODULE" : "${OTSDAQ_UTILITIES_LIB}/libLogbook.so",
"COMMENT_DESCRIPTION" : "DEFAULT",
"AUTHOR" : "admin",
"RECORD_INSERTION_TIME" : "1509717159"
},
{
"APPLICATION_GROUP_ID" : "MainContextApps",
"APPLICATION_UID" : "VisualSupervisor",
"LINK_TO_SUPERVISOR_TABLE" : "DataManagerSupervisorConfiguration",
"LINK_TO_SUPERVISOR_UID" : "VisualSupervisor0",
"STATUS" : "On",
"CLASS" : "ots::VisualSupervisor",
"ID" : "270",
"INSTANCE" : "1",
"NETWORK" : "local",
"GROUP" : "daq",
"MODULE" : "${OTSDAQ_UTILITIES_LIB}/libVisualization.so",
"COMMENT_DESCRIPTION" : "DEFAULT",
"AUTHOR" : "admin",
"RECORD_INSERTION_TIME" : "1509717159"
},
{
"APPLICATION_GROUP_ID" : "MainContextApps",
"APPLICATION_UID" : "ConfigurationGUISupervisor",
"LINK_TO_SUPERVISOR_TABLE" : "NO_LINK",
"LINK_TO_SUPERVISOR_UID" : "ConfigurationGUISupervisor0",
"STATUS" : "On",
"CLASS" : "ots::ConfigurationGUISupervisor",
"ID" : "281",
"INSTANCE" : "1",
"NETWORK" : "local",
"GROUP" : "daq",
"MODULE" : "${OTSDAQ_UTILITIES_LIB}/libConfigurationGUI.so",
"COMMENT_DESCRIPTION" : "DEFAULT",
"AUTHOR" : "admin",
"RECORD_INSERTION_TIME" : "1509717159"
},
{
"APPLICATION_GROUP_ID" : "testContextApps",
"APPLICATION_UID" : "ControlsDashboardSupervisor",
"LINK_TO_SUPERVISOR_TABLE" : "NO_LINK",
"LINK_TO_SUPERVISOR_UID" : "ControlsDashboardSupervisor0",
"STATUS" : "On",
"CLASS" : "ots::ControlsDashboardSupervisor",
"ID" : "282",
"INSTANCE" : "1",
"NETWORK" : "local",
"GROUP" : "daq",
"MODULE" : "${OTSDAQ_UTILITIES_LIB}/libControlsDashboard.so",
"COMMENT_DESCRIPTION" : "Used for arbitrary controls guis",
"AUTHOR" : "admin",
"RECORD_INSERTION_TIME" : "1509717159"
},
{
"APPLICATION_GROUP_ID" : "MainContextApps",
"APPLICATION_UID" : "MacroMakerSupervisor",
"LINK_TO_SUPERVISOR_TABLE" : "NO_LINK",
"LINK_TO_SUPERVISOR_UID" : "MacroMakerSupervisor0",
"STATUS" : "On",
"CLASS" : "ots::MacroMakerSupervisor",
"ID" : "300",
"INSTANCE" : "1",
"NETWORK" : "local",
"GROUP" : "daq",
"MODULE" : "${OTSDAQ_UTILITIES_LIB}/libMacroMaker.so",
"COMMENT_DESCRIPTION" : "DEFAULT",
"AUTHOR" : "admin",
"RECORD_INSERTION_TIME" : "1509717159"
},
{
"APPLICATION_GROUP_ID" : "BoardReader0Apps",
"APPLICATION_UID" : "ARTDAQBoardReaderSupervisor0",
"LINK_TO_SUPERVISOR_TABLE" : "DataManagerSupervisorConfiguration",
"LINK_TO_SUPERVISOR_UID" : "ARTDAQDataManagerSupervisor0",
"STATUS" : "On",
"CLASS" : "ots::ARTDAQDataManagerSupervisor",
"ID" : "500",
"INSTANCE" : "1",
"NETWORK" : "DEFAULT",
"GROUP" : "DEFAULT",
"MODULE" : "${OTSDAQ_LIB}/libCoreSupervisors.so",
"COMMENT_DESCRIPTION" : "For an artdaq board reader",
"AUTHOR" : "admin",
"RECORD_INSERTION_TIME" : "1509717159"
},
{
"APPLICATION_GROUP_ID" : "EventBuilder0Apps",
"APPLICATION_UID" : "ARTDAQEventBuilderApp0",
"LINK_TO_SUPERVISOR_TABLE" : "ARTDAQBuilderConfiguration",
"LINK_TO_SUPERVISOR_UID" : "builder0",
"STATUS" : "On",
"CLASS" : "ots::EventBuilderApp",
"ID" : "501",
"INSTANCE" : "1",
"NETWORK" : "DEFAULT",
"GROUP" : "DEFAULT",
"MODULE" : "${OTSDAQ_LIB}/libEventBuilderApp.so",
"COMMENT_DESCRIPTION" : "No Comment",
"AUTHOR" : "admin",
"RECORD_INSERTION_TIME" : "1509717159"
},
{
"APPLICATION_GROUP_ID" : "EventBuilder1Apps",
"APPLICATION_UID" : "ARTDAQEventBuilderApp1",
"LINK_TO_SUPERVISOR_TABLE" : "ARTDAQBuilderConfiguration",
"LINK_TO_SUPERVISOR_UID" : "builder0",
"STATUS" : "On",
"CLASS" : "ots::EventBuilderApp",
"ID" : "503",
"INSTANCE" : "1",
"NETWORK" : "DEFAULT",
"GROUP" : "DEFAULT",
"MODULE" : "${OTSDAQ_LIB}/libEventBuilderApp.so",
"COMMENT_DESCRIPTION" : "No Comment",
"AUTHOR" : "admin",
"RECORD_INSERTION_TIME" : "1509717159"
},
{
"APPLICATION_GROUP_ID" : "Aggregator0Apps",
"APPLICATION_UID" : "ARTDAQAggregatorApp0",
"LINK_TO_SUPERVISOR_TABLE" : "ARTDAQAggregatorConfiguration",
"LINK_TO_SUPERVISOR_UID" : "aggregator0",
"STATUS" : "On",
"CLASS" : "ots::AggregatorApp",
"ID" : "502",
"INSTANCE" : "1",
"NETWORK" : "DEFAULT",
"GROUP" : "DEFAULT",
"MODULE" : "${OTSDAQ_LIB}/libAggregatorApp.so",
"COMMENT_DESCRIPTION" : "No Comment",
"AUTHOR" : "admin",
"RECORD_INSERTION_TIME" : "1509717159"
},
{
"APPLICATION_GROUP_ID" : "NimPlusContextApps",
"APPLICATION_UID" : "NimPlusFESupervisor0",
"LINK_TO_SUPERVISOR_TABLE" : "FESupervisorConfiguration",
"LINK_TO_SUPERVISOR_UID" : "NimPlusFESupervisor0",
"STATUS" : "On",
"CLASS" : "ots::FESupervisor",
"ID" : "600",
"INSTANCE" : "1",
"NETWORK" : "DEFAULT",
"GROUP" : "DEFAULT",
"MODULE" : "${OTSDAQ_LIB}/libCoreSupervisors.so",
"COMMENT_DESCRIPTION" : "For NIM+x",
"AUTHOR" : "admin",
"RECORD_INSERTION_TIME" : "1509717159"
},
{
"APPLICATION_GROUP_ID" : "BoardReaderStrips2Apps",
"APPLICATION_UID" : "ARTDAQBoardReaderStripsSupervisor2",
"LINK_TO_SUPERVISOR_TABLE" : "DataManagerSupervisorConfiguration",
"LINK_TO_SUPERVISOR_UID" : "ARTDAQDataManagerStripsSupervisor2",
"STATUS" : "On",
"CLASS" : "ots::ARTDAQDataManagerSupervisor",
"ID" : "520",
"INSTANCE" : "1",
"NETWORK" : "DEFAULT",
"GROUP" : "DEFAULT",
"MODULE" : "${OTSDAQ_LIB}/libCoreSupervisors.so",
"COMMENT_DESCRIPTION" : "For an artdaq ots Strips board reader",
"AUTHOR" : "admin",
"RECORD_INSERTION_TIME" : "1510771048"
},
{
"APPLICATION_GROUP_ID" : "EventBuilderStripsOnly0Apps",
"APPLICATION_UID" : "EventBuilderStripsOnly0Apps",
"LINK_TO_SUPERVISOR_TABLE" : "ARTDAQBuilderConfiguration",
"LINK_TO_SUPERVISOR_UID" : "builderStripsOnly0",
"STATUS" : "On",
"CLASS" : "ots::EventBuilderApp",
"ID" : "530",
"INSTANCE" : "1",
"NETWORK" : "DEFAULT",
"GROUP" : "DEFAULT",
"MODULE" : "${OTSDAQ_LIB}/libEventBuilderApp.so",
"COMMENT_DESCRIPTION" : "No Comment",
"AUTHOR" : "admin",
"RECORD_INSERTION_TIME" : "1510772262"
},
{
"APPLICATION_GROUP_ID" : "AggregatorStripsOnly0Apps",
"APPLICATION_UID" : "AggregatorStripsOnly0Apps",
"LINK_TO_SUPERVISOR_TABLE" : "ARTDAQAggregatorConfiguration",
"LINK_TO_SUPERVISOR_UID" : "aggregatorStripsOnly0",
"STATUS" : "On",
"CLASS" : "ots::AggregatorApp",
"ID" : "540",
"INSTANCE" : "1",
"NETWORK" : "DEFAULT",
"GROUP" : "DEFAULT",
"MODULE" : "${OTSDAQ_LIB}/libAggregatorApp.so",
"COMMENT_DESCRIPTION" : "No Comment",
"AUTHOR" : "admin",
"RECORD_INSERTION_TIME" : "1510772262"
}
]
},
"metadata" : {

},
"search" : [

]
},
"comments" : [

],
"origin" : {
"source" : "template",
"name" : "notprovided",
"format" : "json",
"created" : "2017-11-15T12:57:42.101-0600",
"rawdata" : [

]
},
"version" : "3",
"entities" : [
{
"name" : "OTSROOT",
"assigned" : "2017-11-15T12:57:42.109-0600"
}
],
"configurations" : [
{
"name" : "notprovided",
"assigned" : "2017-11-15T12:57:42.104-0600"
},
{
"name" : "FTBFContext_v25",
"assigned" : "2017-11-15T12:57:46.690-0600"
}
],
"changelog" : "notprovided",
"bookkeeping" : {
"isdeleted" : false,
"isreadonly" : false,
"updates" : [
{
"event" : "addConfiguration",
"timestamp" : "2017-11-15T12:57:42.104-0600",
"value" : {
"name" : "notprovided",
"assigned" : "2017-11-15T12:57:42.104-0600"
}
},
{
"event" : "setVersion",
"timestamp" : "2017-11-15T12:57:42.106-0600",
"value" : {
"name" : "3",
"assigned" : "2017-11-15T12:57:42.106-0600"
}
},
{
"event" : "setCollection",
"timestamp" : "2017-11-15T12:57:42.107-0600",
"value" : {
"name" : "XDAQApplicationConfiguration",
"assigned" : "2017-11-15T12:57:42.107-0600"
}
},
{
"event" : "addEntity",
"timestamp" : "2017-11-15T12:57:42.109-0600",
"value" : {
"name" : "OTSROOT",
"assigned" : "2017-11-15T12:57:42.109-0600"
}
},
{
"event" : "addConfiguration",
"timestamp" : "2017-11-15T12:57:46.690-0600",
"value" : {
"name" : "FTBFContext_v25",
"assigned" : "2017-11-15T12:57:46.690-0600"
}
}
],
"created" : "2017-11-15T12:57:42.101-0600"
},
"_id" : {
"$oid" : "b01266c238a74b54bcb00792"
},
"collection" : "XDAQApplicationConfiguration",
"aliases" : {
"active" : [

],
"history" : [

]
},
"runs" : [

],
"attachments" : [

],
"configtype" : "notprovided"
}