{
"document" : {
"data" : {
"NAME" : "FE_INTERFACE_TABLE",
"COMMENT" : "FE interfaces top level.",
"AUTHOR" : "admin",
"CREATION_TIME" : 1598303112,
"COL_TYPES" : {
"FE_INTERFACE_GROUP_ID" : "STRING",
"FE_INTERFACE_UID" : "STRING",
"STATUS" : "STRING",
"FE_INTERFACE_PLUGIN_NAME" : "STRING",
"LINK_TO_FE_TYPE_TABLE" : "STRING",
"LINK_TO_FE_TYPE_UID" : "STRING",
"LINK_TO_SLOW_CONTROLS_CHANNEL_TABLE" : "STRING",
"LINK_TO_SLOW_CONTROLS_CHANNEL_GROUP_ID" : "STRING",
"LINK_TO_SLOW_CONTROLS_SUPERVISOR_TABLE" : "STRING",
"LINK_TO_SLOW_CONTROLS_SUPERVISOR_UID" : "STRING",
"SLOW_CONTROLS_TX_SOCKET_IP_ADDRESS" : "STRING",
"SLOW_CONTROLS_TX_SOCKET_PORT" : "NUMBER",
"SLOW_CONTROLS_LOCAL_AGGREGATE_SAVING_ENABLED" : "STRING",
"SLOW_CONTROLS_LOCAL_FILE_PATH" : "STRING",
"SLOW_CONTROLS_RADIX_FILE_NAME" : "STRING",
"SLOW_CONTROLS_SAVE_BINARY_FILE" : "STRING",
"COMMENT_DESCRIPTION" : "STRING",
"AUTHOR" : "STRING",
"RECORD_INSERTION_TIME" : "TIMESTAMP WITH TIMEZONE"
},
"DATA_SET" : [
{
"FE_INTERFACE_GROUP_ID" : "OuterTrackerFESupervisor0",
"FE_INTERFACE_UID" : "OuterTrackerFEInterface0",
"STATUS" : "On",
"FE_INTERFACE_PLUGIN_NAME" : "FEMiddlewareInterface",
"LINK_TO_FE_TYPE_TABLE" : "FEMiddlewareInterfaceTable",
"LINK_TO_FE_TYPE_UID" : "OuterTrackerFEInterface0",
"LINK_TO_SLOW_CONTROLS_CHANNEL_TABLE" : "NO_LINK",
"LINK_TO_SLOW_CONTROLS_CHANNEL_GROUP_ID" : "DEFAULT",
"LINK_TO_SLOW_CONTROLS_SUPERVISOR_TABLE" : "NO_LINK",
"LINK_TO_SLOW_CONTROLS_SUPERVISOR_UID" : "DEFAULT",
"SLOW_CONTROLS_TX_SOCKET_IP_ADDRESS" : "DEFAULT",
"SLOW_CONTROLS_TX_SOCKET_PORT" : "0",
"SLOW_CONTROLS_LOCAL_AGGREGATE_SAVING_ENABLED" : "No",
"SLOW_CONTROLS_LOCAL_FILE_PATH" : "DEFAULT",
"SLOW_CONTROLS_RADIX_FILE_NAME" : "DEFAULT",
"SLOW_CONTROLS_SAVE_BINARY_FILE" : "False",
"COMMENT_DESCRIPTION" : "No Comment",
"AUTHOR" : "admin",
"RECORD_INSERTION_TIME" : "1563812695"
},
{
"FE_INTERFACE_GROUP_ID" : "HistoMakerFESupervisor0",
"FE_INTERFACE_UID" : "HistoMakerFEInterface0",
"STATUS" : "On",
"FE_INTERFACE_PLUGIN_NAME" : "FEPowerSupplyInterface",
"LINK_TO_FE_TYPE_TABLE" : "FEHistoMakerInterfaceTable",
"LINK_TO_FE_TYPE_UID" : "HistoMakerFEInterface0",
"LINK_TO_SLOW_CONTROLS_CHANNEL_TABLE" : "NO_LINK",
"LINK_TO_SLOW_CONTROLS_CHANNEL_GROUP_ID" : "DEFAULT",
"LINK_TO_SLOW_CONTROLS_SUPERVISOR_TABLE" : "NO_LINK",
"LINK_TO_SLOW_CONTROLS_SUPERVISOR_UID" : "DEFAULT",
"SLOW_CONTROLS_TX_SOCKET_IP_ADDRESS" : "DEFAULT",
"SLOW_CONTROLS_TX_SOCKET_PORT" : "0",
"SLOW_CONTROLS_LOCAL_AGGREGATE_SAVING_ENABLED" : "No",
"SLOW_CONTROLS_LOCAL_FILE_PATH" : "DEFAULT",
"SLOW_CONTROLS_RADIX_FILE_NAME" : "DEFAULT",
"SLOW_CONTROLS_SAVE_BINARY_FILE" : "False",
"COMMENT_DESCRIPTION" : "No Comment",
"AUTHOR" : "admin",
"RECORD_INSERTION_TIME" : "1598303031"
}
]
},
"metadata" : {

},
"search" : [

]
},
"comments" : [

],
"origin" : {
"source" : "template",
"name" : "notprovided",
"format" : "json",
"created" : "2020-08-24T16:05:12.579-0500",
"rawdata" : [

]
},
"version" : "2",
"entities" : [
{
"name" : "OTSROOT",
"assigned" : "2020-08-24T16:05:12.582-0500"
}
],
"configurations" : [
{
"name" : "notprovided",
"assigned" : "2020-08-24T16:05:12.580-0500"
},
{
"name" : "DefaultConfig_v6",
"assigned" : "2020-08-24T16:05:13.387-0500"
},
{
"name" : "DefaultConfig_v7",
"assigned" : "2020-08-26T10:33:56.772-0500"
}
],
"changelog" : "notprovided",
"bookkeeping" : {
"isdeleted" : false,
"isreadonly" : false,
"updates" : [
{
"event" : "addConfiguration",
"timestamp" : "2020-08-24T16:05:12.581-0500",
"value" : {
"name" : "notprovided",
"assigned" : "2020-08-24T16:05:12.580-0500"
}
},
{
"event" : "setVersion",
"timestamp" : "2020-08-24T16:05:12.581-0500",
"value" : {
"name" : "2",
"assigned" : "2020-08-24T16:05:12.581-0500"
}
},
{
"event" : "setCollection",
"timestamp" : "2020-08-24T16:05:12.582-0500",
"value" : {
"name" : "FEInterfaceTable",
"assigned" : "2020-08-24T16:05:12.582-0500"
}
},
{
"event" : "addEntity",
"timestamp" : "2020-08-24T16:05:12.582-0500",
"value" : {
"name" : "OTSROOT",
"assigned" : "2020-08-24T16:05:12.582-0500"
}
},
{
"event" : "addConfiguration",
"timestamp" : "2020-08-24T16:05:13.387-0500",
"value" : {
"name" : "DefaultConfig_v6",
"assigned" : "2020-08-24T16:05:13.387-0500"
}
},
{
"event" : "addConfiguration",
"timestamp" : "2020-08-26T10:33:56.772-0500",
"value" : {
"name" : "DefaultConfig_v7",
"assigned" : "2020-08-26T10:33:56.772-0500"
}
}
],
"created" : "2020-08-24T16:05:12.579-0500"
},
"_id" : {
"$oid" : "1eaf9bf3eefb4af18f078404"
},
"collection" : "FEInterfaceTable",
"aliases" : {
"active" : [

],
"history" : [

]
},
"runs" : [

],
"attachments" : [

],
"configtype" : "notprovided"
}