{
"document" : {
"data" : {
"NAME" : "GATEWAY_SUPERVISOR_TABLE",
"COMMENT" : "No comment.",
"AUTHOR" : "admin",
"CREATION_TIME" : 1621968672,
"COL_TYPES" : {
"SUPERVISOR_UID" : "STRING",
"NUMBER_OF_STATE_MACHINE_BROADCAST_THREADS" : "NUMBER",
"LINK_TO_STATE_MACHINE_TABLE" : "STRING",
"STATE_MACHINE_GROUP_ID" : "STRING",
"ENABLE_APPLICATION_STATUS_MONITORING" : "STRING",
"ENABLE_STATE_CHANGES_OVER_UDP" : "STRING",
"IP_ADDRESS_FOR_STATE_CHANGES_OVER_UDP" : "STRING",
"PORT_FOR_STATE_CHANGES_OVER_UDP" : "NUMBER",
"ENABLE_ACK_FOR_STATE_CHANGES_OVER_UDP" : "STRING",
"COMMENT_DESCRIPTION" : "STRING",
"AUTHOR" : "STRING",
"RECORD_INSERTION_TIME" : "TIMESTAMP WITH TIMEZONE"
},
"DATA_SET" : [
{
"SUPERVISOR_UID" : "Supervisor0",
"NUMBER_OF_STATE_MACHINE_BROADCAST_THREADS" : "1",
"LINK_TO_STATE_MACHINE_TABLE" : "StateMachineTable",
"STATE_MACHINE_GROUP_ID" : "Supervisor0_FSMs",
"ENABLE_APPLICATION_STATUS_MONITORING" : "Yes",
"ENABLE_STATE_CHANGES_OVER_UDP" : "No",
"IP_ADDRESS_FOR_STATE_CHANGES_OVER_UDP" : "131.225.180.16",
"PORT_FOR_STATE_CHANGES_OVER_UDP" : "17000",
"ENABLE_ACK_FOR_STATE_CHANGES_OVER_UDP" : "No",
"COMMENT_DESCRIPTION" : "Link to a group of state machines.",
"AUTHOR" : "admin",
"RECORD_INSERTION_TIME" : "1621968672"
}
]
},
"metadata" : {

},
"search" : [

]
},
"comments" : [

],
"origin" : {
"source" : "template",
"name" : "notprovided",
"format" : "json",
"created" : "2021-05-25T13:51:12.352-0500",
"rawdata" : [

]
},
"version" : "7",
"entities" : [
{
"name" : "OTSROOT",
"assigned" : "2021-05-25T13:51:12.352-0500"
}
],
"configurations" : [
{
"name" : "notprovided",
"assigned" : "2021-05-25T13:51:12.352-0500"
},
{
"name" : "DefaultContext_v29",
"assigned" : "2021-05-25T13:51:13.140-0500"
}
],
"changelog" : "notprovided",
"bookkeeping" : {
"isdeleted" : false,
"isreadonly" : false,
"updates" : [
{
"event" : "addConfiguration",
"timestamp" : "2021-05-25T13:51:12.352-0500",
"value" : {
"name" : "notprovided",
"assigned" : "2021-05-25T13:51:12.352-0500"
}
},
{
"event" : "setVersion",
"timestamp" : "2021-05-25T13:51:12.352-0500",
"value" : {
"name" : "7",
"assigned" : "2021-05-25T13:51:12.352-0500"
}
},
{
"event" : "setCollection",
"timestamp" : "2021-05-25T13:51:12.352-0500",
"value" : {
"name" : "GatewaySupervisorTable",
"assigned" : "2021-05-25T13:51:12.352-0500"
}
},
{
"event" : "addEntity",
"timestamp" : "2021-05-25T13:51:12.353-0500",
"value" : {
"name" : "OTSROOT",
"assigned" : "2021-05-25T13:51:12.352-0500"
}
},
{
"event" : "addConfiguration",
"timestamp" : "2021-05-25T13:51:13.140-0500",
"value" : {
"name" : "DefaultContext_v29",
"assigned" : "2021-05-25T13:51:13.140-0500"
}
}
],
"created" : "2021-05-25T13:51:12.352-0500"
},
"_id" : {
"$oid" : "4afd4bb8fa614f67b157322b"
},
"collection" : "GatewaySupervisorTable",
"aliases" : {
"active" : [

],
"history" : [

]
},
"runs" : [

],
"attachments" : [

],
"configtype" : "notprovided"
}