{
"document" : {
"data" : {
"NAME" : "POWER_SUPPLY_TO_DETECTOR_TABLE",
"COMMENT" : "No comment.",
"AUTHOR" : "admin",
"CREATION_TIME" : 1626818943,
"COL_TYPES" : {
"FE_INTERFACE_GROUP_ID" : "STRING",
"CHANNEL_UID" : "STRING",
"LINK_TO_CHANNEL_TABLE" : "STRING",
"LINK_TO_CHANNEL_UID" : "STRING",
"CHANNEL_GROUP" : "STRING",
"TURN_ON_SEQUENCE" : "NUMBER",
"TURN_OFF_SEQUENCE" : "NUMBER",
"COMMENT_DESCRIPTION" : "STRING",
"AUTHOR" : "STRING",
"RECORD_INSERTION_TIME" : "TIMESTAMP WITH TIMEZONE"
},
"DATA_SET" : [
{
"FE_INTERFACE_GROUP_ID" : "BurninBox",
"CHANNEL_UID" : "Module1L_LV",
"LINK_TO_CHANNEL_TABLE" : "CAENPowerSupplyChannelTable",
"LINK_TO_CHANNEL_UID" : "Module1L_LV",
"CHANNEL_GROUP" : "Module1Left",
"TURN_ON_SEQUENCE" : "1",
"TURN_OFF_SEQUENCE" : "0",
"COMMENT_DESCRIPTION" : "No Comment",
"AUTHOR" : "admin",
"RECORD_INSERTION_TIME" : "1626818943"
},
{
"FE_INTERFACE_GROUP_ID" : "BurninBox",
"CHANNEL_UID" : "Module1L_HV",
"LINK_TO_CHANNEL_TABLE" : "CAENPowerSupplyChannelTable",
"LINK_TO_CHANNEL_UID" : "Module1L_HV",
"CHANNEL_GROUP" : "Module1Left",
"TURN_ON_SEQUENCE" : "0",
"TURN_OFF_SEQUENCE" : "1",
"COMMENT_DESCRIPTION" : "No Comment",
"AUTHOR" : "admin",
"RECORD_INSERTION_TIME" : "1626818943"
},
{
"FE_INTERFACE_GROUP_ID" : "BurninBox",
"CHANNEL_UID" : "Module2L_LV",
"LINK_TO_CHANNEL_TABLE" : "CAENPowerSupplyChannelTable",
"LINK_TO_CHANNEL_UID" : "Module2L_LV",
"CHANNEL_GROUP" : "Module2Left",
"TURN_ON_SEQUENCE" : "1",
"TURN_OFF_SEQUENCE" : "0",
"COMMENT_DESCRIPTION" : "No Comment",
"AUTHOR" : "admin",
"RECORD_INSERTION_TIME" : "1626818943"
},
{
"FE_INTERFACE_GROUP_ID" : "BurninBox",
"CHANNEL_UID" : "Module2L_HV",
"LINK_TO_CHANNEL_TABLE" : "CAENPowerSupplyChannelTable",
"LINK_TO_CHANNEL_UID" : "Module2L_HV",
"CHANNEL_GROUP" : "Module2Left",
"TURN_ON_SEQUENCE" : "0",
"TURN_OFF_SEQUENCE" : "1",
"COMMENT_DESCRIPTION" : "No Comment",
"AUTHOR" : "admin",
"RECORD_INSERTION_TIME" : "1626818943"
},
{
"FE_INTERFACE_GROUP_ID" : "BurninBox",
"CHANNEL_UID" : "Module3L_LV",
"LINK_TO_CHANNEL_TABLE" : "CAENPowerSupplyChannelTable",
"LINK_TO_CHANNEL_UID" : "Module3L_LV",
"CHANNEL_GROUP" : "Module3Left",
"TURN_ON_SEQUENCE" : "1",
"TURN_OFF_SEQUENCE" : "0",
"COMMENT_DESCRIPTION" : "No Comment",
"AUTHOR" : "admin",
"RECORD_INSERTION_TIME" : "1626818943"
},
{
"FE_INTERFACE_GROUP_ID" : "BurninBox",
"CHANNEL_UID" : "Module3L_HV",
"LINK_TO_CHANNEL_TABLE" : "CAENPowerSupplyChannelTable",
"LINK_TO_CHANNEL_UID" : "Module3L_HV",
"CHANNEL_GROUP" : "Module3Left",
"TURN_ON_SEQUENCE" : "0",
"TURN_OFF_SEQUENCE" : "1",
"COMMENT_DESCRIPTION" : "No Comment",
"AUTHOR" : "admin",
"RECORD_INSERTION_TIME" : "1626818943"
},
{
"FE_INTERFACE_GROUP_ID" : "BurninBox",
"CHANNEL_UID" : "Module4L_LV",
"LINK_TO_CHANNEL_TABLE" : "CAENPowerSupplyChannelTable",
"LINK_TO_CHANNEL_UID" : "Module4L_LV",
"CHANNEL_GROUP" : "Module4Left",
"TURN_ON_SEQUENCE" : "1",
"TURN_OFF_SEQUENCE" : "0",
"COMMENT_DESCRIPTION" : "No Comment",
"AUTHOR" : "admin",
"RECORD_INSERTION_TIME" : "1626818943"
},
{
"FE_INTERFACE_GROUP_ID" : "BurninBox",
"CHANNEL_UID" : "Module4L_HV",
"LINK_TO_CHANNEL_TABLE" : "CAENPowerSupplyChannelTable",
"LINK_TO_CHANNEL_UID" : "Module4L_HV",
"CHANNEL_GROUP" : "Module4Left",
"TURN_ON_SEQUENCE" : "0",
"TURN_OFF_SEQUENCE" : "1",
"COMMENT_DESCRIPTION" : "No Comment",
"AUTHOR" : "admin",
"RECORD_INSERTION_TIME" : "1626818943"
},
{
"FE_INTERFACE_GROUP_ID" : "BurninBox",
"CHANNEL_UID" : "Module5L_LV",
"LINK_TO_CHANNEL_TABLE" : "CAENPowerSupplyChannelTable",
"LINK_TO_CHANNEL_UID" : "Module5L_LV",
"CHANNEL_GROUP" : "Module5Left",
"TURN_ON_SEQUENCE" : "1",
"TURN_OFF_SEQUENCE" : "0",
"COMMENT_DESCRIPTION" : "No Comment",
"AUTHOR" : "admin",
"RECORD_INSERTION_TIME" : "1626818943"
},
{
"FE_INTERFACE_GROUP_ID" : "BurninBox",
"CHANNEL_UID" : "Module5L_HV",
"LINK_TO_CHANNEL_TABLE" : "CAENPowerSupplyChannelTable",
"LINK_TO_CHANNEL_UID" : "Module5L_HV",
"CHANNEL_GROUP" : "Module5Left",
"TURN_ON_SEQUENCE" : "0",
"TURN_OFF_SEQUENCE" : "1",
"COMMENT_DESCRIPTION" : "No Comment",
"AUTHOR" : "admin",
"RECORD_INSERTION_TIME" : "1626818943"
},
{
"FE_INTERFACE_GROUP_ID" : "BurninBox",
"CHANNEL_UID" : "Module1R_LV",
"LINK_TO_CHANNEL_TABLE" : "CAENPowerSupplyChannelTable",
"LINK_TO_CHANNEL_UID" : "Module1R_LV",
"CHANNEL_GROUP" : "Module1Right",
"TURN_ON_SEQUENCE" : "1",
"TURN_OFF_SEQUENCE" : "0",
"COMMENT_DESCRIPTION" : "No Comment",
"AUTHOR" : "admin",
"RECORD_INSERTION_TIME" : "1626818943"
},
{
"FE_INTERFACE_GROUP_ID" : "BurninBox",
"CHANNEL_UID" : "Module1R_HV",
"LINK_TO_CHANNEL_TABLE" : "CAENPowerSupplyChannelTable",
"LINK_TO_CHANNEL_UID" : "Module1R_HV",
"CHANNEL_GROUP" : "Module1Right",
"TURN_ON_SEQUENCE" : "0",
"TURN_OFF_SEQUENCE" : "1",
"COMMENT_DESCRIPTION" : "No Comment",
"AUTHOR" : "admin",
"RECORD_INSERTION_TIME" : "1626818943"
},
{
"FE_INTERFACE_GROUP_ID" : "BurninBox",
"CHANNEL_UID" : "Module2R_LV",
"LINK_TO_CHANNEL_TABLE" : "CAENPowerSupplyChannelTable",
"LINK_TO_CHANNEL_UID" : "Module2R_LV",
"CHANNEL_GROUP" : "Module2Right",
"TURN_ON_SEQUENCE" : "1",
"TURN_OFF_SEQUENCE" : "0",
"COMMENT_DESCRIPTION" : "No Comment",
"AUTHOR" : "admin",
"RECORD_INSERTION_TIME" : "1626818943"
},
{
"FE_INTERFACE_GROUP_ID" : "BurninBox",
"CHANNEL_UID" : "Module2R_HV",
"LINK_TO_CHANNEL_TABLE" : "CAENPowerSupplyChannelTable",
"LINK_TO_CHANNEL_UID" : "Module2R_HV",
"CHANNEL_GROUP" : "Module2Right",
"TURN_ON_SEQUENCE" : "0",
"TURN_OFF_SEQUENCE" : "1",
"COMMENT_DESCRIPTION" : "No Comment",
"AUTHOR" : "admin",
"RECORD_INSERTION_TIME" : "1626818943"
},
{
"FE_INTERFACE_GROUP_ID" : "BurninBox",
"CHANNEL_UID" : "Module3R_LV",
"LINK_TO_CHANNEL_TABLE" : "CAENPowerSupplyChannelTable",
"LINK_TO_CHANNEL_UID" : "Module3R_LV",
"CHANNEL_GROUP" : "Module3Right",
"TURN_ON_SEQUENCE" : "1",
"TURN_OFF_SEQUENCE" : "0",
"COMMENT_DESCRIPTION" : "No Comment",
"AUTHOR" : "admin",
"RECORD_INSERTION_TIME" : "1626818943"
},
{
"FE_INTERFACE_GROUP_ID" : "BurninBox",
"CHANNEL_UID" : "Module3R_HV",
"LINK_TO_CHANNEL_TABLE" : "CAENPowerSupplyChannelTable",
"LINK_TO_CHANNEL_UID" : "Module3R_HV",
"CHANNEL_GROUP" : "Module3Right",
"TURN_ON_SEQUENCE" : "0",
"TURN_OFF_SEQUENCE" : "1",
"COMMENT_DESCRIPTION" : "No Comment",
"AUTHOR" : "admin",
"RECORD_INSERTION_TIME" : "1626818943"
},
{
"FE_INTERFACE_GROUP_ID" : "BurninBox",
"CHANNEL_UID" : "Module4R_LV",
"LINK_TO_CHANNEL_TABLE" : "CAENPowerSupplyChannelTable",
"LINK_TO_CHANNEL_UID" : "Module4R_LV",
"CHANNEL_GROUP" : "Module4Right",
"TURN_ON_SEQUENCE" : "1",
"TURN_OFF_SEQUENCE" : "0",
"COMMENT_DESCRIPTION" : "No Comment",
"AUTHOR" : "admin",
"RECORD_INSERTION_TIME" : "1626818943"
},
{
"FE_INTERFACE_GROUP_ID" : "BurninBox",
"CHANNEL_UID" : "Module4R_HV",
"LINK_TO_CHANNEL_TABLE" : "CAENPowerSupplyChannelTable",
"LINK_TO_CHANNEL_UID" : "Module4R_HV",
"CHANNEL_GROUP" : "Module4Right",
"TURN_ON_SEQUENCE" : "0",
"TURN_OFF_SEQUENCE" : "1",
"COMMENT_DESCRIPTION" : "No Comment",
"AUTHOR" : "admin",
"RECORD_INSERTION_TIME" : "1626818943"
},
{
"FE_INTERFACE_GROUP_ID" : "BurninBox",
"CHANNEL_UID" : "Module5R_LV",
"LINK_TO_CHANNEL_TABLE" : "CAENPowerSupplyChannelTable",
"LINK_TO_CHANNEL_UID" : "Module5R_LV",
"CHANNEL_GROUP" : "Module5Right",
"TURN_ON_SEQUENCE" : "1",
"TURN_OFF_SEQUENCE" : "0",
"COMMENT_DESCRIPTION" : "No Comment",
"AUTHOR" : "admin",
"RECORD_INSERTION_TIME" : "1626818943"
},
{
"FE_INTERFACE_GROUP_ID" : "BurninBox",
"CHANNEL_UID" : "Module5R_HV",
"LINK_TO_CHANNEL_TABLE" : "CAENPowerSupplyChannelTable",
"LINK_TO_CHANNEL_UID" : "Module5R_HV",
"CHANNEL_GROUP" : "Module5Right",
"TURN_ON_SEQUENCE" : "0",
"TURN_OFF_SEQUENCE" : "1",
"COMMENT_DESCRIPTION" : "No Comment",
"AUTHOR" : "admin",
"RECORD_INSERTION_TIME" : "1626818943"
}
]
},
"metadata" : {

},
"search" : [

]
},
"comments" : [

],
"origin" : {
"source" : "template",
"name" : "notprovided",
"format" : "json",
"created" : "2021-07-20T17:09:03.044-0500",
"rawdata" : [

]
},
"version" : "2",
"entities" : [
{
"name" : "OTSROOT",
"assigned" : "2021-07-20T17:09:03.044-0500"
}
],
"configurations" : [
{
"name" : "notprovided",
"assigned" : "2021-07-20T17:09:03.044-0500"
},
{
"name" : "BurninBoxConfiguration_v54",
"assigned" : "2021-07-20T17:09:27.176-0500"
},
{
"name" : "BurninBoxConfiguration_v55",
"assigned" : "2021-07-20T17:28:40.338-0500"
}
],
"changelog" : "notprovided",
"bookkeeping" : {
"isdeleted" : false,
"isreadonly" : false,
"updates" : [
{
"event" : "addConfiguration",
"timestamp" : "2021-07-20T17:09:03.044-0500",
"value" : {
"name" : "notprovided",
"assigned" : "2021-07-20T17:09:03.044-0500"
}
},
{
"event" : "setVersion",
"timestamp" : "2021-07-20T17:09:03.044-0500",
"value" : {
"name" : "2",
"assigned" : "2021-07-20T17:09:03.044-0500"
}
},
{
"event" : "setCollection",
"timestamp" : "2021-07-20T17:09:03.044-0500",
"value" : {
"name" : "PowerSupplyToDetectorTable",
"assigned" : "2021-07-20T17:09:03.044-0500"
}
},
{
"event" : "addEntity",
"timestamp" : "2021-07-20T17:09:03.044-0500",
"value" : {
"name" : "OTSROOT",
"assigned" : "2021-07-20T17:09:03.044-0500"
}
},
{
"event" : "addConfiguration",
"timestamp" : "2021-07-20T17:09:27.176-0500",
"value" : {
"name" : "BurninBoxConfiguration_v54",
"assigned" : "2021-07-20T17:09:27.176-0500"
}
},
{
"event" : "addConfiguration",
"timestamp" : "2021-07-20T17:28:40.338-0500",
"value" : {
"name" : "BurninBoxConfiguration_v55",
"assigned" : "2021-07-20T17:28:40.338-0500"
}
}
],
"created" : "2021-07-20T17:09:03.044-0500"
},
"_id" : {
"$oid" : "45c2d61fa3134b48bf6befde"
},
"collection" : "PowerSupplyToDetectorTable",
"aliases" : {
"active" : [

],
"history" : [

]
},
"runs" : [

],
"attachments" : [

],
"configtype" : "notprovided"
}