{
"document" : {
"data" : {
"NAME" : "ARTDAQ_BOARD_READER_CONFIGURATION",
"COMMENT" : "Empty table.",
"AUTHOR" : "admin",
"CREATION_TIME" : 1508879475,
"COL_TYPES" : {
"SUPERVISOR_UID" : "VARCHAR2",
"STATUS" : "VARCHAR2",
"DAQ_GENERATOR_PLUGIN_TYPE" : "VARCHAR2",
"DAQ_GENERATOR_FRAGMENT_TYPE" : "VARCHAR2",
"DAQ_PARAMETERS_LINK" : "VARCHAR2",
"DAQ_PARAMETERS_LINK_GROUP_ID" : "VARCHAR2",
"DAQ_DESTINATIONS_LINK" : "VARCHAR2",
"DAQ_DESTINATIONS_LINK_GROUP_ID" : "VARCHAR2",
"DAQ_METRICS_LINK" : "VARCHAR2",
"DAQ_METRICS_LINK_UID" : "VARCHAR2",
"COMMENT_DESCRIPTION" : "VARCHAR2",
"AUTHOR" : "VARCHAR2",
"RECORD_INSERTION_TIME" : "TIMESTAMP WITH TIMEZONE"
},
"DATA_SET" : [
{
"SUPERVISOR_UID" : "reader0",
"STATUS" : "On",
"DAQ_GENERATOR_PLUGIN_TYPE" : "WireChamberReceiver",
"DAQ_GENERATOR_FRAGMENT_TYPE" : "MWPC",
"DAQ_PARAMETERS_LINK" : "ARTDAQBoardReaderDaqParameterConfiguration",
"DAQ_PARAMETERS_LINK_GROUP_ID" : "reader0PGroup",
"DAQ_DESTINATIONS_LINK" : "ARTDAQDaqDestinationConfiguration",
"DAQ_DESTINATIONS_LINK_GROUP_ID" : "reader0DestGroup",
"DAQ_METRICS_LINK" : "ARTDAQDaqMetricConfiguration",
"DAQ_METRICS_LINK_UID" : "reader0Metrics",
"COMMENT_DESCRIPTION" : "No Comment",
"AUTHOR" : "admin",
"RECORD_INSERTION_TIME" : "1508879460"
}
]
},
"metadata" : {

},
"search" : [

]
},
"comments" : [

],
"origin" : {
"source" : "template",
"name" : "notprovided",
"format" : "json",
"created" : "2017-11-08T15:56:02.364-0600",
"rawdata" : [

]
},
"version" : "0",
"entities" : [
{
"name" : "OTSROOT",
"assigned" : "2017-11-08T15:56:02.366-0600"
}
],
"configurations" : [
{
"name" : "notprovided",
"assigned" : "2017-11-08T15:56:02.365-0600"
},
{
"name" : "FTBFConfig_v0",
"assigned" : "2017-11-08T15:56:04.945-0600"
},
{
"name" : "FTBFConfig_v1",
"assigned" : "2017-11-09T09:56:29.328-0600"
},
{
"name" : "FTBFConfig_v2",
"assigned" : "2017-11-09T10:05:58.267-0600"
},
{
"name" : "FTBFConfig_v3",
"assigned" : "2017-11-09T10:37:09.834-0600"
},
{
"name" : "FTBFConfig_v4",
"assigned" : "2017-11-15T11:30:08.565-0600"
},
{
"name" : "FTBFConfig_v5",
"assigned" : "2017-11-15T11:54:55.313-0600"
},
{
"name" : "FTBFConfig_v6",
"assigned" : "2017-11-15T11:57:47.937-0600"
},
{
"name" : "FTBFConfig_v7",
"assigned" : "2017-11-15T12:42:30.332-0600"
},
{
"name" : "FTBFConfig_v8",
"assigned" : "2017-11-15T13:01:01.282-0600"
},
{
"name" : "FTBFConfig_v9",
"assigned" : "2017-11-15T13:02:54.653-0600"
},
{
"name" : "FTBFConfig_v10",
"assigned" : "2017-11-15T13:04:22.248-0600"
},
{
"name" : "FTBFConfig_v11",
"assigned" : "2017-11-15T13:07:49.720-0600"
},
{
"name" : "FTBFConfig_v12",
"assigned" : "2017-11-15T13:11:57.153-0600"
}
],
"changelog" : "notprovided",
"bookkeeping" : {
"isdeleted" : false,
"isreadonly" : false,
"updates" : [
{
"event" : "addConfiguration",
"timestamp" : "2017-11-08T15:56:02.365-0600",
"value" : {
"name" : "notprovided",
"assigned" : "2017-11-08T15:56:02.365-0600"
}
},
{
"event" : "setVersion",
"timestamp" : "2017-11-08T15:56:02.365-0600",
"value" : {
"name" : "0",
"assigned" : "2017-11-08T15:56:02.365-0600"
}
},
{
"event" : "setCollection",
"timestamp" : "2017-11-08T15:56:02.366-0600",
"value" : {
"name" : "ARTDAQBoardReaderConfiguration",
"assigned" : "2017-11-08T15:56:02.366-0600"
}
},
{
"event" : "addEntity",
"timestamp" : "2017-11-08T15:56:02.366-0600",
"value" : {
"name" : "OTSROOT",
"assigned" : "2017-11-08T15:56:02.366-0600"
}
},
{
"event" : "addConfiguration",
"timestamp" : "2017-11-08T15:56:04.945-0600",
"value" : {
"name" : "FTBFConfig_v0",
"assigned" : "2017-11-08T15:56:04.945-0600"
}
},
{
"event" : "addConfiguration",
"timestamp" : "2017-11-09T09:56:29.328-0600",
"value" : {
"name" : "FTBFConfig_v1",
"assigned" : "2017-11-09T09:56:29.328-0600"
}
},
{
"event" : "addConfiguration",
"timestamp" : "2017-11-09T10:05:58.267-0600",
"value" : {
"name" : "FTBFConfig_v2",
"assigned" : "2017-11-09T10:05:58.267-0600"
}
},
{
"event" : "addConfiguration",
"timestamp" : "2017-11-09T10:37:09.834-0600",
"value" : {
"name" : "FTBFConfig_v3",
"assigned" : "2017-11-09T10:37:09.834-0600"
}
},
{
"event" : "addConfiguration",
"timestamp" : "2017-11-15T11:30:08.565-0600",
"value" : {
"name" : "FTBFConfig_v4",
"assigned" : "2017-11-15T11:30:08.565-0600"
}
},
{
"event" : "addConfiguration",
"timestamp" : "2017-11-15T11:54:55.313-0600",
"value" : {
"name" : "FTBFConfig_v5",
"assigned" : "2017-11-15T11:54:55.313-0600"
}
},
{
"event" : "addConfiguration",
"timestamp" : "2017-11-15T11:57:47.937-0600",
"value" : {
"name" : "FTBFConfig_v6",
"assigned" : "2017-11-15T11:57:47.937-0600"
}
},
{
"event" : "addConfiguration",
"timestamp" : "2017-11-15T12:42:30.332-0600",
"value" : {
"name" : "FTBFConfig_v7",
"assigned" : "2017-11-15T12:42:30.332-0600"
}
},
{
"event" : "addConfiguration",
"timestamp" : "2017-11-15T13:01:01.282-0600",
"value" : {
"name" : "FTBFConfig_v8",
"assigned" : "2017-11-15T13:01:01.282-0600"
}
},
{
"event" : "addConfiguration",
"timestamp" : "2017-11-15T13:02:54.653-0600",
"value" : {
"name" : "FTBFConfig_v9",
"assigned" : "2017-11-15T13:02:54.653-0600"
}
},
{
"event" : "addConfiguration",
"timestamp" : "2017-11-15T13:04:22.248-0600",
"value" : {
"name" : "FTBFConfig_v10",
"assigned" : "2017-11-15T13:04:22.248-0600"
}
},
{
"event" : "addConfiguration",
"timestamp" : "2017-11-15T13:07:49.720-0600",
"value" : {
"name" : "FTBFConfig_v11",
"assigned" : "2017-11-15T13:07:49.720-0600"
}
},
{
"event" : "addConfiguration",
"timestamp" : "2017-11-15T13:11:57.153-0600",
"value" : {
"name" : "FTBFConfig_v12",
"assigned" : "2017-11-15T13:11:57.153-0600"
}
}
],
"created" : "2017-11-08T15:56:02.364-0600"
},
"_id" : {
"$oid" : "e8fbdd856ddb423e90b4e1db"
},
"collection" : "ARTDAQBoardReaderConfiguration",
"aliases" : {
"active" : [

],
"history" : [

]
},
"runs" : [

],
"attachments" : [

],
"configtype" : "notprovided"
}