{
"document" : {
"data" : {
"NAME" : "FE_INTERFACE_TABLE",
"COMMENT" : "FE interfaces top level.",
"AUTHOR" : "admin",
"CREATION_TIME" : 1563567854,
"COL_TYPES" : {
"FE_INTERFACE_GROUP_ID" : "VARCHAR2",
"FE_INTERFACE_UID" : "VARCHAR2",
"STATUS" : "VARCHAR2",
"FE_INTERFACE_PLUGIN_NAME" : "VARCHAR2",
"LINK_TO_FE_TYPE_TABLE" : "VARCHAR2",
"LINK_TO_FE_TYPE_UID" : "VARCHAR2",
"LINK_TO_FE_TO_DETECTOR_TABLE" : "VARCHAR2",
"LINK_TO_FE_TO_DETECTOR_GROUP_ID" : "VARCHAR2",
"LINK_TO_SLOW_CONTROLS_CHANNEL_TABLE" : "VARCHAR2",
"LINK_TO_SLOW_CONTROLS_CHANNEL_GROUP_ID" : "VARCHAR2",
"LINK_TO_SLOW_CONTROLS_MONITOR_TABLE" : "VARCHAR2",
"LINK_TO_SLOW_CONTROLS_MONITOR_UID" : "VARCHAR2",
"SLOW_CONTROLS_TX_SOCKET_IP_ADDRESS" : "VARCHAR2",
"SLOW_CONTROLS_TX_SOCKET_PORT" : "NUMBER",
"SLOW_CONTROLS_LOCAL_AGGREGATE_SAVING_ENABLED" : "VARCHAR2",
"SLOW_CONTROLS_LOCAL_FILE_PATH" : "VARCHAR2",
"SLOW_CONTROLS_RADIX_FILE_NAME" : "VARCHAR2",
"SLOW_CONTROLS_SAVE_BINARY_FILE" : "VARCHAR2",
"COMMENT_DESCRIPTION" : "VARCHAR2",
"AUTHOR" : "VARCHAR2",
"RECORD_INSERTION_TIME" : "TIMESTAMP WITH TIMEZONE"
},
"DATA_SET" : [
{
"FE_INTERFACE_GROUP_ID" : "FEBurninBoxSupervisor0",
"FE_INTERFACE_UID" : "FEBurninBox0",
"STATUS" : "On",
"FE_INTERFACE_PLUGIN_NAME" : "FECMSBurninBoxInterface",
"LINK_TO_FE_TYPE_TABLE" : "FECMSBurninBoxInterfaceTable",
"LINK_TO_FE_TYPE_UID" : "FEBurninBox0",
"LINK_TO_FE_TO_DETECTOR_TABLE" : "NO_LINK",
"LINK_TO_FE_TO_DETECTOR_GROUP_ID" : "DEFAULT",
"LINK_TO_SLOW_CONTROLS_CHANNEL_TABLE" : "NO_LINK",
"LINK_TO_SLOW_CONTROLS_CHANNEL_GROUP_ID" : "DEFAULT",
"LINK_TO_SLOW_CONTROLS_MONITOR_TABLE" : "NO_LINK",
"LINK_TO_SLOW_CONTROLS_MONITOR_UID" : "DEFAULT",
"SLOW_CONTROLS_TX_SOCKET_IP_ADDRESS" : "DEFAULT",
"SLOW_CONTROLS_TX_SOCKET_PORT" : "0",
"SLOW_CONTROLS_LOCAL_AGGREGATE_SAVING_ENABLED" : "No",
"SLOW_CONTROLS_LOCAL_FILE_PATH" : "DEFAULT",
"SLOW_CONTROLS_RADIX_FILE_NAME" : "DEFAULT",
"SLOW_CONTROLS_SAVE_BINARY_FILE" : "False",
"COMMENT_DESCRIPTION" : "",
"AUTHOR" : "admin",
"RECORD_INSERTION_TIME" : "1563567854"
}
]
},
"metadata" : {

},
"search" : [

]
},
"comments" : [

],
"origin" : {
"source" : "template",
"name" : "notprovided",
"format" : "json",
"created" : "2019-07-19T15:24:14.694-0500",
"rawdata" : [

]
},
"version" : "1",
"entities" : [
{
"name" : "OTSROOT",
"assigned" : "2019-07-19T15:24:14.694-0500"
}
],
"configurations" : [
{
"name" : "notprovided",
"assigned" : "2019-07-19T15:24:14.694-0500"
},
{
"name" : "BurninBoxConfig_v24",
"assigned" : "2019-07-19T15:24:15.827-0500"
},
{
"name" : "BurninBoxConfig_v25",
"assigned" : "2019-07-19T15:25:10.918-0500"
},
{
"name" : "BurninBoxConfig_v26",
"assigned" : "2019-07-24T14:34:10.392-0500"
},
{
"name" : "BurninBoxConfig_v27",
"assigned" : "2019-07-24T14:47:23.623-0500"
},
{
"name" : "BurninBoxConfig_v28",
"assigned" : "2019-07-24T14:48:41.122-0500"
},
{
"name" : "BurninBoxConfig_v29",
"assigned" : "2020-06-29T10:55:10.620-0500"
},
{
"name" : "BurninBoxConfig_v30",
"assigned" : "2020-06-29T11:05:39.911-0500"
},
{
"name" : "BurninBoxConfig_v31",
"assigned" : "2020-06-29T11:28:21.596-0500"
},
{
"name" : "BurninBoxConfig_v32",
"assigned" : "2020-07-24T10:58:17.834-0500"
},
{
"name" : "BurninBoxConfig_v33",
"assigned" : "2020-07-24T11:00:07.476-0500"
},
{
"name" : "BurninBoxConfig_v34",
"assigned" : "2020-07-24T11:56:06.188-0500"
},
{
"name" : "BurninBoxConfig_v35",
"assigned" : "2020-07-24T12:12:09.207-0500"
},
{
"name" : "BurninBoxConfig_v36",
"assigned" : "2020-07-24T12:16:35.707-0500"
}
],
"changelog" : "notprovided",
"bookkeeping" : {
"isdeleted" : false,
"isreadonly" : false,
"updates" : [
{
"event" : "addConfiguration",
"timestamp" : "2019-07-19T15:24:14.694-0500",
"value" : {
"name" : "notprovided",
"assigned" : "2019-07-19T15:24:14.694-0500"
}
},
{
"event" : "setVersion",
"timestamp" : "2019-07-19T15:24:14.694-0500",
"value" : {
"name" : "1",
"assigned" : "2019-07-19T15:24:14.694-0500"
}
},
{
"event" : "setCollection",
"timestamp" : "2019-07-19T15:24:14.694-0500",
"value" : {
"name" : "FEInterfaceTable",
"assigned" : "2019-07-19T15:24:14.694-0500"
}
},
{
"event" : "addEntity",
"timestamp" : "2019-07-19T15:24:14.694-0500",
"value" : {
"name" : "OTSROOT",
"assigned" : "2019-07-19T15:24:14.694-0500"
}
},
{
"event" : "addConfiguration",
"timestamp" : "2019-07-19T15:24:15.827-0500",
"value" : {
"name" : "BurninBoxConfig_v24",
"assigned" : "2019-07-19T15:24:15.827-0500"
}
},
{
"event" : "addConfiguration",
"timestamp" : "2019-07-19T15:25:10.918-0500",
"value" : {
"name" : "BurninBoxConfig_v25",
"assigned" : "2019-07-19T15:25:10.918-0500"
}
},
{
"event" : "addConfiguration",
"timestamp" : "2019-07-24T14:34:10.392-0500",
"value" : {
"name" : "BurninBoxConfig_v26",
"assigned" : "2019-07-24T14:34:10.392-0500"
}
},
{
"event" : "addConfiguration",
"timestamp" : "2019-07-24T14:47:23.623-0500",
"value" : {
"name" : "BurninBoxConfig_v27",
"assigned" : "2019-07-24T14:47:23.623-0500"
}
},
{
"event" : "addConfiguration",
"timestamp" : "2019-07-24T14:48:41.122-0500",
"value" : {
"name" : "BurninBoxConfig_v28",
"assigned" : "2019-07-24T14:48:41.122-0500"
}
},
{
"event" : "addConfiguration",
"timestamp" : "2020-06-29T10:55:10.621-0500",
"value" : {
"name" : "BurninBoxConfig_v29",
"assigned" : "2020-06-29T10:55:10.620-0500"
}
},
{
"event" : "addConfiguration",
"timestamp" : "2020-06-29T11:05:39.911-0500",
"value" : {
"name" : "BurninBoxConfig_v30",
"assigned" : "2020-06-29T11:05:39.911-0500"
}
},
{
"event" : "addConfiguration",
"timestamp" : "2020-06-29T11:28:21.596-0500",
"value" : {
"name" : "BurninBoxConfig_v31",
"assigned" : "2020-06-29T11:28:21.596-0500"
}
},
{
"event" : "addConfiguration",
"timestamp" : "2020-07-24T10:58:17.834-0500",
"value" : {
"name" : "BurninBoxConfig_v32",
"assigned" : "2020-07-24T10:58:17.834-0500"
}
},
{
"event" : "addConfiguration",
"timestamp" : "2020-07-24T11:00:07.476-0500",
"value" : {
"name" : "BurninBoxConfig_v33",
"assigned" : "2020-07-24T11:00:07.476-0500"
}
},
{
"event" : "addConfiguration",
"timestamp" : "2020-07-24T11:56:06.188-0500",
"value" : {
"name" : "BurninBoxConfig_v34",
"assigned" : "2020-07-24T11:56:06.188-0500"
}
},
{
"event" : "addConfiguration",
"timestamp" : "2020-07-24T12:12:09.207-0500",
"value" : {
"name" : "BurninBoxConfig_v35",
"assigned" : "2020-07-24T12:12:09.207-0500"
}
},
{
"event" : "addConfiguration",
"timestamp" : "2020-07-24T12:16:35.707-0500",
"value" : {
"name" : "BurninBoxConfig_v36",
"assigned" : "2020-07-24T12:16:35.707-0500"
}
}
],
"created" : "2019-07-19T15:24:14.694-0500"
},
"_id" : {
"$oid" : "77d0d2725b1d4d9fb89af68c"
},
"collection" : "FEInterfaceTable",
"aliases" : {
"active" : [

],
"history" : [

]
},
"runs" : [

],
"attachments" : [

],
"configtype" : "notprovided"
}