{
"document" : {
"data" : {
"NAME" : "ARTDAQ_BUILDER_CONFIGURATION",
"COMMENT" : "",
"AUTHOR" : "admin",
"CREATION_TIME" : 1504820706,
"COL_TYPES" : {
"SUPERVISOR_UID" : "VARCHAR2",
"STATUS" : "VARCHAR2",
"CONFIGURATION_STRING" : "VARCHAR2",
"SERVICES_LINK" : "VARCHAR2",
"SERVICES_LINK_UID" : "VARCHAR2",
"DAQ_LINK" : "VARCHAR2",
"DAQ_LINK_UID" : "VARCHAR2",
"OUTPUTS_LINK" : "VARCHAR2",
"OUTPUTS_LINK_UID" : "VARCHAR2",
"PHYSICS_LINK" : "VARCHAR2",
"PHYSICS_LINK_UID" : "VARCHAR2",
"SOURCE_LINK" : "VARCHAR2",
"SOURCE_LINK_UID" : "VARCHAR2",
"ARTDAQ_GLOBAL_CONFIGURATION_FOR_PROCESS_NAME_LINK" : "VARCHAR2",
"ARTDAQ_GLOBAL_CONFIGURATION_FOR_PROCESS_NAME_LINK_UID" : "VARCHAR2",
"COMMENT_DESCRIPTION" : "VARCHAR2",
"AUTHOR" : "VARCHAR2",
"RECORD_INSERTION_TIME" : "TIMESTAMP WITH TIMEZONE"
},
"DATA_SET" : [
{
"SUPERVISOR_UID" : "builder0",
"STATUS" : "On",
"CONFIGURATION_STRING" : "DEFAULT",
"SERVICES_LINK" : "ARTDAQBuilderServicesConfiguration",
"SERVICES_LINK_UID" : "builder0services0",
"DAQ_LINK" : "ARTDAQBuilderDaqConfiguration",
"DAQ_LINK_UID" : "builder0daq0",
"OUTPUTS_LINK" : "ARTDAQOutputConfiguration",
"OUTPUTS_LINK_UID" : "builder0outputs",
"PHYSICS_LINK" : "ARTDAQPhysicsConfiguration",
"PHYSICS_LINK_UID" : "builder0physics0",
"SOURCE_LINK" : "ARTDAQBuilderSourceConfiguration",
"SOURCE_LINK_UID" : "builder0source",
"ARTDAQ_GLOBAL_CONFIGURATION_FOR_PROCESS_NAME_LINK" : "ARTDAQGlobalConfiguration",
"ARTDAQ_GLOBAL_CONFIGURATION_FOR_PROCESS_NAME_LINK_UID" : "artdaq0",
"COMMENT_DESCRIPTION" : "No Comment",
"AUTHOR" : "DEFAULT",
"RECORD_INSERTION_TIME" : "0"
}
]
},
"metadata" : {

},
"search" : [

]
},
"comments" : [

],
"origin" : {
"source" : "template",
"name" : "notprovided",
"format" : "json",
"created" : "2017-11-08T15:56:02.456-0600",
"rawdata" : [

]
},
"version" : "0",
"entities" : [
{
"name" : "OTSROOT",
"assigned" : "2017-11-08T15:56:02.458-0600"
}
],
"configurations" : [
{
"name" : "notprovided",
"assigned" : "2017-11-08T15:56:02.457-0600"
},
{
"name" : "FTBFConfig_v0",
"assigned" : "2017-11-08T15:56:05.045-0600"
},
{
"name" : "FTBFConfig_v1",
"assigned" : "2017-11-09T09:56:29.452-0600"
},
{
"name" : "FTBFConfig_v2",
"assigned" : "2017-11-09T10:05:58.392-0600"
},
{
"name" : "FTBFConfig_v3",
"assigned" : "2017-11-09T10:37:09.964-0600"
},
{
"name" : "FTBFConfig_v4",
"assigned" : "2017-11-15T11:30:08.701-0600"
},
{
"name" : "FTBFConfig_v5",
"assigned" : "2017-11-15T11:54:55.451-0600"
},
{
"name" : "FTBFConfig_v6",
"assigned" : "2017-11-15T11:57:48.077-0600"
},
{
"name" : "FTBFConfig_v7",
"assigned" : "2017-11-15T12:42:30.494-0600"
},
{
"name" : "FTBFConfig_v8",
"assigned" : "2017-11-15T13:01:01.443-0600"
},
{
"name" : "FTBFConfig_v9",
"assigned" : "2017-11-15T13:02:54.812-0600"
},
{
"name" : "FTBFConfig_v10",
"assigned" : "2017-11-15T13:04:22.402-0600"
},
{
"name" : "FTBFConfig_v11",
"assigned" : "2017-11-15T13:07:49.870-0600"
},
{
"name" : "FTBFConfig_v12",
"assigned" : "2017-11-15T13:11:57.302-0600"
},
{
"name" : "FTBFConfig_v13",
"assigned" : "2017-11-15T13:13:51.250-0600"
},
{
"name" : "FTBFConfig_v14",
"assigned" : "2017-11-15T13:27:23.989-0600"
}
],
"changelog" : "notprovided",
"bookkeeping" : {
"isdeleted" : false,
"isreadonly" : false,
"updates" : [
{
"event" : "addConfiguration",
"timestamp" : "2017-11-08T15:56:02.457-0600",
"value" : {
"name" : "notprovided",
"assigned" : "2017-11-08T15:56:02.457-0600"
}
},
{
"event" : "setVersion",
"timestamp" : "2017-11-08T15:56:02.457-0600",
"value" : {
"name" : "0",
"assigned" : "2017-11-08T15:56:02.457-0600"
}
},
{
"event" : "setCollection",
"timestamp" : "2017-11-08T15:56:02.458-0600",
"value" : {
"name" : "ARTDAQBuilderConfiguration",
"assigned" : "2017-11-08T15:56:02.458-0600"
}
},
{
"event" : "addEntity",
"timestamp" : "2017-11-08T15:56:02.458-0600",
"value" : {
"name" : "OTSROOT",
"assigned" : "2017-11-08T15:56:02.458-0600"
}
},
{
"event" : "addConfiguration",
"timestamp" : "2017-11-08T15:56:05.045-0600",
"value" : {
"name" : "FTBFConfig_v0",
"assigned" : "2017-11-08T15:56:05.045-0600"
}
},
{
"event" : "addConfiguration",
"timestamp" : "2017-11-09T09:56:29.452-0600",
"value" : {
"name" : "FTBFConfig_v1",
"assigned" : "2017-11-09T09:56:29.452-0600"
}
},
{
"event" : "addConfiguration",
"timestamp" : "2017-11-09T10:05:58.392-0600",
"value" : {
"name" : "FTBFConfig_v2",
"assigned" : "2017-11-09T10:05:58.392-0600"
}
},
{
"event" : "addConfiguration",
"timestamp" : "2017-11-09T10:37:09.964-0600",
"value" : {
"name" : "FTBFConfig_v3",
"assigned" : "2017-11-09T10:37:09.964-0600"
}
},
{
"event" : "addConfiguration",
"timestamp" : "2017-11-15T11:30:08.701-0600",
"value" : {
"name" : "FTBFConfig_v4",
"assigned" : "2017-11-15T11:30:08.701-0600"
}
},
{
"event" : "addConfiguration",
"timestamp" : "2017-11-15T11:54:55.451-0600",
"value" : {
"name" : "FTBFConfig_v5",
"assigned" : "2017-11-15T11:54:55.451-0600"
}
},
{
"event" : "addConfiguration",
"timestamp" : "2017-11-15T11:57:48.077-0600",
"value" : {
"name" : "FTBFConfig_v6",
"assigned" : "2017-11-15T11:57:48.077-0600"
}
},
{
"event" : "addConfiguration",
"timestamp" : "2017-11-15T12:42:30.494-0600",
"value" : {
"name" : "FTBFConfig_v7",
"assigned" : "2017-11-15T12:42:30.494-0600"
}
},
{
"event" : "addConfiguration",
"timestamp" : "2017-11-15T13:01:01.443-0600",
"value" : {
"name" : "FTBFConfig_v8",
"assigned" : "2017-11-15T13:01:01.443-0600"
}
},
{
"event" : "addConfiguration",
"timestamp" : "2017-11-15T13:02:54.812-0600",
"value" : {
"name" : "FTBFConfig_v9",
"assigned" : "2017-11-15T13:02:54.812-0600"
}
},
{
"event" : "addConfiguration",
"timestamp" : "2017-11-15T13:04:22.402-0600",
"value" : {
"name" : "FTBFConfig_v10",
"assigned" : "2017-11-15T13:04:22.402-0600"
}
},
{
"event" : "addConfiguration",
"timestamp" : "2017-11-15T13:07:49.870-0600",
"value" : {
"name" : "FTBFConfig_v11",
"assigned" : "2017-11-15T13:07:49.870-0600"
}
},
{
"event" : "addConfiguration",
"timestamp" : "2017-11-15T13:11:57.302-0600",
"value" : {
"name" : "FTBFConfig_v12",
"assigned" : "2017-11-15T13:11:57.302-0600"
}
},
{
"event" : "addConfiguration",
"timestamp" : "2017-11-15T13:13:51.251-0600",
"value" : {
"name" : "FTBFConfig_v13",
"assigned" : "2017-11-15T13:13:51.250-0600"
}
},
{
"event" : "addConfiguration",
"timestamp" : "2017-11-15T13:27:23.990-0600",
"value" : {
"name" : "FTBFConfig_v14",
"assigned" : "2017-11-15T13:27:23.989-0600"
}
}
],
"created" : "2017-11-08T15:56:02.456-0600"
},
"_id" : {
"$oid" : "b823af09398641c19edbb9a0"
},
"collection" : "ARTDAQBuilderConfiguration",
"aliases" : {
"active" : [

],
"history" : [

]
},
"runs" : [

],
"attachments" : [

],
"configtype" : "notprovided"
}