{
"ouid" : [
"b823af09398641c19edbb9a0",
"c753d8a82fcd44dd9232297e"
],
"version" : {
"0" : [
"b823af09398641c19edbb9a0"
],
"1" : [
"c753d8a82fcd44dd9232297e"
]
},
"configurations.name" : {
"notprovided" : [
"b823af09398641c19edbb9a0",
"c753d8a82fcd44dd9232297e"
],
"FTBFConfig_v0" : [
"b823af09398641c19edbb9a0"
],
"FTBFConfig_v1" : [
"b823af09398641c19edbb9a0"
],
"FTBFConfig_v2" : [
"b823af09398641c19edbb9a0"
],
"FTBFConfig_v3" : [
"b823af09398641c19edbb9a0"
],
"FTBFConfig_v4" : [
"b823af09398641c19edbb9a0"
],
"FTBFConfig_v5" : [
"b823af09398641c19edbb9a0"
],
"FTBFConfig_v6" : [
"b823af09398641c19edbb9a0"
],
"FTBFConfig_v7" : [
"b823af09398641c19edbb9a0"
],
"FTBFConfig_v8" : [
"b823af09398641c19edbb9a0"
],
"FTBFConfig_v9" : [
"b823af09398641c19edbb9a0"
],
"FTBFConfig_v10" : [
"b823af09398641c19edbb9a0"
],
"FTBFConfig_v11" : [
"b823af09398641c19edbb9a0"
],
"FTBFConfig_v12" : [
"b823af09398641c19edbb9a0"
],
"FTBFConfig_v13" : [
"b823af09398641c19edbb9a0"
],
"FTBFConfig_v14" : [
"b823af09398641c19edbb9a0"
],
"FTBFConfig_v15" : [
"c753d8a82fcd44dd9232297e"
],
"FTBFConfig_v16" : [
"c753d8a82fcd44dd9232297e"
],
"FTBFConfig_v17" : [
"c753d8a82fcd44dd9232297e"
],
"FTBFConfig_v18" : [
"c753d8a82fcd44dd9232297e"
],
"FTBFConfig_v19" : [
"c753d8a82fcd44dd9232297e"
],
"FTBFConfig_v20" : [
"c753d8a82fcd44dd9232297e"
],
"FTBFConfig_v21" : [
"c753d8a82fcd44dd9232297e"
],
"FTBFConfig_v22" : [
"c753d8a82fcd44dd9232297e"
],
"FTBFConfig_v23" : [
"c753d8a82fcd44dd9232297e"
],
"FTBFConfig_v24" : [
"c753d8a82fcd44dd9232297e"
],
"FTBFConfig_v25" : [
"c753d8a82fcd44dd9232297e"
],
"FTBFConfig_v26" : [
"c753d8a82fcd44dd9232297e"
],
"FTBFConfig_v27" : [
"c753d8a82fcd44dd9232297e"
],
"FTBFConfig_v28" : [
"c753d8a82fcd44dd9232297e"
],
"FTBFConfig_v29" : [
"c753d8a82fcd44dd9232297e"
],
"FTBFConfig_v30" : [
"c753d8a82fcd44dd9232297e"
],
"FTBFConfig_v31" : [
"c753d8a82fcd44dd9232297e"
],
"FTBFConfig_v32" : [
"c753d8a82fcd44dd9232297e"
],
"FTBFConfig_v33" : [
"c753d8a82fcd44dd9232297e"
],
"FTBFConfig_v34" : [
"c753d8a82fcd44dd9232297e"
],
"FTBFConfig_v35" : [
"c753d8a82fcd44dd9232297e"
],
"FTBFConfig_v36" : [
"c753d8a82fcd44dd9232297e"
],
"FTBFConfig_v37" : [
"c753d8a82fcd44dd9232297e"
],
"FTBFConfig_v38" : [
"c753d8a82fcd44dd9232297e"
],
"FTBFConfig_v39" : [
"c753d8a82fcd44dd9232297e"
],
"FTBFConfig_v40" : [
"c753d8a82fcd44dd9232297e"
],
"FTBFConfig_v41" : [
"c753d8a82fcd44dd9232297e"
],
"FTBFConfig_v42" : [
"c753d8a82fcd44dd9232297e"
],
"FTBFConfig_v43" : [
"c753d8a82fcd44dd9232297e"
],
"FTBFConfig_v44" : [
"c753d8a82fcd44dd9232297e"
],
"FTBFConfig_v45" : [
"c753d8a82fcd44dd9232297e"
],
"FTBFConfig_v46" : [
"c753d8a82fcd44dd9232297e"
],
"FTBFConfig_v47" : [
"c753d8a82fcd44dd9232297e"
],
"FTBFConfig_v48" : [
"c753d8a82fcd44dd9232297e"
],
"FTBFConfig_v49" : [
"c753d8a82fcd44dd9232297e"
],
"FTBFConfig_v51" : [
"c753d8a82fcd44dd9232297e"
],
"FTBFConfig_v52" : [
"c753d8a82fcd44dd9232297e"
],
"FTBFConfig_v53" : [
"c753d8a82fcd44dd9232297e"
],
"FTBFConfig_v54" : [
"c753d8a82fcd44dd9232297e"
],
"FTBFConfig_v55" : [
"c753d8a82fcd44dd9232297e"
],
"FTBFConfig_v56" : [
"c753d8a82fcd44dd9232297e"
],
"FTBFConfig_v57" : [
"c753d8a82fcd44dd9232297e"
],
"FTBFConfig_v58" : [
"c753d8a82fcd44dd9232297e"
],
"FTBFConfig_v59" : [
"c753d8a82fcd44dd9232297e"
],
"FTBFConfig_v60" : [
"c753d8a82fcd44dd9232297e"
],
"FTBFConfig_v61" : [
"c753d8a82fcd44dd9232297e"
],
"FTBFConfig_v62" : [
"c753d8a82fcd44dd9232297e"
],
"FTBFConfig_v63" : [
"c753d8a82fcd44dd9232297e"
],
"FTBFConfig_v64" : [
"c753d8a82fcd44dd9232297e"
],
"FTBFConfig_v65" : [
"c753d8a82fcd44dd9232297e"
],
"FTBFConfig_v66" : [
"c753d8a82fcd44dd9232297e"
],
"FTBFConfig_v67" : [
"c753d8a82fcd44dd9232297e"
],
"FTBFConfig_v68" : [
"c753d8a82fcd44dd9232297e"
],
"FTBFConfig_v69" : [
"c753d8a82fcd44dd9232297e"
],
"FTBFConfig_v70" : [
"c753d8a82fcd44dd9232297e"
],
"FTBFConfigNim_v0" : [
"c753d8a82fcd44dd9232297e"
],
"FTBFConfigNim_v1" : [
"c753d8a82fcd44dd9232297e"
],
"FTBFConfigNim_v2" : [
"c753d8a82fcd44dd9232297e"
],
"FTBFConfigNim_v3" : [
"c753d8a82fcd44dd9232297e"
],
"FTBFConfigNim_v4" : [
"c753d8a82fcd44dd9232297e"
],
"FTBFConfigNim_v5" : [
"c753d8a82fcd44dd9232297e"
],
"FTBFConfigNim_v6" : [
"c753d8a82fcd44dd9232297e"
],
"FTBFConfigNim_v7" : [
"c753d8a82fcd44dd9232297e"
],
"FTBFConfigNim_v8" : [
"c753d8a82fcd44dd9232297e"
],
"FTBFConfigNim_v9" : [
"c753d8a82fcd44dd9232297e"
],
"FTBFConfigNim_v10" : [
"c753d8a82fcd44dd9232297e"
],
"FTBFConfigNim_v11" : [
"c753d8a82fcd44dd9232297e"
],
"FTBFConfigNim_v12" : [
"c753d8a82fcd44dd9232297e"
],
"FTBFConfigNim_v13" : [
"c753d8a82fcd44dd9232297e"
],
"FTBFConfigNim_v14" : [
"c753d8a82fcd44dd9232297e"
],
"FTBFConfigNim_v15" : [
"c753d8a82fcd44dd9232297e"
],
"FTBFConfigNim_v16" : [
"c753d8a82fcd44dd9232297e"
],
"FTBFConfigNim_v17" : [
"c753d8a82fcd44dd9232297e"
],
"FTBFConfigNim_v18" : [
"c753d8a82fcd44dd9232297e"
],
"FTBFConfigNim_v19" : [
"c753d8a82fcd44dd9232297e"
],
"FTBFConfigNim_v20" : [
"c753d8a82fcd44dd9232297e"
],
"FTBFConfigNim_v21" : [
"c753d8a82fcd44dd9232297e"
],
"FTBFConfigNim_v22" : [
"c753d8a82fcd44dd9232297e"
],
"FTBFConfigNim_v23" : [
"c753d8a82fcd44dd9232297e"
],
"FTBFConfigNim_v24" : [
"c753d8a82fcd44dd9232297e"
],
"FTBFConfigNim_v25" : [
"c753d8a82fcd44dd9232297e"
],
"FTBFConfigNim_v26" : [
"c753d8a82fcd44dd9232297e"
],
"FTBFConfigNim_v27" : [
"c753d8a82fcd44dd9232297e"
],
"FTBFConfigNim_v28" : [
"c753d8a82fcd44dd9232297e"
],
"FTBFConfigNim_v29" : [
"c753d8a82fcd44dd9232297e"
],
"FTBFConfig_v71" : [
"c753d8a82fcd44dd9232297e"
],
"FTBFConfig_v72" : [
"c753d8a82fcd44dd9232297e"
],
"FTBFConfig_v73" : [
"c753d8a82fcd44dd9232297e"
],
"FTBFConfig_v74" : [
"c753d8a82fcd44dd9232297e"
],
"FTBFConfig_v75" : [
"c753d8a82fcd44dd9232297e"
],
"FTBFConfig_v76" : [
"c753d8a82fcd44dd9232297e"
],
"FTBFConfig_v77" : [
"c753d8a82fcd44dd9232297e"
],
"FTBFConfig_v78" : [
"c753d8a82fcd44dd9232297e"
],
"FTBFConfig_v79" : [
"c753d8a82fcd44dd9232297e"
],
"FTBFConfig_v80" : [
"c753d8a82fcd44dd9232297e"
],
"FTBFConfig_v81" : [
"c753d8a82fcd44dd9232297e"
],
"FTBFConfig_v82" : [
"c753d8a82fcd44dd9232297e"
],
"FTBFConfig_v83" : [
"c753d8a82fcd44dd9232297e"
],
"FTBFConfig_v84" : [
"c753d8a82fcd44dd9232297e"
],
"FTBFConfig_v85" : [
"c753d8a82fcd44dd9232297e"
],
"FTBFConfig_v86" : [
"c753d8a82fcd44dd9232297e"
],
"FTBFConfig_v87" : [
"c753d8a82fcd44dd9232297e"
],
"FTBFConfig_v88" : [
"c753d8a82fcd44dd9232297e"
],
"FTBFConfig_v89" : [
"c753d8a82fcd44dd9232297e"
],
"FTBFConfig_v90" : [
"c753d8a82fcd44dd9232297e"
],
"FTBFConfig_v91" : [
"c753d8a82fcd44dd9232297e"
],
"FTBFConfig_v92" : [
"c753d8a82fcd44dd9232297e"
],
"FTBFConfig_v93" : [
"c753d8a82fcd44dd9232297e"
],
"FTBFConfig_v94" : [
"c753d8a82fcd44dd9232297e"
],
"FTBFConfig_v95" : [
"c753d8a82fcd44dd9232297e"
],
"FTBFConfig_v96" : [
"c753d8a82fcd44dd9232297e"
],
"FTBFConfig_v97" : [
"c753d8a82fcd44dd9232297e"
],
"FTBFConfig_v98" : [
"c753d8a82fcd44dd9232297e"
],
"FTBFConfig_v99" : [
"c753d8a82fcd44dd9232297e"
],
"FTBFConfig_v100" : [
"c753d8a82fcd44dd9232297e"
],
"FTBFConfig_v101" : [
"c753d8a82fcd44dd9232297e"
],
"FTBFConfig_v102" : [
"c753d8a82fcd44dd9232297e"
],
"FTBFConfig_v103" : [
"c753d8a82fcd44dd9232297e"
],
"FTBFConfig_v104" : [
"c753d8a82fcd44dd9232297e"
],
"FTBFConfig_v105" : [
"c753d8a82fcd44dd9232297e"
],
"FTBFConfig_v106" : [
"c753d8a82fcd44dd9232297e"
],
"FTBFConfig_v107" : [
"c753d8a82fcd44dd9232297e"
],
"FTBFConfig_v108" : [
"c753d8a82fcd44dd9232297e"
],
"FTBFConfig_v109" : [
"c753d8a82fcd44dd9232297e"
],
"FTBFConfig_v110" : [
"c753d8a82fcd44dd9232297e"
],
"FTBFConfig_v111" : [
"c753d8a82fcd44dd9232297e"
],
"FTBFConfig_v112" : [
"c753d8a82fcd44dd9232297e"
],
"FTBFConfig_v113" : [
"c753d8a82fcd44dd9232297e"
],
"FTBFConfig_v114" : [
"c753d8a82fcd44dd9232297e"
],
"FTBFConfig_v115" : [
"c753d8a82fcd44dd9232297e"
],
"FTBFConfig_v116" : [
"c753d8a82fcd44dd9232297e"
],
"FTBFConfig_v117" : [
"c753d8a82fcd44dd9232297e"
],
"FTBFConfig_v118" : [
"c753d8a82fcd44dd9232297e"
],
"FTBFConfig_v119" : [
"c753d8a82fcd44dd9232297e"
],
"FTBFConfig_v120" : [
"c753d8a82fcd44dd9232297e"
],
"FTBFConfig_v121" : [
"c753d8a82fcd44dd9232297e"
],
"FTBFConfig_v122" : [
"c753d8a82fcd44dd9232297e"
],
"FTBFConfig_v123" : [
"c753d8a82fcd44dd9232297e"
],
"FTBFConfig_v124" : [
"c753d8a82fcd44dd9232297e"
],
"FTBFConfig_v125" : [
"c753d8a82fcd44dd9232297e"
],
"FTBFConfig_v126" : [
"c753d8a82fcd44dd9232297e"
],
"FTBFConfig_v127" : [
"c753d8a82fcd44dd9232297e"
],
"FTBFConfig_v128" : [
"c753d8a82fcd44dd9232297e"
],
"FTBFConfig_v129" : [
"c753d8a82fcd44dd9232297e"
],
"FTBFConfig_v130" : [
"c753d8a82fcd44dd9232297e"
],
"FTBFConfig_v131" : [
"c753d8a82fcd44dd9232297e"
],
"FTBFConfig_v132" : [
"c753d8a82fcd44dd9232297e"
],
"FTBFConfig_v133" : [
"c753d8a82fcd44dd9232297e"
],
"FTBFConfig_v134" : [
"c753d8a82fcd44dd9232297e"
],
"FTBFConfig_v135" : [
"c753d8a82fcd44dd9232297e"
],
"FTBFConfig_v136" : [
"c753d8a82fcd44dd9232297e"
],
"FTBFConfig_v137" : [
"c753d8a82fcd44dd9232297e"
],
"FTBFConfig_v138" : [
"c753d8a82fcd44dd9232297e"
],
"FTBFConfig_v139" : [
"c753d8a82fcd44dd9232297e"
],
"FTBFConfig_v140" : [
"c753d8a82fcd44dd9232297e"
],
"FTBFConfig_v141" : [
"c753d8a82fcd44dd9232297e"
],
"FTBFConfig_v142" : [
"c753d8a82fcd44dd9232297e"
]
},
"entities.name" : {
"OTSROOT" : [
"b823af09398641c19edbb9a0",
"c753d8a82fcd44dd9232297e"
]
},
"aliases.active.name" : {

},
"runs.name" : {

},
"configurations.assigned" : {
"notprovided" : [
"2017-11-08T15:56:02.457-0600",
"2017-11-15T13:25:24.291-0600"
],
"FTBFConfig_v0" : [
"2017-11-08T15:56:05.045-0600"
],
"FTBFConfig_v1" : [
"2017-11-09T09:56:29.452-0600"
],
"FTBFConfig_v2" : [
"2017-11-09T10:05:58.392-0600"
],
"FTBFConfig_v3" : [
"2017-11-09T10:37:09.964-0600"
],
"FTBFConfig_v4" : [
"2017-11-15T11:30:08.701-0600"
],
"FTBFConfig_v5" : [
"2017-11-15T11:54:55.451-0600"
],
"FTBFConfig_v6" : [
"2017-11-15T11:57:48.077-0600"
],
"FTBFConfig_v7" : [
"2017-11-15T12:42:30.494-0600"
],
"FTBFConfig_v8" : [
"2017-11-15T13:01:01.443-0600"
],
"FTBFConfig_v9" : [
"2017-11-15T13:02:54.812-0600"
],
"FTBFConfig_v10" : [
"2017-11-15T13:04:22.402-0600"
],
"FTBFConfig_v11" : [
"2017-11-15T13:07:49.870-0600"
],
"FTBFConfig_v12" : [
"2017-11-15T13:11:57.302-0600"
],
"FTBFConfig_v13" : [
"2017-11-15T13:13:51.250-0600"
],
"FTBFConfig_v14" : [
"2017-11-15T13:27:23.989-0600"
],
"FTBFConfig_v15" : [
"2017-11-15T13:35:45.203-0600"
],
"FTBFConfig_v16" : [
"2017-11-15T13:36:49.836-0600"
],
"FTBFConfig_v17" : [
"2017-11-15T15:33:28.366-0600"
],
"FTBFConfig_v18" : [
"2017-11-15T15:35:31.943-0600"
],
"FTBFConfig_v19" : [
"2017-11-15T15:38:00.798-0600"
],
"FTBFConfig_v20" : [
"2017-11-15T16:26:28.417-0600"
],
"FTBFConfig_v21" : [
"2017-11-16T09:22:29.592-0600"
],
"FTBFConfig_v22" : [
"2017-11-17T10:23:25.773-0600"
],
"FTBFConfig_v23" : [
"2017-11-17T17:26:43.273-0600"
],
"FTBFConfig_v24" : [
"2017-11-17T17:58:23.676-0600"
],
"FTBFConfig_v25" : [
"2017-11-17T18:24:43.387-0600"
],
"FTBFConfig_v26" : [
"2017-11-17T18:32:20.111-0600"
],
"FTBFConfig_v27" : [
"2017-11-17T18:43:27.231-0600"
],
"FTBFConfig_v28" : [
"2017-11-17T18:48:29.242-0600"
],
"FTBFConfig_v29" : [
"2017-11-20T14:48:28.596-0600"
],
"FTBFConfig_v30" : [
"2017-11-20T15:39:53.849-0600"
],
"FTBFConfig_v31" : [
"2017-11-20T16:40:59.820-0600"
],
"FTBFConfig_v32" : [
"2017-11-20T18:55:32.621-0600"
],
"FTBFConfig_v33" : [
"2017-11-20T18:57:27.890-0600"
],
"FTBFConfig_v34" : [
"2017-11-29T17:50:37.374-0600"
],
"FTBFConfig_v35" : [
"2017-11-29T18:00:30.243-0600"
],
"FTBFConfig_v36" : [
"2017-11-29T18:35:09.108-0600"
],
"FTBFConfig_v37" : [
"2017-12-01T09:36:15.269-0600"
],
"FTBFConfig_v38" : [
"2017-12-01T09:51:58.615-0600"
],
"FTBFConfig_v39" : [
"2017-12-01T11:51:55.857-0600"
],
"FTBFConfig_v40" : [
"2017-12-01T12:18:17.826-0600"
],
"FTBFConfig_v41" : [
"2017-12-01T12:20:59.942-0600"
],
"FTBFConfig_v42" : [
"2017-12-01T12:43:19.048-0600"
],
"FTBFConfig_v43" : [
"2017-12-01T12:57:55.880-0600"
],
"FTBFConfig_v44" : [
"2017-12-01T13:00:48.406-0600"
],
"FTBFConfig_v45" : [
"2017-12-01T13:25:45.888-0600"
],
"FTBFConfig_v46" : [
"2017-12-01T13:35:40.716-0600"
],
"FTBFConfig_v47" : [
"2017-12-01T14:00:49.175-0600"
],
"FTBFConfig_v48" : [
"2017-12-01T14:03:56.410-0600"
],
"FTBFConfig_v49" : [
"2017-12-01T15:31:56.608-0600"
],
"FTBFConfig_v51" : [
"2017-12-01T15:36:17.993-0600"
],
"FTBFConfig_v52" : [
"2017-12-01T15:37:27.259-0600"
],
"FTBFConfig_v53" : [
"2017-12-01T15:40:56.125-0600"
],
"FTBFConfig_v54" : [
"2017-12-01T15:52:46.437-0600"
],
"FTBFConfig_v55" : [
"2017-12-01T15:54:31.558-0600"
],
"FTBFConfig_v56" : [
"2017-12-01T15:55:31.079-0600"
],
"FTBFConfig_v57" : [
"2017-12-01T15:56:36.872-0600"
],
"FTBFConfig_v58" : [
"2017-12-01T15:57:34.937-0600"
],
"FTBFConfig_v59" : [
"2017-12-01T15:58:26.832-0600"
],
"FTBFConfig_v60" : [
"2017-12-01T15:59:28.020-0600"
],
"FTBFConfig_v61" : [
"2017-12-01T16:19:37.718-0600"
],
"FTBFConfig_v62" : [
"2017-12-01T16:22:00.277-0600"
],
"FTBFConfig_v63" : [
"2017-12-01T16:31:20.882-0600"
],
"FTBFConfig_v64" : [
"2017-12-01T17:06:27.700-0600"
],
"FTBFConfig_v65" : [
"2017-12-01T17:32:40.034-0600"
],
"FTBFConfig_v66" : [
"2017-12-01T20:38:46.470-0600"
],
"FTBFConfig_v67" : [
"2017-12-01T21:24:57.947-0600"
],
"FTBFConfig_v68" : [
"2017-12-01T21:42:57.585-0600"
],
"FTBFConfig_v69" : [
"2017-12-01T21:44:56.188-0600"
],
"FTBFConfig_v70" : [
"2017-12-01T21:59:15.410-0600"
],
"FTBFConfigNim_v0" : [
"2017-12-01T22:00:02.121-0600"
],
"FTBFConfigNim_v1" : [
"2017-12-01T22:13:03.839-0600"
],
"FTBFConfigNim_v2" : [
"2017-12-01T22:15:51.051-0600"
],
"FTBFConfigNim_v3" : [
"2017-12-01T22:16:59.008-0600"
],
"FTBFConfigNim_v4" : [
"2017-12-01T22:19:02.114-0600"
],
"FTBFConfigNim_v5" : [
"2017-12-01T22:21:52.798-0600"
],
"FTBFConfigNim_v6" : [
"2017-12-01T22:23:08.777-0600"
],
"FTBFConfigNim_v7" : [
"2017-12-01T22:25:12.721-0600"
],
"FTBFConfigNim_v8" : [
"2017-12-01T22:27:00.251-0600"
],
"FTBFConfigNim_v9" : [
"2017-12-01T22:29:24.539-0600"
],
"FTBFConfigNim_v10" : [
"2017-12-01T22:52:29.639-0600"
],
"FTBFConfigNim_v11" : [
"2017-12-01T22:57:24.349-0600"
],
"FTBFConfigNim_v12" : [
"2017-12-01T23:00:02.686-0600"
],
"FTBFConfigNim_v13" : [
"2017-12-01T23:52:30.793-0600"
],
"FTBFConfigNim_v14" : [
"2017-12-01T23:58:05.173-0600"
],
"FTBFConfigNim_v15" : [
"2017-12-02T00:00:29.450-0600"
],
"FTBFConfigNim_v16" : [
"2017-12-02T00:13:04.543-0600"
],
"FTBFConfigNim_v17" : [
"2017-12-02T00:28:23.542-0600"
],
"FTBFConfigNim_v18" : [
"2017-12-02T00:29:29.575-0600"
],
"FTBFConfigNim_v19" : [
"2017-12-02T00:31:06.057-0600"
],
"FTBFConfigNim_v20" : [
"2017-12-02T00:57:22.551-0600"
],
"FTBFConfigNim_v21" : [
"2017-12-02T10:57:57.089-0600"
],
"FTBFConfigNim_v22" : [
"2017-12-02T11:08:13.252-0600"
],
"FTBFConfigNim_v23" : [
"2017-12-02T11:12:34.807-0600"
],
"FTBFConfigNim_v24" : [
"2017-12-02T11:18:37.619-0600"
],
"FTBFConfigNim_v25" : [
"2017-12-02T11:27:00.841-0600"
],
"FTBFConfigNim_v26" : [
"2017-12-02T11:38:31.883-0600"
],
"FTBFConfigNim_v27" : [
"2017-12-02T11:49:02.988-0600"
],
"FTBFConfigNim_v28" : [
"2017-12-02T11:55:04.451-0600"
],
"FTBFConfigNim_v29" : [
"2017-12-02T12:06:21.267-0600"
],
"FTBFConfig_v71" : [
"2017-12-02T12:24:09.895-0600"
],
"FTBFConfig_v72" : [
"2017-12-02T12:43:30.662-0600"
],
"FTBFConfig_v73" : [
"2017-12-02T13:55:30.223-0600"
],
"FTBFConfig_v74" : [
"2017-12-02T14:09:02.505-0600"
],
"FTBFConfig_v75" : [
"2017-12-02T14:12:13.361-0600"
],
"FTBFConfig_v76" : [
"2017-12-02T19:05:48.483-0600"
],
"FTBFConfig_v77" : [
"2017-12-02T19:12:08.269-0600"
],
"FTBFConfig_v78" : [
"2017-12-03T14:03:43.460-0600"
],
"FTBFConfig_v79" : [
"2017-12-03T14:09:01.622-0600"
],
"FTBFConfig_v80" : [
"2017-12-03T14:11:05.381-0600"
],
"FTBFConfig_v81" : [
"2017-12-03T14:22:28.415-0600"
],
"FTBFConfig_v82" : [
"2017-12-03T14:40:33.173-0600"
],
"FTBFConfig_v83" : [
"2017-12-03T14:45:00.458-0600"
],
"FTBFConfig_v84" : [
"2017-12-04T14:51:25.926-0600"
],
"FTBFConfig_v85" : [
"2017-12-04T14:55:39.048-0600"
],
"FTBFConfig_v86" : [
"2017-12-04T16:51:02.007-0600"
],
"FTBFConfig_v87" : [
"2017-12-04T16:56:42.636-0600"
],
"FTBFConfig_v88" : [
"2017-12-04T17:01:07.328-0600"
],
"FTBFConfig_v89" : [
"2017-12-04T17:03:52.389-0600"
],
"FTBFConfig_v90" : [
"2017-12-04T17:07:12.026-0600"
],
"FTBFConfig_v91" : [
"2017-12-04T17:09:21.142-0600"
],
"FTBFConfig_v92" : [
"2017-12-04T17:11:33.585-0600"
],
"FTBFConfig_v93" : [
"2017-12-04T21:05:16.211-0600"
],
"FTBFConfig_v94" : [
"2017-12-04T21:17:07.046-0600"
],
"FTBFConfig_v95" : [
"2017-12-04T21:41:12.788-0600"
],
"FTBFConfig_v96" : [
"2017-12-04T22:38:57.388-0600"
],
"FTBFConfig_v97" : [
"2017-12-04T23:01:07.877-0600"
],
"FTBFConfig_v98" : [
"2017-12-07T11:07:41.875-0600"
],
"FTBFConfig_v99" : [
"2017-12-07T11:49:54.594-0600"
],
"FTBFConfig_v100" : [
"2017-12-07T11:58:21.297-0600"
],
"FTBFConfig_v101" : [
"2017-12-08T13:30:43.377-0600"
],
"FTBFConfig_v102" : [
"2017-12-08T13:32:30.268-0600"
],
"FTBFConfig_v103" : [
"2017-12-12T11:03:00.030-0600"
],
"FTBFConfig_v104" : [
"2017-12-12T13:50:54.261-0600"
],
"FTBFConfig_v105" : [
"2017-12-12T15:25:00.274-0600"
],
"FTBFConfig_v106" : [
"2017-12-13T10:24:18.748-0600"
],
"FTBFConfig_v107" : [
"2017-12-13T10:26:57.533-0600"
],
"FTBFConfig_v108" : [
"2018-02-01T21:14:20.780-0600"
],
"FTBFConfig_v109" : [
"2018-02-01T21:20:57.861-0600"
],
"FTBFConfig_v110" : [
"2018-02-02T11:25:28.810-0600"
],
"FTBFConfig_v111" : [
"2018-02-02T11:37:07.638-0600"
],
"FTBFConfig_v112" : [
"2018-02-02T11:47:10.080-0600"
],
"FTBFConfig_v113" : [
"2018-02-02T11:53:31.326-0600"
],
"FTBFConfig_v114" : [
"2018-02-02T12:00:47.378-0600"
],
"FTBFConfig_v115" : [
"2018-02-02T12:27:08.873-0600"
],
"FTBFConfig_v116" : [
"2018-02-02T14:28:48.370-0600"
],
"FTBFConfig_v117" : [
"2018-02-02T14:30:14.707-0600"
],
"FTBFConfig_v118" : [
"2018-02-02T14:33:55.893-0600"
],
"FTBFConfig_v119" : [
"2018-02-02T14:36:22.480-0600"
],
"FTBFConfig_v120" : [
"2018-02-02T14:38:35.843-0600"
],
"FTBFConfig_v121" : [
"2018-02-02T14:41:45.173-0600"
],
"FTBFConfig_v122" : [
"2018-02-02T14:50:19.145-0600"
],
"FTBFConfig_v123" : [
"2018-02-02T14:52:52.020-0600"
],
"FTBFConfig_v124" : [
"2018-02-02T14:59:45.327-0600"
],
"FTBFConfig_v125" : [
"2018-02-02T15:04:03.418-0600"
],
"FTBFConfig_v126" : [
"2018-02-02T15:50:06.628-0600"
],
"FTBFConfig_v127" : [
"2018-02-02T15:51:26.077-0600"
],
"FTBFConfig_v128" : [
"2018-02-02T15:52:31.247-0600"
],
"FTBFConfig_v129" : [
"2018-02-02T16:02:40.124-0600"
],
"FTBFConfig_v130" : [
"2018-02-02T16:08:39.624-0600"
],
"FTBFConfig_v131" : [
"2018-02-02T16:11:25.390-0600"
],
"FTBFConfig_v132" : [
"2018-02-02T16:12:53.250-0600"
],
"FTBFConfig_v133" : [
"2018-02-02T16:14:23.811-0600"
],
"FTBFConfig_v134" : [
"2018-02-02T16:26:16.727-0600"
],
"FTBFConfig_v135" : [
"2018-02-02T16:27:03.831-0600"
],
"FTBFConfig_v136" : [
"2018-02-02T16:29:25.138-0600"
],
"FTBFConfig_v137" : [
"2018-02-02T16:31:35.638-0600"
],
"FTBFConfig_v138" : [
"2018-02-02T16:34:08.367-0600"
],
"FTBFConfig_v139" : [
"2018-02-02T17:39:24.389-0600"
],
"FTBFConfig_v140" : [
"2018-02-02T17:42:46.551-0600"
],
"FTBFConfig_v141" : [
"2018-02-02T17:47:31.709-0600"
],
"FTBFConfig_v142" : [
"2018-02-02T17:53:55.684-0600"
]
}
}