{
"document" : {
"data" : {
"NAME" : "RAW_DATA_SAVER_CONSUMER_CONFIGURATION",
"COMMENT" : "Records for raw data savers.",
"AUTHOR" : "rrivera",
"CREATION_TIME" : 1510242988,
"COL_TYPES" : {
"PROCESSOR_UID" : "VARCHAR2",
"FILE_PATH" : "VARCHAR2",
"RADIX_FILE_NAME" : "VARCHAR2",
"MAX_FILE_SIZE" : "NUMBER",
"COMMENT_DESCRIPTION" : "VARCHAR2",
"AUTHOR" : "VARCHAR2",
"RECORD_INSERTION_TIME" : "TIMESTAMP WITH TIMEZONE"
},
"DATA_SET" : [
{
"PROCESSOR_UID" : "FSSR0_DB0_RawDataSaver0",
"FILE_PATH" : "/data/TestBeam/2017_11_November/OtsData",
"RADIX_FILE_NAME" : "RawDataSaver0FER0",
"MAX_FILE_SIZE" : "1000",
"COMMENT_DESCRIPTION" : "",
"AUTHOR" : "rrivera",
"RECORD_INSERTION_TIME" : "1510242906"
},
{
"PROCESSOR_UID" : "FSSR1_DB0_RawDataSaver0",
"FILE_PATH" : "/data/TestBeam/2017_11_November/OtsData",
"RADIX_FILE_NAME" : "RawDataSaver0FER1",
"MAX_FILE_SIZE" : "1000",
"COMMENT_DESCRIPTION" : "",
"AUTHOR" : "rrivera",
"RECORD_INSERTION_TIME" : "1510242906"
},
{
"PROCESSOR_UID" : "FSSR2_DB0_RawDataSaver0",
"FILE_PATH" : "/data/TestBeam/2017_11_November/OtsData",
"RADIX_FILE_NAME" : "RawDataSaver0FER2",
"MAX_FILE_SIZE" : "1000",
"COMMENT_DESCRIPTION" : "",
"AUTHOR" : "rrivera",
"RECORD_INSERTION_TIME" : "1510242906"
},
{
"PROCESSOR_UID" : "FSSR3_DB0_RawDataSaver0",
"FILE_PATH" : "/data/TestBeam/2017_11_November/OtsData",
"RADIX_FILE_NAME" : "RawDataSaver0FER3",
"MAX_FILE_SIZE" : "1000",
"COMMENT_DESCRIPTION" : "",
"AUTHOR" : "rrivera",
"RECORD_INSERTION_TIME" : "1510242906"
},
{
"PROCESSOR_UID" : "NIMPlus0_DB0_RawDataSaver0",
"FILE_PATH" : "/data/TestBeam/2017_11_November/NimPlus",
"RADIX_FILE_NAME" : "RawDataSaver0NIM0",
"MAX_FILE_SIZE" : "1000",
"COMMENT_DESCRIPTION" : "No Comment",
"AUTHOR" : "rrivera",
"RECORD_INSERTION_TIME" : "1510242906"
},
{
"PROCESSOR_UID" : "CMSTiming0_DB0_RawDataSaver0",
"FILE_PATH" : "/data/TestBeam/2017_11_November/CMSTiming",
"RADIX_FILE_NAME" : "RawDataSaver0CMSTiming0",
"MAX_FILE_SIZE" : "1000",
"COMMENT_DESCRIPTION" : "",
"AUTHOR" : "rrivera",
"RECORD_INSERTION_TIME" : "1510242906"
},
{
"PROCESSOR_UID" : "RAWSaver0",
"FILE_PATH" : "/data/TestBeam/2017_11_November/Dummy",
"RADIX_FILE_NAME" : "DONOTUSE",
"MAX_FILE_SIZE" : "0",
"COMMENT_DESCRIPTION" : "No Comment",
"AUTHOR" : "rrivera",
"RECORD_INSERTION_TIME" : "1510242988"
}
]
},
"metadata" : {

},
"search" : [

]
},
"comments" : [

],
"origin" : {
"source" : "template",
"name" : "notprovided",
"format" : "json",
"created" : "2017-11-09T09:56:28.105-0600",
"rawdata" : [

]
},
"version" : "2",
"entities" : [
{
"name" : "OTSROOT",
"assigned" : "2017-11-09T09:56:28.107-0600"
}
],
"configurations" : [
{
"name" : "notprovided",
"assigned" : "2017-11-09T09:56:28.106-0600"
},
{
"name" : "FTBFConfig_v1",
"assigned" : "2017-11-09T09:56:32.391-0600"
},
{
"name" : "FTBFConfig_v2",
"assigned" : "2017-11-09T10:06:01.382-0600"
},
{
"name" : "FTBFConfig_v3",
"assigned" : "2017-11-09T10:37:12.994-0600"
},
{
"name" : "FTBFConfig_v4",
"assigned" : "2017-11-15T11:30:11.849-0600"
},
{
"name" : "FTBFConfig_v5",
"assigned" : "2017-11-15T11:54:58.734-0600"
},
{
"name" : "FTBFConfig_v6",
"assigned" : "2017-11-15T11:57:51.339-0600"
},
{
"name" : "FTBFConfig_v7",
"assigned" : "2017-11-15T12:42:33.799-0600"
},
{
"name" : "FTBFConfig_v8",
"assigned" : "2017-11-15T13:01:04.851-0600"
},
{
"name" : "FTBFConfig_v9",
"assigned" : "2017-11-15T13:02:58.251-0600"
},
{
"name" : "FTBFConfig_v10",
"assigned" : "2017-11-15T13:04:25.810-0600"
},
{
"name" : "FTBFConfig_v11",
"assigned" : "2017-11-15T13:07:53.363-0600"
},
{
"name" : "FTBFConfig_v12",
"assigned" : "2017-11-15T13:12:00.815-0600"
},
{
"name" : "FTBFConfig_v13",
"assigned" : "2017-11-15T13:13:54.804-0600"
},
{
"name" : "FTBFConfig_v14",
"assigned" : "2017-11-15T13:27:36.290-0600"
},
{
"name" : "FTBFConfig_v15",
"assigned" : "2017-11-15T13:35:48.829-0600"
},
{
"name" : "FTBFConfig_v16",
"assigned" : "2017-11-15T13:36:53.410-0600"
},
{
"name" : "FTBFConfig_v17",
"assigned" : "2017-11-15T15:33:31.993-0600"
},
{
"name" : "FTBFConfig_v18",
"assigned" : "2017-11-15T15:35:35.633-0600"
},
{
"name" : "FTBFConfig_v19",
"assigned" : "2017-11-15T15:38:04.482-0600"
},
{
"name" : "FTBFConfig_v20",
"assigned" : "2017-11-15T16:26:32.536-0600"
},
{
"name" : "FTBFConfig_v21",
"assigned" : "2017-11-16T09:22:33.337-0600"
},
{
"name" : "FTBFConfig_v22",
"assigned" : "2017-11-17T10:23:29.542-0600"
},
{
"name" : "FTBFConfig_v23",
"assigned" : "2017-11-17T17:26:47.204-0600"
},
{
"name" : "FTBFConfig_v24",
"assigned" : "2017-11-17T17:58:27.754-0600"
},
{
"name" : "FTBFConfig_v25",
"assigned" : "2017-11-17T18:24:47.474-0600"
},
{
"name" : "FTBFConfig_v26",
"assigned" : "2017-11-17T18:32:25.594-0600"
},
{
"name" : "FTBFConfig_v27",
"assigned" : "2017-11-17T18:43:32.813-0600"
},
{
"name" : "FTBFConfig_v28",
"assigned" : "2017-11-17T18:48:34.886-0600"
},
{
"name" : "FTBFConfig_v29",
"assigned" : "2017-11-20T14:48:32.921-0600"
},
{
"name" : "FTBFConfig_v30",
"assigned" : "2017-11-20T15:39:57.960-0600"
},
{
"name" : "FTBFConfig_v31",
"assigned" : "2017-11-20T16:41:03.994-0600"
},
{
"name" : "FTBFConfig_v32",
"assigned" : "2017-11-20T18:55:36.949-0600"
},
{
"name" : "FTBFConfig_v33",
"assigned" : "2017-11-20T18:57:32.286-0600"
},
{
"name" : "FTBFConfig_v34",
"assigned" : "2017-11-29T17:50:41.757-0600"
},
{
"name" : "FTBFConfig_v35",
"assigned" : "2017-11-29T18:00:34.794-0600"
},
{
"name" : "FTBFConfig_v36",
"assigned" : "2017-11-29T18:35:13.435-0600"
},
{
"name" : "FTBFConfig_v37",
"assigned" : "2017-12-01T09:36:20.371-0600"
},
{
"name" : "FTBFConfig_v38",
"assigned" : "2017-12-01T09:52:03.277-0600"
},
{
"name" : "FTBFConfig_v39",
"assigned" : "2017-12-01T11:52:00.547-0600"
},
{
"name" : "FTBFConfig_v40",
"assigned" : "2017-12-01T12:18:22.710-0600"
},
{
"name" : "FTBFConfig_v41",
"assigned" : "2017-12-01T12:21:04.654-0600"
},
{
"name" : "FTBFConfig_v42",
"assigned" : "2017-12-01T12:43:24.161-0600"
},
{
"name" : "FTBFConfig_v43",
"assigned" : "2017-12-01T12:58:02.166-0600"
},
{
"name" : "FTBFConfig_v44",
"assigned" : "2017-12-01T13:00:54.618-0600"
},
{
"name" : "FTBFConfig_v45",
"assigned" : "2017-12-01T13:25:51.294-0600"
},
{
"name" : "FTBFConfig_v46",
"assigned" : "2017-12-01T13:35:46.083-0600"
},
{
"name" : "FTBFConfig_v47",
"assigned" : "2017-12-01T14:00:54.180-0600"
},
{
"name" : "FTBFConfig_v48",
"assigned" : "2017-12-01T14:04:01.541-0600"
},
{
"name" : "FTBFConfig_v49",
"assigned" : "2017-12-01T15:32:01.726-0600"
},
{
"name" : "FTBFConfig_v52",
"assigned" : "2017-12-01T15:37:35.194-0600"
},
{
"name" : "FTBFConfig_v53",
"assigned" : "2017-12-01T15:41:01.259-0600"
},
{
"name" : "FTBFConfig_v54",
"assigned" : "2017-12-01T15:52:51.553-0600"
},
{
"name" : "FTBFConfig_v55",
"assigned" : "2017-12-01T15:54:36.780-0600"
},
{
"name" : "FTBFConfig_v56",
"assigned" : "2017-12-01T15:55:36.341-0600"
},
{
"name" : "FTBFConfig_v57",
"assigned" : "2017-12-01T15:56:42.199-0600"
},
{
"name" : "FTBFConfig_v58",
"assigned" : "2017-12-01T15:57:40.328-0600"
},
{
"name" : "FTBFConfig_v59",
"assigned" : "2017-12-01T15:58:32.154-0600"
},
{
"name" : "FTBFConfig_v60",
"assigned" : "2017-12-01T15:59:33.422-0600"
},
{
"name" : "FTBFConfig_v61",
"assigned" : "2017-12-01T16:19:43.287-0600"
},
{
"name" : "FTBFConfig_v62",
"assigned" : "2017-12-01T16:22:05.721-0600"
},
{
"name" : "FTBFConfig_v63",
"assigned" : "2017-12-01T16:31:26.387-0600"
},
{
"name" : "FTBFConfig_v64",
"assigned" : "2017-12-01T17:06:33.761-0600"
},
{
"name" : "FTBFConfig_v65",
"assigned" : "2017-12-01T17:32:45.944-0600"
},
{
"name" : "FTBFConfig_v66",
"assigned" : "2017-12-01T20:38:52.354-0600"
},
{
"name" : "FTBFConfig_v67",
"assigned" : "2017-12-01T21:25:03.660-0600"
},
{
"name" : "FTBFConfig_v68",
"assigned" : "2017-12-01T21:43:03.397-0600"
},
{
"name" : "FTBFConfig_v69",
"assigned" : "2017-12-01T21:45:01.981-0600"
},
{
"name" : "FTBFConfig_v70",
"assigned" : "2017-12-01T21:59:21.293-0600"
},
{
"name" : "FTBFConfigNim_v0",
"assigned" : "2017-12-01T22:00:08.019-0600"
},
{
"name" : "FTBFConfigNim_v1",
"assigned" : "2017-12-01T22:13:09.901-0600"
},
{
"name" : "FTBFConfigNim_v2",
"assigned" : "2017-12-01T22:15:57.055-0600"
},
{
"name" : "FTBFConfigNim_v3",
"assigned" : "2017-12-01T22:17:05.626-0600"
},
{
"name" : "FTBFConfigNim_v4",
"assigned" : "2017-12-01T22:19:08.156-0600"
},
{
"name" : "FTBFConfigNim_v5",
"assigned" : "2017-12-01T22:21:58.955-0600"
},
{
"name" : "FTBFConfigNim_v6",
"assigned" : "2017-12-01T22:23:17.463-0600"
},
{
"name" : "FTBFConfigNim_v7",
"assigned" : "2017-12-01T22:25:18.977-0600"
},
{
"name" : "FTBFConfigNim_v8",
"assigned" : "2017-12-01T22:27:06.651-0600"
},
{
"name" : "FTBFConfigNim_v9",
"assigned" : "2017-12-01T22:29:30.933-0600"
},
{
"name" : "FTBFConfigNim_v10",
"assigned" : "2017-12-01T22:52:36.303-0600"
},
{
"name" : "FTBFConfigNim_v11",
"assigned" : "2017-12-01T22:57:30.791-0600"
},
{
"name" : "FTBFConfigNim_v12",
"assigned" : "2017-12-01T23:00:08.999-0600"
},
{
"name" : "FTBFConfigNim_v13",
"assigned" : "2017-12-01T23:52:37.153-0600"
},
{
"name" : "FTBFConfigNim_v14",
"assigned" : "2017-12-01T23:58:11.636-0600"
},
{
"name" : "FTBFConfigNim_v15",
"assigned" : "2017-12-02T00:00:35.846-0600"
},
{
"name" : "FTBFConfigNim_v16",
"assigned" : "2017-12-02T00:13:11.089-0600"
},
{
"name" : "FTBFConfigNim_v17",
"assigned" : "2017-12-02T00:28:29.986-0600"
},
{
"name" : "FTBFConfigNim_v18",
"assigned" : "2017-12-02T00:29:36.074-0600"
},
{
"name" : "FTBFConfigNim_v19",
"assigned" : "2017-12-02T00:31:15.062-0600"
},
{
"name" : "FTBFConfigNim_v20",
"assigned" : "2017-12-02T00:57:29.133-0600"
},
{
"name" : "FTBFConfigNim_v21",
"assigned" : "2017-12-02T10:58:03.702-0600"
},
{
"name" : "FTBFConfigNim_v22",
"assigned" : "2017-12-02T11:08:19.874-0600"
},
{
"name" : "FTBFConfigNim_v23",
"assigned" : "2017-12-02T11:12:41.515-0600"
},
{
"name" : "FTBFConfigNim_v24",
"assigned" : "2017-12-02T11:18:44.402-0600"
},
{
"name" : "FTBFConfigNim_v25",
"assigned" : "2017-12-02T11:27:07.614-0600"
},
{
"name" : "FTBFConfigNim_v26",
"assigned" : "2017-12-02T11:38:38.678-0600"
},
{
"name" : "FTBFConfigNim_v27",
"assigned" : "2017-12-02T11:49:09.909-0600"
},
{
"name" : "FTBFConfigNim_v28",
"assigned" : "2017-12-02T11:55:11.455-0600"
},
{
"name" : "FTBFConfigNim_v29",
"assigned" : "2017-12-02T12:06:28.298-0600"
},
{
"name" : "FTBFConfig_v71",
"assigned" : "2017-12-02T12:24:16.869-0600"
},
{
"name" : "FTBFConfig_v72",
"assigned" : "2017-12-02T12:43:37.790-0600"
},
{
"name" : "FTBFConfig_v73",
"assigned" : "2017-12-02T13:55:37.483-0600"
},
{
"name" : "FTBFConfig_v75",
"assigned" : "2017-12-02T14:12:20.674-0600"
},
{
"name" : "FTBFConfig_v76",
"assigned" : "2017-12-02T19:05:55.680-0600"
},
{
"name" : "FTBFConfig_v77",
"assigned" : "2017-12-02T19:12:15.520-0600"
},
{
"name" : "FTBFConfig_v78",
"assigned" : "2017-12-03T14:03:50.663-0600"
},
{
"name" : "FTBFConfig_v79",
"assigned" : "2017-12-03T14:09:08.975-0600"
},
{
"name" : "FTBFConfig_v80",
"assigned" : "2017-12-03T14:11:12.756-0600"
},
{
"name" : "FTBFConfig_v81",
"assigned" : "2017-12-03T14:22:35.768-0600"
},
{
"name" : "FTBFConfig_v82",
"assigned" : "2017-12-03T14:40:40.610-0600"
},
{
"name" : "FTBFConfig_v83",
"assigned" : "2017-12-03T14:45:07.970-0600"
},
{
"name" : "FTBFConfig_v84",
"assigned" : "2017-12-04T14:51:33.203-0600"
},
{
"name" : "FTBFConfig_v85",
"assigned" : "2017-12-04T14:55:46.436-0600"
},
{
"name" : "FTBFConfig_v86",
"assigned" : "2017-12-04T16:51:09.508-0600"
},
{
"name" : "FTBFConfig_v87",
"assigned" : "2017-12-04T16:56:50.144-0600"
},
{
"name" : "FTBFConfig_v88",
"assigned" : "2017-12-04T17:01:14.925-0600"
},
{
"name" : "FTBFConfig_v89",
"assigned" : "2017-12-04T17:04:00.047-0600"
},
{
"name" : "FTBFConfig_v90",
"assigned" : "2017-12-04T17:07:19.780-0600"
},
{
"name" : "FTBFConfig_v91",
"assigned" : "2017-12-04T17:09:28.876-0600"
},
{
"name" : "FTBFConfig_v92",
"assigned" : "2017-12-04T17:11:41.395-0600"
},
{
"name" : "FTBFConfig_v93",
"assigned" : "2017-12-04T21:05:23.897-0600"
},
{
"name" : "FTBFConfig_v94",
"assigned" : "2017-12-04T21:17:14.949-0600"
},
{
"name" : "FTBFConfig_v95",
"assigned" : "2017-12-04T21:41:20.562-0600"
},
{
"name" : "FTBFConfig_v96",
"assigned" : "2017-12-04T22:39:05.221-0600"
},
{
"name" : "FTBFConfig_v97",
"assigned" : "2017-12-04T23:01:15.754-0600"
},
{
"name" : "FTBFConfig_v98",
"assigned" : "2017-12-07T11:07:49.720-0600"
},
{
"name" : "FTBFConfig_v99",
"assigned" : "2017-12-07T11:50:02.393-0600"
},
{
"name" : "FTBFConfig_v100",
"assigned" : "2017-12-07T11:58:29.135-0600"
},
{
"name" : "FTBFConfig_v101",
"assigned" : "2017-12-08T13:30:51.320-0600"
},
{
"name" : "FTBFConfig_v102",
"assigned" : "2017-12-08T13:32:38.220-0600"
},
{
"name" : "FTBFConfig_v103",
"assigned" : "2017-12-12T11:03:08.049-0600"
},
{
"name" : "FTBFConfig_v104",
"assigned" : "2017-12-12T13:51:02.652-0600"
},
{
"name" : "FTBFConfig_v105",
"assigned" : "2017-12-12T15:25:08.610-0600"
},
{
"name" : "FTBFConfig_v106",
"assigned" : "2017-12-13T10:24:26.916-0600"
},
{
"name" : "FTBFConfig_v107",
"assigned" : "2017-12-13T10:27:05.586-0600"
},
{
"name" : "FTBFConfig_v108",
"assigned" : "2018-02-01T21:14:29.394-0600"
},
{
"name" : "FTBFConfig_v109",
"assigned" : "2018-02-01T21:21:06.527-0600"
},
{
"name" : "FTBFConfig_v110",
"assigned" : "2018-02-02T11:25:37.571-0600"
},
{
"name" : "FTBFConfig_v111",
"assigned" : "2018-02-02T11:37:16.364-0600"
},
{
"name" : "FTBFConfig_v112",
"assigned" : "2018-02-02T11:47:18.890-0600"
},
{
"name" : "FTBFConfig_v113",
"assigned" : "2018-02-02T11:53:40.130-0600"
},
{
"name" : "FTBFConfig_v114",
"assigned" : "2018-02-02T12:00:56.280-0600"
},
{
"name" : "FTBFConfig_v115",
"assigned" : "2018-02-02T12:27:17.729-0600"
},
{
"name" : "FTBFConfig_v116",
"assigned" : "2018-02-02T14:28:57.268-0600"
},
{
"name" : "FTBFConfig_v117",
"assigned" : "2018-02-02T14:30:23.636-0600"
},
{
"name" : "FTBFConfig_v118",
"assigned" : "2018-02-02T14:34:04.886-0600"
},
{
"name" : "FTBFConfig_v119",
"assigned" : "2018-02-02T14:36:31.491-0600"
},
{
"name" : "FTBFConfig_v120",
"assigned" : "2018-02-02T14:38:44.912-0600"
},
{
"name" : "FTBFConfig_v121",
"assigned" : "2018-02-02T14:41:54.229-0600"
},
{
"name" : "FTBFConfig_v122",
"assigned" : "2018-02-02T14:50:28.276-0600"
},
{
"name" : "FTBFConfig_v123",
"assigned" : "2018-02-02T14:53:01.170-0600"
},
{
"name" : "FTBFConfig_v124",
"assigned" : "2018-02-02T14:59:54.482-0600"
},
{
"name" : "FTBFConfig_v125",
"assigned" : "2018-02-02T15:04:12.613-0600"
},
{
"name" : "FTBFConfig_v126",
"assigned" : "2018-02-02T15:50:15.944-0600"
},
{
"name" : "FTBFConfig_v127",
"assigned" : "2018-02-02T15:51:35.399-0600"
},
{
"name" : "FTBFConfig_v128",
"assigned" : "2018-02-02T15:52:40.513-0600"
},
{
"name" : "FTBFConfig_v129",
"assigned" : "2018-02-02T16:02:49.506-0600"
},
{
"name" : "FTBFConfig_v130",
"assigned" : "2018-02-02T16:08:49.013-0600"
},
{
"name" : "FTBFConfig_v131",
"assigned" : "2018-02-02T16:11:34.880-0600"
},
{
"name" : "FTBFConfig_v132",
"assigned" : "2018-02-02T16:13:02.759-0600"
},
{
"name" : "FTBFConfig_v133",
"assigned" : "2018-02-02T16:14:33.410-0600"
},
{
"name" : "FTBFConfig_v134",
"assigned" : "2018-02-02T16:26:26.295-0600"
},
{
"name" : "FTBFConfig_v135",
"assigned" : "2018-02-02T16:27:13.410-0600"
},
{
"name" : "FTBFConfig_v136",
"assigned" : "2018-02-02T16:29:34.772-0600"
},
{
"name" : "FTBFConfig_v137",
"assigned" : "2018-02-02T16:31:45.430-0600"
},
{
"name" : "FTBFConfig_v138",
"assigned" : "2018-02-02T16:34:18.089-0600"
},
{
"name" : "FTBFConfig_v139",
"assigned" : "2018-02-02T17:39:34.160-0600"
},
{
"name" : "FTBFConfig_v140",
"assigned" : "2018-02-02T17:42:56.355-0600"
},
{
"name" : "FTBFConfig_v141",
"assigned" : "2018-02-02T17:47:41.576-0600"
},
{
"name" : "FTBFConfig_v142",
"assigned" : "2018-02-02T17:54:05.588-0600"
}
],
"changelog" : "notprovided",
"bookkeeping" : {
"isdeleted" : false,
"isreadonly" : false,
"updates" : [
{
"event" : "addConfiguration",
"timestamp" : "2017-11-09T09:56:28.106-0600",
"value" : {
"name" : "notprovided",
"assigned" : "2017-11-09T09:56:28.106-0600"
}
},
{
"event" : "setVersion",
"timestamp" : "2017-11-09T09:56:28.107-0600",
"value" : {
"name" : "2",
"assigned" : "2017-11-09T09:56:28.107-0600"
}
},
{
"event" : "setCollection",
"timestamp" : "2017-11-09T09:56:28.107-0600",
"value" : {
"name" : "RawDataSaverConsumerConfiguration",
"assigned" : "2017-11-09T09:56:28.107-0600"
}
},
{
"event" : "addEntity",
"timestamp" : "2017-11-09T09:56:28.107-0600",
"value" : {
"name" : "OTSROOT",
"assigned" : "2017-11-09T09:56:28.107-0600"
}
},
{
"event" : "addConfiguration",
"timestamp" : "2017-11-09T09:56:32.391-0600",
"value" : {
"name" : "FTBFConfig_v1",
"assigned" : "2017-11-09T09:56:32.391-0600"
}
},
{
"event" : "addConfiguration",
"timestamp" : "2017-11-09T10:06:01.382-0600",
"value" : {
"name" : "FTBFConfig_v2",
"assigned" : "2017-11-09T10:06:01.382-0600"
}
},
{
"event" : "addConfiguration",
"timestamp" : "2017-11-09T10:37:12.994-0600",
"value" : {
"name" : "FTBFConfig_v3",
"assigned" : "2017-11-09T10:37:12.994-0600"
}
},
{
"event" : "addConfiguration",
"timestamp" : "2017-11-15T11:30:11.849-0600",
"value" : {
"name" : "FTBFConfig_v4",
"assigned" : "2017-11-15T11:30:11.849-0600"
}
},
{
"event" : "addConfiguration",
"timestamp" : "2017-11-15T11:54:58.734-0600",
"value" : {
"name" : "FTBFConfig_v5",
"assigned" : "2017-11-15T11:54:58.734-0600"
}
},
{
"event" : "addConfiguration",
"timestamp" : "2017-11-15T11:57:51.339-0600",
"value" : {
"name" : "FTBFConfig_v6",
"assigned" : "2017-11-15T11:57:51.339-0600"
}
},
{
"event" : "addConfiguration",
"timestamp" : "2017-11-15T12:42:33.799-0600",
"value" : {
"name" : "FTBFConfig_v7",
"assigned" : "2017-11-15T12:42:33.799-0600"
}
},
{
"event" : "addConfiguration",
"timestamp" : "2017-11-15T13:01:04.851-0600",
"value" : {
"name" : "FTBFConfig_v8",
"assigned" : "2017-11-15T13:01:04.851-0600"
}
},
{
"event" : "addConfiguration",
"timestamp" : "2017-11-15T13:02:58.251-0600",
"value" : {
"name" : "FTBFConfig_v9",
"assigned" : "2017-11-15T13:02:58.251-0600"
}
},
{
"event" : "addConfiguration",
"timestamp" : "2017-11-15T13:04:25.810-0600",
"value" : {
"name" : "FTBFConfig_v10",
"assigned" : "2017-11-15T13:04:25.810-0600"
}
},
{
"event" : "addConfiguration",
"timestamp" : "2017-11-15T13:07:53.363-0600",
"value" : {
"name" : "FTBFConfig_v11",
"assigned" : "2017-11-15T13:07:53.363-0600"
}
},
{
"event" : "addConfiguration",
"timestamp" : "2017-11-15T13:12:00.815-0600",
"value" : {
"name" : "FTBFConfig_v12",
"assigned" : "2017-11-15T13:12:00.815-0600"
}
},
{
"event" : "addConfiguration",
"timestamp" : "2017-11-15T13:13:54.804-0600",
"value" : {
"name" : "FTBFConfig_v13",
"assigned" : "2017-11-15T13:13:54.804-0600"
}
},
{
"event" : "addConfiguration",
"timestamp" : "2017-11-15T13:27:36.290-0600",
"value" : {
"name" : "FTBFConfig_v14",
"assigned" : "2017-11-15T13:27:36.290-0600"
}
},
{
"event" : "addConfiguration",
"timestamp" : "2017-11-15T13:35:48.829-0600",
"value" : {
"name" : "FTBFConfig_v15",
"assigned" : "2017-11-15T13:35:48.829-0600"
}
},
{
"event" : "addConfiguration",
"timestamp" : "2017-11-15T13:36:53.410-0600",
"value" : {
"name" : "FTBFConfig_v16",
"assigned" : "2017-11-15T13:36:53.410-0600"
}
},
{
"event" : "addConfiguration",
"timestamp" : "2017-11-15T15:33:31.993-0600",
"value" : {
"name" : "FTBFConfig_v17",
"assigned" : "2017-11-15T15:33:31.993-0600"
}
},
{
"event" : "addConfiguration",
"timestamp" : "2017-11-15T15:35:35.633-0600",
"value" : {
"name" : "FTBFConfig_v18",
"assigned" : "2017-11-15T15:35:35.633-0600"
}
},
{
"event" : "addConfiguration",
"timestamp" : "2017-11-15T15:38:04.482-0600",
"value" : {
"name" : "FTBFConfig_v19",
"assigned" : "2017-11-15T15:38:04.482-0600"
}
},
{
"event" : "addConfiguration",
"timestamp" : "2017-11-15T16:26:32.536-0600",
"value" : {
"name" : "FTBFConfig_v20",
"assigned" : "2017-11-15T16:26:32.536-0600"
}
},
{
"event" : "addConfiguration",
"timestamp" : "2017-11-16T09:22:33.337-0600",
"value" : {
"name" : "FTBFConfig_v21",
"assigned" : "2017-11-16T09:22:33.337-0600"
}
},
{
"event" : "addConfiguration",
"timestamp" : "2017-11-17T10:23:29.542-0600",
"value" : {
"name" : "FTBFConfig_v22",
"assigned" : "2017-11-17T10:23:29.542-0600"
}
},
{
"event" : "addConfiguration",
"timestamp" : "2017-11-17T17:26:47.204-0600",
"value" : {
"name" : "FTBFConfig_v23",
"assigned" : "2017-11-17T17:26:47.204-0600"
}
},
{
"event" : "addConfiguration",
"timestamp" : "2017-11-17T17:58:27.754-0600",
"value" : {
"name" : "FTBFConfig_v24",
"assigned" : "2017-11-17T17:58:27.754-0600"
}
},
{
"event" : "addConfiguration",
"timestamp" : "2017-11-17T18:24:47.474-0600",
"value" : {
"name" : "FTBFConfig_v25",
"assigned" : "2017-11-17T18:24:47.474-0600"
}
},
{
"event" : "addConfiguration",
"timestamp" : "2017-11-17T18:32:25.594-0600",
"value" : {
"name" : "FTBFConfig_v26",
"assigned" : "2017-11-17T18:32:25.594-0600"
}
},
{
"event" : "addConfiguration",
"timestamp" : "2017-11-17T18:43:32.814-0600",
"value" : {
"name" : "FTBFConfig_v27",
"assigned" : "2017-11-17T18:43:32.813-0600"
}
},
{
"event" : "addConfiguration",
"timestamp" : "2017-11-17T18:48:34.886-0600",
"value" : {
"name" : "FTBFConfig_v28",
"assigned" : "2017-11-17T18:48:34.886-0600"
}
},
{
"event" : "addConfiguration",
"timestamp" : "2017-11-20T14:48:32.921-0600",
"value" : {
"name" : "FTBFConfig_v29",
"assigned" : "2017-11-20T14:48:32.921-0600"
}
},
{
"event" : "addConfiguration",
"timestamp" : "2017-11-20T15:39:57.960-0600",
"value" : {
"name" : "FTBFConfig_v30",
"assigned" : "2017-11-20T15:39:57.960-0600"
}
},
{
"event" : "addConfiguration",
"timestamp" : "2017-11-20T16:41:03.994-0600",
"value" : {
"name" : "FTBFConfig_v31",
"assigned" : "2017-11-20T16:41:03.994-0600"
}
},
{
"event" : "addConfiguration",
"timestamp" : "2017-11-20T18:55:36.949-0600",
"value" : {
"name" : "FTBFConfig_v32",
"assigned" : "2017-11-20T18:55:36.949-0600"
}
},
{
"event" : "addConfiguration",
"timestamp" : "2017-11-20T18:57:32.286-0600",
"value" : {
"name" : "FTBFConfig_v33",
"assigned" : "2017-11-20T18:57:32.286-0600"
}
},
{
"event" : "addConfiguration",
"timestamp" : "2017-11-29T17:50:41.757-0600",
"value" : {
"name" : "FTBFConfig_v34",
"assigned" : "2017-11-29T17:50:41.757-0600"
}
},
{
"event" : "addConfiguration",
"timestamp" : "2017-11-29T18:00:34.794-0600",
"value" : {
"name" : "FTBFConfig_v35",
"assigned" : "2017-11-29T18:00:34.794-0600"
}
},
{
"event" : "addConfiguration",
"timestamp" : "2017-11-29T18:35:13.435-0600",
"value" : {
"name" : "FTBFConfig_v36",
"assigned" : "2017-11-29T18:35:13.435-0600"
}
},
{
"event" : "addConfiguration",
"timestamp" : "2017-12-01T09:36:20.371-0600",
"value" : {
"name" : "FTBFConfig_v37",
"assigned" : "2017-12-01T09:36:20.371-0600"
}
},
{
"event" : "addConfiguration",
"timestamp" : "2017-12-01T09:52:03.277-0600",
"value" : {
"name" : "FTBFConfig_v38",
"assigned" : "2017-12-01T09:52:03.277-0600"
}
},
{
"event" : "addConfiguration",
"timestamp" : "2017-12-01T11:52:00.547-0600",
"value" : {
"name" : "FTBFConfig_v39",
"assigned" : "2017-12-01T11:52:00.547-0600"
}
},
{
"event" : "addConfiguration",
"timestamp" : "2017-12-01T12:18:22.710-0600",
"value" : {
"name" : "FTBFConfig_v40",
"assigned" : "2017-12-01T12:18:22.710-0600"
}
},
{
"event" : "addConfiguration",
"timestamp" : "2017-12-01T12:21:04.654-0600",
"value" : {
"name" : "FTBFConfig_v41",
"assigned" : "2017-12-01T12:21:04.654-0600"
}
},
{
"event" : "addConfiguration",
"timestamp" : "2017-12-01T12:43:24.161-0600",
"value" : {
"name" : "FTBFConfig_v42",
"assigned" : "2017-12-01T12:43:24.161-0600"
}
},
{
"event" : "addConfiguration",
"timestamp" : "2017-12-01T12:58:02.166-0600",
"value" : {
"name" : "FTBFConfig_v43",
"assigned" : "2017-12-01T12:58:02.166-0600"
}
},
{
"event" : "addConfiguration",
"timestamp" : "2017-12-01T13:00:54.618-0600",
"value" : {
"name" : "FTBFConfig_v44",
"assigned" : "2017-12-01T13:00:54.618-0600"
}
},
{
"event" : "addConfiguration",
"timestamp" : "2017-12-01T13:25:51.294-0600",
"value" : {
"name" : "FTBFConfig_v45",
"assigned" : "2017-12-01T13:25:51.294-0600"
}
},
{
"event" : "addConfiguration",
"timestamp" : "2017-12-01T13:35:46.083-0600",
"value" : {
"name" : "FTBFConfig_v46",
"assigned" : "2017-12-01T13:35:46.083-0600"
}
},
{
"event" : "addConfiguration",
"timestamp" : "2017-12-01T14:00:54.180-0600",
"value" : {
"name" : "FTBFConfig_v47",
"assigned" : "2017-12-01T14:00:54.180-0600"
}
},
{
"event" : "addConfiguration",
"timestamp" : "2017-12-01T14:04:01.541-0600",
"value" : {
"name" : "FTBFConfig_v48",
"assigned" : "2017-12-01T14:04:01.541-0600"
}
},
{
"event" : "addConfiguration",
"timestamp" : "2017-12-01T15:32:01.726-0600",
"value" : {
"name" : "FTBFConfig_v49",
"assigned" : "2017-12-01T15:32:01.726-0600"
}
},
{
"event" : "addConfiguration",
"timestamp" : "2017-12-01T15:37:35.195-0600",
"value" : {
"name" : "FTBFConfig_v52",
"assigned" : "2017-12-01T15:37:35.194-0600"
}
},
{
"event" : "addConfiguration",
"timestamp" : "2017-12-01T15:41:01.259-0600",
"value" : {
"name" : "FTBFConfig_v53",
"assigned" : "2017-12-01T15:41:01.259-0600"
}
},
{
"event" : "addConfiguration",
"timestamp" : "2017-12-01T15:52:51.553-0600",
"value" : {
"name" : "FTBFConfig_v54",
"assigned" : "2017-12-01T15:52:51.553-0600"
}
},
{
"event" : "addConfiguration",
"timestamp" : "2017-12-01T15:54:36.780-0600",
"value" : {
"name" : "FTBFConfig_v55",
"assigned" : "2017-12-01T15:54:36.780-0600"
}
},
{
"event" : "addConfiguration",
"timestamp" : "2017-12-01T15:55:36.341-0600",
"value" : {
"name" : "FTBFConfig_v56",
"assigned" : "2017-12-01T15:55:36.341-0600"
}
},
{
"event" : "addConfiguration",
"timestamp" : "2017-12-01T15:56:42.199-0600",
"value" : {
"name" : "FTBFConfig_v57",
"assigned" : "2017-12-01T15:56:42.199-0600"
}
},
{
"event" : "addConfiguration",
"timestamp" : "2017-12-01T15:57:40.328-0600",
"value" : {
"name" : "FTBFConfig_v58",
"assigned" : "2017-12-01T15:57:40.328-0600"
}
},
{
"event" : "addConfiguration",
"timestamp" : "2017-12-01T15:58:32.154-0600",
"value" : {
"name" : "FTBFConfig_v59",
"assigned" : "2017-12-01T15:58:32.154-0600"
}
},
{
"event" : "addConfiguration",
"timestamp" : "2017-12-01T15:59:33.422-0600",
"value" : {
"name" : "FTBFConfig_v60",
"assigned" : "2017-12-01T15:59:33.422-0600"
}
},
{
"event" : "addConfiguration",
"timestamp" : "2017-12-01T16:19:43.287-0600",
"value" : {
"name" : "FTBFConfig_v61",
"assigned" : "2017-12-01T16:19:43.287-0600"
}
},
{
"event" : "addConfiguration",
"timestamp" : "2017-12-01T16:22:05.721-0600",
"value" : {
"name" : "FTBFConfig_v62",
"assigned" : "2017-12-01T16:22:05.721-0600"
}
},
{
"event" : "addConfiguration",
"timestamp" : "2017-12-01T16:31:26.387-0600",
"value" : {
"name" : "FTBFConfig_v63",
"assigned" : "2017-12-01T16:31:26.387-0600"
}
},
{
"event" : "addConfiguration",
"timestamp" : "2017-12-01T17:06:33.761-0600",
"value" : {
"name" : "FTBFConfig_v64",
"assigned" : "2017-12-01T17:06:33.761-0600"
}
},
{
"event" : "addConfiguration",
"timestamp" : "2017-12-01T17:32:45.944-0600",
"value" : {
"name" : "FTBFConfig_v65",
"assigned" : "2017-12-01T17:32:45.944-0600"
}
},
{
"event" : "addConfiguration",
"timestamp" : "2017-12-01T20:38:52.354-0600",
"value" : {
"name" : "FTBFConfig_v66",
"assigned" : "2017-12-01T20:38:52.354-0600"
}
},
{
"event" : "addConfiguration",
"timestamp" : "2017-12-01T21:25:03.660-0600",
"value" : {
"name" : "FTBFConfig_v67",
"assigned" : "2017-12-01T21:25:03.660-0600"
}
},
{
"event" : "addConfiguration",
"timestamp" : "2017-12-01T21:43:03.397-0600",
"value" : {
"name" : "FTBFConfig_v68",
"assigned" : "2017-12-01T21:43:03.397-0600"
}
},
{
"event" : "addConfiguration",
"timestamp" : "2017-12-01T21:45:01.981-0600",
"value" : {
"name" : "FTBFConfig_v69",
"assigned" : "2017-12-01T21:45:01.981-0600"
}
},
{
"event" : "addConfiguration",
"timestamp" : "2017-12-01T21:59:21.293-0600",
"value" : {
"name" : "FTBFConfig_v70",
"assigned" : "2017-12-01T21:59:21.293-0600"
}
},
{
"event" : "addConfiguration",
"timestamp" : "2017-12-01T22:00:08.019-0600",
"value" : {
"name" : "FTBFConfigNim_v0",
"assigned" : "2017-12-01T22:00:08.019-0600"
}
},
{
"event" : "addConfiguration",
"timestamp" : "2017-12-01T22:13:09.901-0600",
"value" : {
"name" : "FTBFConfigNim_v1",
"assigned" : "2017-12-01T22:13:09.901-0600"
}
},
{
"event" : "addConfiguration",
"timestamp" : "2017-12-01T22:15:57.055-0600",
"value" : {
"name" : "FTBFConfigNim_v2",
"assigned" : "2017-12-01T22:15:57.055-0600"
}
},
{
"event" : "addConfiguration",
"timestamp" : "2017-12-01T22:17:05.627-0600",
"value" : {
"name" : "FTBFConfigNim_v3",
"assigned" : "2017-12-01T22:17:05.626-0600"
}
},
{
"event" : "addConfiguration",
"timestamp" : "2017-12-01T22:19:08.156-0600",
"value" : {
"name" : "FTBFConfigNim_v4",
"assigned" : "2017-12-01T22:19:08.156-0600"
}
},
{
"event" : "addConfiguration",
"timestamp" : "2017-12-01T22:21:58.955-0600",
"value" : {
"name" : "FTBFConfigNim_v5",
"assigned" : "2017-12-01T22:21:58.955-0600"
}
},
{
"event" : "addConfiguration",
"timestamp" : "2017-12-01T22:23:17.463-0600",
"value" : {
"name" : "FTBFConfigNim_v6",
"assigned" : "2017-12-01T22:23:17.463-0600"
}
},
{
"event" : "addConfiguration",
"timestamp" : "2017-12-01T22:25:18.978-0600",
"value" : {
"name" : "FTBFConfigNim_v7",
"assigned" : "2017-12-01T22:25:18.977-0600"
}
},
{
"event" : "addConfiguration",
"timestamp" : "2017-12-01T22:27:06.651-0600",
"value" : {
"name" : "FTBFConfigNim_v8",
"assigned" : "2017-12-01T22:27:06.651-0600"
}
},
{
"event" : "addConfiguration",
"timestamp" : "2017-12-01T22:29:30.933-0600",
"value" : {
"name" : "FTBFConfigNim_v9",
"assigned" : "2017-12-01T22:29:30.933-0600"
}
},
{
"event" : "addConfiguration",
"timestamp" : "2017-12-01T22:52:36.303-0600",
"value" : {
"name" : "FTBFConfigNim_v10",
"assigned" : "2017-12-01T22:52:36.303-0600"
}
},
{
"event" : "addConfiguration",
"timestamp" : "2017-12-01T22:57:30.791-0600",
"value" : {
"name" : "FTBFConfigNim_v11",
"assigned" : "2017-12-01T22:57:30.791-0600"
}
},
{
"event" : "addConfiguration",
"timestamp" : "2017-12-01T23:00:09.000-0600",
"value" : {
"name" : "FTBFConfigNim_v12",
"assigned" : "2017-12-01T23:00:08.999-0600"
}
},
{
"event" : "addConfiguration",
"timestamp" : "2017-12-01T23:52:37.153-0600",
"value" : {
"name" : "FTBFConfigNim_v13",
"assigned" : "2017-12-01T23:52:37.153-0600"
}
},
{
"event" : "addConfiguration",
"timestamp" : "2017-12-01T23:58:11.636-0600",
"value" : {
"name" : "FTBFConfigNim_v14",
"assigned" : "2017-12-01T23:58:11.636-0600"
}
},
{
"event" : "addConfiguration",
"timestamp" : "2017-12-02T00:00:35.846-0600",
"value" : {
"name" : "FTBFConfigNim_v15",
"assigned" : "2017-12-02T00:00:35.846-0600"
}
},
{
"event" : "addConfiguration",
"timestamp" : "2017-12-02T00:13:11.089-0600",
"value" : {
"name" : "FTBFConfigNim_v16",
"assigned" : "2017-12-02T00:13:11.089-0600"
}
},
{
"event" : "addConfiguration",
"timestamp" : "2017-12-02T00:28:29.986-0600",
"value" : {
"name" : "FTBFConfigNim_v17",
"assigned" : "2017-12-02T00:28:29.986-0600"
}
},
{
"event" : "addConfiguration",
"timestamp" : "2017-12-02T00:29:36.074-0600",
"value" : {
"name" : "FTBFConfigNim_v18",
"assigned" : "2017-12-02T00:29:36.074-0600"
}
},
{
"event" : "addConfiguration",
"timestamp" : "2017-12-02T00:31:15.062-0600",
"value" : {
"name" : "FTBFConfigNim_v19",
"assigned" : "2017-12-02T00:31:15.062-0600"
}
},
{
"event" : "addConfiguration",
"timestamp" : "2017-12-02T00:57:29.133-0600",
"value" : {
"name" : "FTBFConfigNim_v20",
"assigned" : "2017-12-02T00:57:29.133-0600"
}
},
{
"event" : "addConfiguration",
"timestamp" : "2017-12-02T10:58:03.702-0600",
"value" : {
"name" : "FTBFConfigNim_v21",
"assigned" : "2017-12-02T10:58:03.702-0600"
}
},
{
"event" : "addConfiguration",
"timestamp" : "2017-12-02T11:08:19.874-0600",
"value" : {
"name" : "FTBFConfigNim_v22",
"assigned" : "2017-12-02T11:08:19.874-0600"
}
},
{
"event" : "addConfiguration",
"timestamp" : "2017-12-02T11:12:41.515-0600",
"value" : {
"name" : "FTBFConfigNim_v23",
"assigned" : "2017-12-02T11:12:41.515-0600"
}
},
{
"event" : "addConfiguration",
"timestamp" : "2017-12-02T11:18:44.402-0600",
"value" : {
"name" : "FTBFConfigNim_v24",
"assigned" : "2017-12-02T11:18:44.402-0600"
}
},
{
"event" : "addConfiguration",
"timestamp" : "2017-12-02T11:27:07.614-0600",
"value" : {
"name" : "FTBFConfigNim_v25",
"assigned" : "2017-12-02T11:27:07.614-0600"
}
},
{
"event" : "addConfiguration",
"timestamp" : "2017-12-02T11:38:38.678-0600",
"value" : {
"name" : "FTBFConfigNim_v26",
"assigned" : "2017-12-02T11:38:38.678-0600"
}
},
{
"event" : "addConfiguration",
"timestamp" : "2017-12-02T11:49:09.909-0600",
"value" : {
"name" : "FTBFConfigNim_v27",
"assigned" : "2017-12-02T11:49:09.909-0600"
}
},
{
"event" : "addConfiguration",
"timestamp" : "2017-12-02T11:55:11.455-0600",
"value" : {
"name" : "FTBFConfigNim_v28",
"assigned" : "2017-12-02T11:55:11.455-0600"
}
},
{
"event" : "addConfiguration",
"timestamp" : "2017-12-02T12:06:28.298-0600",
"value" : {
"name" : "FTBFConfigNim_v29",
"assigned" : "2017-12-02T12:06:28.298-0600"
}
},
{
"event" : "addConfiguration",
"timestamp" : "2017-12-02T12:24:16.869-0600",
"value" : {
"name" : "FTBFConfig_v71",
"assigned" : "2017-12-02T12:24:16.869-0600"
}
},
{
"event" : "addConfiguration",
"timestamp" : "2017-12-02T12:43:37.790-0600",
"value" : {
"name" : "FTBFConfig_v72",
"assigned" : "2017-12-02T12:43:37.790-0600"
}
},
{
"event" : "addConfiguration",
"timestamp" : "2017-12-02T13:55:37.483-0600",
"value" : {
"name" : "FTBFConfig_v73",
"assigned" : "2017-12-02T13:55:37.483-0600"
}
},
{
"event" : "addConfiguration",
"timestamp" : "2017-12-02T14:12:20.674-0600",
"value" : {
"name" : "FTBFConfig_v75",
"assigned" : "2017-12-02T14:12:20.674-0600"
}
},
{
"event" : "addConfiguration",
"timestamp" : "2017-12-02T19:05:55.680-0600",
"value" : {
"name" : "FTBFConfig_v76",
"assigned" : "2017-12-02T19:05:55.680-0600"
}
},
{
"event" : "addConfiguration",
"timestamp" : "2017-12-02T19:12:15.521-0600",
"value" : {
"name" : "FTBFConfig_v77",
"assigned" : "2017-12-02T19:12:15.520-0600"
}
},
{
"event" : "addConfiguration",
"timestamp" : "2017-12-03T14:03:50.663-0600",
"value" : {
"name" : "FTBFConfig_v78",
"assigned" : "2017-12-03T14:03:50.663-0600"
}
},
{
"event" : "addConfiguration",
"timestamp" : "2017-12-03T14:09:08.975-0600",
"value" : {
"name" : "FTBFConfig_v79",
"assigned" : "2017-12-03T14:09:08.975-0600"
}
},
{
"event" : "addConfiguration",
"timestamp" : "2017-12-03T14:11:12.756-0600",
"value" : {
"name" : "FTBFConfig_v80",
"assigned" : "2017-12-03T14:11:12.756-0600"
}
},
{
"event" : "addConfiguration",
"timestamp" : "2017-12-03T14:22:35.768-0600",
"value" : {
"name" : "FTBFConfig_v81",
"assigned" : "2017-12-03T14:22:35.768-0600"
}
},
{
"event" : "addConfiguration",
"timestamp" : "2017-12-03T14:40:40.610-0600",
"value" : {
"name" : "FTBFConfig_v82",
"assigned" : "2017-12-03T14:40:40.610-0600"
}
},
{
"event" : "addConfiguration",
"timestamp" : "2017-12-03T14:45:07.970-0600",
"value" : {
"name" : "FTBFConfig_v83",
"assigned" : "2017-12-03T14:45:07.970-0600"
}
},
{
"event" : "addConfiguration",
"timestamp" : "2017-12-04T14:51:33.203-0600",
"value" : {
"name" : "FTBFConfig_v84",
"assigned" : "2017-12-04T14:51:33.203-0600"
}
},
{
"event" : "addConfiguration",
"timestamp" : "2017-12-04T14:55:46.437-0600",
"value" : {
"name" : "FTBFConfig_v85",
"assigned" : "2017-12-04T14:55:46.436-0600"
}
},
{
"event" : "addConfiguration",
"timestamp" : "2017-12-04T16:51:09.508-0600",
"value" : {
"name" : "FTBFConfig_v86",
"assigned" : "2017-12-04T16:51:09.508-0600"
}
},
{
"event" : "addConfiguration",
"timestamp" : "2017-12-04T16:56:50.144-0600",
"value" : {
"name" : "FTBFConfig_v87",
"assigned" : "2017-12-04T16:56:50.144-0600"
}
},
{
"event" : "addConfiguration",
"timestamp" : "2017-12-04T17:01:14.925-0600",
"value" : {
"name" : "FTBFConfig_v88",
"assigned" : "2017-12-04T17:01:14.925-0600"
}
},
{
"event" : "addConfiguration",
"timestamp" : "2017-12-04T17:04:00.047-0600",
"value" : {
"name" : "FTBFConfig_v89",
"assigned" : "2017-12-04T17:04:00.047-0600"
}
},
{
"event" : "addConfiguration",
"timestamp" : "2017-12-04T17:07:19.780-0600",
"value" : {
"name" : "FTBFConfig_v90",
"assigned" : "2017-12-04T17:07:19.780-0600"
}
},
{
"event" : "addConfiguration",
"timestamp" : "2017-12-04T17:09:28.877-0600",
"value" : {
"name" : "FTBFConfig_v91",
"assigned" : "2017-12-04T17:09:28.876-0600"
}
},
{
"event" : "addConfiguration",
"timestamp" : "2017-12-04T17:11:41.395-0600",
"value" : {
"name" : "FTBFConfig_v92",
"assigned" : "2017-12-04T17:11:41.395-0600"
}
},
{
"event" : "addConfiguration",
"timestamp" : "2017-12-04T21:05:23.897-0600",
"value" : {
"name" : "FTBFConfig_v93",
"assigned" : "2017-12-04T21:05:23.897-0600"
}
},
{
"event" : "addConfiguration",
"timestamp" : "2017-12-04T21:17:14.949-0600",
"value" : {
"name" : "FTBFConfig_v94",
"assigned" : "2017-12-04T21:17:14.949-0600"
}
},
{
"event" : "addConfiguration",
"timestamp" : "2017-12-04T21:41:20.562-0600",
"value" : {
"name" : "FTBFConfig_v95",
"assigned" : "2017-12-04T21:41:20.562-0600"
}
},
{
"event" : "addConfiguration",
"timestamp" : "2017-12-04T22:39:05.221-0600",
"value" : {
"name" : "FTBFConfig_v96",
"assigned" : "2017-12-04T22:39:05.221-0600"
}
},
{
"event" : "addConfiguration",
"timestamp" : "2017-12-04T23:01:15.755-0600",
"value" : {
"name" : "FTBFConfig_v97",
"assigned" : "2017-12-04T23:01:15.754-0600"
}
},
{
"event" : "addConfiguration",
"timestamp" : "2017-12-07T11:07:49.720-0600",
"value" : {
"name" : "FTBFConfig_v98",
"assigned" : "2017-12-07T11:07:49.720-0600"
}
},
{
"event" : "addConfiguration",
"timestamp" : "2017-12-07T11:50:02.393-0600",
"value" : {
"name" : "FTBFConfig_v99",
"assigned" : "2017-12-07T11:50:02.393-0600"
}
},
{
"event" : "addConfiguration",
"timestamp" : "2017-12-07T11:58:29.135-0600",
"value" : {
"name" : "FTBFConfig_v100",
"assigned" : "2017-12-07T11:58:29.135-0600"
}
},
{
"event" : "addConfiguration",
"timestamp" : "2017-12-08T13:30:51.321-0600",
"value" : {
"name" : "FTBFConfig_v101",
"assigned" : "2017-12-08T13:30:51.320-0600"
}
},
{
"event" : "addConfiguration",
"timestamp" : "2017-12-08T13:32:38.220-0600",
"value" : {
"name" : "FTBFConfig_v102",
"assigned" : "2017-12-08T13:32:38.220-0600"
}
},
{
"event" : "addConfiguration",
"timestamp" : "2017-12-12T11:03:08.049-0600",
"value" : {
"name" : "FTBFConfig_v103",
"assigned" : "2017-12-12T11:03:08.049-0600"
}
},
{
"event" : "addConfiguration",
"timestamp" : "2017-12-12T13:51:02.652-0600",
"value" : {
"name" : "FTBFConfig_v104",
"assigned" : "2017-12-12T13:51:02.652-0600"
}
},
{
"event" : "addConfiguration",
"timestamp" : "2017-12-12T15:25:08.611-0600",
"value" : {
"name" : "FTBFConfig_v105",
"assigned" : "2017-12-12T15:25:08.610-0600"
}
},
{
"event" : "addConfiguration",
"timestamp" : "2017-12-13T10:24:26.916-0600",
"value" : {
"name" : "FTBFConfig_v106",
"assigned" : "2017-12-13T10:24:26.916-0600"
}
},
{
"event" : "addConfiguration",
"timestamp" : "2017-12-13T10:27:05.586-0600",
"value" : {
"name" : "FTBFConfig_v107",
"assigned" : "2017-12-13T10:27:05.586-0600"
}
},
{
"event" : "addConfiguration",
"timestamp" : "2018-02-01T21:14:29.395-0600",
"value" : {
"name" : "FTBFConfig_v108",
"assigned" : "2018-02-01T21:14:29.394-0600"
}
},
{
"event" : "addConfiguration",
"timestamp" : "2018-02-01T21:21:06.527-0600",
"value" : {
"name" : "FTBFConfig_v109",
"assigned" : "2018-02-01T21:21:06.527-0600"
}
},
{
"event" : "addConfiguration",
"timestamp" : "2018-02-02T11:25:37.571-0600",
"value" : {
"name" : "FTBFConfig_v110",
"assigned" : "2018-02-02T11:25:37.571-0600"
}
},
{
"event" : "addConfiguration",
"timestamp" : "2018-02-02T11:37:16.364-0600",
"value" : {
"name" : "FTBFConfig_v111",
"assigned" : "2018-02-02T11:37:16.364-0600"
}
},
{
"event" : "addConfiguration",
"timestamp" : "2018-02-02T11:47:18.891-0600",
"value" : {
"name" : "FTBFConfig_v112",
"assigned" : "2018-02-02T11:47:18.890-0600"
}
},
{
"event" : "addConfiguration",
"timestamp" : "2018-02-02T11:53:40.130-0600",
"value" : {
"name" : "FTBFConfig_v113",
"assigned" : "2018-02-02T11:53:40.130-0600"
}
},
{
"event" : "addConfiguration",
"timestamp" : "2018-02-02T12:00:56.281-0600",
"value" : {
"name" : "FTBFConfig_v114",
"assigned" : "2018-02-02T12:00:56.280-0600"
}
},
{
"event" : "addConfiguration",
"timestamp" : "2018-02-02T12:27:17.729-0600",
"value" : {
"name" : "FTBFConfig_v115",
"assigned" : "2018-02-02T12:27:17.729-0600"
}
},
{
"event" : "addConfiguration",
"timestamp" : "2018-02-02T14:28:57.268-0600",
"value" : {
"name" : "FTBFConfig_v116",
"assigned" : "2018-02-02T14:28:57.268-0600"
}
},
{
"event" : "addConfiguration",
"timestamp" : "2018-02-02T14:30:23.636-0600",
"value" : {
"name" : "FTBFConfig_v117",
"assigned" : "2018-02-02T14:30:23.636-0600"
}
},
{
"event" : "addConfiguration",
"timestamp" : "2018-02-02T14:34:04.886-0600",
"value" : {
"name" : "FTBFConfig_v118",
"assigned" : "2018-02-02T14:34:04.886-0600"
}
},
{
"event" : "addConfiguration",
"timestamp" : "2018-02-02T14:36:31.491-0600",
"value" : {
"name" : "FTBFConfig_v119",
"assigned" : "2018-02-02T14:36:31.491-0600"
}
},
{
"event" : "addConfiguration",
"timestamp" : "2018-02-02T14:38:44.913-0600",
"value" : {
"name" : "FTBFConfig_v120",
"assigned" : "2018-02-02T14:38:44.912-0600"
}
},
{
"event" : "addConfiguration",
"timestamp" : "2018-02-02T14:41:54.229-0600",
"value" : {
"name" : "FTBFConfig_v121",
"assigned" : "2018-02-02T14:41:54.229-0600"
}
},
{
"event" : "addConfiguration",
"timestamp" : "2018-02-02T14:50:28.276-0600",
"value" : {
"name" : "FTBFConfig_v122",
"assigned" : "2018-02-02T14:50:28.276-0600"
}
},
{
"event" : "addConfiguration",
"timestamp" : "2018-02-02T14:53:01.170-0600",
"value" : {
"name" : "FTBFConfig_v123",
"assigned" : "2018-02-02T14:53:01.170-0600"
}
},
{
"event" : "addConfiguration",
"timestamp" : "2018-02-02T14:59:54.482-0600",
"value" : {
"name" : "FTBFConfig_v124",
"assigned" : "2018-02-02T14:59:54.482-0600"
}
},
{
"event" : "addConfiguration",
"timestamp" : "2018-02-02T15:04:12.613-0600",
"value" : {
"name" : "FTBFConfig_v125",
"assigned" : "2018-02-02T15:04:12.613-0600"
}
},
{
"event" : "addConfiguration",
"timestamp" : "2018-02-02T15:50:15.945-0600",
"value" : {
"name" : "FTBFConfig_v126",
"assigned" : "2018-02-02T15:50:15.944-0600"
}
},
{
"event" : "addConfiguration",
"timestamp" : "2018-02-02T15:51:35.399-0600",
"value" : {
"name" : "FTBFConfig_v127",
"assigned" : "2018-02-02T15:51:35.399-0600"
}
},
{
"event" : "addConfiguration",
"timestamp" : "2018-02-02T15:52:40.513-0600",
"value" : {
"name" : "FTBFConfig_v128",
"assigned" : "2018-02-02T15:52:40.513-0600"
}
},
{
"event" : "addConfiguration",
"timestamp" : "2018-02-02T16:02:49.507-0600",
"value" : {
"name" : "FTBFConfig_v129",
"assigned" : "2018-02-02T16:02:49.506-0600"
}
},
{
"event" : "addConfiguration",
"timestamp" : "2018-02-02T16:08:49.013-0600",
"value" : {
"name" : "FTBFConfig_v130",
"assigned" : "2018-02-02T16:08:49.013-0600"
}
},
{
"event" : "addConfiguration",
"timestamp" : "2018-02-02T16:11:34.880-0600",
"value" : {
"name" : "FTBFConfig_v131",
"assigned" : "2018-02-02T16:11:34.880-0600"
}
},
{
"event" : "addConfiguration",
"timestamp" : "2018-02-02T16:13:02.759-0600",
"value" : {
"name" : "FTBFConfig_v132",
"assigned" : "2018-02-02T16:13:02.759-0600"
}
},
{
"event" : "addConfiguration",
"timestamp" : "2018-02-02T16:14:33.410-0600",
"value" : {
"name" : "FTBFConfig_v133",
"assigned" : "2018-02-02T16:14:33.410-0600"
}
},
{
"event" : "addConfiguration",
"timestamp" : "2018-02-02T16:26:26.295-0600",
"value" : {
"name" : "FTBFConfig_v134",
"assigned" : "2018-02-02T16:26:26.295-0600"
}
},
{
"event" : "addConfiguration",
"timestamp" : "2018-02-02T16:27:13.410-0600",
"value" : {
"name" : "FTBFConfig_v135",
"assigned" : "2018-02-02T16:27:13.410-0600"
}
},
{
"event" : "addConfiguration",
"timestamp" : "2018-02-02T16:29:34.772-0600",
"value" : {
"name" : "FTBFConfig_v136",
"assigned" : "2018-02-02T16:29:34.772-0600"
}
},
{
"event" : "addConfiguration",
"timestamp" : "2018-02-02T16:31:45.430-0600",
"value" : {
"name" : "FTBFConfig_v137",
"assigned" : "2018-02-02T16:31:45.430-0600"
}
},
{
"event" : "addConfiguration",
"timestamp" : "2018-02-02T16:34:18.089-0600",
"value" : {
"name" : "FTBFConfig_v138",
"assigned" : "2018-02-02T16:34:18.089-0600"
}
},
{
"event" : "addConfiguration",
"timestamp" : "2018-02-02T17:39:34.160-0600",
"value" : {
"name" : "FTBFConfig_v139",
"assigned" : "2018-02-02T17:39:34.160-0600"
}
},
{
"event" : "addConfiguration",
"timestamp" : "2018-02-02T17:42:56.355-0600",
"value" : {
"name" : "FTBFConfig_v140",
"assigned" : "2018-02-02T17:42:56.355-0600"
}
},
{
"event" : "addConfiguration",
"timestamp" : "2018-02-02T17:47:41.576-0600",
"value" : {
"name" : "FTBFConfig_v141",
"assigned" : "2018-02-02T17:47:41.576-0600"
}
},
{
"event" : "addConfiguration",
"timestamp" : "2018-02-02T17:54:05.588-0600",
"value" : {
"name" : "FTBFConfig_v142",
"assigned" : "2018-02-02T17:54:05.588-0600"
}
}
],
"created" : "2017-11-09T09:56:28.105-0600"
},
"_id" : {
"$oid" : "a3b2373b0e5b45d2abea4a35"
},
"collection" : "RawDataSaverConsumerConfiguration",
"aliases" : {
"active" : [

],
"history" : [

]
},
"runs" : [

],
"attachments" : [

],
"configtype" : "notprovided"
}