{
"document" : {
"data" : {
"NAME" : "GROUP_ALIASES_TABLE",
"COMMENT" : "Default Backbone.",
"AUTHOR" : "admin",
"CREATION_TIME" : 1602108211,
"COL_TYPES" : {
"GROUP_KEY_ALIAS" : "STRING",
"GROUP_NAME" : "STRING",
"GROUP_KEY" : "STRING",
"COMMENT_DESCRIPTION" : "STRING",
"AUTHOR" : "STRING",
"RECORD_INSERTION_TIME" : "TIMESTAMP WITH TIMEZONE"
},
"DATA_SET" : [
{
"GROUP_KEY_ALIAS" : "OuterTrackerContext",
"GROUP_NAME" : "DefaultContext",
"GROUP_KEY" : "13",
"COMMENT_DESCRIPTION" : "This Group Alias was automatically setup by the server.",
"AUTHOR" : "admin",
"RECORD_INSERTION_TIME" : "1602012262"
},
{
"GROUP_KEY_ALIAS" : "OuterTrackerTable",
"GROUP_NAME" : "DefaultConfig",
"GROUP_KEY" : "30",
"COMMENT_DESCRIPTION" : "This Group Alias was automatically setup by the server.",
"AUTHOR" : "admin",
"RECORD_INSERTION_TIME" : "1602108211"
}
]
},
"metadata" : {

},
"search" : [

]
},
"comments" : [

],
"origin" : {
"source" : "template",
"name" : "notprovided",
"format" : "json",
"created" : "2020-10-07T17:03:31.037-0500",
"rawdata" : [

]
},
"version" : "45",
"entities" : [
{
"name" : "OTSROOT",
"assigned" : "2020-10-07T17:03:31.037-0500"
}
],
"configurations" : [
{
"name" : "notprovided",
"assigned" : "2020-10-07T17:03:31.037-0500"
},
{
"name" : "GroupAliasTreeEditWizBackbone_v13",
"assigned" : "2020-10-07T17:03:31.916-0500"
}
],
"changelog" : "notprovided",
"bookkeeping" : {
"isdeleted" : false,
"isreadonly" : false,
"updates" : [
{
"event" : "addConfiguration",
"timestamp" : "2020-10-07T17:03:31.037-0500",
"value" : {
"name" : "notprovided",
"assigned" : "2020-10-07T17:03:31.037-0500"
}
},
{
"event" : "setVersion",
"timestamp" : "2020-10-07T17:03:31.037-0500",
"value" : {
"name" : "45",
"assigned" : "2020-10-07T17:03:31.037-0500"
}
},
{
"event" : "setCollection",
"timestamp" : "2020-10-07T17:03:31.037-0500",
"value" : {
"name" : "GroupAliasesTable",
"assigned" : "2020-10-07T17:03:31.037-0500"
}
},
{
"event" : "addEntity",
"timestamp" : "2020-10-07T17:03:31.037-0500",
"value" : {
"name" : "OTSROOT",
"assigned" : "2020-10-07T17:03:31.037-0500"
}
},
{
"event" : "addConfiguration",
"timestamp" : "2020-10-07T17:03:31.916-0500",
"value" : {
"name" : "GroupAliasTreeEditWizBackbone_v13",
"assigned" : "2020-10-07T17:03:31.916-0500"
}
}
],
"created" : "2020-10-07T17:03:31.037-0500"
},
"_id" : {
"$oid" : "0f32cb78c2284a9991f1fa1b"
},
"collection" : "GroupAliasesTable",
"aliases" : {
"active" : [

],
"history" : [

]
},
"runs" : [

],
"attachments" : [

],
"configtype" : "notprovided"
}