{
"document" : {
"data" : {
"NAME" : "GROUP_ALIASES_TABLE",
"COMMENT" : "Default Backbone.",
"AUTHOR" : "admin",
"CREATION_TIME" : 1611021880,
"COL_TYPES" : {
"GROUP_KEY_ALIAS" : "STRING",
"GROUP_NAME" : "STRING",
"GROUP_KEY" : "STRING",
"COMMENT_DESCRIPTION" : "STRING",
"AUTHOR" : "STRING",
"RECORD_INSERTION_TIME" : "TIMESTAMP WITH TIMEZONE"
},
"DATA_SET" : [
{
"GROUP_KEY_ALIAS" : "OuterTrackerContext",
"GROUP_NAME" : "DefaultContext",
"GROUP_KEY" : "29",
"COMMENT_DESCRIPTION" : "This Group Alias was automatically setup by the server.",
"AUTHOR" : "admin",
"RECORD_INSERTION_TIME" : "1605299262"
},
{
"GROUP_KEY_ALIAS" : "OuterTrackerTable",
"GROUP_NAME" : "DefaultConfig",
"GROUP_KEY" : "33",
"COMMENT_DESCRIPTION" : "This Group Alias was automatically setup by the server.",
"AUTHOR" : "admin",
"RECORD_INSERTION_TIME" : "1611021879"
}
]
},
"metadata" : {

},
"search" : [

]
},
"comments" : [

],
"origin" : {
"source" : "template",
"name" : "notprovided",
"format" : "json",
"created" : "2021-01-18T20:04:40.033-0600",
"rawdata" : [

]
},
"version" : "63",
"entities" : [
{
"name" : "OTSROOT",
"assigned" : "2021-01-18T20:04:40.034-0600"
}
],
"configurations" : [
{
"name" : "notprovided",
"assigned" : "2021-01-18T20:04:40.034-0600"
},
{
"name" : "TableEditWizBackbone_v49",
"assigned" : "2021-01-18T20:04:40.802-0600"
}
],
"changelog" : "notprovided",
"bookkeeping" : {
"isdeleted" : false,
"isreadonly" : false,
"updates" : [
{
"event" : "addConfiguration",
"timestamp" : "2021-01-18T20:04:40.034-0600",
"value" : {
"name" : "notprovided",
"assigned" : "2021-01-18T20:04:40.034-0600"
}
},
{
"event" : "setVersion",
"timestamp" : "2021-01-18T20:04:40.034-0600",
"value" : {
"name" : "63",
"assigned" : "2021-01-18T20:04:40.034-0600"
}
},
{
"event" : "setCollection",
"timestamp" : "2021-01-18T20:04:40.034-0600",
"value" : {
"name" : "GroupAliasesTable",
"assigned" : "2021-01-18T20:04:40.034-0600"
}
},
{
"event" : "addEntity",
"timestamp" : "2021-01-18T20:04:40.034-0600",
"value" : {
"name" : "OTSROOT",
"assigned" : "2021-01-18T20:04:40.034-0600"
}
},
{
"event" : "addConfiguration",
"timestamp" : "2021-01-18T20:04:40.802-0600",
"value" : {
"name" : "TableEditWizBackbone_v49",
"assigned" : "2021-01-18T20:04:40.802-0600"
}
}
],
"created" : "2021-01-18T20:04:40.033-0600"
},
"_id" : {
"$oid" : "328eda7db125416f95d207c7"
},
"collection" : "GroupAliasesTable",
"aliases" : {
"active" : [

],
"history" : [

]
},
"runs" : [

],
"attachments" : [

],
"configtype" : "notprovided"
}