{
"document" : {
"data" : {
"NAME" : "GROUP_ALIASES_TABLE",
"COMMENT" : "Default Backbone.",
"AUTHOR" : "admin",
"CREATION_TIME" : 1600248095,
"COL_TYPES" : {
"GROUP_KEY_ALIAS" : "STRING",
"GROUP_NAME" : "STRING",
"GROUP_KEY" : "STRING",
"COMMENT_DESCRIPTION" : "STRING",
"AUTHOR" : "STRING",
"RECORD_INSERTION_TIME" : "TIMESTAMP WITH TIMEZONE"
},
"DATA_SET" : [
{
"GROUP_KEY_ALIAS" : "OuterTrackerContext",
"GROUP_NAME" : "DefaultContext",
"GROUP_KEY" : "7",
"COMMENT_DESCRIPTION" : "This Group Alias was automatically setup by the server.",
"AUTHOR" : "admin",
"RECORD_INSERTION_TIME" : "1599673737"
},
{
"GROUP_KEY_ALIAS" : "OuterTrackerTable",
"GROUP_NAME" : "DefaultConfig",
"GROUP_KEY" : "6",
"COMMENT_DESCRIPTION" : "This Group Alias was automatically setup by the server.",
"AUTHOR" : "admin",
"RECORD_INSERTION_TIME" : "1600196662"
},
{
"GROUP_KEY_ALIAS" : "IT-SCurve",
"GROUP_NAME" : "DefaultConfig",
"GROUP_KEY" : "8",
"COMMENT_DESCRIPTION" : "This Group Alias was automatically setup by the server.",
"AUTHOR" : "admin",
"RECORD_INSERTION_TIME" : "1600197299"
},
{
"GROUP_KEY_ALIAS" : "IT-PixelAlive",
"GROUP_NAME" : "DefaultConfig",
"GROUP_KEY" : "6",
"COMMENT_DESCRIPTION" : "This Group Alias was automatically setup by the server.",
"AUTHOR" : "admin",
"RECORD_INSERTION_TIME" : "1600197170"
},
{
"GROUP_KEY_ALIAS" : "IT-Gain",
"GROUP_NAME" : "DefaultConfig",
"GROUP_KEY" : "10",
"COMMENT_DESCRIPTION" : "This Group Alias was automatically setup by the server.",
"AUTHOR" : "admin",
"RECORD_INSERTION_TIME" : "1600243045"
},
{
"GROUP_KEY_ALIAS" : "IT-Standalone-Test",
"GROUP_NAME" : "DefaultContext",
"GROUP_KEY" : "10",
"COMMENT_DESCRIPTION" : "This Group Alias was automatically setup by the server.",
"AUTHOR" : "admin",
"RECORD_INSERTION_TIME" : "1600248095"
}
]
},
"metadata" : {

},
"search" : [

]
},
"comments" : [

],
"origin" : {
"source" : "template",
"name" : "notprovided",
"format" : "json",
"created" : "2020-09-16T11:21:35.493+0200",
"rawdata" : [

]
},
"version" : "31",
"entities" : [
{
"name" : "OTSROOT",
"assigned" : "2020-09-16T11:21:35.495+0200"
}
],
"configurations" : [
{
"name" : "notprovided",
"assigned" : "2020-09-16T11:21:35.494+0200"
},
{
"name" : "GroupAliasTreeEditWizBackbone_v23",
"assigned" : "2020-09-16T11:21:36.361+0200"
}
],
"changelog" : "notprovided",
"bookkeeping" : {
"isdeleted" : false,
"isreadonly" : false,
"updates" : [
{
"event" : "addConfiguration",
"timestamp" : "2020-09-16T11:21:35.494+0200",
"value" : {
"name" : "notprovided",
"assigned" : "2020-09-16T11:21:35.494+0200"
}
},
{
"event" : "setVersion",
"timestamp" : "2020-09-16T11:21:35.494+0200",
"value" : {
"name" : "31",
"assigned" : "2020-09-16T11:21:35.494+0200"
}
},
{
"event" : "setCollection",
"timestamp" : "2020-09-16T11:21:35.495+0200",
"value" : {
"name" : "GroupAliasesTable",
"assigned" : "2020-09-16T11:21:35.495+0200"
}
},
{
"event" : "addEntity",
"timestamp" : "2020-09-16T11:21:35.495+0200",
"value" : {
"name" : "OTSROOT",
"assigned" : "2020-09-16T11:21:35.495+0200"
}
},
{
"event" : "addConfiguration",
"timestamp" : "2020-09-16T11:21:36.361+0200",
"value" : {
"name" : "GroupAliasTreeEditWizBackbone_v23",
"assigned" : "2020-09-16T11:21:36.361+0200"
}
}
],
"created" : "2020-09-16T11:21:35.493+0200"
},
"_id" : {
"$oid" : "813094d0e82a45c5ad3e83cd"
},
"collection" : "GroupAliasesTable",
"aliases" : {
"active" : [

],
"history" : [

]
},
"runs" : [

],
"attachments" : [

],
"configtype" : "notprovided"
}