{
"document" : {
"data" : {
"NAME" : "GROUP_ALIASES_TABLE",
"COMMENT" : "Default Backbone.",
"AUTHOR" : "admin",
"CREATION_TIME" : 1600269773,
"COL_TYPES" : {
"GROUP_KEY_ALIAS" : "STRING",
"GROUP_NAME" : "STRING",
"GROUP_KEY" : "STRING",
"COMMENT_DESCRIPTION" : "STRING",
"AUTHOR" : "STRING",
"RECORD_INSERTION_TIME" : "TIMESTAMP WITH TIMEZONE"
},
"DATA_SET" : [
{
"GROUP_KEY_ALIAS" : "IT-Context",
"GROUP_NAME" : "DefaultContext",
"GROUP_KEY" : "7",
"COMMENT_DESCRIPTION" : "This Group Alias was automatically setup by the server.",
"AUTHOR" : "admin",
"RECORD_INSERTION_TIME" : "1600269465"
},
{
"GROUP_KEY_ALIAS" : "IT-SCurve",
"GROUP_NAME" : "DefaultConfig",
"GROUP_KEY" : "8",
"COMMENT_DESCRIPTION" : "This Group Alias was automatically setup by the server.",
"AUTHOR" : "admin",
"RECORD_INSERTION_TIME" : "1600269465"
},
{
"GROUP_KEY_ALIAS" : "IT-PixelAlive",
"GROUP_NAME" : "DefaultConfig",
"GROUP_KEY" : "6",
"COMMENT_DESCRIPTION" : "This Group Alias was automatically setup by the server.",
"AUTHOR" : "admin",
"RECORD_INSERTION_TIME" : "1600269465"
},
{
"GROUP_KEY_ALIAS" : "IT-Gain",
"GROUP_NAME" : "DefaultConfig",
"GROUP_KEY" : "10",
"COMMENT_DESCRIPTION" : "This Group Alias was automatically setup by the server.",
"AUTHOR" : "admin",
"RECORD_INSERTION_TIME" : "1600269465"
},
{
"GROUP_KEY_ALIAS" : "TestContext",
"GROUP_NAME" : "DefaultContext",
"GROUP_KEY" : "10",
"COMMENT_DESCRIPTION" : "This Group Alias was automatically setup by the server.",
"AUTHOR" : "admin",
"RECORD_INSERTION_TIME" : "1600269465"
},
{
"GROUP_KEY_ALIAS" : "TestConfiguration",
"GROUP_NAME" : "DefaultConfig",
"GROUP_KEY" : "9",
"COMMENT_DESCRIPTION" : "This Group Alias was automatically setup by the server.",
"AUTHOR" : "admin",
"RECORD_INSERTION_TIME" : "1600269773"
}
]
},
"metadata" : {

},
"search" : [

]
},
"comments" : [

],
"origin" : {
"source" : "template",
"name" : "notprovided",
"format" : "json",
"created" : "2020-09-16T17:22:53.345+0200",
"rawdata" : [

]
},
"version" : "34",
"entities" : [
{
"name" : "OTSROOT",
"assigned" : "2020-09-16T17:22:53.346+0200"
}
],
"configurations" : [
{
"name" : "notprovided",
"assigned" : "2020-09-16T17:22:53.345+0200"
},
{
"name" : "GroupAliasTreeEditWizBackbone_v26",
"assigned" : "2020-09-16T17:22:54.230+0200"
}
],
"changelog" : "notprovided",
"bookkeeping" : {
"isdeleted" : false,
"isreadonly" : false,
"updates" : [
{
"event" : "addConfiguration",
"timestamp" : "2020-09-16T17:22:53.345+0200",
"value" : {
"name" : "notprovided",
"assigned" : "2020-09-16T17:22:53.345+0200"
}
},
{
"event" : "setVersion",
"timestamp" : "2020-09-16T17:22:53.345+0200",
"value" : {
"name" : "34",
"assigned" : "2020-09-16T17:22:53.345+0200"
}
},
{
"event" : "setCollection",
"timestamp" : "2020-09-16T17:22:53.346+0200",
"value" : {
"name" : "GroupAliasesTable",
"assigned" : "2020-09-16T17:22:53.346+0200"
}
},
{
"event" : "addEntity",
"timestamp" : "2020-09-16T17:22:53.346+0200",
"value" : {
"name" : "OTSROOT",
"assigned" : "2020-09-16T17:22:53.346+0200"
}
},
{
"event" : "addConfiguration",
"timestamp" : "2020-09-16T17:22:54.231+0200",
"value" : {
"name" : "GroupAliasTreeEditWizBackbone_v26",
"assigned" : "2020-09-16T17:22:54.230+0200"
}
}
],
"created" : "2020-09-16T17:22:53.345+0200"
},
"_id" : {
"$oid" : "f2d8176a593645dcb1a0331c"
},
"collection" : "GroupAliasesTable",
"aliases" : {
"active" : [

],
"history" : [

]
},
"runs" : [

],
"attachments" : [

],
"configtype" : "notprovided"
}