{
"document" : {
"data" : {
"NAME" : "GROUP_ALIASES_TABLE",
"COMMENT" : "Default Backbone.",
"AUTHOR" : "admin",
"CREATION_TIME" : 1599597526,
"COL_TYPES" : {
"GROUP_KEY_ALIAS" : "STRING",
"GROUP_NAME" : "STRING",
"GROUP_KEY" : "STRING",
"COMMENT_DESCRIPTION" : "STRING",
"AUTHOR" : "STRING",
"RECORD_INSERTION_TIME" : "TIMESTAMP WITH TIMEZONE"
},
"DATA_SET" : [
{
"GROUP_KEY_ALIAS" : "OuterTrackerContext",
"GROUP_NAME" : "DefaultContext",
"GROUP_KEY" : "1",
"COMMENT_DESCRIPTION" : "This Group Alias was automatically setup by the server.",
"AUTHOR" : "admin",
"RECORD_INSERTION_TIME" : "1599595690"
},
{
"GROUP_KEY_ALIAS" : "OuterTrackerConfiguration",
"GROUP_NAME" : "DefaultConfig",
"GROUP_KEY" : "3",
"COMMENT_DESCRIPTION" : "This Group Alias was automatically setup by the server.",
"AUTHOR" : "admin",
"RECORD_INSERTION_TIME" : "1599597526"
}
]
},
"metadata" : {

},
"search" : [

]
},
"comments" : [

],
"origin" : {
"source" : "template",
"name" : "notprovided",
"format" : "json",
"created" : "2020-09-08T15:38:46.461-0500",
"rawdata" : [

]
},
"version" : "6",
"entities" : [
{
"name" : "OTSROOT",
"assigned" : "2020-09-08T15:38:46.461-0500"
}
],
"configurations" : [
{
"name" : "notprovided",
"assigned" : "2020-09-08T15:38:46.461-0500"
},
{
"name" : "GroupAliasTreeEditWizBackbone_v6",
"assigned" : "2020-09-08T15:38:46.824-0500"
}
],
"changelog" : "notprovided",
"bookkeeping" : {
"isdeleted" : false,
"isreadonly" : false,
"updates" : [
{
"event" : "addConfiguration",
"timestamp" : "2020-09-08T15:38:46.461-0500",
"value" : {
"name" : "notprovided",
"assigned" : "2020-09-08T15:38:46.461-0500"
}
},
{
"event" : "setVersion",
"timestamp" : "2020-09-08T15:38:46.461-0500",
"value" : {
"name" : "6",
"assigned" : "2020-09-08T15:38:46.461-0500"
}
},
{
"event" : "setCollection",
"timestamp" : "2020-09-08T15:38:46.461-0500",
"value" : {
"name" : "GroupAliasesTable",
"assigned" : "2020-09-08T15:38:46.461-0500"
}
},
{
"event" : "addEntity",
"timestamp" : "2020-09-08T15:38:46.461-0500",
"value" : {
"name" : "OTSROOT",
"assigned" : "2020-09-08T15:38:46.461-0500"
}
},
{
"event" : "addConfiguration",
"timestamp" : "2020-09-08T15:38:46.824-0500",
"value" : {
"name" : "GroupAliasTreeEditWizBackbone_v6",
"assigned" : "2020-09-08T15:38:46.824-0500"
}
}
],
"created" : "2020-09-08T15:38:46.461-0500"
},
"_id" : {
"$oid" : "8675256cbb94483095badcaf"
},
"collection" : "GroupAliasesTable",
"aliases" : {
"active" : [

],
"history" : [

]
},
"runs" : [

],
"attachments" : [

],
"configtype" : "notprovided"
}