{
"document" : {
"data" : {
"NAME" : "DQM_HISTOS_CONSUMER_CONFIGURATION",
"COMMENT" : "DQM for Outer tracker",
"AUTHOR" : "admin",
"CREATION_TIME" : 1499460034,
"COL_TYPES" : {
"PROCESSOR_ID" : "VARCHAR2",
"STATUS" : "VARCHAR2",
"CONNECTION_FILE" : "VARCHAR2",
"SAVE_DQM_FILE" : "VARCHAR2",
"DQM_FILE_PATH" : "VARCHAR2",
"DQM_FILE_NAME_PREFIX" : "VARCHAR2",
"COMMENT_DESCRIPTION" : "VARCHAR2",
"AUTHOR" : "VARCHAR2",
"RECORD_INSERTION_TIME" : "TIMESTAMP WITH TIMEZONE"
},
"DATA_SET" : [
{
"PROCESSOR_ID" : "DQMHistosVisualizer0",
"STATUS" : "On",
"CONNECTION_FILE" : "${OTSDAQ_CMSOUTERTRACKER_DIR}/otsdaq-cmsoutertracker/Ph2_ACF/settings/D19CHWDescription.xml",
"SAVE_DQM_FILE" : "Yes",
"DQM_FILE_PATH" : "/home/daq1.1/Workshop/otsdaq_data/DQM",
"DQM_FILE_NAME_PREFIX" : "DQMHistosRun",
"COMMENT_DESCRIPTION" : "No Comment",
"AUTHOR" : "admin",
"RECORD_INSERTION_TIME" : "1499460034"
}
]
},
"metadata" : {

},
"search" : [

]
},
"comments" : [

],
"origin" : {
"source" : "template",
"name" : "notprovided",
"format" : "json",
"created" : "Fri Jul 07 22:54:21 2017",
"rawdata" : [

]
},
"version" : "2",
"entities" : [
{
"name" : "OTSROOT",
"assigned" : "Fri Jul 07 22:54:21 2017"
}
],
"configurations" : [
{
"name" : "notprovided",
"assigned" : "Fri Jul 07 22:54:21 2017"
},
{
"name" : "OTMiniModuleConfiguration_v2",
"assigned" : "Fri Jul 07 22:54:21 2017"
}
],
"changelog" : "notprovided",
"bookkeeping" : {
"isdeleted" : false,
"isreadonly" : false,
"updates" : [
{
"event" : "addConfiguration",
"timestamp" : "Fri Jul 07 22:54:21 2017",
"value" : {
"name" : "notprovided",
"assigned" : "Fri Jul 07 22:54:21 2017"
}
},
{
"event" : "setVersion",
"timestamp" : "Fri Jul 07 22:54:21 2017",
"value" : {
"name" : "2",
"assigned" : "Fri Jul 07 22:54:21 2017"
}
},
{
"event" : "setCollection",
"timestamp" : "Fri Jul 07 22:54:21 2017",
"value" : {
"name" : "DQMHistosConsumerConfiguration",
"assigned" : "Fri Jul 07 22:54:21 2017"
}
},
{
"event" : "addEntity",
"timestamp" : "Fri Jul 07 22:54:21 2017",
"value" : {
"name" : "OTSROOT",
"assigned" : "Fri Jul 07 22:54:21 2017"
}
},
{
"event" : "addConfiguration",
"timestamp" : "Fri Jul 07 22:54:21 2017",
"value" : {
"name" : "OTMiniModuleConfiguration_v2",
"assigned" : "Fri Jul 07 22:54:21 2017"
}
}
],
"created" : "Fri Jul 07 22:54:21 2017"
},
"_id" : {
"$oid" : "ae140b0fac7a48039b7a0600"
},
"collection" : "DQMHistosConsumerConfiguration",
"aliases" : {
"active" : [

],
"history" : [

]
},
"runs" : [

],
"attachments" : [

],
"configtype" : "notprovided"
}