{
"ouid" : [
"2ac25a46acf745d6b6977a8e",
"2c2a51b5eaaf4ac2a8169c08",
"87f9b464d84543248f606450",
"ae5d31c7409e47508bc1474e",
"cf01ec36a9b64774a75f8ab4"
],
"version" : {
"2" : [
"ae5d31c7409e47508bc1474e"
],
"3" : [
"cf01ec36a9b64774a75f8ab4"
],
"4" : [
"2ac25a46acf745d6b6977a8e"
],
"5" : [
"87f9b464d84543248f606450"
],
"6" : [
"2c2a51b5eaaf4ac2a8169c08"
]
},
"configurations.name" : {
"notprovided" : [
"2ac25a46acf745d6b6977a8e",
"2c2a51b5eaaf4ac2a8169c08",
"87f9b464d84543248f606450",
"ae5d31c7409e47508bc1474e",
"cf01ec36a9b64774a75f8ab4"
],
"DefaultContext_v2" : [
"ae5d31c7409e47508bc1474e"
],
"DefaultContext_v3" : [
"ae5d31c7409e47508bc1474e"
],
"DefaultContext_v4" : [
"ae5d31c7409e47508bc1474e"
],
"DefaultContext_v5" : [
"ae5d31c7409e47508bc1474e"
],
"DefaultContext_v6" : [
"ae5d31c7409e47508bc1474e"
],
"DefaultContext_v7" : [
"ae5d31c7409e47508bc1474e"
],
"DefaultContext_v8" : [
"ae5d31c7409e47508bc1474e"
],
"DefaultContext_v9" : [
"ae5d31c7409e47508bc1474e"
],
"DefaultContext_v10" : [
"ae5d31c7409e47508bc1474e"
],
"DefaultContext_v11" : [
"ae5d31c7409e47508bc1474e"
],
"DefaultContext_v12" : [
"ae5d31c7409e47508bc1474e"
],
"DefaultContext_v13" : [
"ae5d31c7409e47508bc1474e"
],
"DefaultContext_v14" : [
"ae5d31c7409e47508bc1474e"
],
"DefaultContext_v15" : [
"ae5d31c7409e47508bc1474e"
],
"DefaultContext_v16" : [
"ae5d31c7409e47508bc1474e"
],
"DefaultContext_v17" : [
"ae5d31c7409e47508bc1474e"
],
"DefaultContext_v18" : [
"ae5d31c7409e47508bc1474e"
],
"DefaultContext_v19" : [
"ae5d31c7409e47508bc1474e"
],
"DefaultContext_v20" : [
"cf01ec36a9b64774a75f8ab4"
],
"DefaultContext_v21" : [
"cf01ec36a9b64774a75f8ab4"
],
"DefaultContext_v22" : [
"cf01ec36a9b64774a75f8ab4"
],
"DefaultContext_v23" : [
"cf01ec36a9b64774a75f8ab4"
],
"DefaultContext_v24" : [
"cf01ec36a9b64774a75f8ab4"
],
"DefaultContext_v25" : [
"cf01ec36a9b64774a75f8ab4"
],
"DefaultContext_v26" : [
"2ac25a46acf745d6b6977a8e"
],
"DefaultContext_v27" : [
"87f9b464d84543248f606450"
],
"DefaultContext_v28" : [
"2c2a51b5eaaf4ac2a8169c08"
],
"DefaultContext_v29" : [
"2c2a51b5eaaf4ac2a8169c08"
]
},
"entities.name" : {
"OTSROOT" : [
"2ac25a46acf745d6b6977a8e",
"2c2a51b5eaaf4ac2a8169c08",
"87f9b464d84543248f606450",
"ae5d31c7409e47508bc1474e",
"cf01ec36a9b64774a75f8ab4"
]
},
"aliases.active.name" : {

},
"runs.name" : {

},
"configurations.assigned" : {
"notprovided" : [
"2019-02-22T16:11:43.308-0600",
"2021-04-29T12:39:19.833-0500",
"2021-05-25T12:01:03.846-0500",
"2021-05-25T12:57:25.422-0500",
"2021-05-25T13:06:02.367-0500"
],
"DefaultContext_v2" : [
"2019-02-22T16:11:43.517-0600"
],
"DefaultContext_v3" : [
"2019-07-23T09:05:25.557-0500"
],
"DefaultContext_v4" : [
"2019-11-19T16:07:21.703-0600"
],
"DefaultContext_v5" : [
"2019-11-20T14:24:12.649-0600"
],
"DefaultContext_v6" : [
"2019-11-20T14:39:27.504-0600"
],
"DefaultContext_v7" : [
"2019-11-20T15:26:58.535-0600"
],
"DefaultContext_v8" : [
"2019-11-20T15:27:24.572-0600"
],
"DefaultContext_v9" : [
"2019-11-20T15:28:33.756-0600"
],
"DefaultContext_v10" : [
"2019-11-20T15:56:57.809-0600"
],
"DefaultContext_v11" : [
"2019-11-20T16:00:09.205-0600"
],
"DefaultContext_v12" : [
"2019-12-05T17:52:36.328-0600"
],
"DefaultContext_v13" : [
"2019-12-06T09:54:12.673-0600"
],
"DefaultContext_v14" : [
"2019-12-09T11:56:59.462-0600"
],
"DefaultContext_v15" : [
"2019-12-13T13:20:55.634-0600"
],
"DefaultContext_v16" : [
"2021-04-29T11:04:33.158-0500"
],
"DefaultContext_v17" : [
"2021-04-29T12:14:45.807-0500"
],
"DefaultContext_v18" : [
"2021-04-29T12:25:33.311-0500"
],
"DefaultContext_v19" : [
"2021-04-29T12:25:52.785-0500"
],
"DefaultContext_v20" : [
"2021-04-29T12:40:04.066-0500"
],
"DefaultContext_v21" : [
"2021-04-29T13:20:40.289-0500"
],
"DefaultContext_v22" : [
"2021-05-10T11:39:30.161-0500"
],
"DefaultContext_v23" : [
"2021-05-12T15:51:58.281-0500"
],
"DefaultContext_v24" : [
"2021-05-14T15:34:26.040-0500"
],
"DefaultContext_v25" : [
"2021-05-14T16:41:02.711-0500"
],
"DefaultContext_v26" : [
"2021-05-25T12:01:04.897-0500"
],
"DefaultContext_v27" : [
"2021-05-25T12:57:26.488-0500"
],
"DefaultContext_v28" : [
"2021-05-25T13:06:03.346-0500"
],
"DefaultContext_v29" : [
"2021-05-25T13:51:13.276-0500"
]
}
}