{
"document" : {
"data" : {
"NAME" : "DESKTOP_WINDOW_PARAMETER_TABLE",
"COMMENT" : "GET parameters for FE Sub-config window added.",
"AUTHOR" : "admin",
"CREATION_TIME" : 1505234288,
"COL_TYPES" : {
"WINDOW_PARAMETER_GROUP_ID" : "STRING",
"WINDOW_PARAMETER_UID" : "STRING",
"ENABLED" : "STRING",
"WINDOW_PARAMETER_KEY" : "STRING",
"WINDOW_PARAMETER_VALUE" : "STRING",
"COMMENT_DESCRIPTION" : "STRING",
"AUTHOR" : "STRING",
"RECORD_INSERTION_TIME" : "TIMESTAMP WITH TIMEZONE"
},
"DATA_SET" : [
{
"WINDOW_PARAMETER_GROUP_ID" : "FE_Cfg_params",
"WINDOW_PARAMETER_UID" : "FE_Cfg_param0",
"ENABLED" : "True",
"WINDOW_PARAMETER_KEY" : "subsetBasePath",
"WINDOW_PARAMETER_VALUE" : "FEInterfaceTable",
"COMMENT_DESCRIPTION" : "The records in this table are the targets for this config subset.",
"AUTHOR" : "admin",
"RECORD_INSERTION_TIME" : "1492613231"
},
{
"WINDOW_PARAMETER_GROUP_ID" : "FE_Cfg_params",
"WINDOW_PARAMETER_UID" : "FE_Cfg_param1",
"ENABLED" : "True",
"WINDOW_PARAMETER_KEY" : "groupingFieldList",
"WINDOW_PARAMETER_VALUE" : "Status,FEInterfacePluginName",
"COMMENT_DESCRIPTION" : "CSV fields (tree paths relative to base table record) by which the records will be grouped. The user can also filter the records by these fields.",
"AUTHOR" : "admin",
"RECORD_INSERTION_TIME" : "1499445617"
},
{
"WINDOW_PARAMETER_GROUP_ID" : "FE_Cfg_params",
"WINDOW_PARAMETER_UID" : "FE_Cfg_param2",
"ENABLED" : "True",
"WINDOW_PARAMETER_KEY" : "recordAlias",
"WINDOW_PARAMETER_VALUE" : "Front-ends",
"COMMENT_DESCRIPTION" : "Alias (plural) for targeted records.",
"AUTHOR" : "admin",
"RECORD_INSERTION_TIME" : "1499376316"
},
{
"WINDOW_PARAMETER_GROUP_ID" : "FE_Cfg_params | DP_Cfg_params",
"WINDOW_PARAMETER_UID" : "Shared_Cfg_param0",
"ENABLED" : "True",
"WINDOW_PARAMETER_KEY" : "editableFieldList",
"WINDOW_PARAMETER_VALUE" : "!*CommentDescription,!SlowControls*",
"COMMENT_DESCRIPTION" : "No Comment",
"AUTHOR" : "admin",
"RECORD_INSERTION_TIME" : "1499443011"
},
{
"WINDOW_PARAMETER_GROUP_ID" : "DP_Cfg_params",
"WINDOW_PARAMETER_UID" : "DP_Cfg_param0",
"ENABLED" : "True",
"WINDOW_PARAMETER_KEY" : "subsetBasePath",
"WINDOW_PARAMETER_VALUE" : "DataBufferTable",
"COMMENT_DESCRIPTION" : "The records in this table are the targets for this config subset.",
"AUTHOR" : "admin",
"RECORD_INSERTION_TIME" : "1499437924"
},
{
"WINDOW_PARAMETER_GROUP_ID" : "DP_Cfg_params",
"WINDOW_PARAMETER_UID" : "DP_Cfg_param1",
"ENABLED" : "True",
"WINDOW_PARAMETER_KEY" : "groupingFieldList",
"WINDOW_PARAMETER_VALUE" : "Status,ProcessorType,ProcessorPluginName",
"COMMENT_DESCRIPTION" : "CSV fields (tree paths relative to base table record) by which the records will be grouped. The user can also filter the records by these fields.",
"AUTHOR" : "admin",
"RECORD_INSERTION_TIME" : "1499445762"
},
{
"WINDOW_PARAMETER_GROUP_ID" : "DP_Cfg_params",
"WINDOW_PARAMETER_UID" : "DP_Cfg_param2",
"ENABLED" : "True",
"WINDOW_PARAMETER_KEY" : "recordAlias",
"WINDOW_PARAMETER_VALUE" : "Data Processors",
"COMMENT_DESCRIPTION" : "Alias (plural) for targeted records.",
"AUTHOR" : "admin",
"RECORD_INSERTION_TIME" : "1499437924"
}
]
},
"metadata" : {

},
"search" : [

]
},
"comments" : [

],
"origin" : {
"source" : "template",
"name" : "notprovided",
"format" : "json",
"created" : "2020-07-21T14:27:47.242-0500",
"rawdata" : [

]
},
"version" : "2",
"entities" : [
{
"name" : "OTSROOT",
"assigned" : "2020-07-21T14:27:47.243-0500"
}
],
"configurations" : [
{
"name" : "notprovided",
"assigned" : "2020-07-21T14:27:47.243-0500"
},
{
"name" : "DefaultContext_v2",
"assigned" : "2020-07-21T14:27:47.651-0500"
},
{
"name" : "DefaultContext_v3",
"assigned" : "2020-07-21T14:42:50.370-0500"
},
{
"name" : "DefaultContext_v4",
"assigned" : "2020-07-21T14:46:44.249-0500"
},
{
"name" : "DefaultContext_v5",
"assigned" : "2020-07-21T14:51:16.530-0500"
},
{
"name" : "DefaultContext_v6",
"assigned" : "2020-07-21T14:55:16.855-0500"
},
{
"name" : "DefaultContext_v7",
"assigned" : "2020-07-21T14:55:56.861-0500"
},
{
"name" : "DefaultContext_v8",
"assigned" : "2020-07-21T15:50:01.208-0500"
},
{
"name" : "DefaultContext_v9",
"assigned" : "2020-09-09T19:38:00.670+0200"
},
{
"name" : "DefaultContext_v10",
"assigned" : "2020-09-11T17:53:13.311+0200"
}
],
"changelog" : "notprovided",
"bookkeeping" : {
"isdeleted" : false,
"isreadonly" : false,
"updates" : [
{
"event" : "addConfiguration",
"timestamp" : "2020-07-21T14:27:47.243-0500",
"value" : {
"name" : "notprovided",
"assigned" : "2020-07-21T14:27:47.243-0500"
}
},
{
"event" : "setVersion",
"timestamp" : "2020-07-21T14:27:47.243-0500",
"value" : {
"name" : "2",
"assigned" : "2020-07-21T14:27:47.243-0500"
}
},
{
"event" : "setCollection",
"timestamp" : "2020-07-21T14:27:47.243-0500",
"value" : {
"name" : "DesktopWindowParameterTable",
"assigned" : "2020-07-21T14:27:47.243-0500"
}
},
{
"event" : "addEntity",
"timestamp" : "2020-07-21T14:27:47.243-0500",
"value" : {
"name" : "OTSROOT",
"assigned" : "2020-07-21T14:27:47.243-0500"
}
},
{
"event" : "addConfiguration",
"timestamp" : "2020-07-21T14:27:47.651-0500",
"value" : {
"name" : "DefaultContext_v2",
"assigned" : "2020-07-21T14:27:47.651-0500"
}
},
{
"event" : "addConfiguration",
"timestamp" : "2020-07-21T14:42:50.370-0500",
"value" : {
"name" : "DefaultContext_v3",
"assigned" : "2020-07-21T14:42:50.370-0500"
}
},
{
"event" : "addConfiguration",
"timestamp" : "2020-07-21T14:46:44.249-0500",
"value" : {
"name" : "DefaultContext_v4",
"assigned" : "2020-07-21T14:46:44.249-0500"
}
},
{
"event" : "addConfiguration",
"timestamp" : "2020-07-21T14:51:16.530-0500",
"value" : {
"name" : "DefaultContext_v5",
"assigned" : "2020-07-21T14:51:16.530-0500"
}
},
{
"event" : "addConfiguration",
"timestamp" : "2020-07-21T14:55:16.855-0500",
"value" : {
"name" : "DefaultContext_v6",
"assigned" : "2020-07-21T14:55:16.855-0500"
}
},
{
"event" : "addConfiguration",
"timestamp" : "2020-07-21T14:55:56.861-0500",
"value" : {
"name" : "DefaultContext_v7",
"assigned" : "2020-07-21T14:55:56.861-0500"
}
},
{
"event" : "addConfiguration",
"timestamp" : "2020-07-21T15:50:01.208-0500",
"value" : {
"name" : "DefaultContext_v8",
"assigned" : "2020-07-21T15:50:01.208-0500"
}
},
{
"event" : "addConfiguration",
"timestamp" : "2020-09-09T19:38:00.670+0200",
"value" : {
"name" : "DefaultContext_v9",
"assigned" : "2020-09-09T19:38:00.670+0200"
}
},
{
"event" : "addConfiguration",
"timestamp" : "2020-09-11T17:53:13.311+0200",
"value" : {
"name" : "DefaultContext_v10",
"assigned" : "2020-09-11T17:53:13.311+0200"
}
}
],
"created" : "2020-07-21T14:27:47.242-0500"
},
"_id" : {
"$oid" : "36df9777945b422398b4847d"
},
"collection" : "DesktopWindowParameterTable",
"aliases" : {
"active" : [

],
"history" : [

]
},
"runs" : [

],
"attachments" : [

],
"configtype" : "notprovided"
}