{
"document" : {
"data" : {
"NAME" : "CMS_TRACKER_DETECTOR_TABLE",
"COMMENT" : "No comment.",
"AUTHOR" : "admin",
"CREATION_TIME" : 1600201045,
"COL_TYPES" : {
"DETECTOR_UID" : "STRING",
"STATUS" : "STRING",
"COMMENT_DESCRIPTION" : "STRING",
"AUTHOR" : "STRING",
"RECORD_INSERTION_TIME" : "TIMESTAMP WITH TIMEZONE"
},
"DATA_SET" : [
{
"DETECTOR_UID" : "Module1",
"STATUS" : "On",
"COMMENT_DESCRIPTION" : "DEFAULT",
"AUTHOR" : "admin",
"RECORD_INSERTION_TIME" : "1600201045"
}
]
},
"metadata" : {

},
"search" : [

]
},
"comments" : [

],
"origin" : {
"source" : "template",
"name" : "notprovided",
"format" : "json",
"created" : "2020-09-15T15:17:25.915-0500",
"rawdata" : [

]
},
"version" : "0",
"entities" : [
{
"name" : "OTSROOT",
"assigned" : "2020-09-15T15:17:25.915-0500"
}
],
"configurations" : [
{
"name" : "notprovided",
"assigned" : "2020-09-15T15:17:25.915-0500"
},
{
"name" : "DefaultConfig_v22",
"assigned" : "2020-09-15T15:18:53.988-0500"
}
],
"changelog" : "notprovided",
"bookkeeping" : {
"isdeleted" : false,
"isreadonly" : false,
"updates" : [
{
"event" : "addConfiguration",
"timestamp" : "2020-09-15T15:17:25.915-0500",
"value" : {
"name" : "notprovided",
"assigned" : "2020-09-15T15:17:25.915-0500"
}
},
{
"event" : "setVersion",
"timestamp" : "2020-09-15T15:17:25.915-0500",
"value" : {
"name" : "0",
"assigned" : "2020-09-15T15:17:25.915-0500"
}
},
{
"event" : "setCollection",
"timestamp" : "2020-09-15T15:17:25.915-0500",
"value" : {
"name" : "CMSTrackerDetectorTable",
"assigned" : "2020-09-15T15:17:25.915-0500"
}
},
{
"event" : "addEntity",
"timestamp" : "2020-09-15T15:17:25.915-0500",
"value" : {
"name" : "OTSROOT",
"assigned" : "2020-09-15T15:17:25.915-0500"
}
},
{
"event" : "addConfiguration",
"timestamp" : "2020-09-15T15:18:53.988-0500",
"value" : {
"name" : "DefaultConfig_v22",
"assigned" : "2020-09-15T15:18:53.988-0500"
}
}
],
"created" : "2020-09-15T15:17:25.915-0500"
},
"_id" : {
"$oid" : "0a1693c8b47a4ed2aecce7f0"
},
"collection" : "CMSTrackerDetectorTable",
"aliases" : {
"active" : [

],
"history" : [

]
},
"runs" : [

],
"attachments" : [

],
"configtype" : "notprovided"
}