{
"ouid" : [
"0a1693c8b47a4ed2aecce7f0",
"6ff00e7158fd4c6688deb9d1"
],
"version" : {
"0" : [
"0a1693c8b47a4ed2aecce7f0"
],
"1" : [
"6ff00e7158fd4c6688deb9d1"
]
},
"configurations.name" : {
"notprovided" : [
"0a1693c8b47a4ed2aecce7f0",
"6ff00e7158fd4c6688deb9d1"
],
"DefaultConfig_v22" : [
"0a1693c8b47a4ed2aecce7f0"
],
"DefaultConfig_v23" : [
"6ff00e7158fd4c6688deb9d1"
]
},
"entities.name" : {
"OTSROOT" : [
"0a1693c8b47a4ed2aecce7f0",
"6ff00e7158fd4c6688deb9d1"
]
},
"aliases.active.name" : {

},
"runs.name" : {

},
"configurations.assigned" : {
"notprovided" : [
"2020-09-15T15:17:25.915-0500",
"2020-09-15T15:21:20.772-0500"
],
"DefaultConfig_v22" : [
"2020-09-15T15:18:53.988-0500"
],
"DefaultConfig_v23" : [
"2020-09-15T15:27:50.892-0500"
]
}
}