{
"ouid" : [
"34248a8729614606968e6429"
],
"version" : {
"1" : [
"34248a8729614606968e6429"
]
},
"configurations.name" : {
"notprovided" : [
"34248a8729614606968e6429"
],
"DefaultContext_v1" : [
"34248a8729614606968e6429"
],
"DefaultContext_v2" : [
"34248a8729614606968e6429"
],
"DefaultContext_v3" : [
"34248a8729614606968e6429"
]
},
"entities.name" : {
"OTSROOT" : [
"34248a8729614606968e6429"
]
},
"aliases.active.name" : {

},
"runs.name" : {

},
"configurations.assigned" : {
"notprovided" : [
"2020-09-08T15:08:31.183-0500"
],
"DefaultContext_v1" : [
"2020-09-08T15:08:31.568-0500"
],
"DefaultContext_v2" : [
"2020-09-08T15:11:11.080-0500"
],
"DefaultContext_v3" : [
"2020-09-08T15:38:45.634-0500"
]
}
}