{
"ouid" : [
"fcd4d6849b1e4725bf14edcc"
],
"version" : {
"2" : [
"fcd4d6849b1e4725bf14edcc"
]
},
"configurations.name" : {
"notprovided" : [
"fcd4d6849b1e4725bf14edcc"
],
"DefaultContext_v2" : [
"fcd4d6849b1e4725bf14edcc"
],
"DefaultContext_v3" : [
"fcd4d6849b1e4725bf14edcc"
],
"DefaultContext_v4" : [
"fcd4d6849b1e4725bf14edcc"
],
"DefaultContext_v5" : [
"fcd4d6849b1e4725bf14edcc"
],
"DefaultContext_v6" : [
"fcd4d6849b1e4725bf14edcc"
],
"DefaultContext_v7" : [
"fcd4d6849b1e4725bf14edcc"
],
"DefaultContext_v8" : [
"fcd4d6849b1e4725bf14edcc"
]
},
"entities.name" : {
"OTSROOT" : [
"fcd4d6849b1e4725bf14edcc"
]
},
"aliases.active.name" : {

},
"runs.name" : {

},
"configurations.assigned" : {
"notprovided" : [
"2020-07-21T14:27:47.394-0500"
],
"DefaultContext_v2" : [
"2020-07-21T14:27:47.775-0500"
],
"DefaultContext_v3" : [
"2020-07-21T14:42:50.536-0500"
],
"DefaultContext_v4" : [
"2020-07-21T14:46:44.421-0500"
],
"DefaultContext_v5" : [
"2020-07-21T14:51:16.687-0500"
],
"DefaultContext_v6" : [
"2020-07-21T14:55:17.014-0500"
],
"DefaultContext_v7" : [
"2020-07-21T14:55:57.025-0500"
],
"DefaultContext_v8" : [
"2020-07-21T15:50:01.389-0500"
]
}
}