{
"ouid" : [
"0350a93fcfab49059afc57bb",
"050462f800464f25b3b70278",
"255f8c12cbb44985b86cd45e",
"447cd5e1c4ef41b683f3cec5",
"65fdd9d40959471c9763ba7f",
"6ad43aab3eb448f69e371630",
"752f86e57d834395a010d919",
"9c19daf5145b4baf9c10f674",
"b2f6e952e5e649d9afc21065",
"fb594eb27fb4411f8df1d4eb"
],
"version" : {
"2" : [
"b2f6e952e5e649d9afc21065"
],
"3" : [
"447cd5e1c4ef41b683f3cec5"
],
"4" : [
"6ad43aab3eb448f69e371630"
],
"5" : [
"fb594eb27fb4411f8df1d4eb"
],
"6" : [
"050462f800464f25b3b70278"
],
"7" : [
"65fdd9d40959471c9763ba7f"
],
"8" : [
"0350a93fcfab49059afc57bb"
],
"9" : [
"255f8c12cbb44985b86cd45e"
],
"10" : [
"9c19daf5145b4baf9c10f674"
],
"11" : [
"752f86e57d834395a010d919"
]
},
"configurations.name" : {
"notprovided" : [
"0350a93fcfab49059afc57bb",
"050462f800464f25b3b70278",
"255f8c12cbb44985b86cd45e",
"447cd5e1c4ef41b683f3cec5",
"65fdd9d40959471c9763ba7f",
"6ad43aab3eb448f69e371630",
"752f86e57d834395a010d919",
"9c19daf5145b4baf9c10f674",
"b2f6e952e5e649d9afc21065",
"fb594eb27fb4411f8df1d4eb"
],
"DefaultContext_v2" : [
"b2f6e952e5e649d9afc21065"
],
"DefaultContext_v3" : [
"447cd5e1c4ef41b683f3cec5"
],
"DefaultContext_v4" : [
"447cd5e1c4ef41b683f3cec5"
],
"DefaultContext_v5" : [
"fb594eb27fb4411f8df1d4eb"
],
"DefaultContext_v6" : [
"050462f800464f25b3b70278"
],
"DefaultContext_v7" : [
"65fdd9d40959471c9763ba7f"
],
"DefaultContext_v8" : [
"0350a93fcfab49059afc57bb"
],
"DefaultContext_v9" : [
"0350a93fcfab49059afc57bb"
],
"DefaultContext_v10" : [
"0350a93fcfab49059afc57bb"
],
"DefaultContext_v11" : [
"255f8c12cbb44985b86cd45e"
],
"DefaultContext_v12" : [
"0350a93fcfab49059afc57bb"
],
"DefaultContext_v13" : [
"9c19daf5145b4baf9c10f674"
],
"DefaultContext_v14" : [
"752f86e57d834395a010d919"
],
"DefaultContext_v15" : [
"9c19daf5145b4baf9c10f674"
]
},
"entities.name" : {
"OTSROOT" : [
"0350a93fcfab49059afc57bb",
"050462f800464f25b3b70278",
"255f8c12cbb44985b86cd45e",
"447cd5e1c4ef41b683f3cec5",
"65fdd9d40959471c9763ba7f",
"6ad43aab3eb448f69e371630",
"752f86e57d834395a010d919",
"9c19daf5145b4baf9c10f674",
"b2f6e952e5e649d9afc21065",
"fb594eb27fb4411f8df1d4eb"
]
},
"aliases.active.name" : {

},
"runs.name" : {

},
"configurations.assigned" : {
"notprovided" : [
"2019-02-22T16:11:43.363-0600",
"2019-07-23T09:05:25.010-0500",
"2019-11-20T14:20:26.795-0600",
"2019-11-20T14:23:23.464-0600",
"2019-11-20T14:39:26.986-0600",
"2019-11-20T15:26:57.940-0600",
"2019-11-20T15:27:23.955-0600",
"2019-11-20T16:00:08.441-0600",
"2019-12-06T09:54:11.957-0600",
"2019-12-09T11:56:58.598-0600"
],
"DefaultContext_v2" : [
"2019-02-22T16:11:43.578-0600"
],
"DefaultContext_v3" : [
"2019-07-23T09:05:25.678-0500"
],
"DefaultContext_v4" : [
"2019-11-19T16:07:21.822-0600"
],
"DefaultContext_v5" : [
"2019-11-20T14:24:12.776-0600"
],
"DefaultContext_v6" : [
"2019-11-20T14:39:27.629-0600"
],
"DefaultContext_v7" : [
"2019-11-20T15:26:58.660-0600"
],
"DefaultContext_v8" : [
"2019-11-20T15:27:24.694-0600"
],
"DefaultContext_v9" : [
"2019-11-20T15:28:33.877-0600"
],
"DefaultContext_v10" : [
"2019-11-20T15:56:57.944-0600"
],
"DefaultContext_v11" : [
"2019-11-20T16:00:09.338-0600"
],
"DefaultContext_v12" : [
"2019-12-05T17:52:36.423-0600"
],
"DefaultContext_v13" : [
"2019-12-06T09:54:12.800-0600"
],
"DefaultContext_v14" : [
"2019-12-09T11:56:59.583-0600"
],
"DefaultContext_v15" : [
"2019-12-13T13:20:56.668-0600"
]
}
}