{
"ouid" : [
"6c4cdfaba3ae4db6a67fa732"
],
"version" : {
"0" : [
"6c4cdfaba3ae4db6a67fa732"
]
},
"configurations.name" : {
"notprovided" : [
"6c4cdfaba3ae4db6a67fa732"
],
"DefaultConfig_v0" : [
"6c4cdfaba3ae4db6a67fa732"
],
"DefaultConfig_v1" : [
"6c4cdfaba3ae4db6a67fa732"
],
"DefaultConfig_v2" : [
"6c4cdfaba3ae4db6a67fa732"
],
"DefaultConfig_v3" : [
"6c4cdfaba3ae4db6a67fa732"
]
},
"entities.name" : {
"OTSROOT" : [
"6c4cdfaba3ae4db6a67fa732"
]
},
"aliases.active.name" : {

},
"runs.name" : {

},
"configurations.assigned" : {
"notprovided" : [
"2020-09-08T15:08:30.201-0500"
],
"DefaultConfig_v0" : [
"2020-09-08T15:08:30.726-0500"
],
"DefaultConfig_v1" : [
"2020-09-08T15:38:44.751-0500"
],
"DefaultConfig_v2" : [
"2020-09-08T17:51:44.930-0500"
],
"DefaultConfig_v3" : [
"2020-09-08T17:53:11.852-0500"
]
}
}