{
"document" : {
"data" : {
"NAME" : "XDAQ_CONTEXT_CONFIGURATION",
"COMMENT" : "FTBF \"facility daq\" default context.",
"AUTHOR" : "admin",
"CREATION_TIME" : 1517648428,
"COL_TYPES" : {
"CONTEXT_UID" : "VARCHAR2",
"LINK_TO_APPLICATION_TABLE" : "VARCHAR2",
"APPLICATION_GROUP_ID" : "VARCHAR2",
"STATUS" : "VARCHAR2",
"ID" : "NUMBER",
"ADDRESS" : "VARCHAR2",
"PORT" : "NUMBER",
"ARTDAQ_DATA_PORT" : "NUMBER",
"COMMENT_DESCRIPTION" : "VARCHAR2",
"AUTHOR" : "VARCHAR2",
"RECORD_INSERTION_TIME" : "TIMESTAMP WITH TIMEZONE"
},
"DATA_SET" : [
{
"CONTEXT_UID" : "MainContext",
"LINK_TO_APPLICATION_TABLE" : "XDAQApplicationConfiguration",
"APPLICATION_GROUP_ID" : "MainContextApps",
"STATUS" : "On",
"ID" : "0",
"ADDRESS" : "http://ftbftracker02.fnal.gov",
"PORT" : "2015",
"ARTDAQ_DATA_PORT" : "0",
"COMMENT_DESCRIPTION" : "main context",
"AUTHOR" : "admin",
"RECORD_INSERTION_TIME" : "1512169810"
},
{
"CONTEXT_UID" : "WireChamberContext",
"LINK_TO_APPLICATION_TABLE" : "XDAQApplicationConfiguration",
"APPLICATION_GROUP_ID" : "WireChamberContextApps",
"STATUS" : "Off",
"ID" : "0",
"ADDRESS" : "http://ftbf-daq-08.fnal.gov",
"PORT" : "2016",
"ARTDAQ_DATA_PORT" : "0",
"COMMENT_DESCRIPTION" : "No Comment",
"AUTHOR" : "rrivera",
"RECORD_INSERTION_TIME" : "1510076402"
},
{
"CONTEXT_UID" : "StripTelescopeContext",
"LINK_TO_APPLICATION_TABLE" : "XDAQApplicationConfiguration",
"APPLICATION_GROUP_ID" : "StripTelescopeContextApps",
"STATUS" : "Off",
"ID" : "0",
"ADDRESS" : "http://ftbftracker02.fnal.gov",
"PORT" : "2017",
"ARTDAQ_DATA_PORT" : "0",
"COMMENT_DESCRIPTION" : "No Comment",
"AUTHOR" : "admin",
"RECORD_INSERTION_TIME" : "1512164012"
},
{
"CONTEXT_UID" : "NimPlusContext",
"LINK_TO_APPLICATION_TABLE" : "XDAQApplicationConfiguration",
"APPLICATION_GROUP_ID" : "NimPlusContextApps",
"STATUS" : "On",
"ID" : "0",
"ADDRESS" : "http://ftbftracker02.fnal.gov",
"PORT" : "2018",
"ARTDAQ_DATA_PORT" : "0",
"COMMENT_DESCRIPTION" : "No Comment",
"AUTHOR" : "admin",
"RECORD_INSERTION_TIME" : "1512169672"
},
{
"CONTEXT_UID" : "OuterTrackerContext",
"LINK_TO_APPLICATION_TABLE" : "XDAQApplicationConfiguration",
"APPLICATION_GROUP_ID" : "OuterTrackerContextApp",
"STATUS" : "Off",
"ID" : "0",
"ADDRESS" : "http://ftbftracker02.fnal.gov",
"PORT" : "2020",
"ARTDAQ_DATA_PORT" : "0",
"COMMENT_DESCRIPTION" : "No Comment",
"AUTHOR" : "admin",
"RECORD_INSERTION_TIME" : "1512427184"
},
{
"CONTEXT_UID" : "PixelTelescopeContext",
"LINK_TO_APPLICATION_TABLE" : "XDAQApplicationConfiguration",
"APPLICATION_GROUP_ID" : "PixelTelescopeContextApps",
"STATUS" : "Off",
"ID" : "0",
"ADDRESS" : "http://ftbftracker02.fnal.gov",
"PORT" : "2021",
"ARTDAQ_DATA_PORT" : "0",
"COMMENT_DESCRIPTION" : "No Comment",
"AUTHOR" : "admin",
"RECORD_INSERTION_TIME" : "1517648423"
},
{
"CONTEXT_UID" : "ARTDAQBoardReader0",
"LINK_TO_APPLICATION_TABLE" : "XDAQApplicationConfiguration",
"APPLICATION_GROUP_ID" : "BoardReader0Apps",
"STATUS" : "Off",
"ID" : "0",
"ADDRESS" : "http://ftbf-daq-08.fnal.gov",
"PORT" : "1984",
"ARTDAQ_DATA_PORT" : "0",
"COMMENT_DESCRIPTION" : "No Comment",
"AUTHOR" : "admin",
"RECORD_INSERTION_TIME" : "1512262243"
},
{
"CONTEXT_UID" : "ARTDAQEventBuilder0",
"LINK_TO_APPLICATION_TABLE" : "XDAQApplicationConfiguration",
"APPLICATION_GROUP_ID" : "EventBuilder0Apps",
"STATUS" : "Off",
"ID" : "0",
"ADDRESS" : "http://ftbf-daq-08.fnal.gov",
"PORT" : "1985",
"ARTDAQ_DATA_PORT" : "0",
"COMMENT_DESCRIPTION" : "No Comment",
"AUTHOR" : "admin",
"RECORD_INSERTION_TIME" : "1512262243"
},
{
"CONTEXT_UID" : "ARTDAQEventBuilder1",
"LINK_TO_APPLICATION_TABLE" : "XDAQApplicationConfiguration",
"APPLICATION_GROUP_ID" : "EventBuilder1Apps",
"STATUS" : "Off",
"ID" : "0",
"ADDRESS" : "http://ftbf-daq-07.fnal.gov",
"PORT" : "1987",
"ARTDAQ_DATA_PORT" : "0",
"COMMENT_DESCRIPTION" : "No Comment",
"AUTHOR" : "admin",
"RECORD_INSERTION_TIME" : "1512262243"
},
{
"CONTEXT_UID" : "ARTDAQAggregator0",
"LINK_TO_APPLICATION_TABLE" : "XDAQApplicationConfiguration",
"APPLICATION_GROUP_ID" : "Aggregator0Apps",
"STATUS" : "Off",
"ID" : "0",
"ADDRESS" : "http://ftbf-daq-08.fnal.gov",
"PORT" : "1986",
"ARTDAQ_DATA_PORT" : "0",
"COMMENT_DESCRIPTION" : "No Comment",
"AUTHOR" : "admin",
"RECORD_INSERTION_TIME" : "1512262243"
},
{
"CONTEXT_UID" : "ARTDAQBoardReaderStrips2",
"LINK_TO_APPLICATION_TABLE" : "XDAQApplicationConfiguration",
"APPLICATION_GROUP_ID" : "BoardReaderStrips2Apps",
"STATUS" : "Off",
"ID" : "0",
"ADDRESS" : "http://ftbftracker02.fnal.gov",
"PORT" : "2019",
"ARTDAQ_DATA_PORT" : "0",
"COMMENT_DESCRIPTION" : "No Comment",
"AUTHOR" : "admin",
"RECORD_INSERTION_TIME" : "1512262243"
},
{
"CONTEXT_UID" : "ARTDAQEventBuilderStripsOnly0",
"LINK_TO_APPLICATION_TABLE" : "XDAQApplicationConfiguration",
"APPLICATION_GROUP_ID" : "ARTDAQEventBuilderStripsOnly0Apps",
"STATUS" : "Off",
"ID" : "0",
"ADDRESS" : "http://ftbftracker02.fnal.gov",
"PORT" : "1985",
"ARTDAQ_DATA_PORT" : "0",
"COMMENT_DESCRIPTION" : "No Comment",
"AUTHOR" : "admin",
"RECORD_INSERTION_TIME" : "1512262243"
},
{
"CONTEXT_UID" : "ARTDAQAggregatorStripsOnly0",
"LINK_TO_APPLICATION_TABLE" : "XDAQApplicationConfiguration",
"APPLICATION_GROUP_ID" : "ARTDAQAggregatorStripsOnly0Apps",
"STATUS" : "Off",
"ID" : "0",
"ADDRESS" : "http://ftbftracker02.fnal.gov",
"PORT" : "1986",
"ARTDAQ_DATA_PORT" : "0",
"COMMENT_DESCRIPTION" : "No Comment",
"AUTHOR" : "admin",
"RECORD_INSERTION_TIME" : "1512262243"
}
]
},
"metadata" : {

},
"search" : [

]
},
"comments" : [

],
"origin" : {
"source" : "template",
"name" : "notprovided",
"format" : "json",
"created" : "2018-02-03T03:00:28.233-0600",
"rawdata" : [

]
},
"version" : "29",
"entities" : [
{
"name" : "OTSROOT",
"assigned" : "2018-02-03T03:00:28.238-0600"
}
],
"configurations" : [
{
"name" : "notprovided",
"assigned" : "2018-02-03T03:00:28.235-0600"
},
{
"name" : "FTBFContext_v54",
"assigned" : "2018-02-03T03:00:37.030-0600"
}
],
"changelog" : "notprovided",
"bookkeeping" : {
"isdeleted" : false,
"isreadonly" : false,
"updates" : [
{
"event" : "addConfiguration",
"timestamp" : "2018-02-03T03:00:28.235-0600",
"value" : {
"name" : "notprovided",
"assigned" : "2018-02-03T03:00:28.235-0600"
}
},
{
"event" : "setVersion",
"timestamp" : "2018-02-03T03:00:28.236-0600",
"value" : {
"name" : "29",
"assigned" : "2018-02-03T03:00:28.236-0600"
}
},
{
"event" : "setCollection",
"timestamp" : "2018-02-03T03:00:28.237-0600",
"value" : {
"name" : "XDAQContextConfiguration",
"assigned" : "2018-02-03T03:00:28.237-0600"
}
},
{
"event" : "addEntity",
"timestamp" : "2018-02-03T03:00:28.238-0600",
"value" : {
"name" : "OTSROOT",
"assigned" : "2018-02-03T03:00:28.238-0600"
}
},
{
"event" : "addConfiguration",
"timestamp" : "2018-02-03T03:00:37.030-0600",
"value" : {
"name" : "FTBFContext_v54",
"assigned" : "2018-02-03T03:00:37.030-0600"
}
}
],
"created" : "2018-02-03T03:00:28.233-0600"
},
"_id" : {
"$oid" : "331041100eb940d4824c3543"
},
"collection" : "XDAQContextConfiguration",
"aliases" : {
"active" : [

],
"history" : [

]
},
"runs" : [

],
"attachments" : [

],
"configtype" : "notprovided"
}