{
"ouid" : [
"03c9268772c1417785615ae1",
"10ae7c56fcb747caa02e1a58",
"1c469c62baf84beaa9fef0d4",
"30560ffe107641b2b1f8f0cf",
"331041100eb940d4824c3543",
"42d9739a5521426f94d6dd09",
"4f25b3b082c2492c8bfd963a",
"5239056f7cc2423a85171de4",
"55578cb942774dacac3829d5",
"772c7836fd834b5aab854f0c",
"7a5efe0572364c72a320894f",
"7ce80adf117a4956a6895383",
"7fc0d6275bef4625a7f41330",
"8da970cc18164c61bf9f40fd",
"99fadd2018084acf9571dd71",
"a01c2191f4a84094b5249f04",
"a2891aafcec7478c9b4ac00b",
"aef5d40a463244219c8b6a2b",
"b7b79b88c673475299607c5e",
"c5dd027cc67b40e18ebad7ea",
"c643245f3e964bd58df9510d",
"d70352371a074f2abc059942",
"e4b67c781a294c4cba91c048",
"e53c953aa73f4eb290b102ab",
"f1accc38704f42299dff4958",
"f438de82149f436a88115ca4",
"f684440f5a064f1cad6ec966",
"f716113edec648ad84b04031",
"fd7c273d82a544e49959caf4"
],
"version" : {
"1" : [
"7ce80adf117a4956a6895383"
],
"2" : [
"f1accc38704f42299dff4958"
],
"3" : [
"772c7836fd834b5aab854f0c"
],
"4" : [
"fd7c273d82a544e49959caf4"
],
"5" : [
"4f25b3b082c2492c8bfd963a"
],
"6" : [
"8da970cc18164c61bf9f40fd"
],
"7" : [
"aef5d40a463244219c8b6a2b"
],
"8" : [
"7a5efe0572364c72a320894f"
],
"9" : [
"f716113edec648ad84b04031"
],
"10" : [
"d70352371a074f2abc059942"
],
"11" : [
"7fc0d6275bef4625a7f41330"
],
"12" : [
"c643245f3e964bd58df9510d"
],
"13" : [
"03c9268772c1417785615ae1"
],
"14" : [
"10ae7c56fcb747caa02e1a58"
],
"15" : [
"f438de82149f436a88115ca4"
],
"16" : [
"c5dd027cc67b40e18ebad7ea"
],
"17" : [
"1c469c62baf84beaa9fef0d4"
],
"18" : [
"42d9739a5521426f94d6dd09"
],
"19" : [
"b7b79b88c673475299607c5e"
],
"20" : [
"a01c2191f4a84094b5249f04"
],
"21" : [
"99fadd2018084acf9571dd71"
],
"22" : [
"5239056f7cc2423a85171de4"
],
"23" : [
"e53c953aa73f4eb290b102ab"
],
"24" : [
"f684440f5a064f1cad6ec966"
],
"25" : [
"a2891aafcec7478c9b4ac00b"
],
"26" : [
"e4b67c781a294c4cba91c048"
],
"27" : [
"55578cb942774dacac3829d5"
],
"28" : [
"30560ffe107641b2b1f8f0cf"
],
"29" : [
"331041100eb940d4824c3543"
]
},
"configurations.name" : {
"notprovided" : [
"03c9268772c1417785615ae1",
"10ae7c56fcb747caa02e1a58",
"1c469c62baf84beaa9fef0d4",
"30560ffe107641b2b1f8f0cf",
"331041100eb940d4824c3543",
"42d9739a5521426f94d6dd09",
"4f25b3b082c2492c8bfd963a",
"5239056f7cc2423a85171de4",
"55578cb942774dacac3829d5",
"772c7836fd834b5aab854f0c",
"7a5efe0572364c72a320894f",
"7ce80adf117a4956a6895383",
"7fc0d6275bef4625a7f41330",
"8da970cc18164c61bf9f40fd",
"99fadd2018084acf9571dd71",
"a01c2191f4a84094b5249f04",
"a2891aafcec7478c9b4ac00b",
"aef5d40a463244219c8b6a2b",
"b7b79b88c673475299607c5e",
"c5dd027cc67b40e18ebad7ea",
"c643245f3e964bd58df9510d",
"d70352371a074f2abc059942",
"e4b67c781a294c4cba91c048",
"e53c953aa73f4eb290b102ab",
"f1accc38704f42299dff4958",
"f438de82149f436a88115ca4",
"f684440f5a064f1cad6ec966",
"f716113edec648ad84b04031",
"fd7c273d82a544e49959caf4"
],
"FTBFContext_v1" : [
"7ce80adf117a4956a6895383"
],
"FTBFContext_v2" : [
"f1accc38704f42299dff4958"
],
"FTBFContext_v3" : [
"772c7836fd834b5aab854f0c"
],
"FTBFContext_v4" : [
"fd7c273d82a544e49959caf4"
],
"FTBFContext_v5" : [
"4f25b3b082c2492c8bfd963a"
],
"FTBFContext_v6" : [
"8da970cc18164c61bf9f40fd"
],
"FTBFContext_v7" : [
"aef5d40a463244219c8b6a2b"
],
"FTBFContext_v8" : [
"7a5efe0572364c72a320894f"
],
"FTBFContext_v9" : [
"7a5efe0572364c72a320894f"
],
"FTBFContext_v10" : [
"7a5efe0572364c72a320894f"
],
"FTBFContext_v11" : [
"7a5efe0572364c72a320894f"
],
"FTBFContext_v12" : [
"7a5efe0572364c72a320894f"
],
"FTBFContext_v13" : [
"7a5efe0572364c72a320894f"
],
"FTBFContext_v14" : [
"7a5efe0572364c72a320894f"
],
"FTBFContext_v15" : [
"f716113edec648ad84b04031"
],
"FTBFContext_v16" : [
"d70352371a074f2abc059942"
],
"FTBFContext_v17" : [
"d70352371a074f2abc059942"
],
"FTBFContext_v18" : [
"d70352371a074f2abc059942"
],
"FTBFContext_v19" : [
"d70352371a074f2abc059942"
],
"FTBFContext_v20" : [
"d70352371a074f2abc059942"
],
"FTBFContext_v21" : [
"f438de82149f436a88115ca4"
],
"FTBFContext_v22" : [
"c5dd027cc67b40e18ebad7ea"
],
"FTBFContext_v23" : [
"c5dd027cc67b40e18ebad7ea"
],
"FTBFContext_v24" : [
"1c469c62baf84beaa9fef0d4"
],
"FTBFContext_v25" : [
"1c469c62baf84beaa9fef0d4"
],
"FTBFContext_v26" : [
"1c469c62baf84beaa9fef0d4"
],
"FTBFContext_v27" : [
"42d9739a5521426f94d6dd09"
],
"FTBFContext_v28" : [
"b7b79b88c673475299607c5e"
],
"FTBFContext_v29" : [
"b7b79b88c673475299607c5e"
],
"FTBFContext_v30" : [
"b7b79b88c673475299607c5e"
],
"FTBFContext_v31" : [
"a01c2191f4a84094b5249f04"
],
"FTBFContext_v32" : [
"a01c2191f4a84094b5249f04"
],
"FTBFContext_v33" : [
"a01c2191f4a84094b5249f04"
],
"FTBFContext_v34" : [
"a01c2191f4a84094b5249f04"
],
"FTBFContext_v35" : [
"a01c2191f4a84094b5249f04"
],
"FTBFContext_v36" : [
"99fadd2018084acf9571dd71"
],
"FTBFContext_v37" : [
"99fadd2018084acf9571dd71"
],
"FTBFContext_v39" : [
"99fadd2018084acf9571dd71"
],
"FTBFContext_v40" : [
"99fadd2018084acf9571dd71"
],
"FTBFContext_v38" : [
"5239056f7cc2423a85171de4"
],
"FTBFContext_v43" : [
"5239056f7cc2423a85171de4"
],
"FTBFContext_v41" : [
"e53c953aa73f4eb290b102ab"
],
"FTBFContext_v42" : [
"e53c953aa73f4eb290b102ab"
],
"FTBFContext_v44" : [
"f684440f5a064f1cad6ec966"
],
"FTBFContext_v45" : [
"a2891aafcec7478c9b4ac00b"
],
"FTBFContext_v46" : [
"a2891aafcec7478c9b4ac00b"
],
"FTBFContext_v47" : [
"a2891aafcec7478c9b4ac00b"
],
"FTBFContext_v48" : [
"a2891aafcec7478c9b4ac00b"
],
"FTBFContext_v49" : [
"a2891aafcec7478c9b4ac00b"
],
"FTBFContext_v50" : [
"e4b67c781a294c4cba91c048"
],
"FTBFContext_v51" : [
"e4b67c781a294c4cba91c048"
],
"FTBFContext_v52" : [
"55578cb942774dacac3829d5"
],
"FTBFContext_v53" : [
"30560ffe107641b2b1f8f0cf"
],
"FTBFContext_v54" : [
"331041100eb940d4824c3543"
]
},
"entities.name" : {
"OTSROOT" : [
"03c9268772c1417785615ae1",
"10ae7c56fcb747caa02e1a58",
"1c469c62baf84beaa9fef0d4",
"30560ffe107641b2b1f8f0cf",
"331041100eb940d4824c3543",
"42d9739a5521426f94d6dd09",
"4f25b3b082c2492c8bfd963a",
"5239056f7cc2423a85171de4",
"55578cb942774dacac3829d5",
"772c7836fd834b5aab854f0c",
"7a5efe0572364c72a320894f",
"7ce80adf117a4956a6895383",
"7fc0d6275bef4625a7f41330",
"8da970cc18164c61bf9f40fd",
"99fadd2018084acf9571dd71",
"a01c2191f4a84094b5249f04",
"a2891aafcec7478c9b4ac00b",
"aef5d40a463244219c8b6a2b",
"b7b79b88c673475299607c5e",
"c5dd027cc67b40e18ebad7ea",
"c643245f3e964bd58df9510d",
"d70352371a074f2abc059942",
"e4b67c781a294c4cba91c048",
"e53c953aa73f4eb290b102ab",
"f1accc38704f42299dff4958",
"f438de82149f436a88115ca4",
"f684440f5a064f1cad6ec966",
"f716113edec648ad84b04031",
"fd7c273d82a544e49959caf4"
]
},
"aliases.active.name" : {

},
"runs.name" : {

},
"configurations.assigned" : {
"notprovided" : [
"2017-11-08T15:56:08.140-0600",
"2017-11-09T10:39:02.600-0600",
"2017-11-10T10:18:36.824-0600",
"2017-11-10T10:28:45.419-0600",
"2017-11-10T10:40:31.833-0600",
"2017-11-10T10:52:04.157-0600",
"2017-11-10T11:21:00.117-0600",
"2017-11-10T11:44:48.379-0600",
"2017-11-10T17:04:39.999-0600",
"2017-11-13T10:55:04.742-0600",
"2017-11-13T12:17:39.041-0600",
"2017-11-13T12:24:15.008-0600",
"2017-11-13T12:26:53.111-0600",
"2017-11-13T12:33:36.139-0600",
"2017-11-15T12:29:35.270-0600",
"2017-11-15T12:31:01.148-0600",
"2017-11-15T12:55:28.634-0600",
"2017-11-15T16:19:28.107-0600",
"2017-11-16T09:27:08.969-0600",
"2017-11-28T10:53:52.609-0600",
"2017-11-28T17:27:46.725-0600",
"2017-11-29T16:45:15.478-0600",
"2017-12-01T15:35:04.426-0600",
"2017-12-01T17:07:52.718-0600",
"2017-12-01T17:10:10.162-0600",
"2017-12-02T18:50:43.143-0600",
"2017-12-03T12:01:02.919-0600",
"2017-12-04T16:40:42.394-0600",
"2018-02-03T03:00:28.235-0600"
],
"FTBFContext_v1" : [
"2017-11-08T15:56:08.502-0600"
],
"FTBFContext_v2" : [
"2017-11-09T10:39:03.957-0600"
],
"FTBFContext_v3" : [
"2017-11-10T10:18:38.420-0600"
],
"FTBFContext_v4" : [
"2017-11-10T10:28:46.949-0600"
],
"FTBFContext_v5" : [
"2017-11-10T10:40:33.382-0600"
],
"FTBFContext_v6" : [
"2017-11-10T10:52:05.780-0600"
],
"FTBFContext_v7" : [
"2017-11-10T11:21:01.673-0600"
],
"FTBFContext_v8" : [
"2017-11-10T11:44:49.922-0600"
],
"FTBFContext_v9" : [
"2017-11-10T12:15:26.240-0600"
],
"FTBFContext_v10" : [
"2017-11-10T12:16:54.771-0600"
],
"FTBFContext_v11" : [
"2017-11-10T12:22:19.975-0600"
],
"FTBFContext_v12" : [
"2017-11-10T12:35:32.485-0600"
],
"FTBFContext_v13" : [
"2017-11-10T12:37:10.572-0600"
],
"FTBFContext_v14" : [
"2017-11-10T12:38:15.074-0600"
],
"FTBFContext_v15" : [
"2017-11-10T17:04:41.438-0600"
],
"FTBFContext_v16" : [
"2017-11-13T10:55:06.352-0600"
],
"FTBFContext_v17" : [
"2017-11-13T14:51:54.166-0600"
],
"FTBFContext_v18" : [
"2017-11-13T15:21:33.080-0600"
],
"FTBFContext_v19" : [
"2017-11-14T11:21:18.374-0600"
],
"FTBFContext_v20" : [
"2017-11-14T16:15:29.307-0600"
],
"FTBFContext_v21" : [
"2017-11-15T12:29:36.877-0600"
],
"FTBFContext_v22" : [
"2017-11-15T12:31:22.781-0600"
],
"FTBFContext_v23" : [
"2017-11-15T12:39:06.106-0600"
],
"FTBFContext_v24" : [
"2017-11-15T12:55:32.975-0600"
],
"FTBFContext_v25" : [
"2017-11-15T12:57:46.766-0600"
],
"FTBFContext_v26" : [
"2017-11-15T12:59:19.820-0600"
],
"FTBFContext_v27" : [
"2017-11-15T16:19:30.108-0600"
],
"FTBFContext_v28" : [
"2017-11-16T09:27:10.916-0600"
],
"FTBFContext_v29" : [
"2017-11-17T17:24:36.304-0600"
],
"FTBFContext_v30" : [
"2017-11-20T14:44:41.011-0600"
],
"FTBFContext_v31" : [
"2017-11-28T10:58:43.659-0600"
],
"FTBFContext_v32" : [
"2017-11-28T11:47:17.927-0600"
],
"FTBFContext_v33" : [
"2017-11-28T12:09:40.740-0600"
],
"FTBFContext_v34" : [
"2017-11-28T12:18:08.214-0600"
],
"FTBFContext_v35" : [
"2017-11-28T16:52:28.519-0600"
],
"FTBFContext_v36" : [
"2017-11-28T17:27:50.031-0600"
],
"FTBFContext_v37" : [
"2017-11-29T11:25:53.682-0600"
],
"FTBFContext_v39" : [
"2017-11-30T09:28:23.118-0600"
],
"FTBFContext_v40" : [
"2017-11-30T10:12:19.844-0600"
],
"FTBFContext_v38" : [
"2017-11-29T16:45:18.818-0600"
],
"FTBFContext_v43" : [
"2017-12-01T15:49:47.234-0600"
],
"FTBFContext_v41" : [
"2017-12-01T15:35:10.067-0600"
],
"FTBFContext_v42" : [
"2017-12-01T15:41:38.587-0600"
],
"FTBFContext_v44" : [
"2017-12-01T17:07:57.020-0600"
],
"FTBFContext_v45" : [
"2017-12-01T17:10:14.418-0600"
],
"FTBFContext_v46" : [
"2017-12-01T18:00:44.052-0600"
],
"FTBFContext_v47" : [
"2017-12-01T19:52:09.633-0600"
],
"FTBFContext_v48" : [
"2017-12-02T14:47:40.232-0600"
],
"FTBFContext_v49" : [
"2017-12-02T14:48:23.398-0600"
],
"FTBFContext_v50" : [
"2017-12-02T18:54:55.092-0600"
],
"FTBFContext_v51" : [
"2017-12-02T19:09:30.446-0600"
],
"FTBFContext_v52" : [
"2017-12-03T12:01:08.093-0600"
],
"FTBFContext_v53" : [
"2017-12-04T16:40:51.302-0600"
],
"FTBFContext_v54" : [
"2018-02-03T03:00:37.030-0600"
]
}
}