{
"ouid" : [
"4f5e375853844f0d85cd6125"
],
"version" : {
"3" : [
"4f5e375853844f0d85cd6125"
]
},
"configurations.name" : {
"notprovided" : [
"4f5e375853844f0d85cd6125"
],
"iterateDefaultGroup_v3" : [
"4f5e375853844f0d85cd6125"
]
},
"entities.name" : {
"OTSROOT" : [
"4f5e375853844f0d85cd6125"
]
},
"aliases.active.name" : {

},
"runs.name" : {

},
"configurations.assigned" : {
"notprovided" : [
"2020-09-08T15:08:32.137-0500"
],
"iterateDefaultGroup_v3" : [
"2020-09-08T15:08:32.724-0500"
]
}
}