{
"ouid" : [
"6fa67c268c874c43bf8ab4d4",
"afae213c21d140a1ba936dcb",
"ed4594fc598a435eb7b68320"
],
"version" : {
"0" : [
"6fa67c268c874c43bf8ab4d4"
],
"1" : [
"afae213c21d140a1ba936dcb"
],
"2" : [
"ed4594fc598a435eb7b68320"
]
},
"configurations.name" : {
"notprovided" : [
"6fa67c268c874c43bf8ab4d4",
"afae213c21d140a1ba936dcb",
"ed4594fc598a435eb7b68320"
],
"OTMiniModuleConfiguration_v0" : [
"6fa67c268c874c43bf8ab4d4"
],
"OTMiniModuleConfiguration_v1" : [
"afae213c21d140a1ba936dcb"
],
"OTMiniModuleConfiguration_v2" : [
"ed4594fc598a435eb7b68320"
]
},
"entities.name" : {
"OTSROOT" : [
"6fa67c268c874c43bf8ab4d4",
"afae213c21d140a1ba936dcb",
"ed4594fc598a435eb7b68320"
]
},
"aliases.active.name" : {

},
"runs.name" : {

}
}