{
"document" : {
"data" : {
"NAME" : "ARTDAQ_PHYSICS_FILTER_PARAMETER_CONFIGURATION",
"COMMENT" : "",
"AUTHOR" : "admin",
"CREATION_TIME" : 1504201458,
"COL_TYPES" : {
"FILTER_PARAMETER_GROUP_ID" : "VARCHAR2",
"FILTER_PARAMETER_UID" : "VARCHAR2",
"STATUS" : "VARCHAR2",
"FILTER_PARAMETER_KEY" : "VARCHAR2",
"FILTER_PARAMETER_VALUE" : "VARCHAR2",
"COMMENT_DESCRIPTION" : "VARCHAR2",
"AUTHOR" : "VARCHAR2",
"RECORD_INSERTION_TIME" : "TIMESTAMP WITH TIMEZONE"
},
"DATA_SET" : [

]
},
"metadata" : {

},
"search" : [

]
},
"comments" : [

],
"origin" : {
"source" : "template",
"name" : "notprovided",
"format" : "json",
"created" : "2017-11-08T15:56:03.187-0600",
"rawdata" : [

]
},
"version" : "0",
"entities" : [
{
"name" : "OTSROOT",
"assigned" : "2017-11-08T15:56:03.188-0600"
}
],
"configurations" : [
{
"name" : "notprovided",
"assigned" : "2017-11-08T15:56:03.187-0600"
},
{
"name" : "FTBFConfig_v0",
"assigned" : "2017-11-08T15:56:05.907-0600"
},
{
"name" : "FTBFConfig_v1",
"assigned" : "2017-11-09T09:56:30.568-0600"
},
{
"name" : "FTBFConfig_v2",
"assigned" : "2017-11-09T10:05:59.538-0600"
},
{
"name" : "FTBFConfig_v3",
"assigned" : "2017-11-09T10:37:11.089-0600"
},
{
"name" : "FTBFConfig_v4",
"assigned" : "2017-11-15T11:30:09.879-0600"
},
{
"name" : "FTBFConfig_v5",
"assigned" : "2017-11-15T11:54:56.677-0600"
},
{
"name" : "FTBFConfig_v6",
"assigned" : "2017-11-15T11:57:49.300-0600"
},
{
"name" : "FTBFConfig_v7",
"assigned" : "2017-11-15T12:42:31.708-0600"
},
{
"name" : "FTBFConfig_v8",
"assigned" : "2017-11-15T13:01:02.760-0600"
},
{
"name" : "FTBFConfig_v9",
"assigned" : "2017-11-15T13:02:56.107-0600"
},
{
"name" : "FTBFConfig_v10",
"assigned" : "2017-11-15T13:04:23.689-0600"
},
{
"name" : "FTBFConfig_v11",
"assigned" : "2017-11-15T13:07:51.180-0600"
},
{
"name" : "FTBFConfig_v12",
"assigned" : "2017-11-15T13:11:58.636-0600"
},
{
"name" : "FTBFConfig_v13",
"assigned" : "2017-11-15T13:13:52.584-0600"
},
{
"name" : "FTBFConfig_v14",
"assigned" : "2017-11-15T13:27:28.066-0600"
},
{
"name" : "FTBFConfig_v15",
"assigned" : "2017-11-15T13:35:46.533-0600"
},
{
"name" : "FTBFConfig_v16",
"assigned" : "2017-11-15T13:36:51.184-0600"
},
{
"name" : "FTBFConfig_v17",
"assigned" : "2017-11-15T15:33:29.721-0600"
},
{
"name" : "FTBFConfig_v18",
"assigned" : "2017-11-15T15:35:33.334-0600"
},
{
"name" : "FTBFConfig_v19",
"assigned" : "2017-11-15T15:38:02.195-0600"
},
{
"name" : "FTBFConfig_v20",
"assigned" : "2017-11-15T16:26:29.982-0600"
},
{
"name" : "FTBFConfig_v21",
"assigned" : "2017-11-16T09:22:30.996-0600"
},
{
"name" : "FTBFConfig_v22",
"assigned" : "2017-11-17T10:23:27.208-0600"
},
{
"name" : "FTBFConfig_v23",
"assigned" : "2017-11-17T17:26:44.743-0600"
},
{
"name" : "FTBFConfig_v24",
"assigned" : "2017-11-17T17:58:25.235-0600"
},
{
"name" : "FTBFConfig_v25",
"assigned" : "2017-11-17T18:24:44.903-0600"
},
{
"name" : "FTBFConfig_v26",
"assigned" : "2017-11-17T18:32:22.212-0600"
},
{
"name" : "FTBFConfig_v27",
"assigned" : "2017-11-17T18:43:29.361-0600"
},
{
"name" : "FTBFConfig_v28",
"assigned" : "2017-11-17T18:48:31.323-0600"
},
{
"name" : "FTBFConfig_v29",
"assigned" : "2017-11-20T14:48:30.258-0600"
},
{
"name" : "FTBFConfig_v30",
"assigned" : "2017-11-20T15:39:55.408-0600"
},
{
"name" : "FTBFConfig_v31",
"assigned" : "2017-11-20T16:41:01.396-0600"
},
{
"name" : "FTBFConfig_v32",
"assigned" : "2017-11-20T18:55:34.328-0600"
},
{
"name" : "FTBFConfig_v33",
"assigned" : "2017-11-20T18:57:29.575-0600"
},
{
"name" : "FTBFConfig_v34",
"assigned" : "2017-11-29T17:50:39.088-0600"
},
{
"name" : "FTBFConfig_v35",
"assigned" : "2017-11-29T18:00:31.908-0600"
},
{
"name" : "FTBFConfig_v36",
"assigned" : "2017-11-29T18:35:10.762-0600"
},
{
"name" : "FTBFConfig_v37",
"assigned" : "2017-12-01T09:36:17.012-0600"
},
{
"name" : "FTBFConfig_v38",
"assigned" : "2017-12-01T09:52:00.419-0600"
},
{
"name" : "FTBFConfig_v39",
"assigned" : "2017-12-01T11:51:57.672-0600"
},
{
"name" : "FTBFConfig_v40",
"assigned" : "2017-12-01T12:18:19.627-0600"
},
{
"name" : "FTBFConfig_v41",
"assigned" : "2017-12-01T12:21:01.764-0600"
},
{
"name" : "FTBFConfig_v42",
"assigned" : "2017-12-01T12:43:20.958-0600"
},
{
"name" : "FTBFConfig_v43",
"assigned" : "2017-12-01T12:57:58.313-0600"
},
{
"name" : "FTBFConfig_v44",
"assigned" : "2017-12-01T13:00:51.359-0600"
},
{
"name" : "FTBFConfig_v45",
"assigned" : "2017-12-01T13:25:48.051-0600"
},
{
"name" : "FTBFConfig_v46",
"assigned" : "2017-12-01T13:35:42.824-0600"
},
{
"name" : "FTBFConfig_v47",
"assigned" : "2017-12-01T14:00:51.117-0600"
},
{
"name" : "FTBFConfig_v48",
"assigned" : "2017-12-01T14:03:58.387-0600"
},
{
"name" : "FTBFConfig_v49",
"assigned" : "2017-12-01T15:31:58.593-0600"
},
{
"name" : "FTBFConfig_v52",
"assigned" : "2017-12-01T15:37:30.347-0600"
},
{
"name" : "FTBFConfig_v53",
"assigned" : "2017-12-01T15:40:58.108-0600"
},
{
"name" : "FTBFConfig_v54",
"assigned" : "2017-12-01T15:52:48.422-0600"
},
{
"name" : "FTBFConfig_v55",
"assigned" : "2017-12-01T15:54:33.570-0600"
},
{
"name" : "FTBFConfig_v56",
"assigned" : "2017-12-01T15:55:33.111-0600"
},
{
"name" : "FTBFConfig_v57",
"assigned" : "2017-12-01T15:56:38.952-0600"
},
{
"name" : "FTBFConfig_v58",
"assigned" : "2017-12-01T15:57:37.011-0600"
},
{
"name" : "FTBFConfig_v59",
"assigned" : "2017-12-01T15:58:28.915-0600"
},
{
"name" : "FTBFConfig_v60",
"assigned" : "2017-12-01T15:59:30.105-0600"
},
{
"name" : "FTBFConfig_v61",
"assigned" : "2017-12-01T16:19:39.865-0600"
},
{
"name" : "FTBFConfig_v62",
"assigned" : "2017-12-01T16:22:02.409-0600"
},
{
"name" : "FTBFConfig_v63",
"assigned" : "2017-12-01T16:31:23.037-0600"
},
{
"name" : "FTBFConfig_v64",
"assigned" : "2017-12-01T17:06:30.220-0600"
},
{
"name" : "FTBFConfig_v65",
"assigned" : "2017-12-01T17:32:42.372-0600"
},
{
"name" : "FTBFConfig_v66",
"assigned" : "2017-12-01T20:38:48.751-0600"
},
{
"name" : "FTBFConfig_v67",
"assigned" : "2017-12-01T21:25:00.180-0600"
},
{
"name" : "FTBFConfig_v68",
"assigned" : "2017-12-01T21:42:59.860-0600"
},
{
"name" : "FTBFConfig_v69",
"assigned" : "2017-12-01T21:44:58.475-0600"
},
{
"name" : "FTBFConfig_v70",
"assigned" : "2017-12-01T21:59:17.717-0600"
},
{
"name" : "FTBFConfigNim_v0",
"assigned" : "2017-12-01T22:00:04.421-0600"
},
{
"name" : "FTBFConfigNim_v1",
"assigned" : "2017-12-01T22:13:06.167-0600"
},
{
"name" : "FTBFConfigNim_v2",
"assigned" : "2017-12-01T22:15:53.408-0600"
},
{
"name" : "FTBFConfigNim_v3",
"assigned" : "2017-12-01T22:17:01.543-0600"
},
{
"name" : "FTBFConfigNim_v4",
"assigned" : "2017-12-01T22:19:04.494-0600"
},
{
"name" : "FTBFConfigNim_v5",
"assigned" : "2017-12-01T22:21:55.236-0600"
},
{
"name" : "FTBFConfigNim_v6",
"assigned" : "2017-12-01T22:23:11.382-0600"
},
{
"name" : "FTBFConfigNim_v7",
"assigned" : "2017-12-01T22:25:15.182-0600"
},
{
"name" : "FTBFConfigNim_v8",
"assigned" : "2017-12-01T22:27:02.817-0600"
},
{
"name" : "FTBFConfigNim_v9",
"assigned" : "2017-12-01T22:29:26.986-0600"
},
{
"name" : "FTBFConfigNim_v10",
"assigned" : "2017-12-01T22:52:32.108-0600"
},
{
"name" : "FTBFConfigNim_v11",
"assigned" : "2017-12-01T22:57:26.918-0600"
},
{
"name" : "FTBFConfigNim_v12",
"assigned" : "2017-12-01T23:00:05.170-0600"
},
{
"name" : "FTBFConfigNim_v13",
"assigned" : "2017-12-01T23:52:33.287-0600"
},
{
"name" : "FTBFConfigNim_v14",
"assigned" : "2017-12-01T23:58:07.703-0600"
},
{
"name" : "FTBFConfigNim_v15",
"assigned" : "2017-12-02T00:00:31.964-0600"
},
{
"name" : "FTBFConfigNim_v16",
"assigned" : "2017-12-02T00:13:07.105-0600"
},
{
"name" : "FTBFConfigNim_v17",
"assigned" : "2017-12-02T00:28:26.069-0600"
},
{
"name" : "FTBFConfigNim_v18",
"assigned" : "2017-12-02T00:29:32.128-0600"
},
{
"name" : "FTBFConfigNim_v19",
"assigned" : "2017-12-02T00:31:09.235-0600"
},
{
"name" : "FTBFConfigNim_v20",
"assigned" : "2017-12-02T00:57:25.110-0600"
},
{
"name" : "FTBFConfigNim_v21",
"assigned" : "2017-12-02T10:57:59.685-0600"
},
{
"name" : "FTBFConfigNim_v22",
"assigned" : "2017-12-02T11:08:15.850-0600"
},
{
"name" : "FTBFConfigNim_v23",
"assigned" : "2017-12-02T11:12:37.420-0600"
},
{
"name" : "FTBFConfigNim_v24",
"assigned" : "2017-12-02T11:18:40.326-0600"
},
{
"name" : "FTBFConfigNim_v25",
"assigned" : "2017-12-02T11:27:03.486-0600"
},
{
"name" : "FTBFConfigNim_v26",
"assigned" : "2017-12-02T11:38:34.541-0600"
},
{
"name" : "FTBFConfigNim_v27",
"assigned" : "2017-12-02T11:49:05.709-0600"
},
{
"name" : "FTBFConfigNim_v28",
"assigned" : "2017-12-02T11:55:07.158-0600"
},
{
"name" : "FTBFConfigNim_v29",
"assigned" : "2017-12-02T12:06:23.994-0600"
},
{
"name" : "FTBFConfig_v71",
"assigned" : "2017-12-02T12:24:12.649-0600"
},
{
"name" : "FTBFConfig_v72",
"assigned" : "2017-12-02T12:43:33.496-0600"
},
{
"name" : "FTBFConfig_v73",
"assigned" : "2017-12-02T13:55:33.102-0600"
},
{
"name" : "FTBFConfig_v74",
"assigned" : "2017-12-02T14:09:05.442-0600"
},
{
"name" : "FTBFConfig_v75",
"assigned" : "2017-12-02T14:12:16.242-0600"
},
{
"name" : "FTBFConfig_v76",
"assigned" : "2017-12-02T19:05:51.323-0600"
},
{
"name" : "FTBFConfig_v77",
"assigned" : "2017-12-02T19:12:11.205-0600"
},
{
"name" : "FTBFConfig_v78",
"assigned" : "2017-12-03T14:03:46.334-0600"
},
{
"name" : "FTBFConfig_v79",
"assigned" : "2017-12-03T14:09:04.556-0600"
},
{
"name" : "FTBFConfig_v80",
"assigned" : "2017-12-03T14:11:08.304-0600"
},
{
"name" : "FTBFConfig_v81",
"assigned" : "2017-12-03T14:22:31.351-0600"
},
{
"name" : "FTBFConfig_v82",
"assigned" : "2017-12-03T14:40:36.129-0600"
},
{
"name" : "FTBFConfig_v83",
"assigned" : "2017-12-03T14:45:03.490-0600"
},
{
"name" : "FTBFConfig_v84",
"assigned" : "2017-12-04T14:51:28.848-0600"
},
{
"name" : "FTBFConfig_v85",
"assigned" : "2017-12-04T14:55:42.008-0600"
},
{
"name" : "FTBFConfig_v86",
"assigned" : "2017-12-04T16:51:05.005-0600"
},
{
"name" : "FTBFConfig_v87",
"assigned" : "2017-12-04T16:56:45.631-0600"
},
{
"name" : "FTBFConfig_v88",
"assigned" : "2017-12-04T17:01:10.356-0600"
},
{
"name" : "FTBFConfig_v89",
"assigned" : "2017-12-04T17:03:55.461-0600"
},
{
"name" : "FTBFConfig_v90",
"assigned" : "2017-12-04T17:07:15.086-0600"
},
{
"name" : "FTBFConfig_v91",
"assigned" : "2017-12-04T17:09:24.211-0600"
},
{
"name" : "FTBFConfig_v92",
"assigned" : "2017-12-04T17:11:36.703-0600"
},
{
"name" : "FTBFConfig_v93",
"assigned" : "2017-12-04T21:05:19.301-0600"
},
{
"name" : "FTBFConfig_v94",
"assigned" : "2017-12-04T21:17:10.198-0600"
},
{
"name" : "FTBFConfig_v95",
"assigned" : "2017-12-04T21:41:15.885-0600"
},
{
"name" : "FTBFConfig_v96",
"assigned" : "2017-12-04T22:39:00.509-0600"
},
{
"name" : "FTBFConfig_v97",
"assigned" : "2017-12-04T23:01:11.021-0600"
},
{
"name" : "FTBFConfig_v98",
"assigned" : "2017-12-07T11:07:45.033-0600"
},
{
"name" : "FTBFConfig_v99",
"assigned" : "2017-12-07T11:49:57.711-0600"
},
{
"name" : "FTBFConfig_v100",
"assigned" : "2017-12-07T11:58:24.425-0600"
},
{
"name" : "FTBFConfig_v101",
"assigned" : "2017-12-08T13:30:46.566-0600"
},
{
"name" : "FTBFConfig_v102",
"assigned" : "2017-12-08T13:32:33.436-0600"
},
{
"name" : "FTBFConfig_v103",
"assigned" : "2017-12-12T11:03:03.230-0600"
},
{
"name" : "FTBFConfig_v104",
"assigned" : "2017-12-12T13:50:57.604-0600"
},
{
"name" : "FTBFConfig_v105",
"assigned" : "2017-12-12T15:25:03.650-0600"
},
{
"name" : "FTBFConfig_v106",
"assigned" : "2017-12-13T10:24:22.008-0600"
},
{
"name" : "FTBFConfig_v107",
"assigned" : "2017-12-13T10:27:00.769-0600"
},
{
"name" : "FTBFConfig_v108",
"assigned" : "2018-02-01T21:14:24.231-0600"
},
{
"name" : "FTBFConfig_v109",
"assigned" : "2018-02-01T21:21:01.335-0600"
},
{
"name" : "FTBFConfig_v110",
"assigned" : "2018-02-02T11:25:32.293-0600"
},
{
"name" : "FTBFConfig_v111",
"assigned" : "2018-02-02T11:37:11.121-0600"
},
{
"name" : "FTBFConfig_v112",
"assigned" : "2018-02-02T11:47:13.595-0600"
},
{
"name" : "FTBFConfig_v113",
"assigned" : "2018-02-02T11:53:34.847-0600"
},
{
"name" : "FTBFConfig_v114",
"assigned" : "2018-02-02T12:00:50.954-0600"
},
{
"name" : "FTBFConfig_v115",
"assigned" : "2018-02-02T12:27:12.428-0600"
},
{
"name" : "FTBFConfig_v116",
"assigned" : "2018-02-02T14:28:51.949-0600"
},
{
"name" : "FTBFConfig_v117",
"assigned" : "2018-02-02T14:30:18.274-0600"
},
{
"name" : "FTBFConfig_v118",
"assigned" : "2018-02-02T14:33:59.481-0600"
},
{
"name" : "FTBFConfig_v119",
"assigned" : "2018-02-02T14:36:26.104-0600"
},
{
"name" : "FTBFConfig_v120",
"assigned" : "2018-02-02T14:38:39.459-0600"
},
{
"name" : "FTBFConfig_v121",
"assigned" : "2018-02-02T14:41:48.778-0600"
},
{
"name" : "FTBFConfig_v122",
"assigned" : "2018-02-02T14:50:22.845-0600"
},
{
"name" : "FTBFConfig_v123",
"assigned" : "2018-02-02T14:52:55.659-0600"
},
{
"name" : "FTBFConfig_v124",
"assigned" : "2018-02-02T14:59:49.011-0600"
},
{
"name" : "FTBFConfig_v125",
"assigned" : "2018-02-02T15:04:07.111-0600"
},
{
"name" : "FTBFConfig_v126",
"assigned" : "2018-02-02T15:50:10.297-0600"
},
{
"name" : "FTBFConfig_v127",
"assigned" : "2018-02-02T15:51:29.801-0600"
},
{
"name" : "FTBFConfig_v128",
"assigned" : "2018-02-02T15:52:34.950-0600"
},
{
"name" : "FTBFConfig_v129",
"assigned" : "2018-02-02T16:02:43.850-0600"
},
{
"name" : "FTBFConfig_v130",
"assigned" : "2018-02-02T16:08:43.380-0600"
},
{
"name" : "FTBFConfig_v131",
"assigned" : "2018-02-02T16:11:29.195-0600"
},
{
"name" : "FTBFConfig_v132",
"assigned" : "2018-02-02T16:12:57.072-0600"
},
{
"name" : "FTBFConfig_v133",
"assigned" : "2018-02-02T16:14:27.665-0600"
},
{
"name" : "FTBFConfig_v134",
"assigned" : "2018-02-02T16:26:20.540-0600"
},
{
"name" : "FTBFConfig_v135",
"assigned" : "2018-02-02T16:27:07.667-0600"
},
{
"name" : "FTBFConfig_v136",
"assigned" : "2018-02-02T16:29:29.019-0600"
},
{
"name" : "FTBFConfig_v137",
"assigned" : "2018-02-02T16:31:39.611-0600"
},
{
"name" : "FTBFConfig_v138",
"assigned" : "2018-02-02T16:34:12.264-0600"
},
{
"name" : "FTBFConfig_v139",
"assigned" : "2018-02-02T17:39:28.316-0600"
},
{
"name" : "FTBFConfig_v140",
"assigned" : "2018-02-02T17:42:50.492-0600"
},
{
"name" : "FTBFConfig_v141",
"assigned" : "2018-02-02T17:47:35.659-0600"
},
{
"name" : "FTBFConfig_v142",
"assigned" : "2018-02-02T17:53:59.694-0600"
}
],
"changelog" : "notprovided",
"bookkeeping" : {
"isdeleted" : false,
"isreadonly" : false,
"updates" : [
{
"event" : "addConfiguration",
"timestamp" : "2017-11-08T15:56:03.187-0600",
"value" : {
"name" : "notprovided",
"assigned" : "2017-11-08T15:56:03.187-0600"
}
},
{
"event" : "setVersion",
"timestamp" : "2017-11-08T15:56:03.188-0600",
"value" : {
"name" : "0",
"assigned" : "2017-11-08T15:56:03.188-0600"
}
},
{
"event" : "setCollection",
"timestamp" : "2017-11-08T15:56:03.188-0600",
"value" : {
"name" : "ARTDAQPhysicsFilterParameterConfiguration",
"assigned" : "2017-11-08T15:56:03.188-0600"
}
},
{
"event" : "addEntity",
"timestamp" : "2017-11-08T15:56:03.188-0600",
"value" : {
"name" : "OTSROOT",
"assigned" : "2017-11-08T15:56:03.188-0600"
}
},
{
"event" : "addConfiguration",
"timestamp" : "2017-11-08T15:56:05.907-0600",
"value" : {
"name" : "FTBFConfig_v0",
"assigned" : "2017-11-08T15:56:05.907-0600"
}
},
{
"event" : "addConfiguration",
"timestamp" : "2017-11-09T09:56:30.568-0600",
"value" : {
"name" : "FTBFConfig_v1",
"assigned" : "2017-11-09T09:56:30.568-0600"
}
},
{
"event" : "addConfiguration",
"timestamp" : "2017-11-09T10:05:59.538-0600",
"value" : {
"name" : "FTBFConfig_v2",
"assigned" : "2017-11-09T10:05:59.538-0600"
}
},
{
"event" : "addConfiguration",
"timestamp" : "2017-11-09T10:37:11.090-0600",
"value" : {
"name" : "FTBFConfig_v3",
"assigned" : "2017-11-09T10:37:11.089-0600"
}
},
{
"event" : "addConfiguration",
"timestamp" : "2017-11-15T11:30:09.879-0600",
"value" : {
"name" : "FTBFConfig_v4",
"assigned" : "2017-11-15T11:30:09.879-0600"
}
},
{
"event" : "addConfiguration",
"timestamp" : "2017-11-15T11:54:56.677-0600",
"value" : {
"name" : "FTBFConfig_v5",
"assigned" : "2017-11-15T11:54:56.677-0600"
}
},
{
"event" : "addConfiguration",
"timestamp" : "2017-11-15T11:57:49.300-0600",
"value" : {
"name" : "FTBFConfig_v6",
"assigned" : "2017-11-15T11:57:49.300-0600"
}
},
{
"event" : "addConfiguration",
"timestamp" : "2017-11-15T12:42:31.708-0600",
"value" : {
"name" : "FTBFConfig_v7",
"assigned" : "2017-11-15T12:42:31.708-0600"
}
},
{
"event" : "addConfiguration",
"timestamp" : "2017-11-15T13:01:02.760-0600",
"value" : {
"name" : "FTBFConfig_v8",
"assigned" : "2017-11-15T13:01:02.760-0600"
}
},
{
"event" : "addConfiguration",
"timestamp" : "2017-11-15T13:02:56.107-0600",
"value" : {
"name" : "FTBFConfig_v9",
"assigned" : "2017-11-15T13:02:56.107-0600"
}
},
{
"event" : "addConfiguration",
"timestamp" : "2017-11-15T13:04:23.689-0600",
"value" : {
"name" : "FTBFConfig_v10",
"assigned" : "2017-11-15T13:04:23.689-0600"
}
},
{
"event" : "addConfiguration",
"timestamp" : "2017-11-15T13:07:51.180-0600",
"value" : {
"name" : "FTBFConfig_v11",
"assigned" : "2017-11-15T13:07:51.180-0600"
}
},
{
"event" : "addConfiguration",
"timestamp" : "2017-11-15T13:11:58.636-0600",
"value" : {
"name" : "FTBFConfig_v12",
"assigned" : "2017-11-15T13:11:58.636-0600"
}
},
{
"event" : "addConfiguration",
"timestamp" : "2017-11-15T13:13:52.584-0600",
"value" : {
"name" : "FTBFConfig_v13",
"assigned" : "2017-11-15T13:13:52.584-0600"
}
},
{
"event" : "addConfiguration",
"timestamp" : "2017-11-15T13:27:28.066-0600",
"value" : {
"name" : "FTBFConfig_v14",
"assigned" : "2017-11-15T13:27:28.066-0600"
}
},
{
"event" : "addConfiguration",
"timestamp" : "2017-11-15T13:35:46.533-0600",
"value" : {
"name" : "FTBFConfig_v15",
"assigned" : "2017-11-15T13:35:46.533-0600"
}
},
{
"event" : "addConfiguration",
"timestamp" : "2017-11-15T13:36:51.184-0600",
"value" : {
"name" : "FTBFConfig_v16",
"assigned" : "2017-11-15T13:36:51.184-0600"
}
},
{
"event" : "addConfiguration",
"timestamp" : "2017-11-15T15:33:29.721-0600",
"value" : {
"name" : "FTBFConfig_v17",
"assigned" : "2017-11-15T15:33:29.721-0600"
}
},
{
"event" : "addConfiguration",
"timestamp" : "2017-11-15T15:35:33.334-0600",
"value" : {
"name" : "FTBFConfig_v18",
"assigned" : "2017-11-15T15:35:33.334-0600"
}
},
{
"event" : "addConfiguration",
"timestamp" : "2017-11-15T15:38:02.195-0600",
"value" : {
"name" : "FTBFConfig_v19",
"assigned" : "2017-11-15T15:38:02.195-0600"
}
},
{
"event" : "addConfiguration",
"timestamp" : "2017-11-15T16:26:29.982-0600",
"value" : {
"name" : "FTBFConfig_v20",
"assigned" : "2017-11-15T16:26:29.982-0600"
}
},
{
"event" : "addConfiguration",
"timestamp" : "2017-11-16T09:22:30.996-0600",
"value" : {
"name" : "FTBFConfig_v21",
"assigned" : "2017-11-16T09:22:30.996-0600"
}
},
{
"event" : "addConfiguration",
"timestamp" : "2017-11-17T10:23:27.208-0600",
"value" : {
"name" : "FTBFConfig_v22",
"assigned" : "2017-11-17T10:23:27.208-0600"
}
},
{
"event" : "addConfiguration",
"timestamp" : "2017-11-17T17:26:44.743-0600",
"value" : {
"name" : "FTBFConfig_v23",
"assigned" : "2017-11-17T17:26:44.743-0600"
}
},
{
"event" : "addConfiguration",
"timestamp" : "2017-11-17T17:58:25.235-0600",
"value" : {
"name" : "FTBFConfig_v24",
"assigned" : "2017-11-17T17:58:25.235-0600"
}
},
{
"event" : "addConfiguration",
"timestamp" : "2017-11-17T18:24:44.904-0600",
"value" : {
"name" : "FTBFConfig_v25",
"assigned" : "2017-11-17T18:24:44.903-0600"
}
},
{
"event" : "addConfiguration",
"timestamp" : "2017-11-17T18:32:22.212-0600",
"value" : {
"name" : "FTBFConfig_v26",
"assigned" : "2017-11-17T18:32:22.212-0600"
}
},
{
"event" : "addConfiguration",
"timestamp" : "2017-11-17T18:43:29.361-0600",
"value" : {
"name" : "FTBFConfig_v27",
"assigned" : "2017-11-17T18:43:29.361-0600"
}
},
{
"event" : "addConfiguration",
"timestamp" : "2017-11-17T18:48:31.323-0600",
"value" : {
"name" : "FTBFConfig_v28",
"assigned" : "2017-11-17T18:48:31.323-0600"
}
},
{
"event" : "addConfiguration",
"timestamp" : "2017-11-20T14:48:30.258-0600",
"value" : {
"name" : "FTBFConfig_v29",
"assigned" : "2017-11-20T14:48:30.258-0600"
}
},
{
"event" : "addConfiguration",
"timestamp" : "2017-11-20T15:39:55.408-0600",
"value" : {
"name" : "FTBFConfig_v30",
"assigned" : "2017-11-20T15:39:55.408-0600"
}
},
{
"event" : "addConfiguration",
"timestamp" : "2017-11-20T16:41:01.396-0600",
"value" : {
"name" : "FTBFConfig_v31",
"assigned" : "2017-11-20T16:41:01.396-0600"
}
},
{
"event" : "addConfiguration",
"timestamp" : "2017-11-20T18:55:34.328-0600",
"value" : {
"name" : "FTBFConfig_v32",
"assigned" : "2017-11-20T18:55:34.328-0600"
}
},
{
"event" : "addConfiguration",
"timestamp" : "2017-11-20T18:57:29.575-0600",
"value" : {
"name" : "FTBFConfig_v33",
"assigned" : "2017-11-20T18:57:29.575-0600"
}
},
{
"event" : "addConfiguration",
"timestamp" : "2017-11-29T17:50:39.088-0600",
"value" : {
"name" : "FTBFConfig_v34",
"assigned" : "2017-11-29T17:50:39.088-0600"
}
},
{
"event" : "addConfiguration",
"timestamp" : "2017-11-29T18:00:31.908-0600",
"value" : {
"name" : "FTBFConfig_v35",
"assigned" : "2017-11-29T18:00:31.908-0600"
}
},
{
"event" : "addConfiguration",
"timestamp" : "2017-11-29T18:35:10.762-0600",
"value" : {
"name" : "FTBFConfig_v36",
"assigned" : "2017-11-29T18:35:10.762-0600"
}
},
{
"event" : "addConfiguration",
"timestamp" : "2017-12-01T09:36:17.012-0600",
"value" : {
"name" : "FTBFConfig_v37",
"assigned" : "2017-12-01T09:36:17.012-0600"
}
},
{
"event" : "addConfiguration",
"timestamp" : "2017-12-01T09:52:00.419-0600",
"value" : {
"name" : "FTBFConfig_v38",
"assigned" : "2017-12-01T09:52:00.419-0600"
}
},
{
"event" : "addConfiguration",
"timestamp" : "2017-12-01T11:51:57.672-0600",
"value" : {
"name" : "FTBFConfig_v39",
"assigned" : "2017-12-01T11:51:57.672-0600"
}
},
{
"event" : "addConfiguration",
"timestamp" : "2017-12-01T12:18:19.627-0600",
"value" : {
"name" : "FTBFConfig_v40",
"assigned" : "2017-12-01T12:18:19.627-0600"
}
},
{
"event" : "addConfiguration",
"timestamp" : "2017-12-01T12:21:01.764-0600",
"value" : {
"name" : "FTBFConfig_v41",
"assigned" : "2017-12-01T12:21:01.764-0600"
}
},
{
"event" : "addConfiguration",
"timestamp" : "2017-12-01T12:43:20.958-0600",
"value" : {
"name" : "FTBFConfig_v42",
"assigned" : "2017-12-01T12:43:20.958-0600"
}
},
{
"event" : "addConfiguration",
"timestamp" : "2017-12-01T12:57:58.313-0600",
"value" : {
"name" : "FTBFConfig_v43",
"assigned" : "2017-12-01T12:57:58.313-0600"
}
},
{
"event" : "addConfiguration",
"timestamp" : "2017-12-01T13:00:51.359-0600",
"value" : {
"name" : "FTBFConfig_v44",
"assigned" : "2017-12-01T13:00:51.359-0600"
}
},
{
"event" : "addConfiguration",
"timestamp" : "2017-12-01T13:25:48.051-0600",
"value" : {
"name" : "FTBFConfig_v45",
"assigned" : "2017-12-01T13:25:48.051-0600"
}
},
{
"event" : "addConfiguration",
"timestamp" : "2017-12-01T13:35:42.824-0600",
"value" : {
"name" : "FTBFConfig_v46",
"assigned" : "2017-12-01T13:35:42.824-0600"
}
},
{
"event" : "addConfiguration",
"timestamp" : "2017-12-01T14:00:51.117-0600",
"value" : {
"name" : "FTBFConfig_v47",
"assigned" : "2017-12-01T14:00:51.117-0600"
}
},
{
"event" : "addConfiguration",
"timestamp" : "2017-12-01T14:03:58.388-0600",
"value" : {
"name" : "FTBFConfig_v48",
"assigned" : "2017-12-01T14:03:58.387-0600"
}
},
{
"event" : "addConfiguration",
"timestamp" : "2017-12-01T15:31:58.593-0600",
"value" : {
"name" : "FTBFConfig_v49",
"assigned" : "2017-12-01T15:31:58.593-0600"
}
},
{
"event" : "addConfiguration",
"timestamp" : "2017-12-01T15:37:30.347-0600",
"value" : {
"name" : "FTBFConfig_v52",
"assigned" : "2017-12-01T15:37:30.347-0600"
}
},
{
"event" : "addConfiguration",
"timestamp" : "2017-12-01T15:40:58.108-0600",
"value" : {
"name" : "FTBFConfig_v53",
"assigned" : "2017-12-01T15:40:58.108-0600"
}
},
{
"event" : "addConfiguration",
"timestamp" : "2017-12-01T15:52:48.422-0600",
"value" : {
"name" : "FTBFConfig_v54",
"assigned" : "2017-12-01T15:52:48.422-0600"
}
},
{
"event" : "addConfiguration",
"timestamp" : "2017-12-01T15:54:33.570-0600",
"value" : {
"name" : "FTBFConfig_v55",
"assigned" : "2017-12-01T15:54:33.570-0600"
}
},
{
"event" : "addConfiguration",
"timestamp" : "2017-12-01T15:55:33.111-0600",
"value" : {
"name" : "FTBFConfig_v56",
"assigned" : "2017-12-01T15:55:33.111-0600"
}
},
{
"event" : "addConfiguration",
"timestamp" : "2017-12-01T15:56:38.952-0600",
"value" : {
"name" : "FTBFConfig_v57",
"assigned" : "2017-12-01T15:56:38.952-0600"
}
},
{
"event" : "addConfiguration",
"timestamp" : "2017-12-01T15:57:37.011-0600",
"value" : {
"name" : "FTBFConfig_v58",
"assigned" : "2017-12-01T15:57:37.011-0600"
}
},
{
"event" : "addConfiguration",
"timestamp" : "2017-12-01T15:58:28.915-0600",
"value" : {
"name" : "FTBFConfig_v59",
"assigned" : "2017-12-01T15:58:28.915-0600"
}
},
{
"event" : "addConfiguration",
"timestamp" : "2017-12-01T15:59:30.105-0600",
"value" : {
"name" : "FTBFConfig_v60",
"assigned" : "2017-12-01T15:59:30.105-0600"
}
},
{
"event" : "addConfiguration",
"timestamp" : "2017-12-01T16:19:39.865-0600",
"value" : {
"name" : "FTBFConfig_v61",
"assigned" : "2017-12-01T16:19:39.865-0600"
}
},
{
"event" : "addConfiguration",
"timestamp" : "2017-12-01T16:22:02.409-0600",
"value" : {
"name" : "FTBFConfig_v62",
"assigned" : "2017-12-01T16:22:02.409-0600"
}
},
{
"event" : "addConfiguration",
"timestamp" : "2017-12-01T16:31:23.037-0600",
"value" : {
"name" : "FTBFConfig_v63",
"assigned" : "2017-12-01T16:31:23.037-0600"
}
},
{
"event" : "addConfiguration",
"timestamp" : "2017-12-01T17:06:30.221-0600",
"value" : {
"name" : "FTBFConfig_v64",
"assigned" : "2017-12-01T17:06:30.220-0600"
}
},
{
"event" : "addConfiguration",
"timestamp" : "2017-12-01T17:32:42.372-0600",
"value" : {
"name" : "FTBFConfig_v65",
"assigned" : "2017-12-01T17:32:42.372-0600"
}
},
{
"event" : "addConfiguration",
"timestamp" : "2017-12-01T20:38:48.751-0600",
"value" : {
"name" : "FTBFConfig_v66",
"assigned" : "2017-12-01T20:38:48.751-0600"
}
},
{
"event" : "addConfiguration",
"timestamp" : "2017-12-01T21:25:00.180-0600",
"value" : {
"name" : "FTBFConfig_v67",
"assigned" : "2017-12-01T21:25:00.180-0600"
}
},
{
"event" : "addConfiguration",
"timestamp" : "2017-12-01T21:42:59.860-0600",
"value" : {
"name" : "FTBFConfig_v68",
"assigned" : "2017-12-01T21:42:59.860-0600"
}
},
{
"event" : "addConfiguration",
"timestamp" : "2017-12-01T21:44:58.475-0600",
"value" : {
"name" : "FTBFConfig_v69",
"assigned" : "2017-12-01T21:44:58.475-0600"
}
},
{
"event" : "addConfiguration",
"timestamp" : "2017-12-01T21:59:17.717-0600",
"value" : {
"name" : "FTBFConfig_v70",
"assigned" : "2017-12-01T21:59:17.717-0600"
}
},
{
"event" : "addConfiguration",
"timestamp" : "2017-12-01T22:00:04.421-0600",
"value" : {
"name" : "FTBFConfigNim_v0",
"assigned" : "2017-12-01T22:00:04.421-0600"
}
},
{
"event" : "addConfiguration",
"timestamp" : "2017-12-01T22:13:06.167-0600",
"value" : {
"name" : "FTBFConfigNim_v1",
"assigned" : "2017-12-01T22:13:06.167-0600"
}
},
{
"event" : "addConfiguration",
"timestamp" : "2017-12-01T22:15:53.408-0600",
"value" : {
"name" : "FTBFConfigNim_v2",
"assigned" : "2017-12-01T22:15:53.408-0600"
}
},
{
"event" : "addConfiguration",
"timestamp" : "2017-12-01T22:17:01.543-0600",
"value" : {
"name" : "FTBFConfigNim_v3",
"assigned" : "2017-12-01T22:17:01.543-0600"
}
},
{
"event" : "addConfiguration",
"timestamp" : "2017-12-01T22:19:04.494-0600",
"value" : {
"name" : "FTBFConfigNim_v4",
"assigned" : "2017-12-01T22:19:04.494-0600"
}
},
{
"event" : "addConfiguration",
"timestamp" : "2017-12-01T22:21:55.236-0600",
"value" : {
"name" : "FTBFConfigNim_v5",
"assigned" : "2017-12-01T22:21:55.236-0600"
}
},
{
"event" : "addConfiguration",
"timestamp" : "2017-12-01T22:23:11.382-0600",
"value" : {
"name" : "FTBFConfigNim_v6",
"assigned" : "2017-12-01T22:23:11.382-0600"
}
},
{
"event" : "addConfiguration",
"timestamp" : "2017-12-01T22:25:15.182-0600",
"value" : {
"name" : "FTBFConfigNim_v7",
"assigned" : "2017-12-01T22:25:15.182-0600"
}
},
{
"event" : "addConfiguration",
"timestamp" : "2017-12-01T22:27:02.817-0600",
"value" : {
"name" : "FTBFConfigNim_v8",
"assigned" : "2017-12-01T22:27:02.817-0600"
}
},
{
"event" : "addConfiguration",
"timestamp" : "2017-12-01T22:29:26.986-0600",
"value" : {
"name" : "FTBFConfigNim_v9",
"assigned" : "2017-12-01T22:29:26.986-0600"
}
},
{
"event" : "addConfiguration",
"timestamp" : "2017-12-01T22:52:32.108-0600",
"value" : {
"name" : "FTBFConfigNim_v10",
"assigned" : "2017-12-01T22:52:32.108-0600"
}
},
{
"event" : "addConfiguration",
"timestamp" : "2017-12-01T22:57:26.918-0600",
"value" : {
"name" : "FTBFConfigNim_v11",
"assigned" : "2017-12-01T22:57:26.918-0600"
}
},
{
"event" : "addConfiguration",
"timestamp" : "2017-12-01T23:00:05.170-0600",
"value" : {
"name" : "FTBFConfigNim_v12",
"assigned" : "2017-12-01T23:00:05.170-0600"
}
},
{
"event" : "addConfiguration",
"timestamp" : "2017-12-01T23:52:33.288-0600",
"value" : {
"name" : "FTBFConfigNim_v13",
"assigned" : "2017-12-01T23:52:33.287-0600"
}
},
{
"event" : "addConfiguration",
"timestamp" : "2017-12-01T23:58:07.703-0600",
"value" : {
"name" : "FTBFConfigNim_v14",
"assigned" : "2017-12-01T23:58:07.703-0600"
}
},
{
"event" : "addConfiguration",
"timestamp" : "2017-12-02T00:00:31.964-0600",
"value" : {
"name" : "FTBFConfigNim_v15",
"assigned" : "2017-12-02T00:00:31.964-0600"
}
},
{
"event" : "addConfiguration",
"timestamp" : "2017-12-02T00:13:07.105-0600",
"value" : {
"name" : "FTBFConfigNim_v16",
"assigned" : "2017-12-02T00:13:07.105-0600"
}
},
{
"event" : "addConfiguration",
"timestamp" : "2017-12-02T00:28:26.069-0600",
"value" : {
"name" : "FTBFConfigNim_v17",
"assigned" : "2017-12-02T00:28:26.069-0600"
}
},
{
"event" : "addConfiguration",
"timestamp" : "2017-12-02T00:29:32.128-0600",
"value" : {
"name" : "FTBFConfigNim_v18",
"assigned" : "2017-12-02T00:29:32.128-0600"
}
},
{
"event" : "addConfiguration",
"timestamp" : "2017-12-02T00:31:09.236-0600",
"value" : {
"name" : "FTBFConfigNim_v19",
"assigned" : "2017-12-02T00:31:09.235-0600"
}
},
{
"event" : "addConfiguration",
"timestamp" : "2017-12-02T00:57:25.110-0600",
"value" : {
"name" : "FTBFConfigNim_v20",
"assigned" : "2017-12-02T00:57:25.110-0600"
}
},
{
"event" : "addConfiguration",
"timestamp" : "2017-12-02T10:57:59.685-0600",
"value" : {
"name" : "FTBFConfigNim_v21",
"assigned" : "2017-12-02T10:57:59.685-0600"
}
},
{
"event" : "addConfiguration",
"timestamp" : "2017-12-02T11:08:15.850-0600",
"value" : {
"name" : "FTBFConfigNim_v22",
"assigned" : "2017-12-02T11:08:15.850-0600"
}
},
{
"event" : "addConfiguration",
"timestamp" : "2017-12-02T11:12:37.420-0600",
"value" : {
"name" : "FTBFConfigNim_v23",
"assigned" : "2017-12-02T11:12:37.420-0600"
}
},
{
"event" : "addConfiguration",
"timestamp" : "2017-12-02T11:18:40.326-0600",
"value" : {
"name" : "FTBFConfigNim_v24",
"assigned" : "2017-12-02T11:18:40.326-0600"
}
},
{
"event" : "addConfiguration",
"timestamp" : "2017-12-02T11:27:03.486-0600",
"value" : {
"name" : "FTBFConfigNim_v25",
"assigned" : "2017-12-02T11:27:03.486-0600"
}
},
{
"event" : "addConfiguration",
"timestamp" : "2017-12-02T11:38:34.541-0600",
"value" : {
"name" : "FTBFConfigNim_v26",
"assigned" : "2017-12-02T11:38:34.541-0600"
}
},
{
"event" : "addConfiguration",
"timestamp" : "2017-12-02T11:49:05.709-0600",
"value" : {
"name" : "FTBFConfigNim_v27",
"assigned" : "2017-12-02T11:49:05.709-0600"
}
},
{
"event" : "addConfiguration",
"timestamp" : "2017-12-02T11:55:07.158-0600",
"value" : {
"name" : "FTBFConfigNim_v28",
"assigned" : "2017-12-02T11:55:07.158-0600"
}
},
{
"event" : "addConfiguration",
"timestamp" : "2017-12-02T12:06:23.994-0600",
"value" : {
"name" : "FTBFConfigNim_v29",
"assigned" : "2017-12-02T12:06:23.994-0600"
}
},
{
"event" : "addConfiguration",
"timestamp" : "2017-12-02T12:24:12.649-0600",
"value" : {
"name" : "FTBFConfig_v71",
"assigned" : "2017-12-02T12:24:12.649-0600"
}
},
{
"event" : "addConfiguration",
"timestamp" : "2017-12-02T12:43:33.496-0600",
"value" : {
"name" : "FTBFConfig_v72",
"assigned" : "2017-12-02T12:43:33.496-0600"
}
},
{
"event" : "addConfiguration",
"timestamp" : "2017-12-02T13:55:33.102-0600",
"value" : {
"name" : "FTBFConfig_v73",
"assigned" : "2017-12-02T13:55:33.102-0600"
}
},
{
"event" : "addConfiguration",
"timestamp" : "2017-12-02T14:09:05.442-0600",
"value" : {
"name" : "FTBFConfig_v74",
"assigned" : "2017-12-02T14:09:05.442-0600"
}
},
{
"event" : "addConfiguration",
"timestamp" : "2017-12-02T14:12:16.242-0600",
"value" : {
"name" : "FTBFConfig_v75",
"assigned" : "2017-12-02T14:12:16.242-0600"
}
},
{
"event" : "addConfiguration",
"timestamp" : "2017-12-02T19:05:51.323-0600",
"value" : {
"name" : "FTBFConfig_v76",
"assigned" : "2017-12-02T19:05:51.323-0600"
}
},
{
"event" : "addConfiguration",
"timestamp" : "2017-12-02T19:12:11.205-0600",
"value" : {
"name" : "FTBFConfig_v77",
"assigned" : "2017-12-02T19:12:11.205-0600"
}
},
{
"event" : "addConfiguration",
"timestamp" : "2017-12-03T14:03:46.335-0600",
"value" : {
"name" : "FTBFConfig_v78",
"assigned" : "2017-12-03T14:03:46.334-0600"
}
},
{
"event" : "addConfiguration",
"timestamp" : "2017-12-03T14:09:04.556-0600",
"value" : {
"name" : "FTBFConfig_v79",
"assigned" : "2017-12-03T14:09:04.556-0600"
}
},
{
"event" : "addConfiguration",
"timestamp" : "2017-12-03T14:11:08.304-0600",
"value" : {
"name" : "FTBFConfig_v80",
"assigned" : "2017-12-03T14:11:08.304-0600"
}
},
{
"event" : "addConfiguration",
"timestamp" : "2017-12-03T14:22:31.351-0600",
"value" : {
"name" : "FTBFConfig_v81",
"assigned" : "2017-12-03T14:22:31.351-0600"
}
},
{
"event" : "addConfiguration",
"timestamp" : "2017-12-03T14:40:36.129-0600",
"value" : {
"name" : "FTBFConfig_v82",
"assigned" : "2017-12-03T14:40:36.129-0600"
}
},
{
"event" : "addConfiguration",
"timestamp" : "2017-12-03T14:45:03.490-0600",
"value" : {
"name" : "FTBFConfig_v83",
"assigned" : "2017-12-03T14:45:03.490-0600"
}
},
{
"event" : "addConfiguration",
"timestamp" : "2017-12-04T14:51:28.848-0600",
"value" : {
"name" : "FTBFConfig_v84",
"assigned" : "2017-12-04T14:51:28.848-0600"
}
},
{
"event" : "addConfiguration",
"timestamp" : "2017-12-04T14:55:42.009-0600",
"value" : {
"name" : "FTBFConfig_v85",
"assigned" : "2017-12-04T14:55:42.008-0600"
}
},
{
"event" : "addConfiguration",
"timestamp" : "2017-12-04T16:51:05.005-0600",
"value" : {
"name" : "FTBFConfig_v86",
"assigned" : "2017-12-04T16:51:05.005-0600"
}
},
{
"event" : "addConfiguration",
"timestamp" : "2017-12-04T16:56:45.631-0600",
"value" : {
"name" : "FTBFConfig_v87",
"assigned" : "2017-12-04T16:56:45.631-0600"
}
},
{
"event" : "addConfiguration",
"timestamp" : "2017-12-04T17:01:10.356-0600",
"value" : {
"name" : "FTBFConfig_v88",
"assigned" : "2017-12-04T17:01:10.356-0600"
}
},
{
"event" : "addConfiguration",
"timestamp" : "2017-12-04T17:03:55.461-0600",
"value" : {
"name" : "FTBFConfig_v89",
"assigned" : "2017-12-04T17:03:55.461-0600"
}
},
{
"event" : "addConfiguration",
"timestamp" : "2017-12-04T17:07:15.086-0600",
"value" : {
"name" : "FTBFConfig_v90",
"assigned" : "2017-12-04T17:07:15.086-0600"
}
},
{
"event" : "addConfiguration",
"timestamp" : "2017-12-04T17:09:24.211-0600",
"value" : {
"name" : "FTBFConfig_v91",
"assigned" : "2017-12-04T17:09:24.211-0600"
}
},
{
"event" : "addConfiguration",
"timestamp" : "2017-12-04T17:11:36.703-0600",
"value" : {
"name" : "FTBFConfig_v92",
"assigned" : "2017-12-04T17:11:36.703-0600"
}
},
{
"event" : "addConfiguration",
"timestamp" : "2017-12-04T21:05:19.301-0600",
"value" : {
"name" : "FTBFConfig_v93",
"assigned" : "2017-12-04T21:05:19.301-0600"
}
},
{
"event" : "addConfiguration",
"timestamp" : "2017-12-04T21:17:10.198-0600",
"value" : {
"name" : "FTBFConfig_v94",
"assigned" : "2017-12-04T21:17:10.198-0600"
}
},
{
"event" : "addConfiguration",
"timestamp" : "2017-12-04T21:41:15.885-0600",
"value" : {
"name" : "FTBFConfig_v95",
"assigned" : "2017-12-04T21:41:15.885-0600"
}
},
{
"event" : "addConfiguration",
"timestamp" : "2017-12-04T22:39:00.509-0600",
"value" : {
"name" : "FTBFConfig_v96",
"assigned" : "2017-12-04T22:39:00.509-0600"
}
},
{
"event" : "addConfiguration",
"timestamp" : "2017-12-04T23:01:11.021-0600",
"value" : {
"name" : "FTBFConfig_v97",
"assigned" : "2017-12-04T23:01:11.021-0600"
}
},
{
"event" : "addConfiguration",
"timestamp" : "2017-12-07T11:07:45.034-0600",
"value" : {
"name" : "FTBFConfig_v98",
"assigned" : "2017-12-07T11:07:45.033-0600"
}
},
{
"event" : "addConfiguration",
"timestamp" : "2017-12-07T11:49:57.711-0600",
"value" : {
"name" : "FTBFConfig_v99",
"assigned" : "2017-12-07T11:49:57.711-0600"
}
},
{
"event" : "addConfiguration",
"timestamp" : "2017-12-07T11:58:24.426-0600",
"value" : {
"name" : "FTBFConfig_v100",
"assigned" : "2017-12-07T11:58:24.425-0600"
}
},
{
"event" : "addConfiguration",
"timestamp" : "2017-12-08T13:30:46.566-0600",
"value" : {
"name" : "FTBFConfig_v101",
"assigned" : "2017-12-08T13:30:46.566-0600"
}
},
{
"event" : "addConfiguration",
"timestamp" : "2017-12-08T13:32:33.436-0600",
"value" : {
"name" : "FTBFConfig_v102",
"assigned" : "2017-12-08T13:32:33.436-0600"
}
},
{
"event" : "addConfiguration",
"timestamp" : "2017-12-12T11:03:03.230-0600",
"value" : {
"name" : "FTBFConfig_v103",
"assigned" : "2017-12-12T11:03:03.230-0600"
}
},
{
"event" : "addConfiguration",
"timestamp" : "2017-12-12T13:50:57.604-0600",
"value" : {
"name" : "FTBFConfig_v104",
"assigned" : "2017-12-12T13:50:57.604-0600"
}
},
{
"event" : "addConfiguration",
"timestamp" : "2017-12-12T15:25:03.650-0600",
"value" : {
"name" : "FTBFConfig_v105",
"assigned" : "2017-12-12T15:25:03.650-0600"
}
},
{
"event" : "addConfiguration",
"timestamp" : "2017-12-13T10:24:22.008-0600",
"value" : {
"name" : "FTBFConfig_v106",
"assigned" : "2017-12-13T10:24:22.008-0600"
}
},
{
"event" : "addConfiguration",
"timestamp" : "2017-12-13T10:27:00.769-0600",
"value" : {
"name" : "FTBFConfig_v107",
"assigned" : "2017-12-13T10:27:00.769-0600"
}
},
{
"event" : "addConfiguration",
"timestamp" : "2018-02-01T21:14:24.231-0600",
"value" : {
"name" : "FTBFConfig_v108",
"assigned" : "2018-02-01T21:14:24.231-0600"
}
},
{
"event" : "addConfiguration",
"timestamp" : "2018-02-01T21:21:01.335-0600",
"value" : {
"name" : "FTBFConfig_v109",
"assigned" : "2018-02-01T21:21:01.335-0600"
}
},
{
"event" : "addConfiguration",
"timestamp" : "2018-02-02T11:25:32.293-0600",
"value" : {
"name" : "FTBFConfig_v110",
"assigned" : "2018-02-02T11:25:32.293-0600"
}
},
{
"event" : "addConfiguration",
"timestamp" : "2018-02-02T11:37:11.121-0600",
"value" : {
"name" : "FTBFConfig_v111",
"assigned" : "2018-02-02T11:37:11.121-0600"
}
},
{
"event" : "addConfiguration",
"timestamp" : "2018-02-02T11:47:13.595-0600",
"value" : {
"name" : "FTBFConfig_v112",
"assigned" : "2018-02-02T11:47:13.595-0600"
}
},
{
"event" : "addConfiguration",
"timestamp" : "2018-02-02T11:53:34.847-0600",
"value" : {
"name" : "FTBFConfig_v113",
"assigned" : "2018-02-02T11:53:34.847-0600"
}
},
{
"event" : "addConfiguration",
"timestamp" : "2018-02-02T12:00:50.955-0600",
"value" : {
"name" : "FTBFConfig_v114",
"assigned" : "2018-02-02T12:00:50.954-0600"
}
},
{
"event" : "addConfiguration",
"timestamp" : "2018-02-02T12:27:12.428-0600",
"value" : {
"name" : "FTBFConfig_v115",
"assigned" : "2018-02-02T12:27:12.428-0600"
}
},
{
"event" : "addConfiguration",
"timestamp" : "2018-02-02T14:28:51.949-0600",
"value" : {
"name" : "FTBFConfig_v116",
"assigned" : "2018-02-02T14:28:51.949-0600"
}
},
{
"event" : "addConfiguration",
"timestamp" : "2018-02-02T14:30:18.274-0600",
"value" : {
"name" : "FTBFConfig_v117",
"assigned" : "2018-02-02T14:30:18.274-0600"
}
},
{
"event" : "addConfiguration",
"timestamp" : "2018-02-02T14:33:59.481-0600",
"value" : {
"name" : "FTBFConfig_v118",
"assigned" : "2018-02-02T14:33:59.481-0600"
}
},
{
"event" : "addConfiguration",
"timestamp" : "2018-02-02T14:36:26.104-0600",
"value" : {
"name" : "FTBFConfig_v119",
"assigned" : "2018-02-02T14:36:26.104-0600"
}
},
{
"event" : "addConfiguration",
"timestamp" : "2018-02-02T14:38:39.459-0600",
"value" : {
"name" : "FTBFConfig_v120",
"assigned" : "2018-02-02T14:38:39.459-0600"
}
},
{
"event" : "addConfiguration",
"timestamp" : "2018-02-02T14:41:48.778-0600",
"value" : {
"name" : "FTBFConfig_v121",
"assigned" : "2018-02-02T14:41:48.778-0600"
}
},
{
"event" : "addConfiguration",
"timestamp" : "2018-02-02T14:50:22.846-0600",
"value" : {
"name" : "FTBFConfig_v122",
"assigned" : "2018-02-02T14:50:22.845-0600"
}
},
{
"event" : "addConfiguration",
"timestamp" : "2018-02-02T14:52:55.660-0600",
"value" : {
"name" : "FTBFConfig_v123",
"assigned" : "2018-02-02T14:52:55.659-0600"
}
},
{
"event" : "addConfiguration",
"timestamp" : "2018-02-02T14:59:49.011-0600",
"value" : {
"name" : "FTBFConfig_v124",
"assigned" : "2018-02-02T14:59:49.011-0600"
}
},
{
"event" : "addConfiguration",
"timestamp" : "2018-02-02T15:04:07.111-0600",
"value" : {
"name" : "FTBFConfig_v125",
"assigned" : "2018-02-02T15:04:07.111-0600"
}
},
{
"event" : "addConfiguration",
"timestamp" : "2018-02-02T15:50:10.298-0600",
"value" : {
"name" : "FTBFConfig_v126",
"assigned" : "2018-02-02T15:50:10.297-0600"
}
},
{
"event" : "addConfiguration",
"timestamp" : "2018-02-02T15:51:29.801-0600",
"value" : {
"name" : "FTBFConfig_v127",
"assigned" : "2018-02-02T15:51:29.801-0600"
}
},
{
"event" : "addConfiguration",
"timestamp" : "2018-02-02T15:52:34.950-0600",
"value" : {
"name" : "FTBFConfig_v128",
"assigned" : "2018-02-02T15:52:34.950-0600"
}
},
{
"event" : "addConfiguration",
"timestamp" : "2018-02-02T16:02:43.850-0600",
"value" : {
"name" : "FTBFConfig_v129",
"assigned" : "2018-02-02T16:02:43.850-0600"
}
},
{
"event" : "addConfiguration",
"timestamp" : "2018-02-02T16:08:43.380-0600",
"value" : {
"name" : "FTBFConfig_v130",
"assigned" : "2018-02-02T16:08:43.380-0600"
}
},
{
"event" : "addConfiguration",
"timestamp" : "2018-02-02T16:11:29.195-0600",
"value" : {
"name" : "FTBFConfig_v131",
"assigned" : "2018-02-02T16:11:29.195-0600"
}
},
{
"event" : "addConfiguration",
"timestamp" : "2018-02-02T16:12:57.072-0600",
"value" : {
"name" : "FTBFConfig_v132",
"assigned" : "2018-02-02T16:12:57.072-0600"
}
},
{
"event" : "addConfiguration",
"timestamp" : "2018-02-02T16:14:27.665-0600",
"value" : {
"name" : "FTBFConfig_v133",
"assigned" : "2018-02-02T16:14:27.665-0600"
}
},
{
"event" : "addConfiguration",
"timestamp" : "2018-02-02T16:26:20.541-0600",
"value" : {
"name" : "FTBFConfig_v134",
"assigned" : "2018-02-02T16:26:20.540-0600"
}
},
{
"event" : "addConfiguration",
"timestamp" : "2018-02-02T16:27:07.667-0600",
"value" : {
"name" : "FTBFConfig_v135",
"assigned" : "2018-02-02T16:27:07.667-0600"
}
},
{
"event" : "addConfiguration",
"timestamp" : "2018-02-02T16:29:29.019-0600",
"value" : {
"name" : "FTBFConfig_v136",
"assigned" : "2018-02-02T16:29:29.019-0600"
}
},
{
"event" : "addConfiguration",
"timestamp" : "2018-02-02T16:31:39.612-0600",
"value" : {
"name" : "FTBFConfig_v137",
"assigned" : "2018-02-02T16:31:39.611-0600"
}
},
{
"event" : "addConfiguration",
"timestamp" : "2018-02-02T16:34:12.264-0600",
"value" : {
"name" : "FTBFConfig_v138",
"assigned" : "2018-02-02T16:34:12.264-0600"
}
},
{
"event" : "addConfiguration",
"timestamp" : "2018-02-02T17:39:28.317-0600",
"value" : {
"name" : "FTBFConfig_v139",
"assigned" : "2018-02-02T17:39:28.316-0600"
}
},
{
"event" : "addConfiguration",
"timestamp" : "2018-02-02T17:42:50.492-0600",
"value" : {
"name" : "FTBFConfig_v140",
"assigned" : "2018-02-02T17:42:50.492-0600"
}
},
{
"event" : "addConfiguration",
"timestamp" : "2018-02-02T17:47:35.659-0600",
"value" : {
"name" : "FTBFConfig_v141",
"assigned" : "2018-02-02T17:47:35.659-0600"
}
},
{
"event" : "addConfiguration",
"timestamp" : "2018-02-02T17:53:59.694-0600",
"value" : {
"name" : "FTBFConfig_v142",
"assigned" : "2018-02-02T17:53:59.694-0600"
}
}
],
"created" : "2017-11-08T15:56:03.187-0600"
},
"_id" : {
"$oid" : "0f152ca517df43f6815831dc"
},
"collection" : "ARTDAQPhysicsFilterParameterConfiguration",
"aliases" : {
"active" : [

],
"history" : [

]
},
"runs" : [

],
"attachments" : [

],
"configtype" : "notprovided"
}