{
"document" : {
"data" : {
"NAME" : "XDAQ_APPLICATION_PROPERTY_CONFIGURATION",
"COMMENT" : "No comment.",
"AUTHOR" : "admin",
"CREATION_TIME" : 1511891173,
"COL_TYPES" : {
"PROPERTY_GROUP_ID" : "VARCHAR2",
"UID" : "VARCHAR2",
"STATUS" : "VARCHAR2",
"PROPERTY_NAME" : "VARCHAR2",
"PROPERTY_TYPE" : "VARCHAR2",
"PROPERTY_VALUE" : "VARCHAR2",
"COMMENT_DESCRIPTION" : "VARCHAR2",
"AUTHOR" : "VARCHAR2",
"RECORD_INSERTION_TIME" : "TIMESTAMP WITH TIMEZONE"
},
"DATA_SET" : [
{
"PROPERTY_GROUP_ID" : "DTCSupervisor0",
"UID" : "FedID",
"STATUS" : "On",
"PROPERTY_NAME" : "FedID",
"PROPERTY_TYPE" : "xsd:unsignedShort",
"PROPERTY_VALUE" : "51",
"COMMENT_DESCRIPTION" : "No Comment",
"AUTHOR" : "admin",
"RECORD_INSERTION_TIME" : "1511891173"
},
{
"PROPERTY_GROUP_ID" : "DTCSupervisor0",
"UID" : "HWDescriptionFile",
"STATUS" : "On",
"PROPERTY_NAME" : "HWDescriptionFile",
"PROPERTY_TYPE" : "xsd:string",
"PROPERTY_VALUE" : "${PH2ACF_BASE_DIR}/settings/D19CDescription.xml",
"COMMENT_DESCRIPTION" : "No Comment",
"AUTHOR" : "admin",
"RECORD_INSERTION_TIME" : "1511891173"
}
]
},
"metadata" : {

},
"search" : [

]
},
"comments" : [

],
"origin" : {
"source" : "template",
"name" : "notprovided",
"format" : "json",
"created" : "2017-11-28T11:46:13.268-0600",
"rawdata" : [

]
},
"version" : "1",
"entities" : [
{
"name" : "OTSROOT",
"assigned" : "2017-11-28T11:46:13.269-0600"
}
],
"configurations" : [
{
"name" : "notprovided",
"assigned" : "2017-11-28T11:46:13.269-0600"
},
{
"name" : "FTBFContext_v32",
"assigned" : "2017-11-28T11:47:17.844-0600"
},
{
"name" : "FTBFContext_v33",
"assigned" : "2017-11-28T12:09:40.659-0600"
},
{
"name" : "FTBFContext_v34",
"assigned" : "2017-11-28T12:18:08.132-0600"
}
],
"changelog" : "notprovided",
"bookkeeping" : {
"isdeleted" : false,
"isreadonly" : false,
"updates" : [
{
"event" : "addConfiguration",
"timestamp" : "2017-11-28T11:46:13.269-0600",
"value" : {
"name" : "notprovided",
"assigned" : "2017-11-28T11:46:13.269-0600"
}
},
{
"event" : "setVersion",
"timestamp" : "2017-11-28T11:46:13.269-0600",
"value" : {
"name" : "1",
"assigned" : "2017-11-28T11:46:13.269-0600"
}
},
{
"event" : "setCollection",
"timestamp" : "2017-11-28T11:46:13.269-0600",
"value" : {
"name" : "XDAQApplicationPropertyConfiguration",
"assigned" : "2017-11-28T11:46:13.269-0600"
}
},
{
"event" : "addEntity",
"timestamp" : "2017-11-28T11:46:13.269-0600",
"value" : {
"name" : "OTSROOT",
"assigned" : "2017-11-28T11:46:13.269-0600"
}
},
{
"event" : "addConfiguration",
"timestamp" : "2017-11-28T11:47:17.844-0600",
"value" : {
"name" : "FTBFContext_v32",
"assigned" : "2017-11-28T11:47:17.844-0600"
}
},
{
"event" : "addConfiguration",
"timestamp" : "2017-11-28T12:09:40.659-0600",
"value" : {
"name" : "FTBFContext_v33",
"assigned" : "2017-11-28T12:09:40.659-0600"
}
},
{
"event" : "addConfiguration",
"timestamp" : "2017-11-28T12:18:08.132-0600",
"value" : {
"name" : "FTBFContext_v34",
"assigned" : "2017-11-28T12:18:08.132-0600"
}
}
],
"created" : "2017-11-28T11:46:13.268-0600"
},
"_id" : {
"$oid" : "97a847fa547442e9bd853165"
},
"collection" : "XDAQApplicationPropertyConfiguration",
"aliases" : {
"active" : [

],
"history" : [

]
},
"runs" : [

],
"attachments" : [

],
"configtype" : "notprovided"
}