{
"ouid" : [
"1c3433d0bc424658bc32df19",
"36f78854f063497b886e8a10",
"4ed8db50a54f458884dd6030",
"6828ac6be1be48d49ecd554d",
"97a847fa547442e9bd853165",
"ae39a1900ca148d4983d974e",
"b3084d9b51bd4bcd86f8064b",
"c263356a232e4556b0ffd06f",
"cd88eb0517834021aa3b73a9"
],
"version" : {
"0" : [
"c263356a232e4556b0ffd06f"
],
"1" : [
"97a847fa547442e9bd853165"
],
"2" : [
"cd88eb0517834021aa3b73a9"
],
"3" : [
"6828ac6be1be48d49ecd554d"
],
"4" : [
"1c3433d0bc424658bc32df19"
],
"5" : [
"b3084d9b51bd4bcd86f8064b"
],
"6" : [
"ae39a1900ca148d4983d974e"
],
"7" : [
"36f78854f063497b886e8a10"
],
"8" : [
"4ed8db50a54f458884dd6030"
]
},
"configurations.name" : {
"notprovided" : [
"1c3433d0bc424658bc32df19",
"36f78854f063497b886e8a10",
"4ed8db50a54f458884dd6030",
"6828ac6be1be48d49ecd554d",
"97a847fa547442e9bd853165",
"ae39a1900ca148d4983d974e",
"b3084d9b51bd4bcd86f8064b",
"c263356a232e4556b0ffd06f",
"cd88eb0517834021aa3b73a9"
],
"FTBFContext_v32" : [
"97a847fa547442e9bd853165"
],
"FTBFContext_v33" : [
"97a847fa547442e9bd853165"
],
"FTBFContext_v34" : [
"97a847fa547442e9bd853165"
],
"FTBFContext_v35" : [
"cd88eb0517834021aa3b73a9"
],
"FTBFContext_v36" : [
"cd88eb0517834021aa3b73a9"
],
"FTBFContext_v37" : [
"6828ac6be1be48d49ecd554d"
],
"FTBFContext_v38" : [
"6828ac6be1be48d49ecd554d"
],
"FTBFContext_v43" : [
"6828ac6be1be48d49ecd554d"
],
"FTBFContext_v39" : [
"1c3433d0bc424658bc32df19"
],
"FTBFContext_v40" : [
"1c3433d0bc424658bc32df19"
],
"FTBFContext_v41" : [
"1c3433d0bc424658bc32df19"
],
"FTBFContext_v42" : [
"b3084d9b51bd4bcd86f8064b"
],
"FTBFContext_v44" : [
"b3084d9b51bd4bcd86f8064b"
],
"FTBFContext_v45" : [
"b3084d9b51bd4bcd86f8064b"
],
"FTBFContext_v46" : [
"ae39a1900ca148d4983d974e"
],
"FTBFContext_v47" : [
"36f78854f063497b886e8a10"
],
"FTBFContext_v48" : [
"36f78854f063497b886e8a10"
],
"FTBFContext_v49" : [
"4ed8db50a54f458884dd6030"
],
"FTBFContext_v50" : [
"4ed8db50a54f458884dd6030"
],
"FTBFContext_v51" : [
"4ed8db50a54f458884dd6030"
],
"FTBFContext_v52" : [
"4ed8db50a54f458884dd6030"
],
"FTBFContext_v53" : [
"4ed8db50a54f458884dd6030"
],
"FTBFContext_v54" : [
"4ed8db50a54f458884dd6030"
]
},
"entities.name" : {
"OTSROOT" : [
"1c3433d0bc424658bc32df19",
"36f78854f063497b886e8a10",
"4ed8db50a54f458884dd6030",
"6828ac6be1be48d49ecd554d",
"97a847fa547442e9bd853165",
"ae39a1900ca148d4983d974e",
"b3084d9b51bd4bcd86f8064b",
"c263356a232e4556b0ffd06f",
"cd88eb0517834021aa3b73a9"
]
},
"aliases.active.name" : {

},
"runs.name" : {

},
"configurations.assigned" : {
"notprovided" : [
"2017-11-28T11:45:54.654-0600",
"2017-11-28T11:46:13.269-0600",
"2017-11-28T16:52:25.164-0600",
"2017-11-29T11:25:50.321-0600",
"2017-11-30T09:28:19.613-0600",
"2017-12-01T15:41:32.349-0600",
"2017-12-01T18:00:39.488-0600",
"2017-12-01T19:52:05.284-0600",
"2017-12-02T14:48:18.255-0600"
],
"FTBFContext_v32" : [
"2017-11-28T11:47:17.844-0600"
],
"FTBFContext_v33" : [
"2017-11-28T12:09:40.659-0600"
],
"FTBFContext_v34" : [
"2017-11-28T12:18:08.132-0600"
],
"FTBFContext_v35" : [
"2017-11-28T16:52:28.429-0600"
],
"FTBFContext_v36" : [
"2017-11-28T17:27:49.944-0600"
],
"FTBFContext_v37" : [
"2017-11-29T11:25:53.593-0600"
],
"FTBFContext_v38" : [
"2017-11-29T16:45:18.730-0600"
],
"FTBFContext_v43" : [
"2017-12-01T15:49:47.135-0600"
],
"FTBFContext_v39" : [
"2017-11-30T09:28:23.028-0600"
],
"FTBFContext_v40" : [
"2017-11-30T10:12:19.756-0600"
],
"FTBFContext_v41" : [
"2017-12-01T15:35:09.921-0600"
],
"FTBFContext_v42" : [
"2017-12-01T15:41:38.433-0600"
],
"FTBFContext_v44" : [
"2017-12-01T17:07:56.902-0600"
],
"FTBFContext_v45" : [
"2017-12-01T17:10:14.278-0600"
],
"FTBFContext_v46" : [
"2017-12-01T18:00:43.945-0600"
],
"FTBFContext_v47" : [
"2017-12-01T19:52:09.526-0600"
],
"FTBFContext_v48" : [
"2017-12-02T14:47:40.104-0600"
],
"FTBFContext_v49" : [
"2017-12-02T14:48:23.259-0600"
],
"FTBFContext_v50" : [
"2017-12-02T18:54:54.964-0600"
],
"FTBFContext_v51" : [
"2017-12-02T19:09:30.316-0600"
],
"FTBFContext_v52" : [
"2017-12-03T12:01:07.964-0600"
],
"FTBFContext_v53" : [
"2017-12-04T16:40:51.061-0600"
],
"FTBFContext_v54" : [
"2018-02-03T03:00:36.856-0600"
]
}
}