{
"document" : {
"data" : {
"NAME" : "DATA_BUFFER_CONFIGURATION",
"COMMENT" : "Records for data buffer Producers and Consumers.",
"AUTHOR" : "uplegger",
"CREATION_TIME" : 1510768666,
"COL_TYPES" : {
"DATA_BUFFER_GROUP_ID" : "VARCHAR2",
"PROCESSOR_UID" : "VARCHAR2",
"PROCESSOR_TYPE" : "VARCHAR2",
"PROCESSOR_PLUGIN_NAME" : "VARCHAR2",
"LINK_TO_PROCESSOR_TABLE" : "VARCHAR2",
"LINK_TO_PROCESSOR_UID" : "VARCHAR2",
"STATUS" : "VARCHAR2",
"COMMENT_DESCRIPTION" : "VARCHAR2",
"AUTHOR" : "VARCHAR2",
"RECORD_INSERTION_TIME" : "TIMESTAMP WITH TIMEZONE"
},
"DATA_SET" : [
{
"DATA_BUFFER_GROUP_ID" : "reader0DBGroup | DBGroup0",
"PROCESSOR_UID" : "DB0Producer0",
"PROCESSOR_TYPE" : "Producer",
"PROCESSOR_PLUGIN_NAME" : "UDPDataListenerProducer",
"LINK_TO_PROCESSOR_TABLE" : "UDPDataListenerProducerConfiguration",
"LINK_TO_PROCESSOR_UID" : "UDPListener0",
"STATUS" : "On",
"COMMENT_DESCRIPTION" : "No Comment",
"AUTHOR" : "admin",
"RECORD_INSERTION_TIME" : "1479488752"
},
{
"DATA_BUFFER_GROUP_ID" : "reader0DBGroup | DBGroup0",
"PROCESSOR_UID" : "DB0Consumer0",
"PROCESSOR_TYPE" : "Consumer",
"PROCESSOR_PLUGIN_NAME" : "RawDataSaverConsumer",
"LINK_TO_PROCESSOR_TABLE" : "RawDataSaverConsumerConfiguration",
"LINK_TO_PROCESSOR_UID" : "RAWSaver0",
"STATUS" : "On",
"COMMENT_DESCRIPTION" : "No Comment",
"AUTHOR" : "admin",
"RECORD_INSERTION_TIME" : "1479770727"
},
{
"DATA_BUFFER_GROUP_ID" : "reader0DBGroup | DBGroup0",
"PROCESSOR_UID" : "DB0Consumer1",
"PROCESSOR_TYPE" : "Consumer",
"PROCESSOR_PLUGIN_NAME" : "ARTDAQConsumer",
"LINK_TO_PROCESSOR_TABLE" : "ARTDAQBoardReaderConfiguration",
"LINK_TO_PROCESSOR_UID" : "reader0",
"STATUS" : "On",
"COMMENT_DESCRIPTION" : "No Comment",
"AUTHOR" : "admin",
"RECORD_INSERTION_TIME" : "1508880470"
},
{
"DATA_BUFFER_GROUP_ID" : "DBGroup1",
"PROCESSOR_UID" : "DB1Producer0",
"PROCESSOR_TYPE" : "Producer",
"PROCESSOR_PLUGIN_NAME" : "UDPDataListenerProducer",
"LINK_TO_PROCESSOR_TABLE" : "UDPDataListenerProducerConfiguration",
"LINK_TO_PROCESSOR_UID" : "UDPListener1",
"STATUS" : "On",
"COMMENT_DESCRIPTION" : "No Comment",
"AUTHOR" : "eflumerf",
"RECORD_INSERTION_TIME" : "1509385066"
},
{
"DATA_BUFFER_GROUP_ID" : "DBGroup1",
"PROCESSOR_UID" : "DB1Consumer1",
"PROCESSOR_TYPE" : "Consumer",
"PROCESSOR_PLUGIN_NAME" : "DemoDQMHistosConsumer",
"LINK_TO_PROCESSOR_TABLE" : "DQMHistosConsumerConfiguration",
"LINK_TO_PROCESSOR_UID" : "DQMHistos0",
"STATUS" : "Off",
"COMMENT_DESCRIPTION" : "No Comment",
"AUTHOR" : "eflumerf",
"RECORD_INSERTION_TIME" : "1509384053"
},
{
"DATA_BUFFER_GROUP_ID" : "DBGroup0",
"PROCESSOR_UID" : "DB0Consumer2",
"PROCESSOR_TYPE" : "Consumer",
"PROCESSOR_PLUGIN_NAME" : "UDPDataStreamerConsumer",
"LINK_TO_PROCESSOR_TABLE" : "UDPDataStreamerConsumerConfiguration",
"LINK_TO_PROCESSOR_UID" : "UDPStreamer1",
"STATUS" : "Off",
"COMMENT_DESCRIPTION" : "No Comment",
"AUTHOR" : "admin",
"RECORD_INSERTION_TIME" : "1508871110"
},
{
"DATA_BUFFER_GROUP_ID" : "DBGroup1",
"PROCESSOR_UID" : "DB1Consumer2",
"PROCESSOR_TYPE" : "Consumer",
"PROCESSOR_PLUGIN_NAME" : "RootDQMHistosConsumer",
"LINK_TO_PROCESSOR_TABLE" : "RootDQMHistosConsumerConfiguration",
"LINK_TO_PROCESSOR_UID" : "RootDQMConsumer1",
"STATUS" : "On",
"COMMENT_DESCRIPTION" : "No Comment",
"AUTHOR" : "admin",
"RECORD_INSERTION_TIME" : "1509718256"
},
{
"DATA_BUFFER_GROUP_ID" : "DBGroup1",
"PROCESSOR_UID" : "DemoDQMConsumer",
"PROCESSOR_TYPE" : "Consumer",
"PROCESSOR_PLUGIN_NAME" : "DemoDQMHistosConsumer",
"LINK_TO_PROCESSOR_TABLE" : "DQMHistosConsumerConfiguration",
"LINK_TO_PROCESSOR_UID" : "DQMHistos0",
"STATUS" : "On",
"COMMENT_DESCRIPTION" : "No Comment",
"AUTHOR" : "admin",
"RECORD_INSERTION_TIME" : "1509718256"
},
{
"DATA_BUFFER_GROUP_ID" : "FSSR0_DataBuffer0",
"PROCESSOR_UID" : "FSSR0_DB0_Listener0",
"PROCESSOR_TYPE" : "Producer",
"PROCESSOR_PLUGIN_NAME" : "UDPDataListenerProducer",
"LINK_TO_PROCESSOR_TABLE" : "UDPDataListenerProducerConfiguration",
"LINK_TO_PROCESSOR_UID" : "FSSR0_DB0_Listener0",
"STATUS" : "On",
"COMMENT_DESCRIPTION" : "",
"AUTHOR" : "admin",
"RECORD_INSERTION_TIME" : "1509718256"
},
{
"DATA_BUFFER_GROUP_ID" : "FSSR0_DataBuffer0",
"PROCESSOR_UID" : "FSSR0_DB0_RawDataSaver0",
"PROCESSOR_TYPE" : "Consumer",
"PROCESSOR_PLUGIN_NAME" : "FSSRRawDataSaverConsumer",
"LINK_TO_PROCESSOR_TABLE" : "RawDataSaverConsumerConfiguration",
"LINK_TO_PROCESSOR_UID" : "FSSR0_DB0_RawDataSaver0",
"STATUS" : "On",
"COMMENT_DESCRIPTION" : "",
"AUTHOR" : "admin",
"RECORD_INSERTION_TIME" : "1509718256"
},
{
"DATA_BUFFER_GROUP_ID" : "FSSR0_DataBuffer0",
"PROCESSOR_UID" : "FSSR0_DB0_DataStreamer0",
"PROCESSOR_TYPE" : "Consumer",
"PROCESSOR_PLUGIN_NAME" : "UDPDataStreamerConsumer",
"LINK_TO_PROCESSOR_TABLE" : "UDPDataStreamerConsumerConfiguration",
"LINK_TO_PROCESSOR_UID" : "FSSR0_DB0_DataStreamer0",
"STATUS" : "On",
"COMMENT_DESCRIPTION" : "",
"AUTHOR" : "admin",
"RECORD_INSERTION_TIME" : "1509718256"
},
{
"DATA_BUFFER_GROUP_ID" : "FSSR1_DataBuffer0",
"PROCESSOR_UID" : "FSSR1_DB0_Listener0",
"PROCESSOR_TYPE" : "Producer",
"PROCESSOR_PLUGIN_NAME" : "UDPDataListenerProducer",
"LINK_TO_PROCESSOR_TABLE" : "UDPDataListenerProducerConfiguration",
"LINK_TO_PROCESSOR_UID" : "FSSR1_DB0_Listener0",
"STATUS" : "On",
"COMMENT_DESCRIPTION" : "",
"AUTHOR" : "admin",
"RECORD_INSERTION_TIME" : "1509718256"
},
{
"DATA_BUFFER_GROUP_ID" : "FSSR1_DataBuffer0",
"PROCESSOR_UID" : "FSSR1_DB0_RawDataSaver0",
"PROCESSOR_TYPE" : "Consumer",
"PROCESSOR_PLUGIN_NAME" : "FSSRRawDataSaverConsumer",
"LINK_TO_PROCESSOR_TABLE" : "RawDataSaverConsumerConfiguration",
"LINK_TO_PROCESSOR_UID" : "FSSR1_DB0_RawDataSaver0",
"STATUS" : "On",
"COMMENT_DESCRIPTION" : "",
"AUTHOR" : "admin",
"RECORD_INSERTION_TIME" : "1509718256"
},
{
"DATA_BUFFER_GROUP_ID" : "FSSR1_DataBuffer0",
"PROCESSOR_UID" : "FSSR1_DB0_DataStreamer0",
"PROCESSOR_TYPE" : "Consumer",
"PROCESSOR_PLUGIN_NAME" : "UDPDataStreamerConsumer",
"LINK_TO_PROCESSOR_TABLE" : "UDPDataStreamerConsumerConfiguration",
"LINK_TO_PROCESSOR_UID" : "FSSR1_DB0_DataStreamer0",
"STATUS" : "On",
"COMMENT_DESCRIPTION" : "",
"AUTHOR" : "admin",
"RECORD_INSERTION_TIME" : "1509718256"
},
{
"DATA_BUFFER_GROUP_ID" : "FSSR2_DataBuffer0",
"PROCESSOR_UID" : "FSSR2_DB0_Listener0",
"PROCESSOR_TYPE" : "Producer",
"PROCESSOR_PLUGIN_NAME" : "UDPDataListenerProducer",
"LINK_TO_PROCESSOR_TABLE" : "UDPDataListenerProducerConfiguration",
"LINK_TO_PROCESSOR_UID" : "FSSR2_DB0_Listener0",
"STATUS" : "On",
"COMMENT_DESCRIPTION" : "",
"AUTHOR" : "admin",
"RECORD_INSERTION_TIME" : "1509718256"
},
{
"DATA_BUFFER_GROUP_ID" : "FSSR2_DataBuffer0",
"PROCESSOR_UID" : "FSSR2_DB0_RawDataSaver0",
"PROCESSOR_TYPE" : "Consumer",
"PROCESSOR_PLUGIN_NAME" : "FSSRRawDataSaverConsumer",
"LINK_TO_PROCESSOR_TABLE" : "RawDataSaverConsumerConfiguration",
"LINK_TO_PROCESSOR_UID" : "FSSR2_DB0_RawDataSaver0",
"STATUS" : "On",
"COMMENT_DESCRIPTION" : "",
"AUTHOR" : "admin",
"RECORD_INSERTION_TIME" : "1509718256"
},
{
"DATA_BUFFER_GROUP_ID" : "FSSR2_DataBuffer0",
"PROCESSOR_UID" : "FSSR2_DB0_DataStreamer0",
"PROCESSOR_TYPE" : "Consumer",
"PROCESSOR_PLUGIN_NAME" : "UDPDataStreamerConsumer",
"LINK_TO_PROCESSOR_TABLE" : "UDPDataStreamerConsumerConfiguration",
"LINK_TO_PROCESSOR_UID" : "FSSR2_DB0_DataStreamer0",
"STATUS" : "On",
"COMMENT_DESCRIPTION" : "",
"AUTHOR" : "admin",
"RECORD_INSERTION_TIME" : "1509718256"
},
{
"DATA_BUFFER_GROUP_ID" : "FSSR2_DataBuffer0",
"PROCESSOR_UID" : "FSSR2_DB0_DataStreamer1",
"PROCESSOR_TYPE" : "Consumer",
"PROCESSOR_PLUGIN_NAME" : "UDPDataStreamerConsumer",
"LINK_TO_PROCESSOR_TABLE" : "UDPDataStreamerConsumerConfiguration",
"LINK_TO_PROCESSOR_UID" : "FSSR2_DB0_DataStreamer1",
"STATUS" : "On",
"COMMENT_DESCRIPTION" : "No Comment",
"AUTHOR" : "uplegger",
"RECORD_INSERTION_TIME" : "1510768666"
},
{
"DATA_BUFFER_GROUP_ID" : "FSSR3_DataBuffer0",
"PROCESSOR_UID" : "FSSR3_DB0_Listener0",
"PROCESSOR_TYPE" : "Producer",
"PROCESSOR_PLUGIN_NAME" : "UDPDataListenerProducer",
"LINK_TO_PROCESSOR_TABLE" : "UDPDataListenerProducerConfiguration",
"LINK_TO_PROCESSOR_UID" : "FSSR3_DB0_Listener0",
"STATUS" : "On",
"COMMENT_DESCRIPTION" : "",
"AUTHOR" : "uplegger",
"RECORD_INSERTION_TIME" : "1510768666"
},
{
"DATA_BUFFER_GROUP_ID" : "FSSR3_DataBuffer0",
"PROCESSOR_UID" : "FSSR3_DB0_RawDataSaver0",
"PROCESSOR_TYPE" : "Consumer",
"PROCESSOR_PLUGIN_NAME" : "FSSRRawDataSaverConsumer",
"LINK_TO_PROCESSOR_TABLE" : "RawDataSaverConsumerConfiguration",
"LINK_TO_PROCESSOR_UID" : "FSSR3_DB0_RawDataSaver0",
"STATUS" : "On",
"COMMENT_DESCRIPTION" : "",
"AUTHOR" : "uplegger",
"RECORD_INSERTION_TIME" : "1510768666"
},
{
"DATA_BUFFER_GROUP_ID" : "FSSR3_DataBuffer0",
"PROCESSOR_UID" : "FSSR3_DB0_DataStreamer0",
"PROCESSOR_TYPE" : "Consumer",
"PROCESSOR_PLUGIN_NAME" : "UDPDataStreamerConsumer",
"LINK_TO_PROCESSOR_TABLE" : "UDPDataStreamerConsumerConfiguration",
"LINK_TO_PROCESSOR_UID" : "FSSR3_DB0_DataStreamer0",
"STATUS" : "On",
"COMMENT_DESCRIPTION" : "",
"AUTHOR" : "uplegger",
"RECORD_INSERTION_TIME" : "1510768666"
},
{
"DATA_BUFFER_GROUP_ID" : "NIMPlus0_DataBuffer0",
"PROCESSOR_UID" : "NIMPlus0_DB0_Listener0",
"PROCESSOR_TYPE" : "Producer",
"PROCESSOR_PLUGIN_NAME" : "UDPDataListenerProducer",
"LINK_TO_PROCESSOR_TABLE" : "UDPDataListenerProducerConfiguration",
"LINK_TO_PROCESSOR_UID" : "NIMPlus0_DB0_Listener0",
"STATUS" : "On",
"COMMENT_DESCRIPTION" : "No Comment",
"AUTHOR" : "uplegger",
"RECORD_INSERTION_TIME" : "1510768666"
},
{
"DATA_BUFFER_GROUP_ID" : "NIMPlus0_DataBuffer0",
"PROCESSOR_UID" : "NIMPlus0_DB0_RawDataSaver0",
"PROCESSOR_TYPE" : "Consumer",
"PROCESSOR_PLUGIN_NAME" : "RawDataSaverConsumer",
"LINK_TO_PROCESSOR_TABLE" : "RawDataSaverConsumerConfiguration",
"LINK_TO_PROCESSOR_UID" : "NIMPlus0_DB0_RawDataSaver0",
"STATUS" : "On",
"COMMENT_DESCRIPTION" : "No Comment",
"AUTHOR" : "uplegger",
"RECORD_INSERTION_TIME" : "1510768666"
},
{
"DATA_BUFFER_GROUP_ID" : "CMSTiming0_DataBuffer0",
"PROCESSOR_UID" : "CMSTiming0_DB0_Listener0",
"PROCESSOR_TYPE" : "Producer",
"PROCESSOR_PLUGIN_NAME" : "UDPDataListenerProducer",
"LINK_TO_PROCESSOR_TABLE" : "UDPDataListenerProducerConfiguration",
"LINK_TO_PROCESSOR_UID" : "CMSTiming0_DB0_Listener0",
"STATUS" : "On",
"COMMENT_DESCRIPTION" : "",
"AUTHOR" : "uplegger",
"RECORD_INSERTION_TIME" : "1510768666"
},
{
"DATA_BUFFER_GROUP_ID" : "CMSTiming0_DataBuffer0",
"PROCESSOR_UID" : "CMSTiming0_DB0_RawDataSaver0",
"PROCESSOR_TYPE" : "Consumer",
"PROCESSOR_PLUGIN_NAME" : "CMSTimingRawDataSaverConsumer",
"LINK_TO_PROCESSOR_TABLE" : "RawDataSaverConsumerConfiguration",
"LINK_TO_PROCESSOR_UID" : "CMSTiming0_DB0_RawDataSaver0",
"STATUS" : "On",
"COMMENT_DESCRIPTION" : "",
"AUTHOR" : "uplegger",
"RECORD_INSERTION_TIME" : "1510768666"
},
{
"DATA_BUFFER_GROUP_ID" : "VisualBuffer",
"PROCESSOR_UID" : "VBListener0",
"PROCESSOR_TYPE" : "Producer",
"PROCESSOR_PLUGIN_NAME" : "UDPDataListenerProducer",
"LINK_TO_PROCESSOR_TABLE" : "UDPDataListenerProducerConfiguration",
"LINK_TO_PROCESSOR_UID" : "VBListener0",
"STATUS" : "On",
"COMMENT_DESCRIPTION" : "",
"AUTHOR" : "uplegger",
"RECORD_INSERTION_TIME" : "1510768666"
},
{
"DATA_BUFFER_GROUP_ID" : "VisualBuffer",
"PROCESSOR_UID" : "VBOTDQMHistos",
"PROCESSOR_TYPE" : "Consumer",
"PROCESSOR_PLUGIN_NAME" : "OTDQMHistosConsumer",
"LINK_TO_PROCESSOR_TABLE" : "OTDQMHistosConsumerConfiguration",
"LINK_TO_PROCESSOR_UID" : "VBOTDQMHistos",
"STATUS" : "Off",
"COMMENT_DESCRIPTION" : "",
"AUTHOR" : "uplegger",
"RECORD_INSERTION_TIME" : "1510768666"
},
{
"DATA_BUFFER_GROUP_ID" : "VisualBuffer",
"PROCESSOR_UID" : "VBFSSRDQMHistos",
"PROCESSOR_TYPE" : "Consumer",
"PROCESSOR_PLUGIN_NAME" : "FSSRDQMHistosConsumer",
"LINK_TO_PROCESSOR_TABLE" : "FSSRDQMHistosConsumerConfiguration",
"LINK_TO_PROCESSOR_UID" : "VBFSSRDQMHistos",
"STATUS" : "On",
"COMMENT_DESCRIPTION" : "",
"AUTHOR" : "uplegger",
"RECORD_INSERTION_TIME" : "1510768666"
}
]
},
"metadata" : {

},
"search" : [

]
},
"comments" : [

],
"origin" : {
"source" : "template",
"name" : "notprovided",
"format" : "json",
"created" : "2017-11-15T11:57:46.718-0600",
"rawdata" : [

]
},
"version" : "2",
"entities" : [
{
"name" : "OTSROOT",
"assigned" : "2017-11-15T11:57:46.725-0600"
}
],
"configurations" : [
{
"name" : "notprovided",
"assigned" : "2017-11-15T11:57:46.721-0600"
},
{
"name" : "FTBFConfig_v6",
"assigned" : "2017-11-15T11:57:49.719-0600"
},
{
"name" : "FTBFConfig_v7",
"assigned" : "2017-11-15T12:42:32.113-0600"
},
{
"name" : "FTBFConfig_v8",
"assigned" : "2017-11-15T13:01:03.207-0600"
},
{
"name" : "FTBFConfig_v9",
"assigned" : "2017-11-15T13:02:56.539-0600"
},
{
"name" : "FTBFConfig_v10",
"assigned" : "2017-11-15T13:04:24.118-0600"
},
{
"name" : "FTBFConfig_v11",
"assigned" : "2017-11-15T13:07:51.623-0600"
},
{
"name" : "FTBFConfig_v12",
"assigned" : "2017-11-15T13:11:59.082-0600"
},
{
"name" : "FTBFConfig_v13",
"assigned" : "2017-11-15T13:13:53.022-0600"
},
{
"name" : "FTBFConfig_v14",
"assigned" : "2017-11-15T13:27:29.454-0600"
},
{
"name" : "FTBFConfig_v15",
"assigned" : "2017-11-15T13:35:47.030-0600"
},
{
"name" : "FTBFConfig_v16",
"assigned" : "2017-11-15T13:36:51.642-0600"
},
{
"name" : "FTBFConfig_v17",
"assigned" : "2017-11-15T15:33:30.183-0600"
}
],
"changelog" : "notprovided",
"bookkeeping" : {
"isdeleted" : false,
"isreadonly" : false,
"updates" : [
{
"event" : "addConfiguration",
"timestamp" : "2017-11-15T11:57:46.721-0600",
"value" : {
"name" : "notprovided",
"assigned" : "2017-11-15T11:57:46.721-0600"
}
},
{
"event" : "setVersion",
"timestamp" : "2017-11-15T11:57:46.723-0600",
"value" : {
"name" : "2",
"assigned" : "2017-11-15T11:57:46.723-0600"
}
},
{
"event" : "setCollection",
"timestamp" : "2017-11-15T11:57:46.724-0600",
"value" : {
"name" : "DataBufferConfiguration",
"assigned" : "2017-11-15T11:57:46.724-0600"
}
},
{
"event" : "addEntity",
"timestamp" : "2017-11-15T11:57:46.725-0600",
"value" : {
"name" : "OTSROOT",
"assigned" : "2017-11-15T11:57:46.725-0600"
}
},
{
"event" : "addConfiguration",
"timestamp" : "2017-11-15T11:57:49.719-0600",
"value" : {
"name" : "FTBFConfig_v6",
"assigned" : "2017-11-15T11:57:49.719-0600"
}
},
{
"event" : "addConfiguration",
"timestamp" : "2017-11-15T12:42:32.113-0600",
"value" : {
"name" : "FTBFConfig_v7",
"assigned" : "2017-11-15T12:42:32.113-0600"
}
},
{
"event" : "addConfiguration",
"timestamp" : "2017-11-15T13:01:03.207-0600",
"value" : {
"name" : "FTBFConfig_v8",
"assigned" : "2017-11-15T13:01:03.207-0600"
}
},
{
"event" : "addConfiguration",
"timestamp" : "2017-11-15T13:02:56.539-0600",
"value" : {
"name" : "FTBFConfig_v9",
"assigned" : "2017-11-15T13:02:56.539-0600"
}
},
{
"event" : "addConfiguration",
"timestamp" : "2017-11-15T13:04:24.118-0600",
"value" : {
"name" : "FTBFConfig_v10",
"assigned" : "2017-11-15T13:04:24.118-0600"
}
},
{
"event" : "addConfiguration",
"timestamp" : "2017-11-15T13:07:51.623-0600",
"value" : {
"name" : "FTBFConfig_v11",
"assigned" : "2017-11-15T13:07:51.623-0600"
}
},
{
"event" : "addConfiguration",
"timestamp" : "2017-11-15T13:11:59.083-0600",
"value" : {
"name" : "FTBFConfig_v12",
"assigned" : "2017-11-15T13:11:59.082-0600"
}
},
{
"event" : "addConfiguration",
"timestamp" : "2017-11-15T13:13:53.022-0600",
"value" : {
"name" : "FTBFConfig_v13",
"assigned" : "2017-11-15T13:13:53.022-0600"
}
},
{
"event" : "addConfiguration",
"timestamp" : "2017-11-15T13:27:29.454-0600",
"value" : {
"name" : "FTBFConfig_v14",
"assigned" : "2017-11-15T13:27:29.454-0600"
}
},
{
"event" : "addConfiguration",
"timestamp" : "2017-11-15T13:35:47.030-0600",
"value" : {
"name" : "FTBFConfig_v15",
"assigned" : "2017-11-15T13:35:47.030-0600"
}
},
{
"event" : "addConfiguration",
"timestamp" : "2017-11-15T13:36:51.642-0600",
"value" : {
"name" : "FTBFConfig_v16",
"assigned" : "2017-11-15T13:36:51.642-0600"
}
},
{
"event" : "addConfiguration",
"timestamp" : "2017-11-15T15:33:30.183-0600",
"value" : {
"name" : "FTBFConfig_v17",
"assigned" : "2017-11-15T15:33:30.183-0600"
}
}
],
"created" : "2017-11-15T11:57:46.718-0600"
},
"_id" : {
"$oid" : "39de4538282949159b955581"
},
"collection" : "DataBufferConfiguration",
"aliases" : {
"active" : [

],
"history" : [

]
},
"runs" : [

],
"attachments" : [

],
"configtype" : "notprovided"
}