{
"document" : {
"data" : {
"NAME" : "DATA_BUFFER_CONFIGURATION",
"COMMENT" : "Records for data buffer Producers and Consumers.",
"AUTHOR" : "admin",
"CREATION_TIME" : 1510781878,
"COL_TYPES" : {
"DATA_BUFFER_GROUP_ID" : "VARCHAR2",
"PROCESSOR_UID" : "VARCHAR2",
"PROCESSOR_TYPE" : "VARCHAR2",
"PROCESSOR_PLUGIN_NAME" : "VARCHAR2",
"LINK_TO_PROCESSOR_TABLE" : "VARCHAR2",
"LINK_TO_PROCESSOR_UID" : "VARCHAR2",
"STATUS" : "VARCHAR2",
"COMMENT_DESCRIPTION" : "VARCHAR2",
"AUTHOR" : "VARCHAR2",
"RECORD_INSERTION_TIME" : "TIMESTAMP WITH TIMEZONE"
},
"DATA_SET" : [
{
"DATA_BUFFER_GROUP_ID" : "reader0DBGroup | DBGroup0",
"PROCESSOR_UID" : "DB0Producer0",
"PROCESSOR_TYPE" : "Producer",
"PROCESSOR_PLUGIN_NAME" : "UDPDataListenerProducer",
"LINK_TO_PROCESSOR_TABLE" : "UDPDataListenerProducerConfiguration",
"LINK_TO_PROCESSOR_UID" : "UDPListener0",
"STATUS" : "On",
"COMMENT_DESCRIPTION" : "No Comment",
"AUTHOR" : "admin",
"RECORD_INSERTION_TIME" : "1479488752"
},
{
"DATA_BUFFER_GROUP_ID" : "reader0DBGroup | DBGroup0",
"PROCESSOR_UID" : "DB0Consumer0",
"PROCESSOR_TYPE" : "Consumer",
"PROCESSOR_PLUGIN_NAME" : "RawDataSaverConsumer",
"LINK_TO_PROCESSOR_TABLE" : "RawDataSaverConsumerConfiguration",
"LINK_TO_PROCESSOR_UID" : "RAWSaver0",
"STATUS" : "On",
"COMMENT_DESCRIPTION" : "No Comment",
"AUTHOR" : "admin",
"RECORD_INSERTION_TIME" : "1479770727"
},
{
"DATA_BUFFER_GROUP_ID" : "reader0DBGroup | DBGroup0",
"PROCESSOR_UID" : "DB0Consumer1",
"PROCESSOR_TYPE" : "Consumer",
"PROCESSOR_PLUGIN_NAME" : "ARTDAQConsumer",
"LINK_TO_PROCESSOR_TABLE" : "ARTDAQBoardReaderConfiguration",
"LINK_TO_PROCESSOR_UID" : "reader0",
"STATUS" : "On",
"COMMENT_DESCRIPTION" : "No Comment",
"AUTHOR" : "admin",
"RECORD_INSERTION_TIME" : "1508880470"
},
{
"DATA_BUFFER_GROUP_ID" : "DBGroup1",
"PROCESSOR_UID" : "DB1Producer0",
"PROCESSOR_TYPE" : "Producer",
"PROCESSOR_PLUGIN_NAME" : "UDPDataListenerProducer",
"LINK_TO_PROCESSOR_TABLE" : "UDPDataListenerProducerConfiguration",
"LINK_TO_PROCESSOR_UID" : "UDPListener1",
"STATUS" : "On",
"COMMENT_DESCRIPTION" : "No Comment",
"AUTHOR" : "eflumerf",
"RECORD_INSERTION_TIME" : "1509385066"
},
{
"DATA_BUFFER_GROUP_ID" : "DBGroup1",
"PROCESSOR_UID" : "DB1Consumer1",
"PROCESSOR_TYPE" : "Consumer",
"PROCESSOR_PLUGIN_NAME" : "DemoDQMHistosConsumer",
"LINK_TO_PROCESSOR_TABLE" : "DQMHistosConsumerConfiguration",
"LINK_TO_PROCESSOR_UID" : "DQMHistos0",
"STATUS" : "Off",
"COMMENT_DESCRIPTION" : "No Comment",
"AUTHOR" : "eflumerf",
"RECORD_INSERTION_TIME" : "1509384053"
},
{
"DATA_BUFFER_GROUP_ID" : "DBGroup0",
"PROCESSOR_UID" : "DB0Consumer2",
"PROCESSOR_TYPE" : "Consumer",
"PROCESSOR_PLUGIN_NAME" : "UDPDataStreamerConsumer",
"LINK_TO_PROCESSOR_TABLE" : "UDPDataStreamerConsumerConfiguration",
"LINK_TO_PROCESSOR_UID" : "UDPStreamer1",
"STATUS" : "Off",
"COMMENT_DESCRIPTION" : "No Comment",
"AUTHOR" : "admin",
"RECORD_INSERTION_TIME" : "1508871110"
},
{
"DATA_BUFFER_GROUP_ID" : "DBGroup1",
"PROCESSOR_UID" : "DB1Consumer2",
"PROCESSOR_TYPE" : "Consumer",
"PROCESSOR_PLUGIN_NAME" : "RootDQMHistosConsumer",
"LINK_TO_PROCESSOR_TABLE" : "RootDQMHistosConsumerConfiguration",
"LINK_TO_PROCESSOR_UID" : "RootDQMConsumer1",
"STATUS" : "On",
"COMMENT_DESCRIPTION" : "No Comment",
"AUTHOR" : "admin",
"RECORD_INSERTION_TIME" : "1509718256"
},
{
"DATA_BUFFER_GROUP_ID" : "DBGroup1",
"PROCESSOR_UID" : "DemoDQMConsumer",
"PROCESSOR_TYPE" : "Consumer",
"PROCESSOR_PLUGIN_NAME" : "DemoDQMHistosConsumer",
"LINK_TO_PROCESSOR_TABLE" : "DQMHistosConsumerConfiguration",
"LINK_TO_PROCESSOR_UID" : "DQMHistos0",
"STATUS" : "On",
"COMMENT_DESCRIPTION" : "No Comment",
"AUTHOR" : "admin",
"RECORD_INSERTION_TIME" : "1509718256"
},
{
"DATA_BUFFER_GROUP_ID" : "FSSR0_DataBuffer0",
"PROCESSOR_UID" : "FSSR0_DB0_Listener0",
"PROCESSOR_TYPE" : "Producer",
"PROCESSOR_PLUGIN_NAME" : "UDPDataListenerProducer",
"LINK_TO_PROCESSOR_TABLE" : "UDPDataListenerProducerConfiguration",
"LINK_TO_PROCESSOR_UID" : "FSSR0_DB0_Listener0",
"STATUS" : "On",
"COMMENT_DESCRIPTION" : "",
"AUTHOR" : "admin",
"RECORD_INSERTION_TIME" : "1509718256"
},
{
"DATA_BUFFER_GROUP_ID" : "FSSR0_DataBuffer0",
"PROCESSOR_UID" : "FSSR0_DB0_RawDataSaver0",
"PROCESSOR_TYPE" : "Consumer",
"PROCESSOR_PLUGIN_NAME" : "FSSRRawDataSaverConsumer",
"LINK_TO_PROCESSOR_TABLE" : "RawDataSaverConsumerConfiguration",
"LINK_TO_PROCESSOR_UID" : "FSSR0_DB0_RawDataSaver0",
"STATUS" : "On",
"COMMENT_DESCRIPTION" : "",
"AUTHOR" : "admin",
"RECORD_INSERTION_TIME" : "1509718256"
},
{
"DATA_BUFFER_GROUP_ID" : "FSSR0_DataBuffer0",
"PROCESSOR_UID" : "FSSR0_DB0_DataStreamer0",
"PROCESSOR_TYPE" : "Consumer",
"PROCESSOR_PLUGIN_NAME" : "UDPDataStreamerConsumer",
"LINK_TO_PROCESSOR_TABLE" : "UDPDataStreamerConsumerConfiguration",
"LINK_TO_PROCESSOR_UID" : "FSSR0_DB0_DataStreamer0",
"STATUS" : "On",
"COMMENT_DESCRIPTION" : "",
"AUTHOR" : "admin",
"RECORD_INSERTION_TIME" : "1509718256"
},
{
"DATA_BUFFER_GROUP_ID" : "FSSR1_DataBuffer0",
"PROCESSOR_UID" : "FSSR1_DB0_Listener0",
"PROCESSOR_TYPE" : "Producer",
"PROCESSOR_PLUGIN_NAME" : "UDPDataListenerProducer",
"LINK_TO_PROCESSOR_TABLE" : "UDPDataListenerProducerConfiguration",
"LINK_TO_PROCESSOR_UID" : "FSSR1_DB0_Listener0",
"STATUS" : "On",
"COMMENT_DESCRIPTION" : "",
"AUTHOR" : "admin",
"RECORD_INSERTION_TIME" : "1509718256"
},
{
"DATA_BUFFER_GROUP_ID" : "FSSR1_DataBuffer0",
"PROCESSOR_UID" : "FSSR1_DB0_RawDataSaver0",
"PROCESSOR_TYPE" : "Consumer",
"PROCESSOR_PLUGIN_NAME" : "FSSRRawDataSaverConsumer",
"LINK_TO_PROCESSOR_TABLE" : "RawDataSaverConsumerConfiguration",
"LINK_TO_PROCESSOR_UID" : "FSSR1_DB0_RawDataSaver0",
"STATUS" : "On",
"COMMENT_DESCRIPTION" : "",
"AUTHOR" : "admin",
"RECORD_INSERTION_TIME" : "1509718256"
},
{
"DATA_BUFFER_GROUP_ID" : "FSSR1_DataBuffer0",
"PROCESSOR_UID" : "FSSR1_DB0_DataStreamer0",
"PROCESSOR_TYPE" : "Consumer",
"PROCESSOR_PLUGIN_NAME" : "UDPDataStreamerConsumer",
"LINK_TO_PROCESSOR_TABLE" : "UDPDataStreamerConsumerConfiguration",
"LINK_TO_PROCESSOR_UID" : "FSSR1_DB0_DataStreamer0",
"STATUS" : "On",
"COMMENT_DESCRIPTION" : "",
"AUTHOR" : "admin",
"RECORD_INSERTION_TIME" : "1509718256"
},
{
"DATA_BUFFER_GROUP_ID" : "FSSR2_DataBuffer0",
"PROCESSOR_UID" : "FSSR2_DB0_Listener0",
"PROCESSOR_TYPE" : "Producer",
"PROCESSOR_PLUGIN_NAME" : "UDPDataListenerProducer",
"LINK_TO_PROCESSOR_TABLE" : "UDPDataListenerProducerConfiguration",
"LINK_TO_PROCESSOR_UID" : "FSSR2_DB0_Listener0",
"STATUS" : "On",
"COMMENT_DESCRIPTION" : "",
"AUTHOR" : "admin",
"RECORD_INSERTION_TIME" : "1509718256"
},
{
"DATA_BUFFER_GROUP_ID" : "FSSR2_DataBuffer0",
"PROCESSOR_UID" : "FSSR2_DB0_RawDataSaver0",
"PROCESSOR_TYPE" : "Consumer",
"PROCESSOR_PLUGIN_NAME" : "FSSRRawDataSaverConsumer",
"LINK_TO_PROCESSOR_TABLE" : "RawDataSaverConsumerConfiguration",
"LINK_TO_PROCESSOR_UID" : "FSSR2_DB0_RawDataSaver0",
"STATUS" : "On",
"COMMENT_DESCRIPTION" : "",
"AUTHOR" : "admin",
"RECORD_INSERTION_TIME" : "1509718256"
},
{
"DATA_BUFFER_GROUP_ID" : "FSSR2_DataBuffer0",
"PROCESSOR_UID" : "FSSR2_DB0_DataStreamer0",
"PROCESSOR_TYPE" : "Consumer",
"PROCESSOR_PLUGIN_NAME" : "UDPDataStreamerConsumer",
"LINK_TO_PROCESSOR_TABLE" : "UDPDataStreamerConsumerConfiguration",
"LINK_TO_PROCESSOR_UID" : "FSSR2_DB0_DataStreamer0",
"STATUS" : "On",
"COMMENT_DESCRIPTION" : "",
"AUTHOR" : "admin",
"RECORD_INSERTION_TIME" : "1509718256"
},
{
"DATA_BUFFER_GROUP_ID" : "FSSR2_DataBuffer0",
"PROCESSOR_UID" : "FSSR2_DB0_DataStreamer1",
"PROCESSOR_TYPE" : "Consumer",
"PROCESSOR_PLUGIN_NAME" : "UDPDataStreamerConsumer",
"LINK_TO_PROCESSOR_TABLE" : "UDPDataStreamerConsumerConfiguration",
"LINK_TO_PROCESSOR_UID" : "FSSR2_DB0_DataStreamer1",
"STATUS" : "On",
"COMMENT_DESCRIPTION" : "No Comment",
"AUTHOR" : "uplegger",
"RECORD_INSERTION_TIME" : "1510768666"
},
{
"DATA_BUFFER_GROUP_ID" : "FSSR3_DataBuffer0",
"PROCESSOR_UID" : "FSSR3_DB0_Listener0",
"PROCESSOR_TYPE" : "Producer",
"PROCESSOR_PLUGIN_NAME" : "UDPDataListenerProducer",
"LINK_TO_PROCESSOR_TABLE" : "UDPDataListenerProducerConfiguration",
"LINK_TO_PROCESSOR_UID" : "FSSR3_DB0_Listener0",
"STATUS" : "On",
"COMMENT_DESCRIPTION" : "",
"AUTHOR" : "uplegger",
"RECORD_INSERTION_TIME" : "1510768666"
},
{
"DATA_BUFFER_GROUP_ID" : "FSSR3_DataBuffer0",
"PROCESSOR_UID" : "FSSR3_DB0_RawDataSaver0",
"PROCESSOR_TYPE" : "Consumer",
"PROCESSOR_PLUGIN_NAME" : "FSSRRawDataSaverConsumer",
"LINK_TO_PROCESSOR_TABLE" : "RawDataSaverConsumerConfiguration",
"LINK_TO_PROCESSOR_UID" : "FSSR3_DB0_RawDataSaver0",
"STATUS" : "On",
"COMMENT_DESCRIPTION" : "",
"AUTHOR" : "uplegger",
"RECORD_INSERTION_TIME" : "1510768666"
},
{
"DATA_BUFFER_GROUP_ID" : "FSSR3_DataBuffer0",
"PROCESSOR_UID" : "FSSR3_DB0_DataStreamer0",
"PROCESSOR_TYPE" : "Consumer",
"PROCESSOR_PLUGIN_NAME" : "UDPDataStreamerConsumer",
"LINK_TO_PROCESSOR_TABLE" : "UDPDataStreamerConsumerConfiguration",
"LINK_TO_PROCESSOR_UID" : "FSSR3_DB0_DataStreamer0",
"STATUS" : "On",
"COMMENT_DESCRIPTION" : "",
"AUTHOR" : "uplegger",
"RECORD_INSERTION_TIME" : "1510768666"
},
{
"DATA_BUFFER_GROUP_ID" : "NIMPlus0_DataBuffer0",
"PROCESSOR_UID" : "NIMPlus0_DB0_Listener0",
"PROCESSOR_TYPE" : "Producer",
"PROCESSOR_PLUGIN_NAME" : "UDPDataListenerProducer",
"LINK_TO_PROCESSOR_TABLE" : "UDPDataListenerProducerConfiguration",
"LINK_TO_PROCESSOR_UID" : "NIMPlus0_DB0_Listener0",
"STATUS" : "On",
"COMMENT_DESCRIPTION" : "No Comment",
"AUTHOR" : "uplegger",
"RECORD_INSERTION_TIME" : "1510768666"
},
{
"DATA_BUFFER_GROUP_ID" : "NIMPlus0_DataBuffer0",
"PROCESSOR_UID" : "NIMPlus0_DB0_RawDataSaver0",
"PROCESSOR_TYPE" : "Consumer",
"PROCESSOR_PLUGIN_NAME" : "RawDataSaverConsumer",
"LINK_TO_PROCESSOR_TABLE" : "RawDataSaverConsumerConfiguration",
"LINK_TO_PROCESSOR_UID" : "NIMPlus0_DB0_RawDataSaver0",
"STATUS" : "On",
"COMMENT_DESCRIPTION" : "No Comment",
"AUTHOR" : "uplegger",
"RECORD_INSERTION_TIME" : "1510768666"
},
{
"DATA_BUFFER_GROUP_ID" : "CMSTiming0_DataBuffer0",
"PROCESSOR_UID" : "CMSTiming0_DB0_Listener0",
"PROCESSOR_TYPE" : "Producer",
"PROCESSOR_PLUGIN_NAME" : "UDPDataListenerProducer",
"LINK_TO_PROCESSOR_TABLE" : "UDPDataListenerProducerConfiguration",
"LINK_TO_PROCESSOR_UID" : "CMSTiming0_DB0_Listener0",
"STATUS" : "On",
"COMMENT_DESCRIPTION" : "",
"AUTHOR" : "uplegger",
"RECORD_INSERTION_TIME" : "1510768666"
},
{
"DATA_BUFFER_GROUP_ID" : "CMSTiming0_DataBuffer0",
"PROCESSOR_UID" : "CMSTiming0_DB0_RawDataSaver0",
"PROCESSOR_TYPE" : "Consumer",
"PROCESSOR_PLUGIN_NAME" : "CMSTimingRawDataSaverConsumer",
"LINK_TO_PROCESSOR_TABLE" : "RawDataSaverConsumerConfiguration",
"LINK_TO_PROCESSOR_UID" : "CMSTiming0_DB0_RawDataSaver0",
"STATUS" : "On",
"COMMENT_DESCRIPTION" : "",
"AUTHOR" : "uplegger",
"RECORD_INSERTION_TIME" : "1510768666"
},
{
"DATA_BUFFER_GROUP_ID" : "VisualBuffer",
"PROCESSOR_UID" : "VBListener0",
"PROCESSOR_TYPE" : "Producer",
"PROCESSOR_PLUGIN_NAME" : "UDPDataListenerProducer",
"LINK_TO_PROCESSOR_TABLE" : "UDPDataListenerProducerConfiguration",
"LINK_TO_PROCESSOR_UID" : "VBListener0",
"STATUS" : "On",
"COMMENT_DESCRIPTION" : "",
"AUTHOR" : "uplegger",
"RECORD_INSERTION_TIME" : "1510768666"
},
{
"DATA_BUFFER_GROUP_ID" : "VisualBuffer",
"PROCESSOR_UID" : "VBOTDQMHistos",
"PROCESSOR_TYPE" : "Consumer",
"PROCESSOR_PLUGIN_NAME" : "OTDQMHistosConsumer",
"LINK_TO_PROCESSOR_TABLE" : "OTDQMHistosConsumerConfiguration",
"LINK_TO_PROCESSOR_UID" : "VBOTDQMHistos",
"STATUS" : "Off",
"COMMENT_DESCRIPTION" : "",
"AUTHOR" : "uplegger",
"RECORD_INSERTION_TIME" : "1510768666"
},
{
"DATA_BUFFER_GROUP_ID" : "VisualBuffer",
"PROCESSOR_UID" : "VBFSSRDQMHistos",
"PROCESSOR_TYPE" : "Consumer",
"PROCESSOR_PLUGIN_NAME" : "FSSRDQMHistosConsumer",
"LINK_TO_PROCESSOR_TABLE" : "FSSRDQMHistosConsumerConfiguration",
"LINK_TO_PROCESSOR_UID" : "VBFSSRDQMHistos",
"STATUS" : "On",
"COMMENT_DESCRIPTION" : "",
"AUTHOR" : "uplegger",
"RECORD_INSERTION_TIME" : "1510768666"
},
{
"DATA_BUFFER_GROUP_ID" : "ARTDAQreaderStrips2",
"PROCESSOR_UID" : "ARTDAQreaderStrips2_ProducerOnly",
"PROCESSOR_TYPE" : "Producer",
"PROCESSOR_PLUGIN_NAME" : "ARTDAQProducer",
"LINK_TO_PROCESSOR_TABLE" : "ARTDAQBoardReaderConfiguration",
"LINK_TO_PROCESSOR_UID" : "readerStripsOnly0",
"STATUS" : "On",
"COMMENT_DESCRIPTION" : "No Comment",
"AUTHOR" : "admin",
"RECORD_INSERTION_TIME" : "1510781865"
}
]
},
"metadata" : {

},
"search" : [

]
},
"comments" : [

],
"origin" : {
"source" : "template",
"name" : "notprovided",
"format" : "json",
"created" : "2017-11-15T15:37:58.878-0600",
"rawdata" : [

]
},
"version" : "4",
"entities" : [
{
"name" : "OTSROOT",
"assigned" : "2017-11-15T15:37:58.885-0600"
}
],
"configurations" : [
{
"name" : "notprovided",
"assigned" : "2017-11-15T15:37:58.881-0600"
},
{
"name" : "FTBFConfig_v19",
"assigned" : "2017-11-15T15:38:02.661-0600"
},
{
"name" : "FTBFConfig_v20",
"assigned" : "2017-11-15T16:26:30.536-0600"
},
{
"name" : "FTBFConfig_v21",
"assigned" : "2017-11-16T09:22:31.467-0600"
},
{
"name" : "FTBFConfig_v22",
"assigned" : "2017-11-17T10:23:27.683-0600"
},
{
"name" : "FTBFConfig_v23",
"assigned" : "2017-11-17T17:26:45.241-0600"
},
{
"name" : "FTBFConfig_v24",
"assigned" : "2017-11-17T17:58:25.759-0600"
},
{
"name" : "FTBFConfig_v25",
"assigned" : "2017-11-17T18:24:45.413-0600"
},
{
"name" : "FTBFConfig_v26",
"assigned" : "2017-11-17T18:32:22.911-0600"
},
{
"name" : "FTBFConfig_v27",
"assigned" : "2017-11-17T18:43:30.079-0600"
},
{
"name" : "FTBFConfig_v28",
"assigned" : "2017-11-17T18:48:32.118-0600"
},
{
"name" : "FTBFConfig_v29",
"assigned" : "2017-11-20T14:48:30.809-0600"
},
{
"name" : "FTBFConfig_v30",
"assigned" : "2017-11-20T15:39:55.953-0600"
},
{
"name" : "FTBFConfig_v31",
"assigned" : "2017-11-20T16:41:01.933-0600"
},
{
"name" : "FTBFConfig_v32",
"assigned" : "2017-11-20T18:55:34.881-0600"
},
{
"name" : "FTBFConfig_v33",
"assigned" : "2017-11-20T18:57:30.159-0600"
},
{
"name" : "FTBFConfig_v34",
"assigned" : "2017-11-29T17:50:39.643-0600"
},
{
"name" : "FTBFConfig_v35",
"assigned" : "2017-11-29T18:00:32.599-0600"
},
{
"name" : "FTBFConfig_v36",
"assigned" : "2017-11-29T18:35:11.317-0600"
},
{
"name" : "FTBFConfig_v37",
"assigned" : "2017-12-01T09:36:17.679-0600"
},
{
"name" : "FTBFConfig_v38",
"assigned" : "2017-12-01T09:52:01.020-0600"
},
{
"name" : "FTBFConfig_v39",
"assigned" : "2017-12-01T11:51:58.272-0600"
},
{
"name" : "FTBFConfig_v40",
"assigned" : "2017-12-01T12:18:20.247-0600"
},
{
"name" : "FTBFConfig_v41",
"assigned" : "2017-12-01T12:21:02.377-0600"
},
{
"name" : "FTBFConfig_v42",
"assigned" : "2017-12-01T12:43:21.662-0600"
},
{
"name" : "FTBFConfig_v43",
"assigned" : "2017-12-01T12:57:59.425-0600"
},
{
"name" : "FTBFConfig_v44",
"assigned" : "2017-12-01T13:00:52.018-0600"
},
{
"name" : "FTBFConfig_v45",
"assigned" : "2017-12-01T13:25:48.711-0600"
},
{
"name" : "FTBFConfig_v46",
"assigned" : "2017-12-01T13:35:43.454-0600"
},
{
"name" : "FTBFConfig_v47",
"assigned" : "2017-12-01T14:00:51.762-0600"
},
{
"name" : "FTBFConfig_v48",
"assigned" : "2017-12-01T14:03:59.104-0600"
},
{
"name" : "FTBFConfig_v49",
"assigned" : "2017-12-01T15:31:59.251-0600"
},
{
"name" : "FTBFConfig_v64",
"assigned" : "2017-12-01T17:06:30.967-0600"
}
],
"changelog" : "notprovided",
"bookkeeping" : {
"isdeleted" : false,
"isreadonly" : false,
"updates" : [
{
"event" : "addConfiguration",
"timestamp" : "2017-11-15T15:37:58.881-0600",
"value" : {
"name" : "notprovided",
"assigned" : "2017-11-15T15:37:58.881-0600"
}
},
{
"event" : "setVersion",
"timestamp" : "2017-11-15T15:37:58.882-0600",
"value" : {
"name" : "4",
"assigned" : "2017-11-15T15:37:58.882-0600"
}
},
{
"event" : "setCollection",
"timestamp" : "2017-11-15T15:37:58.884-0600",
"value" : {
"name" : "DataBufferConfiguration",
"assigned" : "2017-11-15T15:37:58.884-0600"
}
},
{
"event" : "addEntity",
"timestamp" : "2017-11-15T15:37:58.885-0600",
"value" : {
"name" : "OTSROOT",
"assigned" : "2017-11-15T15:37:58.885-0600"
}
},
{
"event" : "addConfiguration",
"timestamp" : "2017-11-15T15:38:02.661-0600",
"value" : {
"name" : "FTBFConfig_v19",
"assigned" : "2017-11-15T15:38:02.661-0600"
}
},
{
"event" : "addConfiguration",
"timestamp" : "2017-11-15T16:26:30.536-0600",
"value" : {
"name" : "FTBFConfig_v20",
"assigned" : "2017-11-15T16:26:30.536-0600"
}
},
{
"event" : "addConfiguration",
"timestamp" : "2017-11-16T09:22:31.467-0600",
"value" : {
"name" : "FTBFConfig_v21",
"assigned" : "2017-11-16T09:22:31.467-0600"
}
},
{
"event" : "addConfiguration",
"timestamp" : "2017-11-17T10:23:27.683-0600",
"value" : {
"name" : "FTBFConfig_v22",
"assigned" : "2017-11-17T10:23:27.683-0600"
}
},
{
"event" : "addConfiguration",
"timestamp" : "2017-11-17T17:26:45.241-0600",
"value" : {
"name" : "FTBFConfig_v23",
"assigned" : "2017-11-17T17:26:45.241-0600"
}
},
{
"event" : "addConfiguration",
"timestamp" : "2017-11-17T17:58:25.759-0600",
"value" : {
"name" : "FTBFConfig_v24",
"assigned" : "2017-11-17T17:58:25.759-0600"
}
},
{
"event" : "addConfiguration",
"timestamp" : "2017-11-17T18:24:45.413-0600",
"value" : {
"name" : "FTBFConfig_v25",
"assigned" : "2017-11-17T18:24:45.413-0600"
}
},
{
"event" : "addConfiguration",
"timestamp" : "2017-11-17T18:32:22.911-0600",
"value" : {
"name" : "FTBFConfig_v26",
"assigned" : "2017-11-17T18:32:22.911-0600"
}
},
{
"event" : "addConfiguration",
"timestamp" : "2017-11-17T18:43:30.079-0600",
"value" : {
"name" : "FTBFConfig_v27",
"assigned" : "2017-11-17T18:43:30.079-0600"
}
},
{
"event" : "addConfiguration",
"timestamp" : "2017-11-17T18:48:32.118-0600",
"value" : {
"name" : "FTBFConfig_v28",
"assigned" : "2017-11-17T18:48:32.118-0600"
}
},
{
"event" : "addConfiguration",
"timestamp" : "2017-11-20T14:48:30.809-0600",
"value" : {
"name" : "FTBFConfig_v29",
"assigned" : "2017-11-20T14:48:30.809-0600"
}
},
{
"event" : "addConfiguration",
"timestamp" : "2017-11-20T15:39:55.953-0600",
"value" : {
"name" : "FTBFConfig_v30",
"assigned" : "2017-11-20T15:39:55.953-0600"
}
},
{
"event" : "addConfiguration",
"timestamp" : "2017-11-20T16:41:01.934-0600",
"value" : {
"name" : "FTBFConfig_v31",
"assigned" : "2017-11-20T16:41:01.933-0600"
}
},
{
"event" : "addConfiguration",
"timestamp" : "2017-11-20T18:55:34.881-0600",
"value" : {
"name" : "FTBFConfig_v32",
"assigned" : "2017-11-20T18:55:34.881-0600"
}
},
{
"event" : "addConfiguration",
"timestamp" : "2017-11-20T18:57:30.159-0600",
"value" : {
"name" : "FTBFConfig_v33",
"assigned" : "2017-11-20T18:57:30.159-0600"
}
},
{
"event" : "addConfiguration",
"timestamp" : "2017-11-29T17:50:39.644-0600",
"value" : {
"name" : "FTBFConfig_v34",
"assigned" : "2017-11-29T17:50:39.643-0600"
}
},
{
"event" : "addConfiguration",
"timestamp" : "2017-11-29T18:00:32.599-0600",
"value" : {
"name" : "FTBFConfig_v35",
"assigned" : "2017-11-29T18:00:32.599-0600"
}
},
{
"event" : "addConfiguration",
"timestamp" : "2017-11-29T18:35:11.317-0600",
"value" : {
"name" : "FTBFConfig_v36",
"assigned" : "2017-11-29T18:35:11.317-0600"
}
},
{
"event" : "addConfiguration",
"timestamp" : "2017-12-01T09:36:17.679-0600",
"value" : {
"name" : "FTBFConfig_v37",
"assigned" : "2017-12-01T09:36:17.679-0600"
}
},
{
"event" : "addConfiguration",
"timestamp" : "2017-12-01T09:52:01.020-0600",
"value" : {
"name" : "FTBFConfig_v38",
"assigned" : "2017-12-01T09:52:01.020-0600"
}
},
{
"event" : "addConfiguration",
"timestamp" : "2017-12-01T11:51:58.272-0600",
"value" : {
"name" : "FTBFConfig_v39",
"assigned" : "2017-12-01T11:51:58.272-0600"
}
},
{
"event" : "addConfiguration",
"timestamp" : "2017-12-01T12:18:20.247-0600",
"value" : {
"name" : "FTBFConfig_v40",
"assigned" : "2017-12-01T12:18:20.247-0600"
}
},
{
"event" : "addConfiguration",
"timestamp" : "2017-12-01T12:21:02.377-0600",
"value" : {
"name" : "FTBFConfig_v41",
"assigned" : "2017-12-01T12:21:02.377-0600"
}
},
{
"event" : "addConfiguration",
"timestamp" : "2017-12-01T12:43:21.662-0600",
"value" : {
"name" : "FTBFConfig_v42",
"assigned" : "2017-12-01T12:43:21.662-0600"
}
},
{
"event" : "addConfiguration",
"timestamp" : "2017-12-01T12:57:59.425-0600",
"value" : {
"name" : "FTBFConfig_v43",
"assigned" : "2017-12-01T12:57:59.425-0600"
}
},
{
"event" : "addConfiguration",
"timestamp" : "2017-12-01T13:00:52.018-0600",
"value" : {
"name" : "FTBFConfig_v44",
"assigned" : "2017-12-01T13:00:52.018-0600"
}
},
{
"event" : "addConfiguration",
"timestamp" : "2017-12-01T13:25:48.711-0600",
"value" : {
"name" : "FTBFConfig_v45",
"assigned" : "2017-12-01T13:25:48.711-0600"
}
},
{
"event" : "addConfiguration",
"timestamp" : "2017-12-01T13:35:43.454-0600",
"value" : {
"name" : "FTBFConfig_v46",
"assigned" : "2017-12-01T13:35:43.454-0600"
}
},
{
"event" : "addConfiguration",
"timestamp" : "2017-12-01T14:00:51.762-0600",
"value" : {
"name" : "FTBFConfig_v47",
"assigned" : "2017-12-01T14:00:51.762-0600"
}
},
{
"event" : "addConfiguration",
"timestamp" : "2017-12-01T14:03:59.104-0600",
"value" : {
"name" : "FTBFConfig_v48",
"assigned" : "2017-12-01T14:03:59.104-0600"
}
},
{
"event" : "addConfiguration",
"timestamp" : "2017-12-01T15:31:59.251-0600",
"value" : {
"name" : "FTBFConfig_v49",
"assigned" : "2017-12-01T15:31:59.251-0600"
}
},
{
"event" : "addConfiguration",
"timestamp" : "2017-12-01T17:06:30.967-0600",
"value" : {
"name" : "FTBFConfig_v64",
"assigned" : "2017-12-01T17:06:30.967-0600"
}
}
],
"created" : "2017-11-15T15:37:58.878-0600"
},
"_id" : {
"$oid" : "e76119154dd04aec87e5bbf9"
},
"collection" : "DataBufferConfiguration",
"aliases" : {
"active" : [

],
"history" : [

]
},
"runs" : [

],
"attachments" : [

],
"configtype" : "notprovided"
}