{
"document" : {
"data" : {
"NAME" : "DQM_HISTO_MAKER_CONSUMER_TABLE",
"COMMENT" : "No comment.",
"AUTHOR" : "admin",
"CREATION_TIME" : 1574284924,
"COL_TYPES" : {
"PROCESSOR_UID" : "STRING",
"FILE_PATH" : "STRING",
"RADIX_FILE_NAME" : "STRING",
"SAVE_FILE" : "STRING",
"COMMENT_DESCRIPTION" : "STRING",
"AUTHOR" : "STRING",
"RECORD_INSERTION_TIME" : "TIMESTAMP WITH TIMEZONE"
},
"DATA_SET" : [
{
"PROCESSOR_UID" : "VisualDataBufferHistoMakerHistos",
"FILE_PATH" : "${OTSDAQ_DATA}/OtsHistos",
"RADIX_FILE_NAME" : "HistoMaker",
"SAVE_FILE" : "Yes",
"COMMENT_DESCRIPTION" : "No Comment",
"AUTHOR" : "admin",
"RECORD_INSERTION_TIME" : "1574284924"
}
]
},
"metadata" : {

},
"search" : [

]
},
"comments" : [

],
"origin" : {
"source" : "template",
"name" : "notprovided",
"format" : "json",
"created" : "2020-07-21T14:27:46.131-0500",
"rawdata" : [

]
},
"version" : "1",
"entities" : [
{
"name" : "OTSROOT",
"assigned" : "2020-07-21T14:27:46.132-0500"
}
],
"configurations" : [
{
"name" : "notprovided",
"assigned" : "2020-07-21T14:27:46.132-0500"
},
{
"name" : "DefaultConfig_v1",
"assigned" : "2020-07-21T14:27:46.702-0500"
},
{
"name" : "DefaultConfig_v2",
"assigned" : "2020-07-21T14:44:16.334-0500"
},
{
"name" : "DefaultConfig_v3",
"assigned" : "2020-07-21T14:57:50.200-0500"
},
{
"name" : "DefaultConfig_v4",
"assigned" : "2020-07-28T10:52:34.101-0500"
},
{
"name" : "DefaultConfig_v5",
"assigned" : "2020-08-24T11:59:56.650-0500"
},
{
"name" : "DefaultConfig_v6",
"assigned" : "2020-08-24T16:05:13.209-0500"
},
{
"name" : "DefaultConfig_v7",
"assigned" : "2020-08-26T10:33:56.595-0500"
},
{
"name" : "DefaultConfig_v8",
"assigned" : "2020-08-26T10:45:54.351-0500"
},
{
"name" : "DefaultConfig_v9",
"assigned" : "2020-08-26T14:49:52.537-0500"
},
{
"name" : "DefaultConfig_v10",
"assigned" : "2020-08-26T14:52:00.156-0500"
},
{
"name" : "DefaultConfig_v11",
"assigned" : "2020-08-26T15:00:03.620-0500"
},
{
"name" : "DefaultConfig_v12",
"assigned" : "2020-08-26T16:18:15.366-0500"
},
{
"name" : "DefaultConfig_v13",
"assigned" : "2020-08-28T21:40:22.711-0500"
},
{
"name" : "DefaultConfig_v14",
"assigned" : "2020-08-31T15:19:58.648-0500"
},
{
"name" : "DefaultConfig_v15",
"assigned" : "2020-09-03T10:43:22.102-0500"
},
{
"name" : "DefaultConfig_v16",
"assigned" : "2020-09-03T10:49:03.178-0500"
},
{
"name" : "DefaultConfig_v17",
"assigned" : "2020-09-08T17:07:21.378-0500"
},
{
"name" : "DefaultConfig_v18",
"assigned" : "2020-09-11T16:02:29.064-0500"
},
{
"name" : "DefaultConfig_v19",
"assigned" : "2020-09-14T17:47:19.228-0500"
},
{
"name" : "DefaultConfig_v20",
"assigned" : "2020-09-14T18:00:23.481-0500"
},
{
"name" : "DefaultConfig_v21",
"assigned" : "2020-09-15T15:14:56.925-0500"
},
{
"name" : "DefaultConfig_v22",
"assigned" : "2020-09-15T15:18:54.024-0500"
},
{
"name" : "DefaultConfig_v23",
"assigned" : "2020-09-15T15:27:50.929-0500"
},
{
"name" : "DefaultConfig_v24",
"assigned" : "2020-09-15T15:52:12.439-0500"
},
{
"name" : "DefaultConfig_v25",
"assigned" : "2020-09-21T11:41:58.104-0500"
},
{
"name" : "DefaultConfig_v26",
"assigned" : "2020-09-21T11:54:28.846-0500"
},
{
"name" : "DefaultConfig_v27",
"assigned" : "2020-10-06T14:45:40.868-0500"
},
{
"name" : "DefaultConfig_v28",
"assigned" : "2020-10-06T15:04:19.401-0500"
},
{
"name" : "DefaultConfig_v29",
"assigned" : "2020-10-07T16:45:35.518-0500"
},
{
"name" : "DefaultConfig_v30",
"assigned" : "2020-10-07T17:03:29.678-0500"
},
{
"name" : "DefaultConfig_v31",
"assigned" : "2020-11-04T20:42:36.636-0600"
},
{
"name" : "DefaultConfig_v32",
"assigned" : "2020-11-11T11:26:54.216-0600"
},
{
"name" : "DefaultConfig_v33",
"assigned" : "2021-01-18T20:04:38.585-0600"
},
{
"name" : "DefaultConfig_v34",
"assigned" : "2021-01-18T20:05:19.034-0600"
}
],
"changelog" : "notprovided",
"bookkeeping" : {
"isdeleted" : false,
"isreadonly" : false,
"updates" : [
{
"event" : "addConfiguration",
"timestamp" : "2020-07-21T14:27:46.132-0500",
"value" : {
"name" : "notprovided",
"assigned" : "2020-07-21T14:27:46.132-0500"
}
},
{
"event" : "setVersion",
"timestamp" : "2020-07-21T14:27:46.132-0500",
"value" : {
"name" : "1",
"assigned" : "2020-07-21T14:27:46.132-0500"
}
},
{
"event" : "setCollection",
"timestamp" : "2020-07-21T14:27:46.132-0500",
"value" : {
"name" : "DQMHistoMakerConsumerTable",
"assigned" : "2020-07-21T14:27:46.132-0500"
}
},
{
"event" : "addEntity",
"timestamp" : "2020-07-21T14:27:46.132-0500",
"value" : {
"name" : "OTSROOT",
"assigned" : "2020-07-21T14:27:46.132-0500"
}
},
{
"event" : "addConfiguration",
"timestamp" : "2020-07-21T14:27:46.702-0500",
"value" : {
"name" : "DefaultConfig_v1",
"assigned" : "2020-07-21T14:27:46.702-0500"
}
},
{
"event" : "addConfiguration",
"timestamp" : "2020-07-21T14:44:16.334-0500",
"value" : {
"name" : "DefaultConfig_v2",
"assigned" : "2020-07-21T14:44:16.334-0500"
}
},
{
"event" : "addConfiguration",
"timestamp" : "2020-07-21T14:57:50.200-0500",
"value" : {
"name" : "DefaultConfig_v3",
"assigned" : "2020-07-21T14:57:50.200-0500"
}
},
{
"event" : "addConfiguration",
"timestamp" : "2020-07-28T10:52:34.101-0500",
"value" : {
"name" : "DefaultConfig_v4",
"assigned" : "2020-07-28T10:52:34.101-0500"
}
},
{
"event" : "addConfiguration",
"timestamp" : "2020-08-24T11:59:56.650-0500",
"value" : {
"name" : "DefaultConfig_v5",
"assigned" : "2020-08-24T11:59:56.650-0500"
}
},
{
"event" : "addConfiguration",
"timestamp" : "2020-08-24T16:05:13.209-0500",
"value" : {
"name" : "DefaultConfig_v6",
"assigned" : "2020-08-24T16:05:13.209-0500"
}
},
{
"event" : "addConfiguration",
"timestamp" : "2020-08-26T10:33:56.595-0500",
"value" : {
"name" : "DefaultConfig_v7",
"assigned" : "2020-08-26T10:33:56.595-0500"
}
},
{
"event" : "addConfiguration",
"timestamp" : "2020-08-26T10:45:54.351-0500",
"value" : {
"name" : "DefaultConfig_v8",
"assigned" : "2020-08-26T10:45:54.351-0500"
}
},
{
"event" : "addConfiguration",
"timestamp" : "2020-08-26T14:49:52.537-0500",
"value" : {
"name" : "DefaultConfig_v9",
"assigned" : "2020-08-26T14:49:52.537-0500"
}
},
{
"event" : "addConfiguration",
"timestamp" : "2020-08-26T14:52:00.156-0500",
"value" : {
"name" : "DefaultConfig_v10",
"assigned" : "2020-08-26T14:52:00.156-0500"
}
},
{
"event" : "addConfiguration",
"timestamp" : "2020-08-26T15:00:03.620-0500",
"value" : {
"name" : "DefaultConfig_v11",
"assigned" : "2020-08-26T15:00:03.620-0500"
}
},
{
"event" : "addConfiguration",
"timestamp" : "2020-08-26T16:18:15.366-0500",
"value" : {
"name" : "DefaultConfig_v12",
"assigned" : "2020-08-26T16:18:15.366-0500"
}
},
{
"event" : "addConfiguration",
"timestamp" : "2020-08-28T21:40:22.711-0500",
"value" : {
"name" : "DefaultConfig_v13",
"assigned" : "2020-08-28T21:40:22.711-0500"
}
},
{
"event" : "addConfiguration",
"timestamp" : "2020-08-31T15:19:58.648-0500",
"value" : {
"name" : "DefaultConfig_v14",
"assigned" : "2020-08-31T15:19:58.648-0500"
}
},
{
"event" : "addConfiguration",
"timestamp" : "2020-09-03T10:43:22.102-0500",
"value" : {
"name" : "DefaultConfig_v15",
"assigned" : "2020-09-03T10:43:22.102-0500"
}
},
{
"event" : "addConfiguration",
"timestamp" : "2020-09-03T10:49:03.179-0500",
"value" : {
"name" : "DefaultConfig_v16",
"assigned" : "2020-09-03T10:49:03.178-0500"
}
},
{
"event" : "addConfiguration",
"timestamp" : "2020-09-08T17:07:21.379-0500",
"value" : {
"name" : "DefaultConfig_v17",
"assigned" : "2020-09-08T17:07:21.378-0500"
}
},
{
"event" : "addConfiguration",
"timestamp" : "2020-09-11T16:02:29.064-0500",
"value" : {
"name" : "DefaultConfig_v18",
"assigned" : "2020-09-11T16:02:29.064-0500"
}
},
{
"event" : "addConfiguration",
"timestamp" : "2020-09-14T17:47:19.228-0500",
"value" : {
"name" : "DefaultConfig_v19",
"assigned" : "2020-09-14T17:47:19.228-0500"
}
},
{
"event" : "addConfiguration",
"timestamp" : "2020-09-14T18:00:23.481-0500",
"value" : {
"name" : "DefaultConfig_v20",
"assigned" : "2020-09-14T18:00:23.481-0500"
}
},
{
"event" : "addConfiguration",
"timestamp" : "2020-09-15T15:14:56.925-0500",
"value" : {
"name" : "DefaultConfig_v21",
"assigned" : "2020-09-15T15:14:56.925-0500"
}
},
{
"event" : "addConfiguration",
"timestamp" : "2020-09-15T15:18:54.024-0500",
"value" : {
"name" : "DefaultConfig_v22",
"assigned" : "2020-09-15T15:18:54.024-0500"
}
},
{
"event" : "addConfiguration",
"timestamp" : "2020-09-15T15:27:50.929-0500",
"value" : {
"name" : "DefaultConfig_v23",
"assigned" : "2020-09-15T15:27:50.929-0500"
}
},
{
"event" : "addConfiguration",
"timestamp" : "2020-09-15T15:52:12.439-0500",
"value" : {
"name" : "DefaultConfig_v24",
"assigned" : "2020-09-15T15:52:12.439-0500"
}
},
{
"event" : "addConfiguration",
"timestamp" : "2020-09-21T11:41:58.104-0500",
"value" : {
"name" : "DefaultConfig_v25",
"assigned" : "2020-09-21T11:41:58.104-0500"
}
},
{
"event" : "addConfiguration",
"timestamp" : "2020-09-21T11:54:28.846-0500",
"value" : {
"name" : "DefaultConfig_v26",
"assigned" : "2020-09-21T11:54:28.846-0500"
}
},
{
"event" : "addConfiguration",
"timestamp" : "2020-10-06T14:45:40.868-0500",
"value" : {
"name" : "DefaultConfig_v27",
"assigned" : "2020-10-06T14:45:40.868-0500"
}
},
{
"event" : "addConfiguration",
"timestamp" : "2020-10-06T15:04:19.401-0500",
"value" : {
"name" : "DefaultConfig_v28",
"assigned" : "2020-10-06T15:04:19.401-0500"
}
},
{
"event" : "addConfiguration",
"timestamp" : "2020-10-07T16:45:35.518-0500",
"value" : {
"name" : "DefaultConfig_v29",
"assigned" : "2020-10-07T16:45:35.518-0500"
}
},
{
"event" : "addConfiguration",
"timestamp" : "2020-10-07T17:03:29.678-0500",
"value" : {
"name" : "DefaultConfig_v30",
"assigned" : "2020-10-07T17:03:29.678-0500"
}
},
{
"event" : "addConfiguration",
"timestamp" : "2020-11-04T20:42:36.636-0600",
"value" : {
"name" : "DefaultConfig_v31",
"assigned" : "2020-11-04T20:42:36.636-0600"
}
},
{
"event" : "addConfiguration",
"timestamp" : "2020-11-11T11:26:54.216-0600",
"value" : {
"name" : "DefaultConfig_v32",
"assigned" : "2020-11-11T11:26:54.216-0600"
}
},
{
"event" : "addConfiguration",
"timestamp" : "2021-01-18T20:04:38.585-0600",
"value" : {
"name" : "DefaultConfig_v33",
"assigned" : "2021-01-18T20:04:38.585-0600"
}
},
{
"event" : "addConfiguration",
"timestamp" : "2021-01-18T20:05:19.034-0600",
"value" : {
"name" : "DefaultConfig_v34",
"assigned" : "2021-01-18T20:05:19.034-0600"
}
}
],
"created" : "2020-07-21T14:27:46.131-0500"
},
"_id" : {
"$oid" : "efa2a33b5b204b74b156db56"
},
"collection" : "DQMHistoMakerConsumerTable",
"aliases" : {
"active" : [

],
"history" : [

]
},
"runs" : [

],
"attachments" : [

],
"configtype" : "notprovided"
}