{
"ouid" : [
"204fb63e8a8d4b408d2e5040"
],
"version" : {
"1" : [
"204fb63e8a8d4b408d2e5040"
]
},
"configurations.name" : {
"notprovided" : [
"204fb63e8a8d4b408d2e5040"
],
"DefaultConfig_v1" : [
"204fb63e8a8d4b408d2e5040"
],
"DefaultConfig_v2" : [
"204fb63e8a8d4b408d2e5040"
],
"DefaultConfig_v3" : [
"204fb63e8a8d4b408d2e5040"
],
"DefaultConfig_v4" : [
"204fb63e8a8d4b408d2e5040"
],
"DefaultConfig_v5" : [
"204fb63e8a8d4b408d2e5040"
],
"DefaultConfig_v6" : [
"204fb63e8a8d4b408d2e5040"
],
"DefaultConfig_v7" : [
"204fb63e8a8d4b408d2e5040"
],
"DefaultConfig_v8" : [
"204fb63e8a8d4b408d2e5040"
],
"DefaultConfig_v9" : [
"204fb63e8a8d4b408d2e5040"
],
"DefaultConfig_v10" : [
"204fb63e8a8d4b408d2e5040"
],
"DefaultConfig_v11" : [
"204fb63e8a8d4b408d2e5040"
],
"DefaultConfig_v12" : [
"204fb63e8a8d4b408d2e5040"
]
},
"entities.name" : {
"OTSROOT" : [
"204fb63e8a8d4b408d2e5040"
]
},
"aliases.active.name" : {

},
"runs.name" : {

},
"configurations.assigned" : {
"notprovided" : [
"2020-07-21T14:27:46.452-0500"
],
"DefaultConfig_v1" : [
"2020-07-21T14:27:46.953-0500"
],
"DefaultConfig_v2" : [
"2020-07-21T14:44:16.650-0500"
],
"DefaultConfig_v3" : [
"2020-07-21T14:57:50.524-0500"
],
"DefaultConfig_v4" : [
"2020-07-28T10:52:34.413-0500"
],
"DefaultConfig_v5" : [
"2020-09-09T19:37:59.800+0200"
],
"DefaultConfig_v6" : [
"2020-09-09T19:46:43.046+0200"
],
"DefaultConfig_v7" : [
"2020-09-09T21:28:06.579+0200"
],
"DefaultConfig_v8" : [
"2020-09-10T19:06:32.630+0200"
],
"DefaultConfig_v9" : [
"2020-09-11T17:53:12.281+0200"
],
"DefaultConfig_v10" : [
"2020-09-15T17:25:16.555+0200"
],
"DefaultConfig_v11" : [
"2020-09-15T17:39:24.168+0200"
],
"DefaultConfig_v12" : [
"2020-11-10T21:07:07.167+0100"
]
}
}