{
"document" : {
"data" : {
"NAME" : "",
"COMMENT" : "",
"AUTHOR" : "",
"CREATION_TIME" : 1510242816,
"COL_TYPES" : {
"UNUSED_UID" : "NUMBER",
"COMMENT_DESCRIPTION" : "VARCHAR2",
"AUTHOR" : "VARCHAR2",
"GROUP_CREATION_TIME" : "TIMESTAMP WITH TIMEZONE"
},
"DATA_SET" : [
{
"UNUSED_UID" : "0",
"COMMENT_DESCRIPTION" : "",
"AUTHOR" : "rrivera",
"GROUP_CREATION_TIME" : "1510339096"
}
]
},
"metadata" : {

},
"search" : [

]
},
"comments" : [

],
"origin" : {
"source" : "template",
"name" : "notprovided",
"format" : "json",
"created" : "2017-11-10T12:38:16.680-0600",
"rawdata" : [

]
},
"version" : "31",
"entities" : [
{
"name" : "OTSROOT",
"assigned" : "2017-11-10T12:38:16.681-0600"
}
],
"configurations" : [
{
"name" : "notprovided",
"assigned" : "2017-11-10T12:38:16.681-0600"
},
{
"name" : "TableEditWizBackbone_v11",
"assigned" : "2017-11-10T12:38:16.710-0600"
}
],
"changelog" : "notprovided",
"bookkeeping" : {
"isdeleted" : false,
"isreadonly" : false,
"updates" : [
{
"event" : "addConfiguration",
"timestamp" : "2017-11-10T12:38:16.681-0600",
"value" : {
"name" : "notprovided",
"assigned" : "2017-11-10T12:38:16.681-0600"
}
},
{
"event" : "setVersion",
"timestamp" : "2017-11-10T12:38:16.681-0600",
"value" : {
"name" : "31",
"assigned" : "2017-11-10T12:38:16.681-0600"
}
},
{
"event" : "setCollection",
"timestamp" : "2017-11-10T12:38:16.681-0600",
"value" : {
"name" : "ConfigurationGroupMetadata",
"assigned" : "2017-11-10T12:38:16.681-0600"
}
},
{
"event" : "addEntity",
"timestamp" : "2017-11-10T12:38:16.681-0600",
"value" : {
"name" : "OTSROOT",
"assigned" : "2017-11-10T12:38:16.681-0600"
}
},
{
"event" : "addConfiguration",
"timestamp" : "2017-11-10T12:38:16.711-0600",
"value" : {
"name" : "TableEditWizBackbone_v11",
"assigned" : "2017-11-10T12:38:16.710-0600"
}
}
],
"created" : "2017-11-10T12:38:16.680-0600"
},
"_id" : {
"$oid" : "a0a2a5dae11d4acc93ca109d"
},
"collection" : "ConfigurationGroupMetadata",
"aliases" : {
"active" : [

],
"history" : [

]
},
"runs" : [

],
"attachments" : [

],
"configtype" : "notprovided"
}