{
"document" : {
"data" : {
"NAME" : "",
"COMMENT" : "",
"AUTHOR" : "",
"CREATION_TIME" : 1510242816,
"COL_TYPES" : {
"UNUSED_UID" : "NUMBER",
"COMMENT_DESCRIPTION" : "VARCHAR2",
"AUTHOR" : "VARCHAR2",
"GROUP_CREATION_TIME" : "TIMESTAMP WITH TIMEZONE"
},
"DATA_SET" : [
{
"UNUSED_UID" : "0",
"COMMENT_DESCRIPTION" : "ftbf%20%22facility%20daq%22%20default%20group.",
"AUTHOR" : "admin",
"GROUP_CREATION_TIME" : "1511891237"
}
]
},
"metadata" : {

},
"search" : [

]
},
"comments" : [

],
"origin" : {
"source" : "template",
"name" : "notprovided",
"format" : "json",
"created" : "2017-11-28T11:47:17.106-0600",
"rawdata" : [

]
},
"version" : "125",
"entities" : [
{
"name" : "OTSROOT",
"assigned" : "2017-11-28T11:47:17.107-0600"
}
],
"configurations" : [
{
"name" : "notprovided",
"assigned" : "2017-11-28T11:47:17.106-0600"
},
{
"name" : "FTBFContext_v32",
"assigned" : "2017-11-28T11:47:17.149-0600"
}
],
"changelog" : "notprovided",
"bookkeeping" : {
"isdeleted" : false,
"isreadonly" : false,
"updates" : [
{
"event" : "addConfiguration",
"timestamp" : "2017-11-28T11:47:17.106-0600",
"value" : {
"name" : "notprovided",
"assigned" : "2017-11-28T11:47:17.106-0600"
}
},
{
"event" : "setVersion",
"timestamp" : "2017-11-28T11:47:17.107-0600",
"value" : {
"name" : "125",
"assigned" : "2017-11-28T11:47:17.107-0600"
}
},
{
"event" : "setCollection",
"timestamp" : "2017-11-28T11:47:17.107-0600",
"value" : {
"name" : "ConfigurationGroupMetadata",
"assigned" : "2017-11-28T11:47:17.107-0600"
}
},
{
"event" : "addEntity",
"timestamp" : "2017-11-28T11:47:17.107-0600",
"value" : {
"name" : "OTSROOT",
"assigned" : "2017-11-28T11:47:17.107-0600"
}
},
{
"event" : "addConfiguration",
"timestamp" : "2017-11-28T11:47:17.149-0600",
"value" : {
"name" : "FTBFContext_v32",
"assigned" : "2017-11-28T11:47:17.149-0600"
}
}
],
"created" : "2017-11-28T11:47:17.106-0600"
},
"_id" : {
"$oid" : "a0b76f023b6f42768b7968cb"
},
"collection" : "ConfigurationGroupMetadata",
"aliases" : {
"active" : [

],
"history" : [

]
},
"runs" : [

],
"attachments" : [

],
"configtype" : "notprovided"
}