{
"document" : {
"data" : {
"NAME" : "",
"COMMENT" : "",
"AUTHOR" : "",
"CREATION_TIME" : 1510242816,
"COL_TYPES" : {
"UNUSED_UID" : "NUMBER",
"COMMENT_DESCRIPTION" : "VARCHAR2",
"AUTHOR" : "VARCHAR2",
"GROUP_CREATION_TIME" : "TIMESTAMP WITH TIMEZONE"
},
"DATA_SET" : [
{
"UNUSED_UID" : "0",
"COMMENT_DESCRIPTION" : "ftbf%20%22facility%20daq%22%20default%20group.",
"AUTHOR" : "rrivera",
"GROUP_CREATION_TIME" : "1510784369"
}
]
},
"metadata" : {

},
"search" : [

]
},
"comments" : [

],
"origin" : {
"source" : "template",
"name" : "notprovided",
"format" : "json",
"created" : "2017-11-15T16:19:29.490-0600",
"rawdata" : [

]
},
"version" : "87",
"entities" : [
{
"name" : "OTSROOT",
"assigned" : "2017-11-15T16:19:29.491-0600"
}
],
"configurations" : [
{
"name" : "notprovided",
"assigned" : "2017-11-15T16:19:29.490-0600"
},
{
"name" : "FTBFContext_v27",
"assigned" : "2017-11-15T16:19:29.525-0600"
}
],
"changelog" : "notprovided",
"bookkeeping" : {
"isdeleted" : false,
"isreadonly" : false,
"updates" : [
{
"event" : "addConfiguration",
"timestamp" : "2017-11-15T16:19:29.490-0600",
"value" : {
"name" : "notprovided",
"assigned" : "2017-11-15T16:19:29.490-0600"
}
},
{
"event" : "setVersion",
"timestamp" : "2017-11-15T16:19:29.490-0600",
"value" : {
"name" : "87",
"assigned" : "2017-11-15T16:19:29.490-0600"
}
},
{
"event" : "setCollection",
"timestamp" : "2017-11-15T16:19:29.491-0600",
"value" : {
"name" : "ConfigurationGroupMetadata",
"assigned" : "2017-11-15T16:19:29.491-0600"
}
},
{
"event" : "addEntity",
"timestamp" : "2017-11-15T16:19:29.491-0600",
"value" : {
"name" : "OTSROOT",
"assigned" : "2017-11-15T16:19:29.491-0600"
}
},
{
"event" : "addConfiguration",
"timestamp" : "2017-11-15T16:19:29.525-0600",
"value" : {
"name" : "FTBFContext_v27",
"assigned" : "2017-11-15T16:19:29.525-0600"
}
}
],
"created" : "2017-11-15T16:19:29.490-0600"
},
"_id" : {
"$oid" : "b69277b0faf84817ad06c5cf"
},
"collection" : "ConfigurationGroupMetadata",
"aliases" : {
"active" : [

],
"history" : [

]
},
"runs" : [

],
"attachments" : [

],
"configtype" : "notprovided"
}