{
"document" : {
"data" : {
"NAME" : "",
"COMMENT" : "",
"AUTHOR" : "",
"CREATION_TIME" : 1510242816,
"COL_TYPES" : {
"UNUSED_UID" : "NUMBER",
"COMMENT_DESCRIPTION" : "VARCHAR2",
"AUTHOR" : "VARCHAR2",
"GROUP_CREATION_TIME" : "TIMESTAMP WITH TIMEZONE"
},
"DATA_SET" : [
{
"UNUSED_UID" : "0",
"COMMENT_DESCRIPTION" : "",
"AUTHOR" : "admin",
"GROUP_CREATION_TIME" : "1510772268"
}
]
},
"metadata" : {

},
"search" : [

]
},
"comments" : [

],
"origin" : {
"source" : "template",
"name" : "notprovided",
"format" : "json",
"created" : "2017-11-15T12:57:48.520-0600",
"rawdata" : [

]
},
"version" : "60",
"entities" : [
{
"name" : "OTSROOT",
"assigned" : "2017-11-15T12:57:48.522-0600"
}
],
"configurations" : [
{
"name" : "notprovided",
"assigned" : "2017-11-15T12:57:48.521-0600"
},
{
"name" : "TableEditWizBackbone_v20",
"assigned" : "2017-11-15T12:57:48.561-0600"
}
],
"changelog" : "notprovided",
"bookkeeping" : {
"isdeleted" : false,
"isreadonly" : false,
"updates" : [
{
"event" : "addConfiguration",
"timestamp" : "2017-11-15T12:57:48.521-0600",
"value" : {
"name" : "notprovided",
"assigned" : "2017-11-15T12:57:48.521-0600"
}
},
{
"event" : "setVersion",
"timestamp" : "2017-11-15T12:57:48.521-0600",
"value" : {
"name" : "60",
"assigned" : "2017-11-15T12:57:48.521-0600"
}
},
{
"event" : "setCollection",
"timestamp" : "2017-11-15T12:57:48.521-0600",
"value" : {
"name" : "ConfigurationGroupMetadata",
"assigned" : "2017-11-15T12:57:48.521-0600"
}
},
{
"event" : "addEntity",
"timestamp" : "2017-11-15T12:57:48.522-0600",
"value" : {
"name" : "OTSROOT",
"assigned" : "2017-11-15T12:57:48.522-0600"
}
},
{
"event" : "addConfiguration",
"timestamp" : "2017-11-15T12:57:48.561-0600",
"value" : {
"name" : "TableEditWizBackbone_v20",
"assigned" : "2017-11-15T12:57:48.561-0600"
}
}
],
"created" : "2017-11-15T12:57:48.520-0600"
},
"_id" : {
"$oid" : "d35a10e3e6d4437bbfa0ef8b"
},
"collection" : "ConfigurationGroupMetadata",
"aliases" : {
"active" : [

],
"history" : [

]
},
"runs" : [

],
"attachments" : [

],
"configtype" : "notprovided"
}