{
"document" : {
"data" : {
"NAME" : "",
"COMMENT" : "",
"AUTHOR" : "",
"CREATION_TIME" : 1510242816,
"COL_TYPES" : {
"UNUSED_UID" : "NUMBER",
"COMMENT_DESCRIPTION" : "VARCHAR2",
"AUTHOR" : "VARCHAR2",
"GROUP_CREATION_TIME" : "TIMESTAMP WITH TIMEZONE"
},
"DATA_SET" : [
{
"UNUSED_UID" : "0",
"COMMENT_DESCRIPTION" : "No%20comment.",
"AUTHOR" : "admin",
"GROUP_CREATION_TIME" : "1517541259"
}
]
},
"metadata" : {

},
"search" : [

]
},
"comments" : [

],
"origin" : {
"source" : "template",
"name" : "notprovided",
"format" : "json",
"created" : "2018-02-01T21:14:19.260-0600",
"rawdata" : [

]
},
"version" : "398",
"entities" : [
{
"name" : "OTSROOT",
"assigned" : "2018-02-01T21:14:19.261-0600"
}
],
"configurations" : [
{
"name" : "notprovided",
"assigned" : "2018-02-01T21:14:19.261-0600"
},
{
"name" : "FTBFConfig_v108",
"assigned" : "2018-02-01T21:14:24.997-0600"
}
],
"changelog" : "notprovided",
"bookkeeping" : {
"isdeleted" : false,
"isreadonly" : false,
"updates" : [
{
"event" : "addConfiguration",
"timestamp" : "2018-02-01T21:14:19.261-0600",
"value" : {
"name" : "notprovided",
"assigned" : "2018-02-01T21:14:19.261-0600"
}
},
{
"event" : "setVersion",
"timestamp" : "2018-02-01T21:14:19.261-0600",
"value" : {
"name" : "398",
"assigned" : "2018-02-01T21:14:19.261-0600"
}
},
{
"event" : "setCollection",
"timestamp" : "2018-02-01T21:14:19.261-0600",
"value" : {
"name" : "ConfigurationGroupMetadata",
"assigned" : "2018-02-01T21:14:19.261-0600"
}
},
{
"event" : "addEntity",
"timestamp" : "2018-02-01T21:14:19.261-0600",
"value" : {
"name" : "OTSROOT",
"assigned" : "2018-02-01T21:14:19.261-0600"
}
},
{
"event" : "addConfiguration",
"timestamp" : "2018-02-01T21:14:24.997-0600",
"value" : {
"name" : "FTBFConfig_v108",
"assigned" : "2018-02-01T21:14:24.997-0600"
}
}
],
"created" : "2018-02-01T21:14:19.260-0600"
},
"_id" : {
"$oid" : "eeaacd6bb574485db64c9759"
},
"collection" : "ConfigurationGroupMetadata",
"aliases" : {
"active" : [

],
"history" : [

]
},
"runs" : [

],
"attachments" : [

],
"configtype" : "notprovided"
}