LogDebug:mfReceiveAndForward:otsdaq_utilities/otsdaq-utilities/Console/MF_ReceiveAndForward.cpp [139]	Starting...


LogDebug:mfReceiveAndForward:otsdaq_utilities/otsdaq-utilities/Console/MF_ReceiveAndForward.cpp [146]	port parameter file:/home/otsdaq/otsdaq/srcs/otsdaq_cmsoutertracker/DataDefault/MessageFacilityConfigurations/QuietForwarder.cfg


LogDebug:mfReceiveAndForward:otsdaq_utilities/otsdaq-utilities/Console/MF_ReceiveAndForward.cpp [167]	Forwarding from: 30000 to: 127.0.0.1:30001


LogDebug:mfReceiveAndForward:otsdaq_utilities/otsdaq-utilities/Console/MF_ReceiveAndForward.cpp [131]	set socket receive size to 0x100000.
|Info	|TCPConnect.cc|241|Resolving ip athenanu.dhcp.fnal.gov
|Info	|configureMessageFacility.cc|290|Message Facility Application . configured with: debugModules:["*"] destinations:{console:{filename_delimit:"/srcs/" format_string:"|%L:%N:%f [%u]\t%m" threshold:"DEBUG" type:"OTS"} file:{} udp:{host:"127.0.0.1" port:30000 threshold:"DEBUG" type:"UDP"}}
|Debug	|/home/otsdaq/otsdaq/srcs/otsdaq/otsdaq/FiniteStateMachine/RunControlStateMachine.cc|97|FSM-GatewaySupervisor	<> Resetting RunControlStateMachine with name 'GatewaySupervisor'...
|Debug	|/home/otsdaq/otsdaq/srcs/otsdaq/otsdaq/CoreSupervisors/CorePropertySupervisorBase.cc|27|GatewaySupervisor-UNINITIALIZED_supervisorApplicationUID	<> application->getApplicationContext()->getContextDescriptor()->getURL() = http://athenanu.dhcp.fnal.gov:2015
|Debug	|/home/otsdaq/otsdaq/srcs/otsdaq/otsdaq/CoreSupervisors/CorePropertySupervisorBase.cc|28|GatewaySupervisor-UNINITIALIZED_supervisorApplicationUID	<> application->getApplicationDescriptor()->getLocalId() = 200
|Debug	|/home/otsdaq/otsdaq/srcs/otsdaq/otsdaq/CoreSupervisors/CorePropertySupervisorBase.cc|29|GatewaySupervisor-UNINITIALIZED_supervisorApplicationUID	<> supervisorClass_ = ots::GatewaySupervisor
|Debug	|/home/otsdaq/otsdaq/srcs/otsdaq/otsdaq/CoreSupervisors/CorePropertySupervisorBase.cc|30|GatewaySupervisor-UNINITIALIZED_supervisorApplicationUID	<> supervisorClassNoNamespace_ = GatewaySupervisor
|Debug	|/home/otsdaq/otsdaq/srcs/otsdaq/otsdaq/SupervisorInfo/AllSupervisorInfo.cc|42|Initializing info based on XDAQ context...
|Debug	|/home/otsdaq/otsdaq/srcs/otsdaq/otsdaq/SupervisorInfo/SupervisorDescriptorInfoBase.cc|33|Init
|Debug	|/home/otsdaq/otsdaq/srcs/otsdaq/otsdaq/SupervisorInfo/AllSupervisorInfo.cc|98|Initializing info for Normal mode XDAQ context...
|Debug	|/home/otsdaq/otsdaq/srcs/otsdaq/otsdaq/TableCore/TableBase.cc|1107|TableBase-TableGroupMetadata	<> Using Mock-up view
|Debug	|/home/otsdaq/otsdaq/srcs/otsdaq/otsdaq/ConfigurationInterface/ConfigurationManager.cc|163|username_ = READONLY_USER
|Debug	|/home/otsdaq/otsdaq/srcs/otsdaq/otsdaq/ConfigurationInterface/ConfigurationManager.cc|205|ACTIVE_GROUPS_FILENAME = /home/otsdaq/otsdaq/srcs/otsdaq_cmsoutertracker/DataDefault/ServiceData/ActiveTableGroups.cfg
|Debug	|/home/otsdaq/otsdaq/srcs/otsdaq/otsdaq/ConfigurationInterface/ConfigurationManager.cc|206|ARTDAQ_DATABASE_URI = filesystemdb:///home/otsdaq/otsdaq/srcs/otsdaq_cmsoutertracker/databases/filesystemdb/default_db
|Debug	|/home/otsdaq/otsdaq/srcs/otsdaq/otsdaq/ConfigurationInterface/ConfigurationManager.cc|1343|------------------------------------- init start    	 [for all plug-ins in Context group 'DefaultContext(15)']
|Debug	|/home/otsdaq/otsdaq/srcs/otsdaq/otsdaq/TablePlugins/MessageFacilityTable_table.cc|113|Forwarding to Web GUI with UDP forward MesageFacility table.
|Debug	|/home/otsdaq/otsdaq/srcs/otsdaq/otsdaq/TablePlugins/MessageFacilityTable_table.cc|236|Opened.. /home/otsdaq/otsdaq/srcs/otsdaq_cmsoutertracker/DataDefault/MessageFacilityConfigurations/MessageFacilityGen.fcl
|Debug	|/home/otsdaq/otsdaq/srcs/otsdaq/otsdaq/TablePlugins/MessageFacilityTable_table.cc|248|Opened.. /home/otsdaq/otsdaq/srcs/otsdaq_cmsoutertracker/DataDefault/MessageFacilityConfigurations/MessageFacilityGen.fcl
|Debug	|/home/otsdaq/otsdaq/srcs/otsdaq/otsdaq/TablePlugins/XDAQContextTable_table.cc|251|Fixing deprecated Supervisor class from ots::Supervisor to ots::GatewaySupervisor
|Debug	|/home/otsdaq/otsdaq/srcs/otsdaq/otsdaq/ConfigurationInterface/ConfigurationManager.cc|1510|------------------------------------- init complete 	 [for all plug-ins in Context group 'DefaultContext(15)']
|Debug	|/home/otsdaq/otsdaq/srcs/otsdaq/otsdaq/ConfigurationInterface/ConfigurationManager.cc|1343|------------------------------------- init start    	 [for all plug-ins in Backbone group 'TableEditWizBackbone(19)']
|Debug	|/home/otsdaq/otsdaq/srcs/otsdaq/otsdaq/ConfigurationInterface/ConfigurationManager.cc|1510|------------------------------------- init complete 	 [for all plug-ins in Backbone group 'TableEditWizBackbone(19)']
|Warning	|/home/otsdaq/otsdaq/srcs/otsdaq/otsdaq/ConfigurationInterface/ConfigurationManager.cc|1336|Not loading group because it is not of type Context or Backbone (it is type 'Configuration').
|Debug	|/home/otsdaq/otsdaq/srcs/otsdaq/otsdaq/SupervisorInfo/AllSupervisorInfo.cc|318|Supervisor Info initialization complete!
|Debug	|/home/otsdaq/otsdaq/srcs/otsdaq/otsdaq/ConfigurationInterface/ConfigurationManager.cc|422|Destroying Backbone Key: 19
|Debug	|/home/otsdaq/otsdaq/srcs/otsdaq/otsdaq/ConfigurationInterface/ConfigurationManager.cc|440|Destroying Context Key: 15
|Debug	|/home/otsdaq/otsdaq/srcs/otsdaq/otsdaq/CoreSupervisors/CorePropertySupervisorBase.cc|71|GatewaySupervisor-UNINITIALIZED_supervisorApplicationUID	<> Getting configuration specific info for supervisor 'Supervisor' of class ots::GatewaySupervisor.
|Debug	|/home/otsdaq/otsdaq/srcs/otsdaq/otsdaq/TableCore/TableBase.cc|1107|TableBase-TableGroupMetadata	<> Using Mock-up view
|Debug	|/home/otsdaq/otsdaq/srcs/otsdaq/otsdaq/ConfigurationInterface/ConfigurationManager.cc|163|username_ = READONLY_USER
|Debug	|/home/otsdaq/otsdaq/srcs/otsdaq/otsdaq/ConfigurationInterface/ConfigurationManager.cc|205|ACTIVE_GROUPS_FILENAME = /home/otsdaq/otsdaq/srcs/otsdaq_cmsoutertracker/DataDefault/ServiceData/ActiveTableGroups.cfg
|Debug	|/home/otsdaq/otsdaq/srcs/otsdaq/otsdaq/ConfigurationInterface/ConfigurationManager.cc|206|ARTDAQ_DATABASE_URI = filesystemdb:///home/otsdaq/otsdaq/srcs/otsdaq_cmsoutertracker/databases/filesystemdb/default_db
|Debug	|/home/otsdaq/otsdaq/srcs/otsdaq/otsdaq/ConfigurationInterface/ConfigurationManager.cc|1343|------------------------------------- init start    	 [for all plug-ins in Context group 'DefaultContext(15)']
|Debug	|/home/otsdaq/otsdaq/srcs/otsdaq/otsdaq/TablePlugins/MessageFacilityTable_table.cc|113|Forwarding to Web GUI with UDP forward MesageFacility table.
|Debug	|/home/otsdaq/otsdaq/srcs/otsdaq/otsdaq/TablePlugins/MessageFacilityTable_table.cc|236|Opened.. /home/otsdaq/otsdaq/srcs/otsdaq_cmsoutertracker/DataDefault/MessageFacilityConfigurations/MessageFacilityGen.fcl
|Debug	|/home/otsdaq/otsdaq/srcs/otsdaq/otsdaq/TablePlugins/MessageFacilityTable_table.cc|248|Opened.. /home/otsdaq/otsdaq/srcs/otsdaq_cmsoutertracker/DataDefault/MessageFacilityConfigurations/MessageFacilityGen.fcl
|Debug	|/home/otsdaq/otsdaq/srcs/otsdaq/otsdaq/TablePlugins/XDAQContextTable_table.cc|251|Fixing deprecated Supervisor class from ots::Supervisor to ots::GatewaySupervisor
|Debug	|/home/otsdaq/otsdaq/srcs/otsdaq/otsdaq/ConfigurationInterface/ConfigurationManager.cc|1510|------------------------------------- init complete 	 [for all plug-ins in Context group 'DefaultContext(15)']
|Debug	|/home/otsdaq/otsdaq/srcs/otsdaq/otsdaq/ConfigurationInterface/ConfigurationManager.cc|1343|------------------------------------- init start    	 [for all plug-ins in Backbone group 'TableEditWizBackbone(19)']
|Debug	|/home/otsdaq/otsdaq/srcs/otsdaq/otsdaq/ConfigurationInterface/ConfigurationManager.cc|1510|------------------------------------- init complete 	 [for all plug-ins in Backbone group 'TableEditWizBackbone(19)']
|Warning	|/home/otsdaq/otsdaq/srcs/otsdaq/otsdaq/ConfigurationInterface/ConfigurationManager.cc|1336|Not loading group because it is not of type Context or Backbone (it is type 'Configuration').
|Debug	|/home/otsdaq/otsdaq/srcs/otsdaq/otsdaq/CoreSupervisors/CorePropertySupervisorBase.cc|109|GatewaySupervisor-Supervisor	<> CorePropertySupervisorBase::supervisorContextUID_ = MainContext
|Debug	|/home/otsdaq/otsdaq/srcs/otsdaq/otsdaq/CoreSupervisors/CorePropertySupervisorBase.cc|110|GatewaySupervisor-Supervisor	<> CorePropertySupervisorBase::supervisorApplicationUID_ = Supervisor
|Debug	|/home/otsdaq/otsdaq/srcs/otsdaq/otsdaq/CoreSupervisors/CorePropertySupervisorBase.cc|111|GatewaySupervisor-Supervisor	<> CorePropertySupervisorBase::supervisorConfigurationPath_ = /MainContext/LinkToApplicationTable/Supervisor/LinkToSupervisorTable
|Debug	|/home/otsdaq/otsdaq/srcs/otsdaq/otsdaq/CoreSupervisors/CorePropertySupervisorBase.cc|147|hostname = athenanu.dhcp.fnal.gov
|Debug	|/home/otsdaq/otsdaq/srcs/otsdaq/otsdaq/CoreSupervisors/CorePropertySupervisorBase.cc|161|Marked alive: /home/otsdaq/otsdaq/srcs/otsdaq_cmsoutertracker/DataDefault/Logs/otsdaq_is_alive-athenanu.dhcp.fnal.gov-2015.dat
|Debug	|/home/otsdaq/otsdaq/srcs/otsdaq/otsdaq/WebUsersUtilities/WebUsers.cc|477|/home/otsdaq/otsdaq/srcs/otsdaq_cmsoutertracker/DataDefault/ServiceData/LoginData/HashesData//hashes.xml
|Debug	|/home/otsdaq/otsdaq/srcs/otsdaq/otsdaq/WebUsersUtilities/WebUsers.cc|530|0 Hashes found.
|Debug	|/home/otsdaq/otsdaq/srcs/otsdaq/otsdaq/WebUsersUtilities/WebUsers.cc|593|Found Users database next user Id: 1
|Debug	|/home/otsdaq/otsdaq/srcs/otsdaq/otsdaq/WebUsersUtilities/WebUsers.cc|735|1 Users found.
|Debug	|/home/otsdaq/otsdaq/srcs/otsdaq/otsdaq/WebUsersUtilities/WebUsers.cc|738|User 0: Name: admin		Display Name: Administrator		Email: root@otsdaq.fnal.gov		Permissions: allUsers: 255
|Debug	|/home/otsdaq/otsdaq/srcs/otsdaq/otsdaq/WebUsersUtilities/WebUsers.cc|2879|The current security type is NoSecurity
|Debug	|/home/otsdaq/otsdaq/srcs/otsdaq/otsdaq/WebUsersUtilities/WebUsers.cc|2889|CareAboutCookieCodes_: 0
|Debug	|/home/otsdaq/otsdaq/srcs/otsdaq/otsdaq/WebUsersUtilities/WebUsers.cc|388|/home/otsdaq/otsdaq/srcs/otsdaq_cmsoutertracker/DataDefault/ServiceData/LoginData/UsersData//activeSessions.sv
|Info	|/home/otsdaq/otsdaq/srcs/otsdaq/otsdaq/WebUsersUtilities/WebUsers.cc|392|Persistent active sessions were not found to be loaded at file: /home/otsdaq/otsdaq/srcs/otsdaq_cmsoutertracker/DataDefault/ServiceData/LoginData/UsersData//activeSessions.sv
|Debug	|/home/otsdaq/otsdaq/srcs/otsdaq/otsdaq/WebUsersUtilities/WebUsers.cc|2835|Attempting to load username with lock: admin
|Debug	|/home/otsdaq/otsdaq/srcs/otsdaq/otsdaq/WebUsersUtilities/WebUsers.cc|2849|Setting lock
|Debug	|/home/otsdaq/otsdaq/srcs/otsdaq/otsdaq/WebUsersUtilities/WebUsers.cc|2645|actingUser = admin
|Debug	|/home/otsdaq/otsdaq/srcs/otsdaq/otsdaq/WebUsersUtilities/WebUsers.cc|2646|Permissions: allUsers: 255
|Debug	|/home/otsdaq/otsdaq/srcs/otsdaq/otsdaq/WebUsersUtilities/WebUsers.cc|2647|usersUsernameWithLock_ = 
|Debug	|/home/otsdaq/otsdaq/srcs/otsdaq/otsdaq/WebUsersUtilities/WebUsers.cc|2648|lock = 1
|Debug	|/home/otsdaq/otsdaq/srcs/otsdaq/otsdaq/WebUsersUtilities/WebUsers.cc|2649|username = admin
|Debug	|/home/otsdaq/otsdaq/srcs/otsdaq/otsdaq/WebUsersUtilities/WebUsers.cc|2650|isUsernameActive(username) = 0
|Info	|/home/otsdaq/otsdaq/srcs/otsdaq/otsdaq/WebUsersUtilities/WebUsers.cc|2676|User 'admin' has locked out the system!
|Info	|/home/otsdaq/otsdaq/srcs/otsdaq/otsdaq/WebUsersUtilities/WebUsers.cc|2676|User 'admin' has locked out the system!
|Debug	|/home/otsdaq/otsdaq/srcs/otsdaq/otsdaq/WebUsersUtilities/WebUsers.cc|154|Done with Web Users initialization!
|Debug	|/home/otsdaq/otsdaq/srcs/otsdaq/otsdaq/WorkLoopManager/WorkLoopManager.cc|19|Request name: StateMachine jobName: StateMachine
|Debug	|/home/otsdaq/otsdaq/srcs/otsdaq/otsdaq/WorkLoopManager/WorkLoopManager.cc|19|Request name: InfoRequest jobName: InfoRequest
|Debug	|/home/otsdaq/otsdaq/srcs/otsdaq/otsdaq/GatewaySupervisor/Iterator.cc|29|Iterator constructed.
|Debug	|/home/otsdaq/otsdaq/srcs/otsdaq/otsdaq/GatewaySupervisor/Iterator.cc|30|Iterator constructed.
|Debug	|/home/otsdaq/otsdaq/srcs/otsdaq/otsdaq/GatewaySupervisor/GatewaySupervisor.cc|62|
|Debug	|/home/otsdaq/otsdaq/srcs/otsdaq/otsdaq/GatewaySupervisor/GatewaySupervisor.cc|71|Security: NoSecurity
|Debug	|/home/otsdaq/otsdaq/srcs/otsdaq/otsdaq/GatewaySupervisor/GatewaySupervisor.cc|153|Enabling state changes over UDP...
|Debug	|/home/otsdaq/otsdaq/srcs/otsdaq/otsdaq/GatewaySupervisor/GatewaySupervisor.cc|180|App Status checking is disabled.
|Debug	|/home/otsdaq/otsdaq/srcs/otsdaq/otsdaq/NetworkUtilities/Socket.cc|30|Socket constructor 131.225.179.157:17000
|Debug	|/home/otsdaq/otsdaq/srcs/otsdaq/otsdaq/NetworkUtilities/Socket.cc|44|IPAddress: 131.225.179.157 port: 17000 htons: 26690
|Debug	|/home/otsdaq/otsdaq/srcs/otsdaq/otsdaq/NetworkUtilities/Socket.cc|56|Constructed socket for port 17000=17000 htons: 26690
|Debug	|/home/otsdaq/otsdaq/srcs/otsdaq/otsdaq/NetworkUtilities/TransmitterSocket.cc|12|TransmitterSocket constructor 
|Debug	|/home/otsdaq/otsdaq/srcs/otsdaq/otsdaq/NetworkUtilities/ReceiverSocket.cc|26|ReceiverSocket constructor
|Debug	|/home/otsdaq/otsdaq/srcs/otsdaq/otsdaq/CoreSupervisors/CorePropertySupervisorBase.cc|27|ChatSupervisor-UNINITIALIZED_supervisorApplicationUID	<> application->getApplicationContext()->getContextDescriptor()->getURL() = http://athenanu.dhcp.fnal.gov:2015
|Debug	|/home/otsdaq/otsdaq/srcs/otsdaq/otsdaq/CoreSupervisors/CorePropertySupervisorBase.cc|28|ChatSupervisor-UNINITIALIZED_supervisorApplicationUID	<> application->getApplicationDescriptor()->getLocalId() = 250
|Debug	|/home/otsdaq/otsdaq/srcs/otsdaq/otsdaq/NetworkUtilities/TransceiverSocket.cc|15|TransceiverSocket constructor 131.225.179.157:17000
|Debug	|/home/otsdaq/otsdaq/srcs/otsdaq/otsdaq/CoreSupervisors/CorePropertySupervisorBase.cc|29|ChatSupervisor-UNINITIALIZED_supervisorApplicationUID	<> supervisorClass_ = ots::ChatSupervisor
|Debug	|/home/otsdaq/otsdaq/srcs/otsdaq/otsdaq/NetworkUtilities/Socket.cc|83|Initializing port 17000 htons: 26690
|Debug	|/home/otsdaq/otsdaq/srcs/otsdaq/otsdaq/NetworkUtilities/Socket.cc|107|]	Binding port: 17000
|Debug	|/home/otsdaq/otsdaq/srcs/otsdaq/otsdaq/CoreSupervisors/CorePropertySupervisorBase.cc|30|ChatSupervisor-UNINITIALIZED_supervisorApplicationUID	<> supervisorClassNoNamespace_ = ChatSupervisor
|Debug	|/home/otsdaq/otsdaq/srcs/otsdaq/otsdaq/NetworkUtilities/Socket.cc|119|]	Socket Number: 7 for port: 17000 initialized.
|Debug	|/home/otsdaq/otsdaq/srcs/otsdaq/otsdaq/SupervisorInfo/AllSupervisorInfo.cc|42|Initializing info based on XDAQ context...
|Debug	|/home/otsdaq/otsdaq/srcs/otsdaq/otsdaq/NetworkUtilities/Socket.cc|134|:):):):):):):):):):):):):):):):):):):):):):):):):):):):):):):):):):):)
|Debug	|/home/otsdaq/otsdaq/srcs/otsdaq/otsdaq/SupervisorInfo/SupervisorDescriptorInfoBase.cc|33|Init
|Debug	|/home/otsdaq/otsdaq/srcs/otsdaq/otsdaq/NetworkUtilities/Socket.cc|137|:):):):):):):):):):):):):):):):):):):):):):):):):):):):):):):):):):):)
|Debug	|/home/otsdaq/otsdaq/srcs/otsdaq/otsdaq/SupervisorInfo/AllSupervisorInfo.cc|98|Initializing info for Normal mode XDAQ context...
|Debug	|/home/otsdaq/otsdaq/srcs/otsdaq/otsdaq/NetworkUtilities/Socket.cc|140|SOCKET ON PORT: 17000 ON IP: 131.225.179.157 INITIALIZED OK!
|Debug	|/home/otsdaq/otsdaq/srcs/otsdaq/otsdaq/TableCore/TableBase.cc|1107|TableBase-TableGroupMetadata	<> Using Mock-up view
|Debug	|/home/otsdaq/otsdaq/srcs/otsdaq/otsdaq/NetworkUtilities/Socket.cc|141|:):):):):):):):):):):):):):):):):):):):):):):):):):):):):):):):):):):)
|Debug	|/home/otsdaq/otsdaq/srcs/otsdaq/otsdaq/NetworkUtilities/Socket.cc|144|:):):):):):):):):):):):):):):):):):):):):):):):):):):):):):):):):):):)
|Debug	|/home/otsdaq/otsdaq/srcs/otsdaq/otsdaq/NetworkUtilities/Socket.cc|150|]	Socket Number: 7 for port: 17000 initialized.
|Debug	|/home/otsdaq/otsdaq/srcs/otsdaq/otsdaq/NetworkUtilities/Socket.cc|164|Setting socket receive buffer size = 65536 0x10000
|Debug	|/home/otsdaq/otsdaq/srcs/otsdaq/otsdaq/ConfigurationInterface/ConfigurationManager.cc|163|username_ = READONLY_USER
|Debug	|/home/otsdaq/otsdaq/srcs/otsdaq/otsdaq/ConfigurationInterface/ConfigurationManager.cc|205|ACTIVE_GROUPS_FILENAME = /home/otsdaq/otsdaq/srcs/otsdaq_cmsoutertracker/DataDefault/ServiceData/ActiveTableGroups.cfg
|Debug	|/home/otsdaq/otsdaq/srcs/otsdaq/otsdaq/ConfigurationInterface/ConfigurationManager.cc|206|ARTDAQ_DATABASE_URI = filesystemdb:///home/otsdaq/otsdaq/srcs/otsdaq_cmsoutertracker/databases/filesystemdb/default_db
|Debug	|/home/otsdaq/otsdaq/srcs/otsdaq/otsdaq/ConfigurationInterface/ConfigurationManager.cc|1343|------------------------------------- init start    	 [for all plug-ins in Context group 'DefaultContext(15)']
|Debug	|/home/otsdaq/otsdaq/srcs/otsdaq/otsdaq/TablePlugins/MessageFacilityTable_table.cc|113|Forwarding to Web GUI with UDP forward MesageFacility table.
|Debug	|/home/otsdaq/otsdaq/srcs/otsdaq/otsdaq/TablePlugins/MessageFacilityTable_table.cc|236|Opened.. /home/otsdaq/otsdaq/srcs/otsdaq_cmsoutertracker/DataDefault/MessageFacilityConfigurations/MessageFacilityGen.fcl
|Debug	|/home/otsdaq/otsdaq/srcs/otsdaq/otsdaq/TablePlugins/MessageFacilityTable_table.cc|248|Opened.. /home/otsdaq/otsdaq/srcs/otsdaq_cmsoutertracker/DataDefault/MessageFacilityConfigurations/MessageFacilityGen.fcl
|Debug	|/home/otsdaq/otsdaq/srcs/otsdaq/otsdaq/TablePlugins/XDAQContextTable_table.cc|251|Fixing deprecated Supervisor class from ots::Supervisor to ots::GatewaySupervisor
|Debug	|/home/otsdaq/otsdaq/srcs/otsdaq/otsdaq/ConfigurationInterface/ConfigurationManager.cc|1510|------------------------------------- init complete 	 [for all plug-ins in Context group 'DefaultContext(15)']
|Debug	|/home/otsdaq/otsdaq/srcs/otsdaq/otsdaq/ConfigurationInterface/ConfigurationManager.cc|1343|------------------------------------- init start    	 [for all plug-ins in Backbone group 'TableEditWizBackbone(19)']
|Debug	|/home/otsdaq/otsdaq/srcs/otsdaq/otsdaq/ConfigurationInterface/ConfigurationManager.cc|1510|------------------------------------- init complete 	 [for all plug-ins in Backbone group 'TableEditWizBackbone(19)']
|Warning	|/home/otsdaq/otsdaq/srcs/otsdaq/otsdaq/ConfigurationInterface/ConfigurationManager.cc|1336|Not loading group because it is not of type Context or Backbone (it is type 'Configuration').
|Debug	|/home/otsdaq/otsdaq/srcs/otsdaq/otsdaq/SupervisorInfo/AllSupervisorInfo.cc|318|Supervisor Info initialization complete!
|Debug	|/home/otsdaq/otsdaq/srcs/otsdaq/otsdaq/ConfigurationInterface/ConfigurationManager.cc|422|Destroying Backbone Key: 19
|Debug	|/home/otsdaq/otsdaq/srcs/otsdaq/otsdaq/ConfigurationInterface/ConfigurationManager.cc|440|Destroying Context Key: 15
|Debug	|/home/otsdaq/otsdaq/srcs/otsdaq/otsdaq/CoreSupervisors/CorePropertySupervisorBase.cc|71|ChatSupervisor-UNINITIALIZED_supervisorApplicationUID	<> Getting configuration specific info for supervisor 'ChatSupervisor' of class ots::ChatSupervisor.
|Debug	|/home/otsdaq/otsdaq/srcs/otsdaq/otsdaq/TableCore/TableBase.cc|1107|TableBase-TableGroupMetadata	<> Using Mock-up view
|Debug	|/home/otsdaq/otsdaq/srcs/otsdaq/otsdaq/ConfigurationInterface/ConfigurationManager.cc|163|username_ = READONLY_USER
|Debug	|/home/otsdaq/otsdaq/srcs/otsdaq/otsdaq/ConfigurationInterface/ConfigurationManager.cc|205|ACTIVE_GROUPS_FILENAME = /home/otsdaq/otsdaq/srcs/otsdaq_cmsoutertracker/DataDefault/ServiceData/ActiveTableGroups.cfg
|Debug	|/home/otsdaq/otsdaq/srcs/otsdaq/otsdaq/ConfigurationInterface/ConfigurationManager.cc|206|ARTDAQ_DATABASE_URI = filesystemdb:///home/otsdaq/otsdaq/srcs/otsdaq_cmsoutertracker/databases/filesystemdb/default_db
|Debug	|/home/otsdaq/otsdaq/srcs/otsdaq/otsdaq/ConfigurationInterface/ConfigurationManager.cc|1343|------------------------------------- init start    	 [for all plug-ins in Context group 'DefaultContext(15)']
|Debug	|/home/otsdaq/otsdaq/srcs/otsdaq/otsdaq/TablePlugins/MessageFacilityTable_table.cc|113|Forwarding to Web GUI with UDP forward MesageFacility table.
|Debug	|/home/otsdaq/otsdaq/srcs/otsdaq/otsdaq/TablePlugins/MessageFacilityTable_table.cc|236|Opened.. /home/otsdaq/otsdaq/srcs/otsdaq_cmsoutertracker/DataDefault/MessageFacilityConfigurations/MessageFacilityGen.fcl
|Debug	|/home/otsdaq/otsdaq/srcs/otsdaq/otsdaq/TablePlugins/MessageFacilityTable_table.cc|248|Opened.. /home/otsdaq/otsdaq/srcs/otsdaq_cmsoutertracker/DataDefault/MessageFacilityConfigurations/MessageFacilityGen.fcl
|Debug	|/home/otsdaq/otsdaq/srcs/otsdaq/otsdaq/TablePlugins/XDAQContextTable_table.cc|251|Fixing deprecated Supervisor class from ots::Supervisor to ots::GatewaySupervisor
|Debug	|/home/otsdaq/otsdaq/srcs/otsdaq/otsdaq/ConfigurationInterface/ConfigurationManager.cc|1510|------------------------------------- init complete 	 [for all plug-ins in Context group 'DefaultContext(15)']
|Debug	|/home/otsdaq/otsdaq/srcs/otsdaq/otsdaq/ConfigurationInterface/ConfigurationManager.cc|1343|------------------------------------- init start    	 [for all plug-ins in Backbone group 'TableEditWizBackbone(19)']
|Debug	|/home/otsdaq/otsdaq/srcs/otsdaq/otsdaq/ConfigurationInterface/ConfigurationManager.cc|1510|------------------------------------- init complete 	 [for all plug-ins in Backbone group 'TableEditWizBackbone(19)']
|Warning	|/home/otsdaq/otsdaq/srcs/otsdaq/otsdaq/ConfigurationInterface/ConfigurationManager.cc|1336|Not loading group because it is not of type Context or Backbone (it is type 'Configuration').
|Debug	|/home/otsdaq/otsdaq/srcs/otsdaq/otsdaq/CoreSupervisors/CorePropertySupervisorBase.cc|109|ChatSupervisor-ChatSupervisor	<> CorePropertySupervisorBase::supervisorContextUID_ = MainContext
|Debug	|/home/otsdaq/otsdaq/srcs/otsdaq/otsdaq/CoreSupervisors/CorePropertySupervisorBase.cc|110|ChatSupervisor-ChatSupervisor	<> CorePropertySupervisorBase::supervisorApplicationUID_ = ChatSupervisor
|Debug	|/home/otsdaq/otsdaq/srcs/otsdaq/otsdaq/CoreSupervisors/CorePropertySupervisorBase.cc|111|ChatSupervisor-ChatSupervisor	<> CorePropertySupervisorBase::supervisorConfigurationPath_ = /MainContext/LinkToApplicationTable/ChatSupervisor/LinkToSupervisorTable
|Debug	|/home/otsdaq/otsdaq/srcs/otsdaq/otsdaq/CoreSupervisors/CorePropertySupervisorBase.cc|147|hostname = athenanu.dhcp.fnal.gov
|Debug	|/home/otsdaq/otsdaq/srcs/otsdaq/otsdaq/CoreSupervisors/CorePropertySupervisorBase.cc|161|Marked alive: /home/otsdaq/otsdaq/srcs/otsdaq_cmsoutertracker/DataDefault/Logs/otsdaq_is_alive-athenanu.dhcp.fnal.gov-2015.dat
|Debug	|/home/otsdaq/otsdaq/srcs/otsdaq/otsdaq/FiniteStateMachine/FiniteStateMachine.cc|19|FSM-ChatSupervisor:ChatSupervisor	<> Constructing FiniteStateMachine
|Debug	|/home/otsdaq/otsdaq/srcs/otsdaq/otsdaq/FiniteStateMachine/RunControlStateMachine.cc|97|FSM-ChatSupervisor:ChatSupervisor	<> Resetting RunControlStateMachine with name 'ChatSupervisor:ChatSupervisor'...
|Debug	|/home/otsdaq/otsdaq/srcs/otsdaq/otsdaq/WorkLoopManager/WorkLoopManager.cc|19|Request name: StateMachine jobName: StateMachine
|Debug	|/home/otsdaq/otsdaq/srcs/otsdaq/otsdaq/CoreSupervisors/CoreSupervisorBase.cc|25|ChatSupervisor-ChatSupervisor	<> Constructor.
|Debug	|/home/otsdaq/otsdaq/srcs/otsdaq/otsdaq/CoreSupervisors/CoreSupervisorBase.cc|39|ChatSupervisor-ChatSupervisor	<> Constructed.
|Debug	|/home/otsdaq/otsdaq/srcs/otsdaq/otsdaq/CoreSupervisors/CorePropertySupervisorBase.cc|27|ConsoleSupervisor-UNINITIALIZED_supervisorApplicationUID	<> application->getApplicationContext()->getContextDescriptor()->getURL() = http://athenanu.dhcp.fnal.gov:2015
|Debug	|/home/otsdaq/otsdaq/srcs/otsdaq/otsdaq/CoreSupervisors/CorePropertySupervisorBase.cc|28|ConsoleSupervisor-UNINITIALIZED_supervisorApplicationUID	<> application->getApplicationDescriptor()->getLocalId() = 260
|Debug	|/home/otsdaq/otsdaq/srcs/otsdaq/otsdaq/CoreSupervisors/CorePropertySupervisorBase.cc|29|ConsoleSupervisor-UNINITIALIZED_supervisorApplicationUID	<> supervisorClass_ = ots::ConsoleSupervisor
|Debug	|/home/otsdaq/otsdaq/srcs/otsdaq/otsdaq/CoreSupervisors/CorePropertySupervisorBase.cc|30|ConsoleSupervisor-UNINITIALIZED_supervisorApplicationUID	<> supervisorClassNoNamespace_ = ConsoleSupervisor
|Debug	|/home/otsdaq/otsdaq/srcs/otsdaq/otsdaq/SupervisorInfo/AllSupervisorInfo.cc|42|Initializing info based on XDAQ context...
|Debug	|/home/otsdaq/otsdaq/srcs/otsdaq/otsdaq/SupervisorInfo/SupervisorDescriptorInfoBase.cc|33|Init
|Debug	|/home/otsdaq/otsdaq/srcs/otsdaq/otsdaq/SupervisorInfo/AllSupervisorInfo.cc|98|Initializing info for Normal mode XDAQ context...
|Debug	|/home/otsdaq/otsdaq/srcs/otsdaq/otsdaq/TableCore/TableBase.cc|1107|TableBase-TableGroupMetadata	<> Using Mock-up view
|Debug	|/home/otsdaq/otsdaq/srcs/otsdaq/otsdaq/ConfigurationInterface/ConfigurationManager.cc|163|username_ = READONLY_USER
|Debug	|/home/otsdaq/otsdaq/srcs/otsdaq/otsdaq/ConfigurationInterface/ConfigurationManager.cc|205|ACTIVE_GROUPS_FILENAME = /home/otsdaq/otsdaq/srcs/otsdaq_cmsoutertracker/DataDefault/ServiceData/ActiveTableGroups.cfg
|Debug	|/home/otsdaq/otsdaq/srcs/otsdaq/otsdaq/ConfigurationInterface/ConfigurationManager.cc|206|ARTDAQ_DATABASE_URI = filesystemdb:///home/otsdaq/otsdaq/srcs/otsdaq_cmsoutertracker/databases/filesystemdb/default_db
|Debug	|/home/otsdaq/otsdaq/srcs/otsdaq/otsdaq/ConfigurationInterface/ConfigurationManager.cc|1343|------------------------------------- init start    	 [for all plug-ins in Context group 'DefaultContext(15)']
|Debug	|/home/otsdaq/otsdaq/srcs/otsdaq/otsdaq/TablePlugins/MessageFacilityTable_table.cc|113|Forwarding to Web GUI with UDP forward MesageFacility table.
|Debug	|/home/otsdaq/otsdaq/srcs/otsdaq/otsdaq/TablePlugins/MessageFacilityTable_table.cc|236|Opened.. /home/otsdaq/otsdaq/srcs/otsdaq_cmsoutertracker/DataDefault/MessageFacilityConfigurations/MessageFacilityGen.fcl
|Debug	|/home/otsdaq/otsdaq/srcs/otsdaq/otsdaq/TablePlugins/MessageFacilityTable_table.cc|248|Opened.. /home/otsdaq/otsdaq/srcs/otsdaq_cmsoutertracker/DataDefault/MessageFacilityConfigurations/MessageFacilityGen.fcl
|Debug	|/home/otsdaq/otsdaq/srcs/otsdaq/otsdaq/TablePlugins/XDAQContextTable_table.cc|251|Fixing deprecated Supervisor class from ots::Supervisor to ots::GatewaySupervisor
|Debug	|/home/otsdaq/otsdaq/srcs/otsdaq/otsdaq/ConfigurationInterface/ConfigurationManager.cc|1510|------------------------------------- init complete 	 [for all plug-ins in Context group 'DefaultContext(15)']
|Debug	|/home/otsdaq/otsdaq/srcs/otsdaq/otsdaq/ConfigurationInterface/ConfigurationManager.cc|1343|------------------------------------- init start    	 [for all plug-ins in Backbone group 'TableEditWizBackbone(19)']
|Debug	|/home/otsdaq/otsdaq/srcs/otsdaq/otsdaq/ConfigurationInterface/ConfigurationManager.cc|1510|------------------------------------- init complete 	 [for all plug-ins in Backbone group 'TableEditWizBackbone(19)']
|Warning	|/home/otsdaq/otsdaq/srcs/otsdaq/otsdaq/ConfigurationInterface/ConfigurationManager.cc|1336|Not loading group because it is not of type Context or Backbone (it is type 'Configuration').
|Debug	|/home/otsdaq/otsdaq/srcs/otsdaq/otsdaq/SupervisorInfo/AllSupervisorInfo.cc|318|Supervisor Info initialization complete!
|Debug	|/home/otsdaq/otsdaq/srcs/otsdaq/otsdaq/ConfigurationInterface/ConfigurationManager.cc|422|Destroying Backbone Key: 19
|Debug	|/home/otsdaq/otsdaq/srcs/otsdaq/otsdaq/ConfigurationInterface/ConfigurationManager.cc|440|Destroying Context Key: 15
|Debug	|/home/otsdaq/otsdaq/srcs/otsdaq/otsdaq/CoreSupervisors/CorePropertySupervisorBase.cc|71|ConsoleSupervisor-UNINITIALIZED_supervisorApplicationUID	<> Getting configuration specific info for supervisor 'ConsoleSupervisor' of class ots::ConsoleSupervisor.
|Debug	|/home/otsdaq/otsdaq/srcs/otsdaq/otsdaq/TableCore/TableBase.cc|1107|TableBase-TableGroupMetadata	<> Using Mock-up view
|Debug	|/home/otsdaq/otsdaq/srcs/otsdaq/otsdaq/ConfigurationInterface/ConfigurationManager.cc|163|username_ = READONLY_USER
|Debug	|/home/otsdaq/otsdaq/srcs/otsdaq/otsdaq/ConfigurationInterface/ConfigurationManager.cc|205|ACTIVE_GROUPS_FILENAME = /home/otsdaq/otsdaq/srcs/otsdaq_cmsoutertracker/DataDefault/ServiceData/ActiveTableGroups.cfg
|Debug	|/home/otsdaq/otsdaq/srcs/otsdaq/otsdaq/ConfigurationInterface/ConfigurationManager.cc|206|ARTDAQ_DATABASE_URI = filesystemdb:///home/otsdaq/otsdaq/srcs/otsdaq_cmsoutertracker/databases/filesystemdb/default_db
|Debug	|/home/otsdaq/otsdaq/srcs/otsdaq/otsdaq/ConfigurationInterface/ConfigurationManager.cc|1343|------------------------------------- init start    	 [for all plug-ins in Context group 'DefaultContext(15)']
|Debug	|/home/otsdaq/otsdaq/srcs/otsdaq/otsdaq/TablePlugins/MessageFacilityTable_table.cc|113|Forwarding to Web GUI with UDP forward MesageFacility table.
|Debug	|/home/otsdaq/otsdaq/srcs/otsdaq/otsdaq/TablePlugins/MessageFacilityTable_table.cc|236|Opened.. /home/otsdaq/otsdaq/srcs/otsdaq_cmsoutertracker/DataDefault/MessageFacilityConfigurations/MessageFacilityGen.fcl
|Debug	|/home/otsdaq/otsdaq/srcs/otsdaq_utilities/otsdaq-utilities/Console/ConsoleSupervisor.cc|185|Console has first message.
|Info	|/home/otsdaq/otsdaq/srcs/otsdaq_utilities/otsdaq-utilities/Console/ConsoleSupervisor.cc|189|INFO messages look like this.
|Warning	|/home/otsdaq/otsdaq/srcs/otsdaq_utilities/otsdaq-utilities/Console/ConsoleSupervisor.cc|190|WARNING messages look like this.
|Error	|/home/otsdaq/otsdaq/srcs/otsdaq_utilities/otsdaq-utilities/Console/ConsoleSupervisor.cc|191|ERROR messages look like this.
|Debug	|/home/otsdaq/otsdaq/srcs/otsdaq/otsdaq/TablePlugins/MessageFacilityTable_table.cc|113|Forwarding to Web GUI with UDP forward MesageFacility table.
|Debug	|/home/otsdaq/otsdaq/srcs/otsdaq/otsdaq/TablePlugins/MessageFacilityTable_table.cc|236|Opened.. /home/otsdaq/otsdaq/srcs/otsdaq_cmsoutertracker/DataDefault/MessageFacilityConfigurations/MessageFacilityGen.fcl
|Debug	|/home/otsdaq/otsdaq/srcs/otsdaq/otsdaq/TablePlugins/MessageFacilityTable_table.cc|248|Opened.. /home/otsdaq/otsdaq/srcs/otsdaq_cmsoutertracker/DataDefault/MessageFacilityConfigurations/MessageFacilityGen.fcl
|Debug	|/home/otsdaq/otsdaq/srcs/otsdaq/otsdaq/TablePlugins/XDAQContextTable_table.cc|251|Fixing deprecated Supervisor class from ots::Supervisor to ots::GatewaySupervisor
|Debug	|/home/otsdaq/otsdaq/srcs/otsdaq/otsdaq/TablePlugins/MessageFacilityTable_table.cc|113|Forwarding to Web GUI with UDP forward MesageFacility table.
|Debug	|/home/otsdaq/otsdaq/srcs/otsdaq/otsdaq/TablePlugins/MessageFacilityTable_table.cc|236|Opened.. /home/otsdaq/otsdaq/srcs/otsdaq_cmsoutertracker/DataDefault/MessageFacilityConfigurations/MessageFacilityGen.fcl
|Debug	|/home/otsdaq/otsdaq/srcs/otsdaq/otsdaq/TablePlugins/MessageFacilityTable_table.cc|248|Opened.. /home/otsdaq/otsdaq/srcs/otsdaq_cmsoutertracker/DataDefault/MessageFacilityConfigurations/MessageFacilityGen.fcl
|Debug	|/home/otsdaq/otsdaq/srcs/otsdaq/otsdaq/TablePlugins/XDAQContextTable_table.cc|251|Fixing deprecated Supervisor class from ots::Supervisor to ots::GatewaySupervisor
|Debug	|/home/otsdaq/otsdaq/srcs/otsdaq/otsdaq/ConfigurationInterface/ConfigurationManager.cc|1510|------------------------------------- init complete 	 [for all plug-ins in Context group 'DefaultContext(15)']
|Debug	|/home/otsdaq/otsdaq/srcs/otsdaq/otsdaq/ConfigurationInterface/ConfigurationManager.cc|1510|------------------------------------- init complete 	 [for all plug-ins in Context group 'DefaultContext(15)']
|Debug	|/home/otsdaq/otsdaq/srcs/otsdaq/otsdaq/ConfigurationInterface/ConfigurationManager.cc|1343|------------------------------------- init start    	 [for all plug-ins in Backbone group 'TableEditWizBackbone(19)']
|Debug	|/home/otsdaq/otsdaq/srcs/otsdaq/otsdaq/ConfigurationInterface/ConfigurationManager.cc|1510|------------------------------------- init complete 	 [for all plug-ins in Backbone group 'TableEditWizBackbone(19)']
|Debug	|/home/otsdaq/otsdaq/srcs/otsdaq/otsdaq/ConfigurationInterface/ConfigurationManager.cc|1343|------------------------------------- init start    	 [for all plug-ins in Backbone group 'TableEditWizBackbone(19)']
|Debug	|/home/otsdaq/otsdaq/srcs/otsdaq/otsdaq/ConfigurationInterface/ConfigurationManager.cc|1510|------------------------------------- init complete 	 [for all plug-ins in Backbone group 'TableEditWizBackbone(19)']
|Warning	|/home/otsdaq/otsdaq/srcs/otsdaq/otsdaq/ConfigurationInterface/ConfigurationManager.cc|1336|Not loading group because it is not of type Context or Backbone (it is type 'Configuration').
|Debug	|/home/otsdaq/otsdaq/srcs/otsdaq/otsdaq/CoreSupervisors/CorePropertySupervisorBase.cc|109|VisualSupervisor-VisualSupervisor	<> CorePropertySupervisorBase::supervisorContextUID_ = MainContext
|Debug	|/home/otsdaq/otsdaq/srcs/otsdaq/otsdaq/CoreSupervisors/CorePropertySupervisorBase.cc|110|VisualSupervisor-VisualSupervisor	<> CorePropertySupervisorBase::supervisorApplicationUID_ = VisualSupervisor
|Debug	|/home/otsdaq/otsdaq/srcs/otsdaq/otsdaq/CoreSupervisors/CorePropertySupervisorBase.cc|111|VisualSupervisor-VisualSupervisor	<> CorePropertySupervisorBase::supervisorConfigurationPath_ = /MainContext/LinkToApplicationTable/VisualSupervisor/LinkToSupervisorTable
|Debug	|/home/otsdaq/otsdaq/srcs/otsdaq/otsdaq/CoreSupervisors/CorePropertySupervisorBase.cc|147|hostname = athenanu.dhcp.fnal.gov
|Debug	|/home/otsdaq/otsdaq/srcs/otsdaq/otsdaq/CoreSupervisors/CorePropertySupervisorBase.cc|161|Marked alive: /home/otsdaq/otsdaq/srcs/otsdaq_cmsoutertracker/DataDefault/Logs/otsdaq_is_alive-athenanu.dhcp.fnal.gov-2015.dat
|Debug	|/home/otsdaq/otsdaq/srcs/otsdaq/otsdaq/FiniteStateMachine/FiniteStateMachine.cc|19|FSM-VisualSupervisor:VisualSupervisor	<> Constructing FiniteStateMachine
|Debug	|/home/otsdaq/otsdaq/srcs/otsdaq/otsdaq/FiniteStateMachine/RunControlStateMachine.cc|97|FSM-VisualSupervisor:VisualSupervisor	<> Resetting RunControlStateMachine with name 'VisualSupervisor:VisualSupervisor'...
|Debug	|/home/otsdaq/otsdaq/srcs/otsdaq/otsdaq/WorkLoopManager/WorkLoopManager.cc|19|Request name: StateMachine jobName: StateMachine
|Debug	|/home/otsdaq/otsdaq/srcs/otsdaq/otsdaq/CoreSupervisors/CoreSupervisorBase.cc|25|VisualSupervisor-VisualSupervisor	<> Constructor.
|Debug	|/home/otsdaq/otsdaq/srcs/otsdaq/otsdaq/CoreSupervisors/CoreSupervisorBase.cc|39|VisualSupervisor-VisualSupervisor	<> Constructed.
|Debug	|/home/otsdaq/otsdaq/srcs/otsdaq_utilities/otsdaq-utilities/Visualization/VisualSupervisor.cc|67|VisualSupervisor-VisualSupervisor	<> Constructor.
|Debug	|/home/otsdaq/otsdaq/srcs/otsdaq/otsdaq/DataManager/DataManagerSingleton.h|34|Creating supervisor application UID: VisualSupervisor POINTER: (nil)
|Debug	|/home/otsdaq/otsdaq/srcs/otsdaq/otsdaq/Configurable/Configurable.cc|13|X	<>  Configurable class constructed. 
|Debug	|/home/otsdaq/otsdaq/srcs/otsdaq/otsdaq/DataManager/DataManager.cc|36|X	<> Constructed.
|Debug	|/home/otsdaq/otsdaq/srcs/otsdaq/otsdaq/DataManager/DataManagerSingleton.h|36|Creating supervisor application UID: VisualSupervisor POINTER: 0xd4ee70
|Debug	|/home/otsdaq/otsdaq/srcs/otsdaq_utilities/otsdaq-utilities/Visualization/VisualSupervisor.cc|78|VisualSupervisor-VisualSupervisor	<> Done instantiating Visual data manager.
|Debug	|/home/otsdaq/otsdaq/srcs/otsdaq_utilities/otsdaq-utilities/Visualization/VisualSupervisor.cc|82|VisualSupervisor-VisualSupervisor	<> Constructed.
|Debug	|/home/otsdaq/otsdaq/srcs/otsdaq/otsdaq/CoreSupervisors/CorePropertySupervisorBase.cc|27|ConfigurationGUISupervisor-UNINITIALIZED_supervisorApplicationUID	<> application->getApplicationContext()->getContextDescriptor()->getURL() = http://athenanu.dhcp.fnal.gov:2015
|Debug	|/home/otsdaq/otsdaq/srcs/otsdaq/otsdaq/CoreSupervisors/CorePropertySupervisorBase.cc|28|ConfigurationGUISupervisor-UNINITIALIZED_supervisorApplicationUID	<> application->getApplicationDescriptor()->getLocalId() = 281
|Debug	|/home/otsdaq/otsdaq/srcs/otsdaq/otsdaq/CoreSupervisors/CorePropertySupervisorBase.cc|29|ConfigurationGUISupervisor-UNINITIALIZED_supervisorApplicationUID	<> supervisorClass_ = ots::ConfigurationGUISupervisor
|Debug	|/home/otsdaq/otsdaq/srcs/otsdaq/otsdaq/CoreSupervisors/CorePropertySupervisorBase.cc|30|ConfigurationGUISupervisor-UNINITIALIZED_supervisorApplicationUID	<> supervisorClassNoNamespace_ = ConfigurationGUISupervisor
|Debug	|/home/otsdaq/otsdaq/srcs/otsdaq/otsdaq/SupervisorInfo/AllSupervisorInfo.cc|42|Initializing info based on XDAQ context...
|Debug	|/home/otsdaq/otsdaq/srcs/otsdaq/otsdaq/SupervisorInfo/SupervisorDescriptorInfoBase.cc|33|Init
|Debug	|/home/otsdaq/otsdaq/srcs/otsdaq/otsdaq/SupervisorInfo/AllSupervisorInfo.cc|98|Initializing info for Normal mode XDAQ context...
|Debug	|/home/otsdaq/otsdaq/srcs/otsdaq/otsdaq/TableCore/TableBase.cc|1107|TableBase-TableGroupMetadata	<> Using Mock-up view
|Debug	|/home/otsdaq/otsdaq/srcs/otsdaq/otsdaq/ConfigurationInterface/ConfigurationManager.cc|163|username_ = READONLY_USER
|Debug	|/home/otsdaq/otsdaq/srcs/otsdaq/otsdaq/ConfigurationInterface/ConfigurationManager.cc|205|ACTIVE_GROUPS_FILENAME = /home/otsdaq/otsdaq/srcs/otsdaq_cmsoutertracker/DataDefault/ServiceData/ActiveTableGroups.cfg
|Debug	|/home/otsdaq/otsdaq/srcs/otsdaq/otsdaq/ConfigurationInterface/ConfigurationManager.cc|206|ARTDAQ_DATABASE_URI = filesystemdb:///home/otsdaq/otsdaq/srcs/otsdaq_cmsoutertracker/databases/filesystemdb/default_db
|Warning	|/home/otsdaq/otsdaq/srcs/otsdaq/otsdaq/ConfigurationInterface/ConfigurationManager.cc|1336|Not loading group because it is not of type Context or Backbone (it is type 'Configuration').
|Debug	|/home/otsdaq/otsdaq/srcs/otsdaq/otsdaq/CoreSupervisors/CorePropertySupervisorBase.cc|109|FESupervisor-OuterTrackerSupervisor	<> CorePropertySupervisorBase::supervisorContextUID_ = OuterTrackerContext
|Debug	|/home/otsdaq/otsdaq/srcs/otsdaq/otsdaq/CoreSupervisors/CorePropertySupervisorBase.cc|110|FESupervisor-OuterTrackerSupervisor	<> CorePropertySupervisorBase::supervisorApplicationUID_ = OuterTrackerSupervisor
|Debug	|/home/otsdaq/otsdaq/srcs/otsdaq/otsdaq/CoreSupervisors/CorePropertySupervisorBase.cc|111|FESupervisor-OuterTrackerSupervisor	<> CorePropertySupervisorBase::supervisorConfigurationPath_ = /OuterTrackerContext/LinkToApplicationTable/OuterTrackerSupervisor/LinkToSupervisorTable
|Debug	|/home/otsdaq/otsdaq/srcs/otsdaq/otsdaq/CoreSupervisors/CorePropertySupervisorBase.cc|147|hostname = athenanu.dhcp.fnal.gov
|Debug	|/home/otsdaq/otsdaq/srcs/otsdaq/otsdaq/CoreSupervisors/CorePropertySupervisorBase.cc|161|Marked alive: /home/otsdaq/otsdaq/srcs/otsdaq_cmsoutertracker/DataDefault/Logs/otsdaq_is_alive-athenanu.dhcp.fnal.gov-2020.dat
|Debug	|/home/otsdaq/otsdaq/srcs/otsdaq/otsdaq/FiniteStateMachine/FiniteStateMachine.cc|19|FSM-FESupervisor:OuterTrackerSupervisor	<> Constructing FiniteStateMachine
|Debug	|/home/otsdaq/otsdaq/srcs/otsdaq/otsdaq/FiniteStateMachine/RunControlStateMachine.cc|97|FSM-FESupervisor:OuterTrackerSupervisor	<> Resetting RunControlStateMachine with name 'FESupervisor:OuterTrackerSupervisor'...
|Debug	|/home/otsdaq/otsdaq/srcs/otsdaq/otsdaq/WorkLoopManager/WorkLoopManager.cc|19|Request name: StateMachine jobName: StateMachine
|Debug	|/home/otsdaq/otsdaq/srcs/otsdaq/otsdaq/CoreSupervisors/CoreSupervisorBase.cc|25|FESupervisor-OuterTrackerSupervisor	<> Constructor.
|Debug	|/home/otsdaq/otsdaq/srcs/otsdaq/otsdaq/CoreSupervisors/CoreSupervisorBase.cc|39|FESupervisor-OuterTrackerSupervisor	<> Constructed.
|Debug	|/home/otsdaq/otsdaq/srcs/otsdaq/otsdaq/CoreSupervisors/FESupervisor.cc|36|FESupervisor-OuterTrackerSupervisor	<> Constructing...
|Debug	|/home/otsdaq/otsdaq/srcs/otsdaq/otsdaq/Configurable/Configurable.cc|13|X	<>  Configurable class constructed. 
|Debug	|/home/otsdaq/otsdaq/srcs/otsdaq/otsdaq/FECore/FEVInterfacesManager.cc|23|X	<> Constructed.
|Debug	|/home/otsdaq/otsdaq/srcs/otsdaq/otsdaq/CoreSupervisors/FESupervisor.cc|839|FESupervisor-OuterTrackerSupervisor	<> State Machine 0 WAS of type FEVInterfacesManager
|Debug	|/home/otsdaq/otsdaq/srcs/otsdaq/otsdaq/CoreSupervisors/FESupervisor.cc|849|FESupervisor-OuterTrackerSupervisor	<> theFEInterfacesManager pointer = 0x1a99200
|Debug	|/home/otsdaq/otsdaq/srcs/otsdaq/otsdaq/CoreSupervisors/FESupervisor.cc|64|FESupervisor-OuterTrackerSupervisor	<> Constructed.
|Debug	|/home/otsdaq/otsdaq/srcs/otsdaq/otsdaq/ConfigurationInterface/ConfigurationManager.cc|1343|------------------------------------- init start    	 [for all plug-ins in Context group 'DefaultContext(15)']
|Debug	|/home/otsdaq/otsdaq/srcs/otsdaq/otsdaq/TablePlugins/MessageFacilityTable_table.cc|113|Forwarding to Web GUI with UDP forward MesageFacility table.
|Debug	|/home/otsdaq/otsdaq/srcs/otsdaq/otsdaq/TablePlugins/MessageFacilityTable_table.cc|236|Opened.. /home/otsdaq/otsdaq/srcs/otsdaq_cmsoutertracker/DataDefault/MessageFacilityConfigurations/MessageFacilityGen.fcl
|Debug	|/home/otsdaq/otsdaq/srcs/otsdaq/otsdaq/TablePlugins/MessageFacilityTable_table.cc|248|Opened.. /home/otsdaq/otsdaq/srcs/otsdaq_cmsoutertracker/DataDefault/MessageFacilityConfigurations/MessageFacilityGen.fcl
|Debug	|/home/otsdaq/otsdaq/srcs/otsdaq/otsdaq/TablePlugins/XDAQContextTable_table.cc|251|Fixing deprecated Supervisor class from ots::Supervisor to ots::GatewaySupervisor
|Debug	|/home/otsdaq/otsdaq/srcs/otsdaq/otsdaq/ConfigurationInterface/ConfigurationManager.cc|1510|------------------------------------- init complete 	 [for all plug-ins in Context group 'DefaultContext(15)']
|Debug	|/home/otsdaq/otsdaq/srcs/otsdaq/otsdaq/ConfigurationInterface/ConfigurationManager.cc|1343|------------------------------------- init start    	 [for all plug-ins in Backbone group 'TableEditWizBackbone(19)']
|Debug	|/home/otsdaq/otsdaq/srcs/otsdaq/otsdaq/ConfigurationInterface/ConfigurationManager.cc|1510|------------------------------------- init complete 	 [for all plug-ins in Backbone group 'TableEditWizBackbone(19)']
|Warning	|/home/otsdaq/otsdaq/srcs/otsdaq/otsdaq/ConfigurationInterface/ConfigurationManager.cc|1336|Not loading group because it is not of type Context or Backbone (it is type 'Configuration').
|Debug	|/home/otsdaq/otsdaq/srcs/otsdaq/otsdaq/SupervisorInfo/AllSupervisorInfo.cc|318|Supervisor Info initialization complete!
|Debug	|/home/otsdaq/otsdaq/srcs/otsdaq/otsdaq/ConfigurationInterface/ConfigurationManager.cc|422|Destroying Backbone Key: 19
|Debug	|/home/otsdaq/otsdaq/srcs/otsdaq/otsdaq/ConfigurationInterface/ConfigurationManager.cc|440|Destroying Context Key: 15
|Debug	|/home/otsdaq/otsdaq/srcs/otsdaq/otsdaq/CoreSupervisors/CorePropertySupervisorBase.cc|71|ConfigurationGUISupervisor-UNINITIALIZED_supervisorApplicationUID	<> Getting configuration specific info for supervisor 'ConfigurationGUISupervisor' of class ots::ConfigurationGUISupervisor.
|Debug	|/home/otsdaq/otsdaq/srcs/otsdaq/otsdaq/TableCore/TableBase.cc|1107|TableBase-TableGroupMetadata	<> Using Mock-up view
|Debug	|/home/otsdaq/otsdaq/srcs/otsdaq/otsdaq/ConfigurationInterface/ConfigurationManager.cc|163|username_ = READONLY_USER
|Debug	|/home/otsdaq/otsdaq/srcs/otsdaq/otsdaq/ConfigurationInterface/ConfigurationManager.cc|205|ACTIVE_GROUPS_FILENAME = /home/otsdaq/otsdaq/srcs/otsdaq_cmsoutertracker/DataDefault/ServiceData/ActiveTableGroups.cfg
|Debug	|/home/otsdaq/otsdaq/srcs/otsdaq/otsdaq/ConfigurationInterface/ConfigurationManager.cc|206|ARTDAQ_DATABASE_URI = filesystemdb:///home/otsdaq/otsdaq/srcs/otsdaq_cmsoutertracker/databases/filesystemdb/default_db
|Debug	|/home/otsdaq/otsdaq/srcs/otsdaq/otsdaq/ConfigurationInterface/ConfigurationManager.cc|1343|------------------------------------- init start    	 [for all plug-ins in Context group 'DefaultContext(15)']
|Debug	|/home/otsdaq/otsdaq/srcs/otsdaq/otsdaq/TablePlugins/MessageFacilityTable_table.cc|113|Forwarding to Web GUI with UDP forward MesageFacility table.
|Debug	|/home/otsdaq/otsdaq/srcs/otsdaq/otsdaq/TablePlugins/MessageFacilityTable_table.cc|236|Opened.. /home/otsdaq/otsdaq/srcs/otsdaq_cmsoutertracker/DataDefault/MessageFacilityConfigurations/MessageFacilityGen.fcl
|Debug	|/home/otsdaq/otsdaq/srcs/otsdaq/otsdaq/TablePlugins/MessageFacilityTable_table.cc|248|Opened.. /home/otsdaq/otsdaq/srcs/otsdaq_cmsoutertracker/DataDefault/MessageFacilityConfigurations/MessageFacilityGen.fcl
|Debug	|/home/otsdaq/otsdaq/srcs/otsdaq/otsdaq/TablePlugins/XDAQContextTable_table.cc|251|Fixing deprecated Supervisor class from ots::Supervisor to ots::GatewaySupervisor
|Debug	|/home/otsdaq/otsdaq/srcs/otsdaq/otsdaq/ConfigurationInterface/ConfigurationManager.cc|1510|------------------------------------- init complete 	 [for all plug-ins in Context group 'DefaultContext(15)']
|Debug	|/home/otsdaq/otsdaq/srcs/otsdaq/otsdaq/ConfigurationInterface/ConfigurationManager.cc|1343|------------------------------------- init start    	 [for all plug-ins in Backbone group 'TableEditWizBackbone(19)']
|Debug	|/home/otsdaq/otsdaq/srcs/otsdaq/otsdaq/ConfigurationInterface/ConfigurationManager.cc|1510|------------------------------------- init complete 	 [for all plug-ins in Backbone group 'TableEditWizBackbone(19)']
|Warning	|/home/otsdaq/otsdaq/srcs/otsdaq/otsdaq/ConfigurationInterface/ConfigurationManager.cc|1336|Not loading group because it is not of type Context or Backbone (it is type 'Configuration').
|Debug	|/home/otsdaq/otsdaq/srcs/otsdaq/otsdaq/CoreSupervisors/CorePropertySupervisorBase.cc|109|ConfigurationGUISupervisor-ConfigurationGUISupervisor	<> CorePropertySupervisorBase::supervisorContextUID_ = MainContext
|Debug	|/home/otsdaq/otsdaq/srcs/otsdaq/otsdaq/CoreSupervisors/CorePropertySupervisorBase.cc|110|ConfigurationGUISupervisor-ConfigurationGUISupervisor	<> CorePropertySupervisorBase::supervisorApplicationUID_ = ConfigurationGUISupervisor
|Debug	|/home/otsdaq/otsdaq/srcs/otsdaq/otsdaq/CoreSupervisors/CorePropertySupervisorBase.cc|111|ConfigurationGUISupervisor-ConfigurationGUISupervisor	<> CorePropertySupervisorBase::supervisorConfigurationPath_ = /MainContext/LinkToApplicationTable/ConfigurationGUISupervisor/LinkToSupervisorTable
|Debug	|/home/otsdaq/otsdaq/srcs/otsdaq/otsdaq/CoreSupervisors/CorePropertySupervisorBase.cc|147|hostname = athenanu.dhcp.fnal.gov
|Debug	|/home/otsdaq/otsdaq/srcs/otsdaq/otsdaq/CoreSupervisors/CorePropertySupervisorBase.cc|161|Marked alive: /home/otsdaq/otsdaq/srcs/otsdaq_cmsoutertracker/DataDefault/Logs/otsdaq_is_alive-athenanu.dhcp.fnal.gov-2015.dat
|Debug	|/home/otsdaq/otsdaq/srcs/otsdaq/otsdaq/FiniteStateMachine/FiniteStateMachine.cc|19|FSM-ConfigurationGUISupervisor:ConfigurationGUISupervisor	<> Constructing FiniteStateMachine
|Debug	|/home/otsdaq/otsdaq/srcs/otsdaq/otsdaq/FiniteStateMachine/RunControlStateMachine.cc|97|FSM-ConfigurationGUISupervisor:ConfigurationGUISupervisor	<> Resetting RunControlStateMachine with name 'ConfigurationGUISupervisor:ConfigurationGUISupervisor'...
|Debug	|/home/otsdaq/otsdaq/srcs/otsdaq/otsdaq/WorkLoopManager/WorkLoopManager.cc|19|Request name: StateMachine jobName: StateMachine
|Debug	|/home/otsdaq/otsdaq/srcs/otsdaq/otsdaq/CoreSupervisors/CoreSupervisorBase.cc|25|ConfigurationGUISupervisor-ConfigurationGUISupervisor	<> Constructor.
|Debug	|/home/otsdaq/otsdaq/srcs/otsdaq/otsdaq/CoreSupervisors/CoreSupervisorBase.cc|39|ConfigurationGUISupervisor-ConfigurationGUISupervisor	<> Constructed.
|Debug	|/home/otsdaq/otsdaq/srcs/otsdaq_utilities/otsdaq-utilities/ConfigurationGUI/ConfigurationGUISupervisor.cc|46|ConfigurationGUISupervisor-ConfigurationGUISupervisor	<> Constructor started.
|Debug	|/home/otsdaq/otsdaq/srcs/otsdaq_utilities/otsdaq-utilities/ConfigurationGUI/ConfigurationGUISupervisor.cc|63|ConfigurationGUISupervisor-ConfigurationGUISupervisor	<> Initializing...
|Debug	|/home/otsdaq/otsdaq/srcs/otsdaq_utilities/otsdaq-utilities/ConfigurationGUI/ConfigurationGUISupervisor.cc|65|ConfigurationGUISupervisor-ConfigurationGUISupervisor	<> Activating saved context, which may prepare for normal mode...
|Debug	|/home/otsdaq/otsdaq/srcs/otsdaq_utilities/otsdaq-utilities/ConfigurationGUI/ConfigurationGUISupervisor.cc|6812|ConfigurationGUISupervisor-ConfigurationGUISupervisor	<> Attempting test activation of the context group.
|Debug	|/home/otsdaq/otsdaq/srcs/otsdaq/otsdaq/TableCore/TableBase.cc|1107|TableBase-TableGroupMetadata	<> Using Mock-up view
|Debug	|/home/otsdaq/otsdaq/srcs/otsdaq/otsdaq/ConfigurationInterface/ConfigurationManager.cc|163|username_ = READONLY_USER
|Debug	|/home/otsdaq/otsdaq/srcs/otsdaq/otsdaq/ConfigurationInterface/ConfigurationManager.cc|205|ACTIVE_GROUPS_FILENAME = /home/otsdaq/otsdaq/srcs/otsdaq_cmsoutertracker/DataDefault/ServiceData/ActiveTableGroups.cfg
|Debug	|/home/otsdaq/otsdaq/srcs/otsdaq/otsdaq/ConfigurationInterface/ConfigurationManager.cc|206|ARTDAQ_DATABASE_URI = filesystemdb:///home/otsdaq/otsdaq/srcs/otsdaq_cmsoutertracker/databases/filesystemdb/default_db
|Debug	|/home/otsdaq/otsdaq/srcs/otsdaq/otsdaq/ConfigurationInterface/ConfigurationManager.cc|1343|------------------------------------- init start    	 [for all plug-ins in Context group 'DefaultContext(15)']
|Debug	|/home/otsdaq/otsdaq/srcs/otsdaq/otsdaq/TablePlugins/MessageFacilityTable_table.cc|113|Forwarding to Web GUI with UDP forward MesageFacility table.
|Debug	|/home/otsdaq/otsdaq/srcs/otsdaq/otsdaq/TablePlugins/MessageFacilityTable_table.cc|236|Opened.. /home/otsdaq/otsdaq/srcs/otsdaq_cmsoutertracker/DataDefault/MessageFacilityConfigurations/MessageFacilityGen.fcl
|Debug	|/home/otsdaq/otsdaq/srcs/otsdaq/otsdaq/TablePlugins/MessageFacilityTable_table.cc|248|Opened.. /home/otsdaq/otsdaq/srcs/otsdaq_cmsoutertracker/DataDefault/MessageFacilityConfigurations/MessageFacilityGen.fcl
|Debug	|/home/otsdaq/otsdaq/srcs/otsdaq/otsdaq/TablePlugins/XDAQContextTable_table.cc|251|Fixing deprecated Supervisor class from ots::Supervisor to ots::GatewaySupervisor
|Debug	|/home/otsdaq/otsdaq/srcs/otsdaq/otsdaq/ConfigurationInterface/ConfigurationManager.cc|1510|------------------------------------- init complete 	 [for all plug-ins in Context group 'DefaultContext(15)']
|Debug	|/home/otsdaq/otsdaq/srcs/otsdaq/otsdaq/ConfigurationInterface/ConfigurationManager.cc|1343|------------------------------------- init start    	 [for all plug-ins in Backbone group 'TableEditWizBackbone(19)']
|Debug	|/home/otsdaq/otsdaq/srcs/otsdaq/otsdaq/ConfigurationInterface/ConfigurationManager.cc|1510|------------------------------------- init complete 	 [for all plug-ins in Backbone group 'TableEditWizBackbone(19)']
|Warning	|/home/otsdaq/otsdaq/srcs/otsdaq/otsdaq/ConfigurationInterface/ConfigurationManager.cc|1336|Not loading group because it is not of type Context or Backbone (it is type 'Configuration').
|Debug	|/home/otsdaq/otsdaq/srcs/otsdaq/otsdaq/ConfigurationInterface/ConfigurationManager.cc|422|Destroying Backbone Key: 19
|Debug	|/home/otsdaq/otsdaq/srcs/otsdaq/otsdaq/ConfigurationInterface/ConfigurationManager.cc|440|Destroying Context Key: 15
|Debug	|/home/otsdaq/otsdaq/srcs/otsdaq_utilities/otsdaq-utilities/ConfigurationGUI/ConfigurationGUISupervisor.cc|54|ConfigurationGUISupervisor-ConfigurationGUISupervisor	<> Constructor complete.
|Debug	|/home/otsdaq/otsdaq/srcs/otsdaq/otsdaq/CoreSupervisors/CorePropertySupervisorBase.cc|27|MacroMakerSupervisor-UNINITIALIZED_supervisorApplicationUID	<> application->getApplicationContext()->getContextDescriptor()->getURL() = http://athenanu.dhcp.fnal.gov:2015
|Debug	|/home/otsdaq/otsdaq/srcs/otsdaq/otsdaq/CoreSupervisors/CorePropertySupervisorBase.cc|28|MacroMakerSupervisor-UNINITIALIZED_supervisorApplicationUID	<> application->getApplicationDescriptor()->getLocalId() = 300
|Debug	|/home/otsdaq/otsdaq/srcs/otsdaq/otsdaq/CoreSupervisors/CorePropertySupervisorBase.cc|29|MacroMakerSupervisor-UNINITIALIZED_supervisorApplicationUID	<> supervisorClass_ = ots::MacroMakerSupervisor
|Debug	|/home/otsdaq/otsdaq/srcs/otsdaq/otsdaq/CoreSupervisors/CorePropertySupervisorBase.cc|30|MacroMakerSupervisor-UNINITIALIZED_supervisorApplicationUID	<> supervisorClassNoNamespace_ = MacroMakerSupervisor
|Debug	|/home/otsdaq/otsdaq/srcs/otsdaq/otsdaq/SupervisorInfo/AllSupervisorInfo.cc|42|Initializing info based on XDAQ context...
|Debug	|/home/otsdaq/otsdaq/srcs/otsdaq/otsdaq/SupervisorInfo/SupervisorDescriptorInfoBase.cc|33|Init
|Debug	|/home/otsdaq/otsdaq/srcs/otsdaq/otsdaq/SupervisorInfo/AllSupervisorInfo.cc|98|Initializing info for Normal mode XDAQ context...
|Debug	|/home/otsdaq/otsdaq/srcs/otsdaq/otsdaq/TableCore/TableBase.cc|1107|TableBase-TableGroupMetadata	<> Using Mock-up view
|Debug	|/home/otsdaq/otsdaq/srcs/otsdaq/otsdaq/ConfigurationInterface/ConfigurationManager.cc|163|username_ = READONLY_USER
|Debug	|/home/otsdaq/otsdaq/srcs/otsdaq/otsdaq/ConfigurationInterface/ConfigurationManager.cc|205|ACTIVE_GROUPS_FILENAME = /home/otsdaq/otsdaq/srcs/otsdaq_cmsoutertracker/DataDefault/ServiceData/ActiveTableGroups.cfg
|Debug	|/home/otsdaq/otsdaq/srcs/otsdaq/otsdaq/ConfigurationInterface/ConfigurationManager.cc|206|ARTDAQ_DATABASE_URI = filesystemdb:///home/otsdaq/otsdaq/srcs/otsdaq_cmsoutertracker/databases/filesystemdb/default_db
|Debug	|/home/otsdaq/otsdaq/srcs/otsdaq/otsdaq/ConfigurationInterface/ConfigurationManager.cc|1343|------------------------------------- init start    	 [for all plug-ins in Context group 'DefaultContext(15)']
|Debug	|/home/otsdaq/otsdaq/srcs/otsdaq/otsdaq/TablePlugins/MessageFacilityTable_table.cc|113|Forwarding to Web GUI with UDP forward MesageFacility table.
|Debug	|/home/otsdaq/otsdaq/srcs/otsdaq/otsdaq/TablePlugins/MessageFacilityTable_table.cc|236|Opened.. /home/otsdaq/otsdaq/srcs/otsdaq_cmsoutertracker/DataDefault/MessageFacilityConfigurations/MessageFacilityGen.fcl
|Debug	|/home/otsdaq/otsdaq/srcs/otsdaq/otsdaq/TablePlugins/MessageFacilityTable_table.cc|248|Opened.. /home/otsdaq/otsdaq/srcs/otsdaq_cmsoutertracker/DataDefault/MessageFacilityConfigurations/MessageFacilityGen.fcl
|Debug	|/home/otsdaq/otsdaq/srcs/otsdaq/otsdaq/TablePlugins/XDAQContextTable_table.cc|251|Fixing deprecated Supervisor class from ots::Supervisor to ots::GatewaySupervisor
|Debug	|/home/otsdaq/otsdaq/srcs/otsdaq/otsdaq/ConfigurationInterface/ConfigurationManager.cc|1510|------------------------------------- init complete 	 [for all plug-ins in Context group 'DefaultContext(15)']
|Debug	|/home/otsdaq/otsdaq/srcs/otsdaq/otsdaq/ConfigurationInterface/ConfigurationManager.cc|1343|------------------------------------- init start    	 [for all plug-ins in Backbone group 'TableEditWizBackbone(19)']
|Debug	|/home/otsdaq/otsdaq/srcs/otsdaq/otsdaq/ConfigurationInterface/ConfigurationManager.cc|1510|------------------------------------- init complete 	 [for all plug-ins in Backbone group 'TableEditWizBackbone(19)']
|Warning	|/home/otsdaq/otsdaq/srcs/otsdaq/otsdaq/ConfigurationInterface/ConfigurationManager.cc|1336|Not loading group because it is not of type Context or Backbone (it is type 'Configuration').
|Debug	|/home/otsdaq/otsdaq/srcs/otsdaq/otsdaq/SupervisorInfo/AllSupervisorInfo.cc|318|Supervisor Info initialization complete!
|Debug	|/home/otsdaq/otsdaq/srcs/otsdaq/otsdaq/ConfigurationInterface/ConfigurationManager.cc|422|Destroying Backbone Key: 19
|Debug	|/home/otsdaq/otsdaq/srcs/otsdaq/otsdaq/ConfigurationInterface/ConfigurationManager.cc|440|Destroying Context Key: 15
|Debug	|/home/otsdaq/otsdaq/srcs/otsdaq/otsdaq/CoreSupervisors/CorePropertySupervisorBase.cc|71|MacroMakerSupervisor-UNINITIALIZED_supervisorApplicationUID	<> Getting configuration specific info for supervisor 'MacroMakerSupervisor' of class ots::MacroMakerSupervisor.
|Debug	|/home/otsdaq/otsdaq/srcs/otsdaq/otsdaq/TableCore/TableBase.cc|1107|TableBase-TableGroupMetadata	<> Using Mock-up view
|Debug	|/home/otsdaq/otsdaq/srcs/otsdaq/otsdaq/ConfigurationInterface/ConfigurationManager.cc|163|username_ = READONLY_USER
|Debug	|/home/otsdaq/otsdaq/srcs/otsdaq/otsdaq/ConfigurationInterface/ConfigurationManager.cc|205|ACTIVE_GROUPS_FILENAME = /home/otsdaq/otsdaq/srcs/otsdaq_cmsoutertracker/DataDefault/ServiceData/ActiveTableGroups.cfg
|Debug	|/home/otsdaq/otsdaq/srcs/otsdaq/otsdaq/ConfigurationInterface/ConfigurationManager.cc|206|ARTDAQ_DATABASE_URI = filesystemdb:///home/otsdaq/otsdaq/srcs/otsdaq_cmsoutertracker/databases/filesystemdb/default_db
|Debug	|/home/otsdaq/otsdaq/srcs/otsdaq/otsdaq/ConfigurationInterface/ConfigurationManager.cc|1343|------------------------------------- init start    	 [for all plug-ins in Context group 'DefaultContext(15)']
|Debug	|/home/otsdaq/otsdaq/srcs/otsdaq/otsdaq/TablePlugins/MessageFacilityTable_table.cc|113|Forwarding to Web GUI with UDP forward MesageFacility table.
|Debug	|/home/otsdaq/otsdaq/srcs/otsdaq/otsdaq/TablePlugins/MessageFacilityTable_table.cc|236|Opened.. /home/otsdaq/otsdaq/srcs/otsdaq_cmsoutertracker/DataDefault/MessageFacilityConfigurations/MessageFacilityGen.fcl
|Debug	|/home/otsdaq/otsdaq/srcs/otsdaq/otsdaq/TablePlugins/MessageFacilityTable_table.cc|248|Opened.. /home/otsdaq/otsdaq/srcs/otsdaq_cmsoutertracker/DataDefault/MessageFacilityConfigurations/MessageFacilityGen.fcl
|Debug	|/home/otsdaq/otsdaq/srcs/otsdaq/otsdaq/TablePlugins/XDAQContextTable_table.cc|251|Fixing deprecated Supervisor class from ots::Supervisor to ots::GatewaySupervisor
|Debug	|/home/otsdaq/otsdaq/srcs/otsdaq/otsdaq/ConfigurationInterface/ConfigurationManager.cc|1510|------------------------------------- init complete 	 [for all plug-ins in Context group 'DefaultContext(15)']
|Debug	|/home/otsdaq/otsdaq/srcs/otsdaq/otsdaq/ConfigurationInterface/ConfigurationManager.cc|1343|------------------------------------- init start    	 [for all plug-ins in Backbone group 'TableEditWizBackbone(19)']
|Debug	|/home/otsdaq/otsdaq/srcs/otsdaq/otsdaq/ConfigurationInterface/ConfigurationManager.cc|1510|------------------------------------- init complete 	 [for all plug-ins in Backbone group 'TableEditWizBackbone(19)']
|Warning	|/home/otsdaq/otsdaq/srcs/otsdaq/otsdaq/ConfigurationInterface/ConfigurationManager.cc|1336|Not loading group because it is not of type Context or Backbone (it is type 'Configuration').
|Debug	|/home/otsdaq/otsdaq/srcs/otsdaq/otsdaq/CoreSupervisors/CorePropertySupervisorBase.cc|109|MacroMakerSupervisor-MacroMakerSupervisor	<> CorePropertySupervisorBase::supervisorContextUID_ = MainContext
|Debug	|/home/otsdaq/otsdaq/srcs/otsdaq/otsdaq/CoreSupervisors/CorePropertySupervisorBase.cc|110|MacroMakerSupervisor-MacroMakerSupervisor	<> CorePropertySupervisorBase::supervisorApplicationUID_ = MacroMakerSupervisor
|Debug	|/home/otsdaq/otsdaq/srcs/otsdaq/otsdaq/CoreSupervisors/CorePropertySupervisorBase.cc|111|MacroMakerSupervisor-MacroMakerSupervisor	<> CorePropertySupervisorBase::supervisorConfigurationPath_ = /MainContext/LinkToApplicationTable/MacroMakerSupervisor/LinkToSupervisorTable
|Debug	|/home/otsdaq/otsdaq/srcs/otsdaq/otsdaq/CoreSupervisors/CorePropertySupervisorBase.cc|147|hostname = athenanu.dhcp.fnal.gov
|Debug	|/home/otsdaq/otsdaq/srcs/otsdaq/otsdaq/CoreSupervisors/CorePropertySupervisorBase.cc|161|Marked alive: /home/otsdaq/otsdaq/srcs/otsdaq_cmsoutertracker/DataDefault/Logs/otsdaq_is_alive-athenanu.dhcp.fnal.gov-2015.dat
|Debug	|/home/otsdaq/otsdaq/srcs/otsdaq/otsdaq/FiniteStateMachine/FiniteStateMachine.cc|19|FSM-MacroMakerSupervisor:MacroMakerSupervisor	<> Constructing FiniteStateMachine
|Debug	|/home/otsdaq/otsdaq/srcs/otsdaq/otsdaq/FiniteStateMachine/RunControlStateMachine.cc|97|FSM-MacroMakerSupervisor:MacroMakerSupervisor	<> Resetting RunControlStateMachine with name 'MacroMakerSupervisor:MacroMakerSupervisor'...
|Debug	|/home/otsdaq/otsdaq/srcs/otsdaq/otsdaq/WorkLoopManager/WorkLoopManager.cc|19|Request name: StateMachine jobName: StateMachine
|Debug	|/home/otsdaq/otsdaq/srcs/otsdaq/otsdaq/CoreSupervisors/CoreSupervisorBase.cc|25|MacroMakerSupervisor-MacroMakerSupervisor	<> Constructor.
|Debug	|/home/otsdaq/otsdaq/srcs/otsdaq/otsdaq/CoreSupervisors/CoreSupervisorBase.cc|39|MacroMakerSupervisor-MacroMakerSupervisor	<> Constructed.
|Debug	|/home/otsdaq/otsdaq/srcs/otsdaq_utilities/otsdaq-utilities/MacroMaker/MacroMakerSupervisor.cc|35|MacroMakerSupervisor-MacroMakerSupervisor	<> Constructing...
|Debug	|/home/otsdaq/otsdaq/srcs/otsdaq_utilities/otsdaq-utilities/MacroMaker/MacroMakerSupervisor.cc|62|MacroMakerSupervisor-MacroMakerSupervisor	<> Not Macro Maker only mode.
|Debug	|/home/otsdaq/otsdaq/srcs/otsdaq_utilities/otsdaq-utilities/MacroMaker/MacroMakerSupervisor.cc|67|MacroMakerSupervisor-MacroMakerSupervisor	<> Constructed.
|Debug	|/home/otsdaq/otsdaq/srcs/otsdaq/otsdaq/GatewaySupervisor/GatewaySupervisor.cc|444|Making System Logbook Entry: ots started.
|Debug	|/home/otsdaq/otsdaq/srcs/otsdaq/otsdaq/GatewaySupervisor/GatewaySupervisor.cc|456|Making logbook entry: ots started.
|Debug	|/home/otsdaq/otsdaq/srcs/otsdaq/otsdaq/GatewaySupervisor/GatewaySupervisor.cc|457|Making logbook entry: ots started.
|Debug	|/home/otsdaq/otsdaq/srcs/otsdaq_utilities/otsdaq-utilities/Logbook/LogbookSupervisor.cc|486|Received External Supervisor System Entry ots started.
|Debug	|/home/otsdaq/otsdaq/srcs/otsdaq_utilities/otsdaq-utilities/Logbook/LogbookSupervisor.cc|487|Active Experiment is  
|Debug	|/home/otsdaq/otsdaq/srcs/otsdaq_utilities/otsdaq-utilities/Logbook/LogbookSupervisor.cc|504|Warning - Currently, no Active Experiment.
|Debug	|/home/otsdaq/otsdaq/srcs/otsdaq/otsdaq/GatewaySupervisor/GatewaySupervisor.cc|492|Returned Status: Warning - Currently, no Active Experiment.
|Debug	|/home/otsdaq/otsdaq/srcs/otsdaq/otsdaq/GatewaySupervisor/GatewaySupervisor.cc|2301|Start
|Debug	|/home/otsdaq/otsdaq/srcs/otsdaq/otsdaq/GatewaySupervisor/GatewaySupervisor.cc|2304|*** Login RequestType = login
|Debug	|/home/otsdaq/otsdaq/srcs/otsdaq/otsdaq/GatewaySupervisor/GatewaySupervisor.cc|444|Making System Logbook Entry: admin logged in.
|Debug	|/home/otsdaq/otsdaq/srcs/otsdaq/otsdaq/GatewaySupervisor/GatewaySupervisor.cc|456|Making logbook entry: admin logged in.
|Debug	|/home/otsdaq/otsdaq/srcs/otsdaq/otsdaq/GatewaySupervisor/GatewaySupervisor.cc|457|Making logbook entry: admin logged in.
|Debug	|/home/otsdaq/otsdaq/srcs/otsdaq_utilities/otsdaq-utilities/Logbook/LogbookSupervisor.cc|486|Received External Supervisor System Entry admin logged in.
|Debug	|/home/otsdaq/otsdaq/srcs/otsdaq_utilities/otsdaq-utilities/Logbook/LogbookSupervisor.cc|487|Active Experiment is  
|Debug	|/home/otsdaq/otsdaq/srcs/otsdaq_utilities/otsdaq-utilities/Logbook/LogbookSupervisor.cc|504|Warning - Currently, no Active Experiment.
|Debug	|/home/otsdaq/otsdaq/srcs/otsdaq/otsdaq/GatewaySupervisor/GatewaySupervisor.cc|492|Returned Status: Warning - Currently, no Active Experiment.
|Debug	|/home/otsdaq/otsdaq/srcs/otsdaq/otsdaq/WebUsersUtilities/WebUsers.cc|2420|StringMacros::mapToString(permissionMap) = allUsers: 255
|Debug	|/home/otsdaq/otsdaq/srcs/otsdaq/otsdaq/WebUsersUtilities/WebUsers.cc|2425|Gettings settings for user: admin
|Debug	|/home/otsdaq/otsdaq/srcs/otsdaq/otsdaq/WebUsersUtilities/WebUsers.cc|2432|Preferences file: /home/otsdaq/otsdaq/srcs/otsdaq_cmsoutertracker/DataDefault/ServiceData/LoginData/UsersData/UserPreferencesData/admin.pref
|Debug	|/home/otsdaq/otsdaq/srcs/otsdaq/otsdaq/WebUsersUtilities/WebUsers.cc|2436|Preferences are defaults.
|Debug	|/home/otsdaq/otsdaq/srcs/otsdaq/otsdaq/WebUsersUtilities/WebUsers.cc|2487|System Preferences are defaults.
|Debug	|/home/otsdaq/otsdaq/srcs/otsdaq/otsdaq/WebUsersUtilities/WebUsers.cc|2497|StringMacros::mapToString(permissionMap) = allUsers: 255
|Debug	|/home/otsdaq/otsdaq/srcs/otsdaq/otsdaq/WebUsersUtilities/WebUsers.cc|1605|Found 0 active sessions for uid 0
|Debug	|/home/otsdaq/otsdaq/srcs/otsdaq/otsdaq/GatewaySupervisor/GatewaySupervisor.cc|2515|Done
|Debug	|/home/otsdaq/otsdaq/srcs/otsdaq/otsdaq/CoreSupervisors/CorePropertySupervisorBase.cc|381|GatewaySupervisor-Supervisor	<> No user supervisor property settings found in the configuration tree, going with the defaults.
|Debug	|/home/otsdaq/otsdaq/srcs/otsdaq/otsdaq/CoreSupervisors/CorePropertySupervisorBase.cc|328|GatewaySupervisor-Supervisor	<> Final supervisor property settings:
|Debug	|/home/otsdaq/otsdaq/srcs/otsdaq/otsdaq/CoreSupervisors/CorePropertySupervisorBase.cc|330|GatewaySupervisor-Supervisor	<> 	AllowNoLoginRequestTypes = 
|Debug	|/home/otsdaq/otsdaq/srcs/otsdaq/otsdaq/CoreSupervisors/CorePropertySupervisorBase.cc|330|GatewaySupervisor-Supervisor	<> 	AutomatedRequestTypes = getSystemMessages | getCurrentState | getIterationPlanStatus
|Debug	|/home/otsdaq/otsdaq/srcs/otsdaq/otsdaq/CoreSupervisors/CorePropertySupervisorBase.cc|330|GatewaySupervisor-Supervisor	<> 	CheckUserLockRequestTypes = 
|Debug	|/home/otsdaq/otsdaq/srcs/otsdaq/otsdaq/CoreSupervisors/CorePropertySupervisorBase.cc|330|GatewaySupervisor-Supervisor	<> 	NoXmlWhiteSpaceRequestTypes = 
|Debug	|/home/otsdaq/otsdaq/srcs/otsdaq/otsdaq/CoreSupervisors/CorePropertySupervisorBase.cc|330|GatewaySupervisor-Supervisor	<> 	NonXMLRequestTypes = 
|Debug	|/home/otsdaq/otsdaq/srcs/otsdaq/otsdaq/CoreSupervisors/CorePropertySupervisorBase.cc|330|GatewaySupervisor-Supervisor	<> 	RequireSecurityRequestTypes = 
|Debug	|/home/otsdaq/otsdaq/srcs/otsdaq/otsdaq/CoreSupervisors/CorePropertySupervisorBase.cc|330|GatewaySupervisor-Supervisor	<> 	RequireUserLockRequestTypes = gatewayLaunchOTS | gatewayLaunchWiz
|Debug	|/home/otsdaq/otsdaq/srcs/otsdaq/otsdaq/CoreSupervisors/CorePropertySupervisorBase.cc|330|GatewaySupervisor-Supervisor	<> 	UserGroupsAllowed = 
|Debug	|/home/otsdaq/otsdaq/srcs/otsdaq/otsdaq/CoreSupervisors/CorePropertySupervisorBase.cc|330|GatewaySupervisor-Supervisor	<> 	UserGroupsDisallowed = 
|Debug	|/home/otsdaq/otsdaq/srcs/otsdaq/otsdaq/CoreSupervisors/CorePropertySupervisorBase.cc|330|GatewaySupervisor-Supervisor	<> 	UserPermissionsThreshold = *=1 | gatewayLaunchOTS=-1 | gatewayLaunchWiz=-1
|Debug	|/home/otsdaq/otsdaq/srcs/otsdaq/otsdaq/GatewaySupervisor/GatewaySupervisor.cc|3213|icon.caption_ = State Machine
|Debug	|/home/otsdaq/otsdaq/srcs/otsdaq/otsdaq/GatewaySupervisor/GatewaySupervisor.cc|3214|icon.permissionThresholdString_ = allUsers:1
|Debug	|/home/otsdaq/otsdaq/srcs/otsdaq/otsdaq/GatewaySupervisor/GatewaySupervisor.cc|3213|icon.caption_ = Chat
|Debug	|/home/otsdaq/otsdaq/srcs/otsdaq/otsdaq/GatewaySupervisor/GatewaySupervisor.cc|3214|icon.permissionThresholdString_ = allUsers:1
|Debug	|/home/otsdaq/otsdaq/srcs/otsdaq/otsdaq/GatewaySupervisor/GatewaySupervisor.cc|3213|icon.caption_ = Logbook
|Debug	|/home/otsdaq/otsdaq/srcs/otsdaq/otsdaq/GatewaySupervisor/GatewaySupervisor.cc|3214|icon.permissionThresholdString_ = allUsers:1
|Debug	|/home/otsdaq/otsdaq/srcs/otsdaq/otsdaq/GatewaySupervisor/GatewaySupervisor.cc|3213|icon.caption_ = Visualizer
|Debug	|/home/otsdaq/otsdaq/srcs/otsdaq/otsdaq/GatewaySupervisor/GatewaySupervisor.cc|3214|icon.permissionThresholdString_ = allUsers:1
|Debug	|/home/otsdaq/otsdaq/srcs/otsdaq/otsdaq/GatewaySupervisor/GatewaySupervisor.cc|3213|icon.caption_ = Macro Maker
|Debug	|/home/otsdaq/otsdaq/srcs/otsdaq/otsdaq/GatewaySupervisor/GatewaySupervisor.cc|3214|icon.permissionThresholdString_ = allUsers:1
|Debug	|/home/otsdaq/otsdaq/srcs/otsdaq/otsdaq/GatewaySupervisor/GatewaySupervisor.cc|3213|icon.caption_ = Console
|Debug	|/home/otsdaq/otsdaq/srcs/otsdaq/otsdaq/GatewaySupervisor/GatewaySupervisor.cc|3214|icon.permissionThresholdString_ = allUsers:255
|Debug	|/home/otsdaq/otsdaq/srcs/otsdaq/otsdaq/GatewaySupervisor/GatewaySupervisor.cc|3213|icon.caption_ = Configure
|Debug	|/home/otsdaq/otsdaq/srcs/otsdaq/otsdaq/GatewaySupervisor/GatewaySupervisor.cc|3214|icon.permissionThresholdString_ = allUsers:10
|Debug	|/home/otsdaq/otsdaq/srcs/otsdaq/otsdaq/GatewaySupervisor/GatewaySupervisor.cc|3213|icon.caption_ = Front-ends
|Debug	|/home/otsdaq/otsdaq/srcs/otsdaq/otsdaq/GatewaySupervisor/GatewaySupervisor.cc|3214|icon.permissionThresholdString_ = allUsers:10
|Debug	|/home/otsdaq/otsdaq/srcs/otsdaq/otsdaq/GatewaySupervisor/GatewaySupervisor.cc|3213|icon.caption_ = Data Processors
|Debug	|/home/otsdaq/otsdaq/srcs/otsdaq/otsdaq/GatewaySupervisor/GatewaySupervisor.cc|3214|icon.permissionThresholdString_ = allUsers:10
|Debug	|/home/otsdaq/otsdaq/srcs/otsdaq/otsdaq/GatewaySupervisor/GatewaySupervisor.cc|3213|icon.caption_ = NIM+
|Debug	|/home/otsdaq/otsdaq/srcs/otsdaq/otsdaq/GatewaySupervisor/GatewaySupervisor.cc|3214|icon.permissionThresholdString_ = allUsers:1
|Debug	|/home/otsdaq/otsdaq/srcs/otsdaq/otsdaq/GatewaySupervisor/GatewaySupervisor.cc|3213|icon.caption_ = Status
|Debug	|/home/otsdaq/otsdaq/srcs/otsdaq/otsdaq/GatewaySupervisor/GatewaySupervisor.cc|3214|icon.permissionThresholdString_ = allUsers:1
|Debug	|/home/otsdaq/otsdaq/srcs/otsdaq/otsdaq/GatewaySupervisor/GatewaySupervisor.cc|3213|icon.caption_ = Elog
|Debug	|/home/otsdaq/otsdaq/srcs/otsdaq/otsdaq/GatewaySupervisor/GatewaySupervisor.cc|3214|icon.permissionThresholdString_ = allUsers:1
|Debug	|/home/otsdaq/otsdaq/srcs/otsdaq/otsdaq/GatewaySupervisor/GatewaySupervisor.cc|3213|icon.caption_ = Elog
|Debug	|/home/otsdaq/otsdaq/srcs/otsdaq/otsdaq/GatewaySupervisor/GatewaySupervisor.cc|3214|icon.permissionThresholdString_ = allUsers:1
|Debug	|/home/otsdaq/otsdaq/srcs/otsdaq/otsdaq/GatewaySupervisor/GatewaySupervisor.cc|3213|icon.caption_ = Status
|Debug	|/home/otsdaq/otsdaq/srcs/otsdaq/otsdaq/GatewaySupervisor/GatewaySupervisor.cc|3214|icon.permissionThresholdString_ = allUsers:1
|Debug	|/home/otsdaq/otsdaq/srcs/otsdaq/otsdaq/GatewaySupervisor/GatewaySupervisor.cc|3213|icon.caption_ = Smart Launch
|Debug	|/home/otsdaq/otsdaq/srcs/otsdaq/otsdaq/GatewaySupervisor/GatewaySupervisor.cc|3214|icon.permissionThresholdString_ = allUsers:255
|Debug	|/home/otsdaq/otsdaq/srcs/otsdaq/otsdaq/GatewaySupervisor/GatewaySupervisor.cc|3213|icon.caption_ = DTC Supervisor
|Debug	|/home/otsdaq/otsdaq/srcs/otsdaq/otsdaq/GatewaySupervisor/GatewaySupervisor.cc|3214|icon.permissionThresholdString_ = allUsers:1
|Debug	|/home/otsdaq/otsdaq/srcs/otsdaq/otsdaq/GatewaySupervisor/GatewaySupervisor.cc|3240|iconString = State Machine,FSM,1,1,icon-Physics.gif,/WebPath/html/StateMachine.html?fsm_name=OtherRuns0,,Chat,CHAT,1,1,icon-Chat.png,/WebPath/html/Chat.html?urn=250,,Logbook,LOG,1,1,icon-Logbook.png,/WebPath/html/Logbook.html?urn=261,,Visualizer,VIS,0,1,icon-Visualizer.png,/WebPath/html/Visualization.html?urn=270,,Macro Maker,MM,1,1,icon-MacroMaker.png,/WebPath/html/MacroMaker.html?urn=300,,Console,CON,1,1,icon-Console.png,/WebPath/html/Console.html?urn=260,,Configure,CFG,0,1,icon-Configure.png,/urn:xdaq-application:lid=281,,Front-ends,CFG,0,1,icon-Configure.png,/WebPath/html/ConfigurationGUI_subset.html?urn=281&,Config Subsets,Data Processors,CFG,0,1,icon-Configure.png,/WebPath/html/ConfigurationGUI_subset.html?urn=281&,Config Subsets,NIM+,NIM+,0,1,icon-Configure.png,/WebPath/NimPlusWebPath/html/NimPlus_app.html?urn=281,Config Subsets,Status,Accelerator,1,1,0,http://www-bd.fnal.gov/notifyservlet/www?project=&refresh=on&infolinks=top,FTBF Extras,Elog,Accelerator,0,1,0,https://www-bd.fnal.gov/Elog/?orLogName=Operations,FTBF Extras,Elog,FTBF,0,1,0,http://dbweb6.fnal.gov:8080/ECL/test_beam/E/index,FTBF Extras,Status,FTBF,0,1,0,https://www-bd.fnal.gov/synoptic/display/MTest/FTBF_Status,FTBF Extras,Smart Launch,LAUNCH,1,1,/WebPath/FTBFWebPath/images/icon-Rocket.png,/WebPath/FTBFWebPath/html/SmartLaunch.html?urn=281,,DTC Supervisor,OT,1,1,0,http://ftbftracker02.fnal.gov:2020/urn:xdaq-application:lid=51/MainPage,FTBF Extras
|Debug	|/home/otsdaq/otsdaq/srcs/otsdaq/otsdaq/GatewaySupervisor/GatewaySupervisor.cc|2521|Start
|Debug	|/home/otsdaq/otsdaq/srcs/otsdaq/otsdaq/GatewaySupervisor/GatewaySupervisor.cc|2525|Tooltip RequestType = check
|Debug	|/home/otsdaq/otsdaq/srcs/otsdaq/otsdaq/GatewaySupervisor/GatewaySupervisor.cc|2568|Done
|Debug	|/home/otsdaq/otsdaq/srcs/otsdaq/otsdaq/GatewaySupervisor/GatewaySupervisor.cc|2726|GatewaySupervisor-Supervisor	<> fsmName = OtherRuns0
|Debug	|/home/otsdaq/otsdaq/srcs/otsdaq/otsdaq/ConfigurationInterface/ConfigurationManager.cc|422|Destroying Backbone Key: 19
|Debug	|/home/otsdaq/otsdaq/srcs/otsdaq/otsdaq/ConfigurationInterface/ConfigurationManager.cc|440|Destroying Context Key: 15
|Debug	|/home/otsdaq/otsdaq/srcs/otsdaq/otsdaq/ConfigurationInterface/ConfigurationManager.cc|205|ACTIVE_GROUPS_FILENAME = /home/otsdaq/otsdaq/srcs/otsdaq_cmsoutertracker/DataDefault/ServiceData/ActiveTableGroups.cfg
|Debug	|/home/otsdaq/otsdaq/srcs/otsdaq/otsdaq/ConfigurationInterface/ConfigurationManager.cc|206|ARTDAQ_DATABASE_URI = filesystemdb:///home/otsdaq/otsdaq/srcs/otsdaq_cmsoutertracker/databases/filesystemdb/default_db
|Debug	|/home/otsdaq/otsdaq/srcs/otsdaq/otsdaq/ConfigurationInterface/ConfigurationManager.cc|1343|------------------------------------- init start    	 [for all plug-ins in Context group 'DefaultContext(15)']
|Debug	|/home/otsdaq/otsdaq/srcs/otsdaq/otsdaq/TablePlugins/XDAQContextTable_table.cc|251|Fixing deprecated Supervisor class from ots::Supervisor to ots::GatewaySupervisor
|Debug	|/home/otsdaq/otsdaq/srcs/otsdaq/otsdaq/ConfigurationInterface/ConfigurationManager.cc|1510|------------------------------------- init complete 	 [for all plug-ins in Context group 'DefaultContext(15)']
|Debug	|/home/otsdaq/otsdaq/srcs/otsdaq/otsdaq/ConfigurationInterface/ConfigurationManager.cc|1343|------------------------------------- init start    	 [for all plug-ins in Backbone group 'TableEditWizBackbone(19)']
|Debug	|/home/otsdaq/otsdaq/srcs/otsdaq/otsdaq/ConfigurationInterface/ConfigurationManager.cc|1510|------------------------------------- init complete 	 [for all plug-ins in Backbone group 'TableEditWizBackbone(19)']
|Debug	|/home/otsdaq/otsdaq/srcs/otsdaq/otsdaq/ConfigurationInterface/ConfigurationManager.cc|1343|------------------------------------- init start    	 [for all plug-ins in Configuration group 'DefaultConfig(18)']
|Debug	|/home/otsdaq/otsdaq/srcs/otsdaq/otsdaq/TablePlugins/FESlowControlsTable_table.cc|25|isFirstAppInContext = 0
|Debug	|/home/otsdaq/otsdaq/srcs/otsdaq/otsdaq/ConfigurationInterface/ConfigurationManager.cc|1510|------------------------------------- init complete 	 [for all plug-ins in Configuration group 'DefaultConfig(18)']
|Debug	|/home/otsdaq/otsdaq/srcs/otsdaq/otsdaq/GatewaySupervisor/GatewaySupervisor.cc|2759|stateMachineAliasFilter  = !*Context*
|Debug	|/home/otsdaq/otsdaq/srcs/otsdaq/otsdaq/GatewaySupervisor/GatewaySupervisor.cc|2871|Load preferences: /home/otsdaq/otsdaq/srcs/otsdaq_cmsoutertracker/DataDefault/ServiceData/RunControlData/FSMLastGroupAlias-admin.pref
|Debug	|/home/otsdaq/otsdaq/srcs/otsdaq/otsdaq/GatewaySupervisor/GatewaySupervisor.cc|2877|tmpLastAlias: T992Config
|Debug	|/home/otsdaq/otsdaq/srcs/otsdaq/otsdaq/WebUsersUtilities/WebUsers.cc|2567|Preferences file: /home/otsdaq/otsdaq/srcs/otsdaq_cmsoutertracker/DataDefault/ServiceData/LoginData/UsersData/UserPreferencesData/generic_Default_FSM_View/admin_Default_FSM_View.pref
|Debug	|/home/otsdaq/otsdaq/srcs/otsdaq/otsdaq/WebUsersUtilities/WebUsers.cc|2581|Read value 1
|Debug	|/home/otsdaq/otsdaq/srcs/otsdaq_utilities/otsdaq-utilities/Console/ConsoleSupervisor.cc|265|Console is alive and waiting... (if no messages, next heartbeat is in two minutes)
|Debug	|/home/otsdaq/otsdaq/srcs/otsdaq/otsdaq/GatewaySupervisor/GatewaySupervisor.cc|3563|Can't open file: /home/otsdaq/otsdaq/srcs/otsdaq_cmsoutertracker/DataDefault/ServiceData/RunNumber//OtherRuns0NextRunNumber.txt
|Debug	|/home/otsdaq/otsdaq/srcs/otsdaq/otsdaq/GatewaySupervisor/GatewaySupervisor.cc|3565|Creating file and setting Run Number to 1: /home/otsdaq/otsdaq/srcs/otsdaq_cmsoutertracker/DataDefault/ServiceData/RunNumber//OtherRuns0NextRunNumber.txt
|Debug	|MetricManager.cc|178|MetricManager is shutting down...
|Debug	|MetricManager.cc|154|Stopping Metrics
|Debug	|MetricManager.cc|157|Joining Metric-Sending thread
|Debug	|MetricManager.cc|160|do_stop Complete
