{
"document" : {
"data" : {
"NAME" : "DATA_MANAGER_TABLE",
"COMMENT" : "Data Buffer top-level records.",
"AUTHOR" : "admin",
"CREATION_TIME" : 1536269267,
"COL_TYPES" : {
"DATA_MANAGER_GROUP_ID" : "VARCHAR2",
"DATA_BUFFER_UID" : "VARCHAR2",
"LINK_TO_DATA_BUFFER_TABLE" : "VARCHAR2",
"LINK_TO_DATA_BUFFER_GROUP_ID" : "VARCHAR2",
"STATUS" : "VARCHAR2",
"COMMENT_DESCRIPTION" : "VARCHAR2",
"AUTHOR" : "VARCHAR2",
"RECORD_INSERTION_TIME" : "TIMESTAMP WITH TIMEZONE"
},
"DATA_SET" : [
{
"DATA_MANAGER_GROUP_ID" : "DMBurninBox0",
"DATA_BUFFER_UID" : "BurninBox_DataBuffer0",
"LINK_TO_DATA_BUFFER_TABLE" : "DataBufferTable",
"LINK_TO_DATA_BUFFER_GROUP_ID" : "BurninBox_DataBuffer0",
"STATUS" : "On",
"COMMENT_DESCRIPTION" : "DEFAULT",
"AUTHOR" : "admin",
"RECORD_INSERTION_TIME" : "1536269267"
},
{
"DATA_MANAGER_GROUP_ID" : "VisualDataManager",
"DATA_BUFFER_UID" : "VisualBuffer",
"LINK_TO_DATA_BUFFER_TABLE" : "DataBufferTable",
"LINK_TO_DATA_BUFFER_GROUP_ID" : "VisualBuffer",
"STATUS" : "On",
"COMMENT_DESCRIPTION" : "DEFAULT",
"AUTHOR" : "admin",
"RECORD_INSERTION_TIME" : "1536266744"
}
]
},
"metadata" : {

},
"search" : [

]
},
"comments" : [

],
"origin" : {
"source" : "template",
"name" : "notprovided",
"format" : "json",
"created" : "2018-09-06T17:34:13.982-0500",
"rawdata" : [

]
},
"version" : "0",
"entities" : [
{
"name" : "OTSROOT",
"assigned" : "2018-09-06T17:34:13.985-0500"
}
],
"tables" : [
{
"name" : "notprovided",
"assigned" : "2018-09-06T17:34:13.984-0500"
},
{
"name" : "BurninBoxConfig_v0",
"assigned" : "2018-09-06T17:34:14.530-0500"
},
{
"name" : "BurninBoxConfig_v1",
"assigned" : "2018-09-10T10:45:51.073-0500"
},
{
"name" : "BurninBoxConfig_v2",
"assigned" : "2018-09-10T11:24:18.485-0500"
},
{
"name" : "BurninBoxConfig_v3",
"assigned" : "2018-09-11T09:59:56.099-0500"
},
{
"name" : "BurninBoxConfig_v4",
"assigned" : "2018-09-11T10:01:19.195-0500"
},
{
"name" : "BurninBoxConfig_v5",
"assigned" : "2018-09-11T10:11:15.754-0500"
},
{
"name" : "BurninBoxConfig_v6",
"assigned" : "2018-09-12T12:16:43.492-0500"
},
{
"name" : "BurninBoxConfig_v7",
"assigned" : "2018-09-17T11:12:09.129-0500"
},
{
"name" : "BurninBoxConfig_v8",
"assigned" : "2018-09-17T13:53:33.161-0500"
},
{
"name" : "BurninBoxConfig_v9",
"assigned" : "2018-09-17T14:03:57.888-0500"
},
{
"name" : "BurninBoxConfig_v10",
"assigned" : "2018-09-18T15:31:02.225-0500"
},
{
"name" : "BurninBoxConfig_v11",
"assigned" : "2018-09-19T09:27:01.962-0500"
},
{
"name" : "BurninBoxConfig_v12",
"assigned" : "2018-09-19T10:08:01.810-0500"
},
{
"name" : "BurninBoxConfig_v13",
"assigned" : "2018-09-19T10:23:21.756-0500"
},
{
"name" : "BurninBoxConfig_v14",
"assigned" : "2018-09-19T11:22:21.127-0500"
},
{
"name" : "BurninBoxConfig_v15",
"assigned" : "2018-09-19T12:26:54.999-0500"
},
{
"name" : "BurninBoxConfig_v16",
"assigned" : "2018-09-20T14:22:27.060-0500"
},
{
"name" : "BurninBoxConfig_v17",
"assigned" : "2018-09-20T15:42:02.859-0500"
},
{
"name" : "BurninBoxConfig_v18",
"assigned" : "2018-09-21T11:16:28.879-0500"
},
{
"name" : "BurninBoxConfig_v19",
"assigned" : "2018-09-21T13:39:25.024-0500"
},
{
"name" : "BurninBoxConfig_v20",
"assigned" : "2018-09-21T13:39:48.950-0500"
},
{
"name" : "BurninBoxConfig_v21",
"assigned" : "2019-02-28T12:04:25.602-0600"
},
{
"name" : "BurninBoxConfig_v22",
"assigned" : "2019-02-28T12:05:08.026-0600"
},
{
"name" : "BurninBoxConfig_v23",
"assigned" : "2019-02-28T13:57:09.634-0600"
}
],
"changelog" : "notprovided",
"bookkeeping" : {
"isdeleted" : false,
"isreadonly" : false,
"updates" : [
{
"event" : "addTable",
"timestamp" : "2018-09-06T17:34:13.984-0500",
"value" : {
"name" : "notprovided",
"assigned" : "2018-09-06T17:34:13.984-0500"
}
},
{
"event" : "setVersion",
"timestamp" : "2018-09-06T17:34:13.984-0500",
"value" : {
"name" : "0",
"assigned" : "2018-09-06T17:34:13.984-0500"
}
},
{
"event" : "setCollection",
"timestamp" : "2018-09-06T17:34:13.985-0500",
"value" : {
"name" : "DataManagerTable",
"assigned" : "2018-09-06T17:34:13.985-0500"
}
},
{
"event" : "addEntity",
"timestamp" : "2018-09-06T17:34:13.985-0500",
"value" : {
"name" : "OTSROOT",
"assigned" : "2018-09-06T17:34:13.985-0500"
}
},
{
"event" : "addTable",
"timestamp" : "2018-09-06T17:34:14.530-0500",
"value" : {
"name" : "BurninBoxConfig_v0",
"assigned" : "2018-09-06T17:34:14.530-0500"
}
},
{
"event" : "addTable",
"timestamp" : "2018-09-10T10:45:51.073-0500",
"value" : {
"name" : "BurninBoxConfig_v1",
"assigned" : "2018-09-10T10:45:51.073-0500"
}
},
{
"event" : "addTable",
"timestamp" : "2018-09-10T11:24:18.485-0500",
"value" : {
"name" : "BurninBoxConfig_v2",
"assigned" : "2018-09-10T11:24:18.485-0500"
}
},
{
"event" : "addTable",
"timestamp" : "2018-09-11T09:59:56.099-0500",
"value" : {
"name" : "BurninBoxConfig_v3",
"assigned" : "2018-09-11T09:59:56.099-0500"
}
},
{
"event" : "addTable",
"timestamp" : "2018-09-11T10:01:19.195-0500",
"value" : {
"name" : "BurninBoxConfig_v4",
"assigned" : "2018-09-11T10:01:19.195-0500"
}
},
{
"event" : "addTable",
"timestamp" : "2018-09-11T10:11:15.754-0500",
"value" : {
"name" : "BurninBoxConfig_v5",
"assigned" : "2018-09-11T10:11:15.754-0500"
}
},
{
"event" : "addTable",
"timestamp" : "2018-09-12T12:16:43.493-0500",
"value" : {
"name" : "BurninBoxConfig_v6",
"assigned" : "2018-09-12T12:16:43.492-0500"
}
},
{
"event" : "addTable",
"timestamp" : "2018-09-17T11:12:09.129-0500",
"value" : {
"name" : "BurninBoxConfig_v7",
"assigned" : "2018-09-17T11:12:09.129-0500"
}
},
{
"event" : "addTable",
"timestamp" : "2018-09-17T13:53:33.161-0500",
"value" : {
"name" : "BurninBoxConfig_v8",
"assigned" : "2018-09-17T13:53:33.161-0500"
}
},
{
"event" : "addTable",
"timestamp" : "2018-09-17T14:03:57.888-0500",
"value" : {
"name" : "BurninBoxConfig_v9",
"assigned" : "2018-09-17T14:03:57.888-0500"
}
},
{
"event" : "addTable",
"timestamp" : "2018-09-18T15:31:02.225-0500",
"value" : {
"name" : "BurninBoxConfig_v10",
"assigned" : "2018-09-18T15:31:02.225-0500"
}
},
{
"event" : "addTable",
"timestamp" : "2018-09-19T09:27:01.962-0500",
"value" : {
"name" : "BurninBoxConfig_v11",
"assigned" : "2018-09-19T09:27:01.962-0500"
}
},
{
"event" : "addTable",
"timestamp" : "2018-09-19T10:08:01.811-0500",
"value" : {
"name" : "BurninBoxConfig_v12",
"assigned" : "2018-09-19T10:08:01.810-0500"
}
},
{
"event" : "addTable",
"timestamp" : "2018-09-19T10:23:21.756-0500",
"value" : {
"name" : "BurninBoxConfig_v13",
"assigned" : "2018-09-19T10:23:21.756-0500"
}
},
{
"event" : "addTable",
"timestamp" : "2018-09-19T11:22:21.127-0500",
"value" : {
"name" : "BurninBoxConfig_v14",
"assigned" : "2018-09-19T11:22:21.127-0500"
}
},
{
"event" : "addTable",
"timestamp" : "2018-09-19T12:26:54.999-0500",
"value" : {
"name" : "BurninBoxConfig_v15",
"assigned" : "2018-09-19T12:26:54.999-0500"
}
},
{
"event" : "addTable",
"timestamp" : "2018-09-20T14:22:27.060-0500",
"value" : {
"name" : "BurninBoxConfig_v16",
"assigned" : "2018-09-20T14:22:27.060-0500"
}
},
{
"event" : "addTable",
"timestamp" : "2018-09-20T15:42:02.859-0500",
"value" : {
"name" : "BurninBoxConfig_v17",
"assigned" : "2018-09-20T15:42:02.859-0500"
}
},
{
"event" : "addTable",
"timestamp" : "2018-09-21T11:16:28.879-0500",
"value" : {
"name" : "BurninBoxConfig_v18",
"assigned" : "2018-09-21T11:16:28.879-0500"
}
},
{
"event" : "addTable",
"timestamp" : "2018-09-21T13:39:25.024-0500",
"value" : {
"name" : "BurninBoxConfig_v19",
"assigned" : "2018-09-21T13:39:25.024-0500"
}
},
{
"event" : "addTable",
"timestamp" : "2018-09-21T13:39:48.950-0500",
"value" : {
"name" : "BurninBoxConfig_v20",
"assigned" : "2018-09-21T13:39:48.950-0500"
}
},
{
"event" : "addTable",
"timestamp" : "2019-02-28T12:04:25.602-0600",
"value" : {
"name" : "BurninBoxConfig_v21",
"assigned" : "2019-02-28T12:04:25.602-0600"
}
},
{
"event" : "addTable",
"timestamp" : "2019-02-28T12:05:08.026-0600",
"value" : {
"name" : "BurninBoxConfig_v22",
"assigned" : "2019-02-28T12:05:08.026-0600"
}
},
{
"event" : "addTable",
"timestamp" : "2019-02-28T13:57:09.634-0600",
"value" : {
"name" : "BurninBoxConfig_v23",
"assigned" : "2019-02-28T13:57:09.634-0600"
}
},
{
"event" : "addConfiguration",
"timestamp" : "2019-07-19T15:24:15.731-0500",
"value" : {
"name" : "BurninBoxConfig_v24",
"assigned" : "2019-07-19T15:24:15.731-0500"
}
},
{
"event" : "addConfiguration",
"timestamp" : "2019-07-19T15:25:10.858-0500",
"value" : {
"name" : "BurninBoxConfig_v25",
"assigned" : "2019-07-19T15:25:10.858-0500"
}
}
],
"created" : "2018-09-06T17:34:13.982-0500"
},
"_id" : {
"$oid" : "56651b55224245819647479f"
},
"collection" : "DataManagerTable",
"aliases" : {
"active" : [

],
"history" : [

]
},
"runs" : [

],
"attachments" : [

],
"configtype" : "notprovided",
"configurations" : [
{
"name" : "BurninBoxConfig_v24",
"assigned" : "2019-07-19T15:24:15.731-0500"
},
{
"name" : "BurninBoxConfig_v25",
"assigned" : "2019-07-19T15:25:10.858-0500"
}
]
}