{
"document" : {
"data" : {
"NAME" : "FE_SUPERVISOR_TABLE",
"COMMENT" : "Front-end Supervisor records.",
"AUTHOR" : "admin",
"CREATION_TIME" : 1598456035,
"COL_TYPES" : {
"SUPERVISOR_UID" : "STRING",
"LINK_TO_FE_INTERFACE_TABLE" : "STRING",
"LINK_TO_FE_INTERFACE_GROUP_ID" : "STRING",
"COMMENT_DESCRIPTION" : "STRING",
"AUTHOR" : "STRING",
"RECORD_INSERTION_TIME" : "TIMESTAMP WITH TIMEZONE"
},
"DATA_SET" : [
{
"SUPERVISOR_UID" : "OuterTrackerFESupervisor0",
"LINK_TO_FE_INTERFACE_TABLE" : "FEInterfaceTable",
"LINK_TO_FE_INTERFACE_GROUP_ID" : "OuterTrackerFESupervisor0",
"COMMENT_DESCRIPTION" : "No Comment",
"AUTHOR" : "admin",
"RECORD_INSERTION_TIME" : "1550767758"
},
{
"SUPERVISOR_UID" : "HistoMakerFESupervisor0",
"LINK_TO_FE_INTERFACE_TABLE" : "FEInterfaceTable",
"LINK_TO_FE_INTERFACE_GROUP_ID" : "HistoMakerFESupervisor0",
"COMMENT_DESCRIPTION" : "No Comment",
"AUTHOR" : "admin",
"RECORD_INSERTION_TIME" : "1574284213"
},
{
"SUPERVISOR_UID" : "PowerSupplyFESupervisor0",
"LINK_TO_FE_INTERFACE_TABLE" : "FEInterfaceTable",
"LINK_TO_FE_INTERFACE_GROUP_ID" : "PowerSupplyFESupervisor0",
"COMMENT_DESCRIPTION" : "No Comment",
"AUTHOR" : "admin",
"RECORD_INSERTION_TIME" : "1598456035"
}
]
},
"metadata" : {

},
"search" : [

]
},
"comments" : [

],
"origin" : {
"source" : "template",
"name" : "notprovided",
"format" : "json",
"created" : "2020-08-26T10:33:55.969-0500",
"rawdata" : [

]
},
"version" : "2",
"entities" : [
{
"name" : "OTSROOT",
"assigned" : "2020-08-26T10:33:55.970-0500"
}
],
"configurations" : [
{
"name" : "notprovided",
"assigned" : "2020-08-26T10:33:55.970-0500"
},
{
"name" : "DefaultConfig_v7",
"assigned" : "2020-08-26T10:33:56.878-0500"
},
{
"name" : "DefaultConfig_v8",
"assigned" : "2020-08-26T10:45:54.674-0500"
},
{
"name" : "DefaultConfig_v9",
"assigned" : "2020-08-26T14:49:52.860-0500"
},
{
"name" : "DefaultConfig_v10",
"assigned" : "2020-08-26T14:52:00.481-0500"
},
{
"name" : "DefaultConfig_v11",
"assigned" : "2020-08-26T15:00:03.961-0500"
},
{
"name" : "DefaultConfig_v12",
"assigned" : "2020-08-26T16:18:15.697-0500"
},
{
"name" : "DefaultConfig_v13",
"assigned" : "2020-08-28T21:40:23.053-0500"
},
{
"name" : "DefaultConfig_v14",
"assigned" : "2020-08-31T15:19:58.981-0500"
},
{
"name" : "DefaultConfig_v15",
"assigned" : "2020-09-03T10:43:22.489-0500"
},
{
"name" : "DefaultConfig_v16",
"assigned" : "2020-09-03T10:49:03.536-0500"
},
{
"name" : "DefaultConfig_v17",
"assigned" : "2020-09-08T17:07:21.806-0500"
},
{
"name" : "DefaultConfig_v18",
"assigned" : "2020-09-11T16:02:29.398-0500"
},
{
"name" : "DefaultConfig_v19",
"assigned" : "2020-09-14T17:47:19.564-0500"
},
{
"name" : "DefaultConfig_v20",
"assigned" : "2020-09-14T18:00:23.820-0500"
},
{
"name" : "DefaultConfig_v21",
"assigned" : "2020-09-15T15:14:57.275-0500"
},
{
"name" : "DefaultConfig_v22",
"assigned" : "2020-09-15T15:18:54.374-0500"
},
{
"name" : "DefaultConfig_v23",
"assigned" : "2020-09-15T15:27:51.314-0500"
},
{
"name" : "DefaultConfig_v24",
"assigned" : "2020-09-15T15:52:12.793-0500"
},
{
"name" : "DefaultConfig_v25",
"assigned" : "2020-09-21T11:41:58.494-0500"
},
{
"name" : "DefaultConfig_v26",
"assigned" : "2020-09-21T11:54:29.199-0500"
},
{
"name" : "DefaultConfig_v27",
"assigned" : "2020-10-06T14:45:41.273-0500"
},
{
"name" : "DefaultConfig_v28",
"assigned" : "2020-10-06T15:04:19.805-0500"
},
{
"name" : "DefaultConfig_v29",
"assigned" : "2020-10-07T16:45:35.947-0500"
},
{
"name" : "DefaultConfig_v30",
"assigned" : "2020-10-07T17:03:30.090-0500"
},
{
"name" : "DefaultConfig_v31",
"assigned" : "2020-11-04T20:42:37.081-0600"
},
{
"name" : "DefaultConfig_v32",
"assigned" : "2020-11-11T11:26:54.680-0600"
},
{
"name" : "DefaultConfig_v33",
"assigned" : "2021-01-18T20:04:39.046-0600"
},
{
"name" : "DefaultConfig_v34",
"assigned" : "2021-01-18T20:05:19.510-0600"
}
],
"changelog" : "notprovided",
"bookkeeping" : {
"isdeleted" : false,
"isreadonly" : false,
"updates" : [
{
"event" : "addConfiguration",
"timestamp" : "2020-08-26T10:33:55.970-0500",
"value" : {
"name" : "notprovided",
"assigned" : "2020-08-26T10:33:55.970-0500"
}
},
{
"event" : "setVersion",
"timestamp" : "2020-08-26T10:33:55.970-0500",
"value" : {
"name" : "2",
"assigned" : "2020-08-26T10:33:55.970-0500"
}
},
{
"event" : "setCollection",
"timestamp" : "2020-08-26T10:33:55.970-0500",
"value" : {
"name" : "FESupervisorTable",
"assigned" : "2020-08-26T10:33:55.970-0500"
}
},
{
"event" : "addEntity",
"timestamp" : "2020-08-26T10:33:55.970-0500",
"value" : {
"name" : "OTSROOT",
"assigned" : "2020-08-26T10:33:55.970-0500"
}
},
{
"event" : "addConfiguration",
"timestamp" : "2020-08-26T10:33:56.878-0500",
"value" : {
"name" : "DefaultConfig_v7",
"assigned" : "2020-08-26T10:33:56.878-0500"
}
},
{
"event" : "addConfiguration",
"timestamp" : "2020-08-26T10:45:54.674-0500",
"value" : {
"name" : "DefaultConfig_v8",
"assigned" : "2020-08-26T10:45:54.674-0500"
}
},
{
"event" : "addConfiguration",
"timestamp" : "2020-08-26T14:49:52.860-0500",
"value" : {
"name" : "DefaultConfig_v9",
"assigned" : "2020-08-26T14:49:52.860-0500"
}
},
{
"event" : "addConfiguration",
"timestamp" : "2020-08-26T14:52:00.481-0500",
"value" : {
"name" : "DefaultConfig_v10",
"assigned" : "2020-08-26T14:52:00.481-0500"
}
},
{
"event" : "addConfiguration",
"timestamp" : "2020-08-26T15:00:03.961-0500",
"value" : {
"name" : "DefaultConfig_v11",
"assigned" : "2020-08-26T15:00:03.961-0500"
}
},
{
"event" : "addConfiguration",
"timestamp" : "2020-08-26T16:18:15.697-0500",
"value" : {
"name" : "DefaultConfig_v12",
"assigned" : "2020-08-26T16:18:15.697-0500"
}
},
{
"event" : "addConfiguration",
"timestamp" : "2020-08-28T21:40:23.053-0500",
"value" : {
"name" : "DefaultConfig_v13",
"assigned" : "2020-08-28T21:40:23.053-0500"
}
},
{
"event" : "addConfiguration",
"timestamp" : "2020-08-31T15:19:58.981-0500",
"value" : {
"name" : "DefaultConfig_v14",
"assigned" : "2020-08-31T15:19:58.981-0500"
}
},
{
"event" : "addConfiguration",
"timestamp" : "2020-09-03T10:43:22.489-0500",
"value" : {
"name" : "DefaultConfig_v15",
"assigned" : "2020-09-03T10:43:22.489-0500"
}
},
{
"event" : "addConfiguration",
"timestamp" : "2020-09-03T10:49:03.536-0500",
"value" : {
"name" : "DefaultConfig_v16",
"assigned" : "2020-09-03T10:49:03.536-0500"
}
},
{
"event" : "addConfiguration",
"timestamp" : "2020-09-08T17:07:21.806-0500",
"value" : {
"name" : "DefaultConfig_v17",
"assigned" : "2020-09-08T17:07:21.806-0500"
}
},
{
"event" : "addConfiguration",
"timestamp" : "2020-09-11T16:02:29.398-0500",
"value" : {
"name" : "DefaultConfig_v18",
"assigned" : "2020-09-11T16:02:29.398-0500"
}
},
{
"event" : "addConfiguration",
"timestamp" : "2020-09-14T17:47:19.564-0500",
"value" : {
"name" : "DefaultConfig_v19",
"assigned" : "2020-09-14T17:47:19.564-0500"
}
},
{
"event" : "addConfiguration",
"timestamp" : "2020-09-14T18:00:23.820-0500",
"value" : {
"name" : "DefaultConfig_v20",
"assigned" : "2020-09-14T18:00:23.820-0500"
}
},
{
"event" : "addConfiguration",
"timestamp" : "2020-09-15T15:14:57.276-0500",
"value" : {
"name" : "DefaultConfig_v21",
"assigned" : "2020-09-15T15:14:57.275-0500"
}
},
{
"event" : "addConfiguration",
"timestamp" : "2020-09-15T15:18:54.374-0500",
"value" : {
"name" : "DefaultConfig_v22",
"assigned" : "2020-09-15T15:18:54.374-0500"
}
},
{
"event" : "addConfiguration",
"timestamp" : "2020-09-15T15:27:51.314-0500",
"value" : {
"name" : "DefaultConfig_v23",
"assigned" : "2020-09-15T15:27:51.314-0500"
}
},
{
"event" : "addConfiguration",
"timestamp" : "2020-09-15T15:52:12.793-0500",
"value" : {
"name" : "DefaultConfig_v24",
"assigned" : "2020-09-15T15:52:12.793-0500"
}
},
{
"event" : "addConfiguration",
"timestamp" : "2020-09-21T11:41:58.494-0500",
"value" : {
"name" : "DefaultConfig_v25",
"assigned" : "2020-09-21T11:41:58.494-0500"
}
},
{
"event" : "addConfiguration",
"timestamp" : "2020-09-21T11:54:29.199-0500",
"value" : {
"name" : "DefaultConfig_v26",
"assigned" : "2020-09-21T11:54:29.199-0500"
}
},
{
"event" : "addConfiguration",
"timestamp" : "2020-10-06T14:45:41.273-0500",
"value" : {
"name" : "DefaultConfig_v27",
"assigned" : "2020-10-06T14:45:41.273-0500"
}
},
{
"event" : "addConfiguration",
"timestamp" : "2020-10-06T15:04:19.805-0500",
"value" : {
"name" : "DefaultConfig_v28",
"assigned" : "2020-10-06T15:04:19.805-0500"
}
},
{
"event" : "addConfiguration",
"timestamp" : "2020-10-07T16:45:35.947-0500",
"value" : {
"name" : "DefaultConfig_v29",
"assigned" : "2020-10-07T16:45:35.947-0500"
}
},
{
"event" : "addConfiguration",
"timestamp" : "2020-10-07T17:03:30.090-0500",
"value" : {
"name" : "DefaultConfig_v30",
"assigned" : "2020-10-07T17:03:30.090-0500"
}
},
{
"event" : "addConfiguration",
"timestamp" : "2020-11-04T20:42:37.081-0600",
"value" : {
"name" : "DefaultConfig_v31",
"assigned" : "2020-11-04T20:42:37.081-0600"
}
},
{
"event" : "addConfiguration",
"timestamp" : "2020-11-11T11:26:54.680-0600",
"value" : {
"name" : "DefaultConfig_v32",
"assigned" : "2020-11-11T11:26:54.680-0600"
}
},
{
"event" : "addConfiguration",
"timestamp" : "2021-01-18T20:04:39.047-0600",
"value" : {
"name" : "DefaultConfig_v33",
"assigned" : "2021-01-18T20:04:39.046-0600"
}
},
{
"event" : "addConfiguration",
"timestamp" : "2021-01-18T20:05:19.510-0600",
"value" : {
"name" : "DefaultConfig_v34",
"assigned" : "2021-01-18T20:05:19.510-0600"
}
}
],
"created" : "2020-08-26T10:33:55.969-0500"
},
"_id" : {
"$oid" : "103e8d5a546b40d78c28cc88"
},
"collection" : "FESupervisorTable",
"aliases" : {
"active" : [

],
"history" : [

]
},
"runs" : [

],
"attachments" : [

],
"configtype" : "notprovided"
}