{
"document" : {
"data" : {
"NAME" : "FE_SUPERVISOR_TABLE",
"COMMENT" : "Front-end Supervisor records.",
"AUTHOR" : "admin",
"CREATION_TIME" : 1536265330,
"COL_TYPES" : {
"SUPERVISOR_UID" : "VARCHAR2",
"LINK_TO_FE_INTERFACE_TABLE" : "VARCHAR2",
"LINK_TO_FE_INTERFACE_GROUP_ID" : "VARCHAR2",
"COMMENT_DESCRIPTION" : "VARCHAR2",
"AUTHOR" : "VARCHAR2",
"RECORD_INSERTION_TIME" : "TIMESTAMP WITH TIMEZONE"
},
"DATA_SET" : [
{
"SUPERVISOR_UID" : "FEBurninBoxSupervisor",
"LINK_TO_FE_INTERFACE_TABLE" : "FEInterfaceTable",
"LINK_TO_FE_INTERFACE_GROUP_ID" : "FEBurninBoxSupervisor0",
"COMMENT_DESCRIPTION" : "No Comment",
"AUTHOR" : "admin",
"RECORD_INSERTION_TIME" : "1536265330"
}
]
},
"metadata" : {

},
"search" : [

]
},
"comments" : [

],
"origin" : {
"source" : "template",
"name" : "notprovided",
"format" : "json",
"created" : "2018-09-06T17:34:14.157-0500",
"rawdata" : [

]
},
"version" : "0",
"entities" : [
{
"name" : "OTSROOT",
"assigned" : "2018-09-06T17:34:14.159-0500"
}
],
"tables" : [
{
"name" : "notprovided",
"assigned" : "2018-09-06T17:34:14.158-0500"
},
{
"name" : "BurninBoxConfig_v0",
"assigned" : "2018-09-06T17:34:14.664-0500"
},
{
"name" : "BurninBoxConfig_v1",
"assigned" : "2018-09-10T10:45:51.232-0500"
},
{
"name" : "BurninBoxConfig_v2",
"assigned" : "2018-09-10T11:24:18.646-0500"
},
{
"name" : "BurninBoxConfig_v3",
"assigned" : "2018-09-11T09:59:56.266-0500"
},
{
"name" : "BurninBoxConfig_v4",
"assigned" : "2018-09-11T10:01:19.357-0500"
},
{
"name" : "BurninBoxConfig_v5",
"assigned" : "2018-09-11T10:11:15.941-0500"
},
{
"name" : "BurninBoxConfig_v6",
"assigned" : "2018-09-12T12:16:43.682-0500"
},
{
"name" : "BurninBoxConfig_v7",
"assigned" : "2018-09-17T11:12:09.352-0500"
},
{
"name" : "BurninBoxConfig_v8",
"assigned" : "2018-09-17T13:53:33.366-0500"
},
{
"name" : "BurninBoxConfig_v9",
"assigned" : "2018-09-17T14:03:58.052-0500"
},
{
"name" : "BurninBoxConfig_v10",
"assigned" : "2018-09-18T15:31:02.398-0500"
},
{
"name" : "BurninBoxConfig_v11",
"assigned" : "2018-09-19T09:27:02.130-0500"
},
{
"name" : "BurninBoxConfig_v12",
"assigned" : "2018-09-19T10:08:02.015-0500"
},
{
"name" : "BurninBoxConfig_v13",
"assigned" : "2018-09-19T10:23:21.955-0500"
},
{
"name" : "BurninBoxConfig_v14",
"assigned" : "2018-09-19T11:22:21.338-0500"
},
{
"name" : "BurninBoxConfig_v15",
"assigned" : "2018-09-19T12:26:55.191-0500"
},
{
"name" : "BurninBoxConfig_v16",
"assigned" : "2018-09-20T14:22:27.247-0500"
},
{
"name" : "BurninBoxConfig_v17",
"assigned" : "2018-09-20T15:42:03.042-0500"
},
{
"name" : "BurninBoxConfig_v18",
"assigned" : "2018-09-21T11:16:29.099-0500"
},
{
"name" : "BurninBoxConfig_v19",
"assigned" : "2018-09-21T13:39:25.249-0500"
},
{
"name" : "BurninBoxConfig_v20",
"assigned" : "2018-09-21T13:39:49.180-0500"
},
{
"name" : "BurninBoxConfig_v21",
"assigned" : "2019-02-28T12:04:25.726-0600"
},
{
"name" : "BurninBoxConfig_v22",
"assigned" : "2019-02-28T12:05:08.156-0600"
},
{
"name" : "BurninBoxConfig_v23",
"assigned" : "2019-02-28T13:57:09.764-0600"
}
],
"changelog" : "notprovided",
"bookkeeping" : {
"isdeleted" : false,
"isreadonly" : false,
"updates" : [
{
"event" : "addTable",
"timestamp" : "2018-09-06T17:34:14.158-0500",
"value" : {
"name" : "notprovided",
"assigned" : "2018-09-06T17:34:14.158-0500"
}
},
{
"event" : "setVersion",
"timestamp" : "2018-09-06T17:34:14.159-0500",
"value" : {
"name" : "0",
"assigned" : "2018-09-06T17:34:14.159-0500"
}
},
{
"event" : "setCollection",
"timestamp" : "2018-09-06T17:34:14.159-0500",
"value" : {
"name" : "FESupervisorTable",
"assigned" : "2018-09-06T17:34:14.159-0500"
}
},
{
"event" : "addEntity",
"timestamp" : "2018-09-06T17:34:14.159-0500",
"value" : {
"name" : "OTSROOT",
"assigned" : "2018-09-06T17:34:14.159-0500"
}
},
{
"event" : "addTable",
"timestamp" : "2018-09-06T17:34:14.664-0500",
"value" : {
"name" : "BurninBoxConfig_v0",
"assigned" : "2018-09-06T17:34:14.664-0500"
}
},
{
"event" : "addTable",
"timestamp" : "2018-09-10T10:45:51.233-0500",
"value" : {
"name" : "BurninBoxConfig_v1",
"assigned" : "2018-09-10T10:45:51.232-0500"
}
},
{
"event" : "addTable",
"timestamp" : "2018-09-10T11:24:18.646-0500",
"value" : {
"name" : "BurninBoxConfig_v2",
"assigned" : "2018-09-10T11:24:18.646-0500"
}
},
{
"event" : "addTable",
"timestamp" : "2018-09-11T09:59:56.266-0500",
"value" : {
"name" : "BurninBoxConfig_v3",
"assigned" : "2018-09-11T09:59:56.266-0500"
}
},
{
"event" : "addTable",
"timestamp" : "2018-09-11T10:01:19.357-0500",
"value" : {
"name" : "BurninBoxConfig_v4",
"assigned" : "2018-09-11T10:01:19.357-0500"
}
},
{
"event" : "addTable",
"timestamp" : "2018-09-11T10:11:15.941-0500",
"value" : {
"name" : "BurninBoxConfig_v5",
"assigned" : "2018-09-11T10:11:15.941-0500"
}
},
{
"event" : "addTable",
"timestamp" : "2018-09-12T12:16:43.682-0500",
"value" : {
"name" : "BurninBoxConfig_v6",
"assigned" : "2018-09-12T12:16:43.682-0500"
}
},
{
"event" : "addTable",
"timestamp" : "2018-09-17T11:12:09.352-0500",
"value" : {
"name" : "BurninBoxConfig_v7",
"assigned" : "2018-09-17T11:12:09.352-0500"
}
},
{
"event" : "addTable",
"timestamp" : "2018-09-17T13:53:33.366-0500",
"value" : {
"name" : "BurninBoxConfig_v8",
"assigned" : "2018-09-17T13:53:33.366-0500"
}
},
{
"event" : "addTable",
"timestamp" : "2018-09-17T14:03:58.052-0500",
"value" : {
"name" : "BurninBoxConfig_v9",
"assigned" : "2018-09-17T14:03:58.052-0500"
}
},
{
"event" : "addTable",
"timestamp" : "2018-09-18T15:31:02.398-0500",
"value" : {
"name" : "BurninBoxConfig_v10",
"assigned" : "2018-09-18T15:31:02.398-0500"
}
},
{
"event" : "addTable",
"timestamp" : "2018-09-19T09:27:02.130-0500",
"value" : {
"name" : "BurninBoxConfig_v11",
"assigned" : "2018-09-19T09:27:02.130-0500"
}
},
{
"event" : "addTable",
"timestamp" : "2018-09-19T10:08:02.015-0500",
"value" : {
"name" : "BurninBoxConfig_v12",
"assigned" : "2018-09-19T10:08:02.015-0500"
}
},
{
"event" : "addTable",
"timestamp" : "2018-09-19T10:23:21.955-0500",
"value" : {
"name" : "BurninBoxConfig_v13",
"assigned" : "2018-09-19T10:23:21.955-0500"
}
},
{
"event" : "addTable",
"timestamp" : "2018-09-19T11:22:21.338-0500",
"value" : {
"name" : "BurninBoxConfig_v14",
"assigned" : "2018-09-19T11:22:21.338-0500"
}
},
{
"event" : "addTable",
"timestamp" : "2018-09-19T12:26:55.191-0500",
"value" : {
"name" : "BurninBoxConfig_v15",
"assigned" : "2018-09-19T12:26:55.191-0500"
}
},
{
"event" : "addTable",
"timestamp" : "2018-09-20T14:22:27.247-0500",
"value" : {
"name" : "BurninBoxConfig_v16",
"assigned" : "2018-09-20T14:22:27.247-0500"
}
},
{
"event" : "addTable",
"timestamp" : "2018-09-20T15:42:03.042-0500",
"value" : {
"name" : "BurninBoxConfig_v17",
"assigned" : "2018-09-20T15:42:03.042-0500"
}
},
{
"event" : "addTable",
"timestamp" : "2018-09-21T11:16:29.099-0500",
"value" : {
"name" : "BurninBoxConfig_v18",
"assigned" : "2018-09-21T11:16:29.099-0500"
}
},
{
"event" : "addTable",
"timestamp" : "2018-09-21T13:39:25.250-0500",
"value" : {
"name" : "BurninBoxConfig_v19",
"assigned" : "2018-09-21T13:39:25.249-0500"
}
},
{
"event" : "addTable",
"timestamp" : "2018-09-21T13:39:49.180-0500",
"value" : {
"name" : "BurninBoxConfig_v20",
"assigned" : "2018-09-21T13:39:49.180-0500"
}
},
{
"event" : "addTable",
"timestamp" : "2019-02-28T12:04:25.726-0600",
"value" : {
"name" : "BurninBoxConfig_v21",
"assigned" : "2019-02-28T12:04:25.726-0600"
}
},
{
"event" : "addTable",
"timestamp" : "2019-02-28T12:05:08.156-0600",
"value" : {
"name" : "BurninBoxConfig_v22",
"assigned" : "2019-02-28T12:05:08.156-0600"
}
},
{
"event" : "addTable",
"timestamp" : "2019-02-28T13:57:09.764-0600",
"value" : {
"name" : "BurninBoxConfig_v23",
"assigned" : "2019-02-28T13:57:09.764-0600"
}
},
{
"event" : "addConfiguration",
"timestamp" : "2019-07-19T15:24:15.876-0500",
"value" : {
"name" : "BurninBoxConfig_v24",
"assigned" : "2019-07-19T15:24:15.876-0500"
}
},
{
"event" : "addConfiguration",
"timestamp" : "2019-07-19T15:25:10.947-0500",
"value" : {
"name" : "BurninBoxConfig_v25",
"assigned" : "2019-07-19T15:25:10.947-0500"
}
},
{
"event" : "addConfiguration",
"timestamp" : "2019-07-24T14:34:10.423-0500",
"value" : {
"name" : "BurninBoxConfig_v26",
"assigned" : "2019-07-24T14:34:10.423-0500"
}
},
{
"event" : "addConfiguration",
"timestamp" : "2019-07-24T14:47:23.661-0500",
"value" : {
"name" : "BurninBoxConfig_v27",
"assigned" : "2019-07-24T14:47:23.661-0500"
}
},
{
"event" : "addConfiguration",
"timestamp" : "2019-07-24T14:48:41.157-0500",
"value" : {
"name" : "BurninBoxConfig_v28",
"assigned" : "2019-07-24T14:48:41.157-0500"
}
},
{
"event" : "addConfiguration",
"timestamp" : "2020-06-29T10:55:10.655-0500",
"value" : {
"name" : "BurninBoxConfig_v29",
"assigned" : "2020-06-29T10:55:10.655-0500"
}
},
{
"event" : "addConfiguration",
"timestamp" : "2020-06-29T11:05:39.947-0500",
"value" : {
"name" : "BurninBoxConfig_v30",
"assigned" : "2020-06-29T11:05:39.947-0500"
}
},
{
"event" : "addConfiguration",
"timestamp" : "2020-06-29T11:28:21.632-0500",
"value" : {
"name" : "BurninBoxConfig_v31",
"assigned" : "2020-06-29T11:28:21.632-0500"
}
},
{
"event" : "addConfiguration",
"timestamp" : "2020-07-24T10:58:17.873-0500",
"value" : {
"name" : "BurninBoxConfig_v32",
"assigned" : "2020-07-24T10:58:17.873-0500"
}
},
{
"event" : "addConfiguration",
"timestamp" : "2020-07-24T11:00:07.515-0500",
"value" : {
"name" : "BurninBoxConfig_v33",
"assigned" : "2020-07-24T11:00:07.515-0500"
}
},
{
"event" : "addConfiguration",
"timestamp" : "2020-07-24T11:56:06.227-0500",
"value" : {
"name" : "BurninBoxConfig_v34",
"assigned" : "2020-07-24T11:56:06.227-0500"
}
},
{
"event" : "addConfiguration",
"timestamp" : "2020-07-24T12:12:09.246-0500",
"value" : {
"name" : "BurninBoxConfig_v35",
"assigned" : "2020-07-24T12:12:09.246-0500"
}
},
{
"event" : "addConfiguration",
"timestamp" : "2020-07-24T12:16:35.746-0500",
"value" : {
"name" : "BurninBoxConfig_v36",
"assigned" : "2020-07-24T12:16:35.746-0500"
}
}
],
"created" : "2018-09-06T17:34:14.157-0500"
},
"_id" : {
"$oid" : "5a607438130c4b28a6f81508"
},
"collection" : "FESupervisorTable",
"aliases" : {
"active" : [

],
"history" : [

]
},
"runs" : [

],
"attachments" : [

],
"configtype" : "notprovided",
"configurations" : [
{
"name" : "BurninBoxConfig_v24",
"assigned" : "2019-07-19T15:24:15.876-0500"
},
{
"name" : "BurninBoxConfig_v25",
"assigned" : "2019-07-19T15:25:10.947-0500"
},
{
"name" : "BurninBoxConfig_v26",
"assigned" : "2019-07-24T14:34:10.423-0500"
},
{
"name" : "BurninBoxConfig_v27",
"assigned" : "2019-07-24T14:47:23.661-0500"
},
{
"name" : "BurninBoxConfig_v28",
"assigned" : "2019-07-24T14:48:41.157-0500"
},
{
"name" : "BurninBoxConfig_v29",
"assigned" : "2020-06-29T10:55:10.655-0500"
},
{
"name" : "BurninBoxConfig_v30",
"assigned" : "2020-06-29T11:05:39.947-0500"
},
{
"name" : "BurninBoxConfig_v31",
"assigned" : "2020-06-29T11:28:21.632-0500"
},
{
"name" : "BurninBoxConfig_v32",
"assigned" : "2020-07-24T10:58:17.873-0500"
},
{
"name" : "BurninBoxConfig_v33",
"assigned" : "2020-07-24T11:00:07.515-0500"
},
{
"name" : "BurninBoxConfig_v34",
"assigned" : "2020-07-24T11:56:06.227-0500"
},
{
"name" : "BurninBoxConfig_v35",
"assigned" : "2020-07-24T12:12:09.246-0500"
},
{
"name" : "BurninBoxConfig_v36",
"assigned" : "2020-07-24T12:16:35.746-0500"
}
]
}