{
"document" : {
"data" : {
"NAME" : "FE_SUPERVISOR_TABLE",
"COMMENT" : "Front-end Supervisor records.",
"AUTHOR" : "admin",
"CREATION_TIME" : 1601934289,
"COL_TYPES" : {
"SUPERVISOR_UID" : "STRING",
"LINK_TO_FE_INTERFACE_TABLE" : "STRING",
"LINK_TO_FE_INTERFACE_GROUP_ID" : "STRING",
"COMMENT_DESCRIPTION" : "STRING",
"AUTHOR" : "STRING",
"RECORD_INSERTION_TIME" : "TIMESTAMP WITH TIMEZONE"
},
"DATA_SET" : [
{
"SUPERVISOR_UID" : "FETrackerSupervisor0",
"LINK_TO_FE_INTERFACE_TABLE" : "FEInterfaceTable",
"LINK_TO_FE_INTERFACE_GROUP_ID" : "FETrackerSupervisor0",
"COMMENT_DESCRIPTION" : "No Comment",
"AUTHOR" : "admin",
"RECORD_INSERTION_TIME" : "1601934289"
},
{
"SUPERVISOR_UID" : "FEBurninBoxSupervisor",
"LINK_TO_FE_INTERFACE_TABLE" : "FEInterfaceTable",
"LINK_TO_FE_INTERFACE_GROUP_ID" : "FEBurninBoxSupervisor",
"COMMENT_DESCRIPTION" : "No Comment",
"AUTHOR" : "admin",
"RECORD_INSERTION_TIME" : "1601934289"
}
]
},
"metadata" : {

},
"search" : [

]
},
"comments" : [

],
"origin" : {
"source" : "template",
"name" : "notprovided",
"format" : "json",
"created" : "2020-10-05T16:44:49.108-0500",
"rawdata" : [

]
},
"version" : "2",
"entities" : [
{
"name" : "OTSROOT",
"assigned" : "2020-10-05T16:44:49.109-0500"
}
],
"configurations" : [
{
"name" : "notprovided",
"assigned" : "2020-10-05T16:44:49.109-0500"
}
],
"changelog" : "notprovided",
"bookkeeping" : {
"isdeleted" : false,
"isreadonly" : false,
"updates" : [
{
"event" : "addConfiguration",
"timestamp" : "2020-10-05T16:44:49.109-0500",
"value" : {
"name" : "notprovided",
"assigned" : "2020-10-05T16:44:49.109-0500"
}
},
{
"event" : "setVersion",
"timestamp" : "2020-10-05T16:44:49.109-0500",
"value" : {
"name" : "2",
"assigned" : "2020-10-05T16:44:49.109-0500"
}
},
{
"event" : "setCollection",
"timestamp" : "2020-10-05T16:44:49.109-0500",
"value" : {
"name" : "FESupervisorTable",
"assigned" : "2020-10-05T16:44:49.109-0500"
}
},
{
"event" : "addEntity",
"timestamp" : "2020-10-05T16:44:49.109-0500",
"value" : {
"name" : "OTSROOT",
"assigned" : "2020-10-05T16:44:49.109-0500"
}
}
],
"created" : "2020-10-05T16:44:49.108-0500"
},
"_id" : {
"$oid" : "d7552e1054ec4ed69bafda4b"
},
"collection" : "FESupervisorTable",
"aliases" : {
"active" : [

],
"history" : [

]
},
"runs" : [

],
"attachments" : [

],
"configtype" : "notprovided"
}