{
"document" : {
"data" : {
"NAME" : "ROHDE_SCHWARZ_POWER_SUPPLY_CHANNEL_TABLE",
"COMMENT" : "No comment.",
"AUTHOR" : "admin",
"CREATION_TIME" : 1604544060,
"COL_TYPES" : {
"POWER_SUPPLY_GROUP_UID" : "STRING",
"CHANNEL_UID" : "STRING",
"SLOT" : "NUMBER",
"CHANNEL" : "NUMBER",
"DETECTOR_NAME" : "STRING",
"CHANNEL_TYPE" : "STRING",
"IN_USE" : "STRING",
"I0SET" : "NUMBER",
"V0SET" : "NUMBER",
"R_UP" : "NUMBER",
"R_DWN" : "NUMBER",
"TRIP" : "NUMBER",
"R_UP_TIME" : "NUMBER",
"R_DW_TIME" : "NUMBER",
"UNV_THR" : "NUMBER",
"OVV_THR" : "NUMBER",
"COMMENT_DESCRIPTION" : "STRING",
"AUTHOR" : "STRING",
"RECORD_INSERTION_TIME" : "TIMESTAMP WITH TIMEZONE"
},
"DATA_SET" : [
{
"POWER_SUPPLY_GROUP_UID" : "TestStandModule",
"CHANNEL_UID" : "LV_Module1",
"SLOT" : "1",
"CHANNEL" : "0",
"DETECTOR_NAME" : "Module1",
"CHANNEL_TYPE" : "DEFAULT",
"IN_USE" : "No",
"I0SET" : "0",
"V0SET" : "0",
"R_UP" : "0",
"R_DWN" : "0",
"TRIP" : "0",
"R_UP_TIME" : "0",
"R_DW_TIME" : "0",
"UNV_THR" : "0",
"OVV_THR" : "0",
"COMMENT_DESCRIPTION" : "No Comment",
"AUTHOR" : "admin",
"RECORD_INSERTION_TIME" : "1604544060"
}
]
},
"metadata" : {

},
"search" : [

]
},
"comments" : [

],
"origin" : {
"source" : "template",
"name" : "notprovided",
"format" : "json",
"created" : "2020-11-04T20:41:00.322-0600",
"rawdata" : [

]
},
"version" : "1",
"entities" : [
{
"name" : "OTSROOT",
"assigned" : "2020-11-04T20:41:00.322-0600"
}
],
"configurations" : [
{
"name" : "notprovided",
"assigned" : "2020-11-04T20:41:00.322-0600"
},
{
"name" : "DefaultConfig_v31",
"assigned" : "2020-11-04T20:42:37.424-0600"
},
{
"name" : "DefaultConfig_v32",
"assigned" : "2020-11-11T11:26:55.037-0600"
},
{
"name" : "DefaultConfig_v33",
"assigned" : "2021-01-18T20:04:39.418-0600"
},
{
"name" : "DefaultConfig_v34",
"assigned" : "2021-01-18T20:05:19.891-0600"
}
],
"changelog" : "notprovided",
"bookkeeping" : {
"isdeleted" : false,
"isreadonly" : false,
"updates" : [
{
"event" : "addConfiguration",
"timestamp" : "2020-11-04T20:41:00.322-0600",
"value" : {
"name" : "notprovided",
"assigned" : "2020-11-04T20:41:00.322-0600"
}
},
{
"event" : "setVersion",
"timestamp" : "2020-11-04T20:41:00.322-0600",
"value" : {
"name" : "1",
"assigned" : "2020-11-04T20:41:00.322-0600"
}
},
{
"event" : "setCollection",
"timestamp" : "2020-11-04T20:41:00.322-0600",
"value" : {
"name" : "RohdeSchwarzPowerSupplyChannelTable",
"assigned" : "2020-11-04T20:41:00.322-0600"
}
},
{
"event" : "addEntity",
"timestamp" : "2020-11-04T20:41:00.322-0600",
"value" : {
"name" : "OTSROOT",
"assigned" : "2020-11-04T20:41:00.322-0600"
}
},
{
"event" : "addConfiguration",
"timestamp" : "2020-11-04T20:42:37.424-0600",
"value" : {
"name" : "DefaultConfig_v31",
"assigned" : "2020-11-04T20:42:37.424-0600"
}
},
{
"event" : "addConfiguration",
"timestamp" : "2020-11-11T11:26:55.037-0600",
"value" : {
"name" : "DefaultConfig_v32",
"assigned" : "2020-11-11T11:26:55.037-0600"
}
},
{
"event" : "addConfiguration",
"timestamp" : "2021-01-18T20:04:39.418-0600",
"value" : {
"name" : "DefaultConfig_v33",
"assigned" : "2021-01-18T20:04:39.418-0600"
}
},
{
"event" : "addConfiguration",
"timestamp" : "2021-01-18T20:05:19.891-0600",
"value" : {
"name" : "DefaultConfig_v34",
"assigned" : "2021-01-18T20:05:19.891-0600"
}
}
],
"created" : "2020-11-04T20:41:00.322-0600"
},
"_id" : {
"$oid" : "183f9062f3904874868df366"
},
"collection" : "RohdeSchwarzPowerSupplyChannelTable",
"aliases" : {
"active" : [

],
"history" : [

]
},
"runs" : [

],
"attachments" : [

],
"configtype" : "notprovided"
}