{
"document" : {
"data" : {
"NAME" : "POWER_SUPPLY_DEVICE_TABLE",
"COMMENT" : "No comment.",
"AUTHOR" : "admin",
"CREATION_TIME" : 1600124395,
"COL_TYPES" : {
"POWER_SUPPLY_GROUP_ID" : "STRING",
"POWER_SUPPLY_DEVICE_UID" : "STRING",
"STATUS" : "STRING",
"LINK_TO_POWER_SUPPLY_TABLE" : "STRING",
"LINK_TO_POWER_SUPPLY_UID" : "STRING",
"COMMENT_DESCRIPTION" : "STRING",
"AUTHOR" : "STRING",
"RECORD_INSERTION_TIME" : "TIMESTAMP WITH TIMEZONE"
},
"DATA_SET" : [
{
"POWER_SUPPLY_GROUP_ID" : "PowerSupplyFEInterface0",
"POWER_SUPPLY_DEVICE_UID" : "CAENPowerSupply",
"STATUS" : "On",
"LINK_TO_POWER_SUPPLY_TABLE" : "CAENPowerSupplyTable",
"LINK_TO_POWER_SUPPLY_UID" : "CAENBurninBox",
"COMMENT_DESCRIPTION" : "No Comment",
"AUTHOR" : "admin",
"RECORD_INSERTION_TIME" : "1600124395"
},
{
"POWER_SUPPLY_GROUP_ID" : "PowerSupplyFEInterface0",
"POWER_SUPPLY_DEVICE_UID" : "RohdeSchwarzPowerSupply",
"STATUS" : "On",
"LINK_TO_POWER_SUPPLY_TABLE" : "RohdeSchwarzPowerSupplyTable",
"LINK_TO_POWER_SUPPLY_UID" : "TestStandModule",
"COMMENT_DESCRIPTION" : "No Comment",
"AUTHOR" : "admin",
"RECORD_INSERTION_TIME" : "1600124395"
},
{
"POWER_SUPPLY_GROUP_ID" : "PowerSupplyFEInterface0",
"POWER_SUPPLY_DEVICE_UID" : "KeithleyPowerSupply",
"STATUS" : "On",
"LINK_TO_POWER_SUPPLY_TABLE" : "KeithleyPowerSupplyTable",
"LINK_TO_POWER_SUPPLY_UID" : "TestStandModule",
"COMMENT_DESCRIPTION" : "No Comment",
"AUTHOR" : "admin",
"RECORD_INSERTION_TIME" : "1600124395"
}
]
},
"metadata" : {

},
"search" : [

]
},
"comments" : [

],
"origin" : {
"source" : "template",
"name" : "notprovided",
"format" : "json",
"created" : "2020-09-14T17:59:55.990-0500",
"rawdata" : [

]
},
"version" : "1",
"entities" : [
{
"name" : "OTSROOT",
"assigned" : "2020-09-14T17:59:55.990-0500"
}
],
"configurations" : [
{
"name" : "notprovided",
"assigned" : "2020-09-14T17:59:55.990-0500"
},
{
"name" : "DefaultConfig_v20",
"assigned" : "2020-09-14T18:00:23.934-0500"
},
{
"name" : "DefaultConfig_v21",
"assigned" : "2020-09-15T15:14:57.388-0500"
},
{
"name" : "DefaultConfig_v22",
"assigned" : "2020-09-15T15:18:54.490-0500"
},
{
"name" : "DefaultConfig_v23",
"assigned" : "2020-09-15T15:27:51.435-0500"
},
{
"name" : "DefaultConfig_v24",
"assigned" : "2020-09-15T15:52:12.909-0500"
},
{
"name" : "DefaultConfig_v25",
"assigned" : "2020-09-21T11:41:58.616-0500"
},
{
"name" : "DefaultConfig_v26",
"assigned" : "2020-09-21T11:54:29.390-0500"
},
{
"name" : "DefaultConfig_v27",
"assigned" : "2020-10-06T14:45:41.469-0500"
},
{
"name" : "DefaultConfig_v28",
"assigned" : "2020-10-06T15:04:20.006-0500"
},
{
"name" : "DefaultConfig_v29",
"assigned" : "2020-10-07T16:45:36.152-0500"
},
{
"name" : "DefaultConfig_v30",
"assigned" : "2020-10-07T17:03:30.300-0500"
},
{
"name" : "DefaultConfig_v31",
"assigned" : "2020-11-04T20:42:37.294-0600"
},
{
"name" : "DefaultConfig_v32",
"assigned" : "2020-11-11T11:26:54.901-0600"
},
{
"name" : "DefaultConfig_v33",
"assigned" : "2021-01-18T20:04:39.281-0600"
},
{
"name" : "DefaultConfig_v34",
"assigned" : "2021-01-18T20:05:19.740-0600"
}
],
"changelog" : "notprovided",
"bookkeeping" : {
"isdeleted" : false,
"isreadonly" : false,
"updates" : [
{
"event" : "addConfiguration",
"timestamp" : "2020-09-14T17:59:55.990-0500",
"value" : {
"name" : "notprovided",
"assigned" : "2020-09-14T17:59:55.990-0500"
}
},
{
"event" : "setVersion",
"timestamp" : "2020-09-14T17:59:55.990-0500",
"value" : {
"name" : "1",
"assigned" : "2020-09-14T17:59:55.990-0500"
}
},
{
"event" : "setCollection",
"timestamp" : "2020-09-14T17:59:55.990-0500",
"value" : {
"name" : "PowerSupplyDeviceTable",
"assigned" : "2020-09-14T17:59:55.990-0500"
}
},
{
"event" : "addEntity",
"timestamp" : "2020-09-14T17:59:55.990-0500",
"value" : {
"name" : "OTSROOT",
"assigned" : "2020-09-14T17:59:55.990-0500"
}
},
{
"event" : "addConfiguration",
"timestamp" : "2020-09-14T18:00:23.934-0500",
"value" : {
"name" : "DefaultConfig_v20",
"assigned" : "2020-09-14T18:00:23.934-0500"
}
},
{
"event" : "addConfiguration",
"timestamp" : "2020-09-15T15:14:57.388-0500",
"value" : {
"name" : "DefaultConfig_v21",
"assigned" : "2020-09-15T15:14:57.388-0500"
}
},
{
"event" : "addConfiguration",
"timestamp" : "2020-09-15T15:18:54.490-0500",
"value" : {
"name" : "DefaultConfig_v22",
"assigned" : "2020-09-15T15:18:54.490-0500"
}
},
{
"event" : "addConfiguration",
"timestamp" : "2020-09-15T15:27:51.435-0500",
"value" : {
"name" : "DefaultConfig_v23",
"assigned" : "2020-09-15T15:27:51.435-0500"
}
},
{
"event" : "addConfiguration",
"timestamp" : "2020-09-15T15:52:12.909-0500",
"value" : {
"name" : "DefaultConfig_v24",
"assigned" : "2020-09-15T15:52:12.909-0500"
}
},
{
"event" : "addConfiguration",
"timestamp" : "2020-09-21T11:41:58.616-0500",
"value" : {
"name" : "DefaultConfig_v25",
"assigned" : "2020-09-21T11:41:58.616-0500"
}
},
{
"event" : "addConfiguration",
"timestamp" : "2020-09-21T11:54:29.390-0500",
"value" : {
"name" : "DefaultConfig_v26",
"assigned" : "2020-09-21T11:54:29.390-0500"
}
},
{
"event" : "addConfiguration",
"timestamp" : "2020-10-06T14:45:41.469-0500",
"value" : {
"name" : "DefaultConfig_v27",
"assigned" : "2020-10-06T14:45:41.469-0500"
}
},
{
"event" : "addConfiguration",
"timestamp" : "2020-10-06T15:04:20.006-0500",
"value" : {
"name" : "DefaultConfig_v28",
"assigned" : "2020-10-06T15:04:20.006-0500"
}
},
{
"event" : "addConfiguration",
"timestamp" : "2020-10-07T16:45:36.152-0500",
"value" : {
"name" : "DefaultConfig_v29",
"assigned" : "2020-10-07T16:45:36.152-0500"
}
},
{
"event" : "addConfiguration",
"timestamp" : "2020-10-07T17:03:30.300-0500",
"value" : {
"name" : "DefaultConfig_v30",
"assigned" : "2020-10-07T17:03:30.300-0500"
}
},
{
"event" : "addConfiguration",
"timestamp" : "2020-11-04T20:42:37.294-0600",
"value" : {
"name" : "DefaultConfig_v31",
"assigned" : "2020-11-04T20:42:37.294-0600"
}
},
{
"event" : "addConfiguration",
"timestamp" : "2020-11-11T11:26:54.901-0600",
"value" : {
"name" : "DefaultConfig_v32",
"assigned" : "2020-11-11T11:26:54.901-0600"
}
},
{
"event" : "addConfiguration",
"timestamp" : "2021-01-18T20:04:39.281-0600",
"value" : {
"name" : "DefaultConfig_v33",
"assigned" : "2021-01-18T20:04:39.281-0600"
}
},
{
"event" : "addConfiguration",
"timestamp" : "2021-01-18T20:05:19.740-0600",
"value" : {
"name" : "DefaultConfig_v34",
"assigned" : "2021-01-18T20:05:19.740-0600"
}
}
],
"created" : "2020-09-14T17:59:55.990-0500"
},
"_id" : {
"$oid" : "7eac423a3aef44fe9bc1921b"
},
"collection" : "PowerSupplyDeviceTable",
"aliases" : {
"active" : [

],
"history" : [

]
},
"runs" : [

],
"attachments" : [

],
"configtype" : "notprovided"
}